﻿// EVENT 0555
Name "RC:七尾"

If(1,1099,0,3,0)
 ShowMessageFace("nanabi_fc1",0,0,2,1)
 ShowMessage("【七尾】")
 ShowMessage("この子達に、術を教えています。")
 ShowMessage("せっかくですし、あなたもどうですか？")
 0()
EndIf()
If(1,1099,0,4,0)
 ShowMessageFace("nanabi_fc1",0,0,2,2)
 ShowMessage("【七尾】")
 ShowMessage("先程まで、妖狐達に術を教えていました。")
 ShowMessage("今は一休み中です……")
 If(0,2338,0)
  EndEventProcessing()
  0()
 EndIf()
 0()
EndIf()
DefineLabel("メイン")
If(1,1099,0,3,0)
 355("ex_choice_add(\"術を学ぶ（時間経過）\",1,")
 655("\"v[1098] >= 5\",0)")
 0()
EndIf()
If(1,1099,0,4,0)
 355("ex_choice_add(\"一緒に休む（時間経過）\",1,")
 655("\"v[1098] >= 5\",0)")
 0()
EndIf()
355("ex_choice_add(\"異変について相談する\",2,")
655("\"s[2341]\",0)")
655("ex_choice_add(\"後悔していることについて聞く\",3,")
655("\"s[2342]\",0)")
655("ex_choice_add(\"時を繰り返す道具について聞く\",4,")
655("\"s[2343]\",0)")
655("ex_choice_add(\"ピザを注文したか聞く\",5,")
655("\"s[2345]\",0)")
355("ex_choice_add(\"謎のマキナについて聞く\",6,")
655("\"s[2365]\",0)")
655("ex_choice_add(\"作戦に必要な品について聞く\",7,")
655("\"s[2364]\",0)")
655("ex_choice_add(\"お茶会に誘う\",8,")
655("\"s[2378]\",0)")
655("ex_choice_add(\"立ち去る\",10)")
355("ex_choice_show(0,11,[0,0])")
If(1,9,0,1,0)
 If(1,1099,0,3,0)
  221()
  205(54,bytes(0x04,0x08,0x6f,0x3a,0x13,0x52,0x50,0x47,0x3a,0x3a,0x4d,0x6f,0x76,0x65,0x52,0x6f,0x75,0x74,0x65,0x09,0x3a,0x0c,0x40,0x72,0x65,0x70,0x65,0x61,0x74,0x46,0x3a,0x0f,0x40,0x73,0x6b,0x69,0x70,0x70,0x61,0x62,0x6c,0x65,0x46,0x3a,0x0a,0x40,0x77,0x61,0x69,0x74,0x54,0x3a,0x0a,0x40,0x6c,0x69,0x73,0x74,0x5b,0x07,0x6f,0x3a,0x15,0x52,0x50,0x47,0x3a,0x3a,0x4d,0x6f,0x76,0x65,0x43,0x6f,0x6d,0x6d,0x61,0x6e,0x64,0x07,0x3a,0x0a,0x40,0x63,0x6f,0x64,0x65,0x69,0x15,0x3a,0x10,0x40,0x70,0x61,0x72,0x61,0x6d,0x65,0x74,0x65,0x72,0x73,0x5b,0x00,0x6f,0x3b,0x0a,0x07,0x3b,0x0b,0x69,0x00,0x3b,0x0c,0x5b,0x00))
  TeleportPlayer(0,78,32,24,8,2)
  222()
  ShowMessageFace("kamuro_fc1",0,0,2,3)
  ShowMessage("【かむろ】")
  ShowMessage("七尾様、きつね教典18巻まで暗記しました。")
  ShowMessage("詠唱は395編まで大丈夫です。")
  ShowMessageFace("nanabi_fc1",0,0,2,4)
  ShowMessage("【七尾】")
  ShowMessage("かむろは非常に覚えが良いですね。")
  ShowMessage("後は、実戦で動揺しないようにすることです。")
  ShowMessageFace("youko_fc1",2,0,2,5)
  ShowMessage("【きつね】")
  ShowMessage("難しい詠唱、こんなにたくさん覚えられないよ～！")
  ShowMessageFace("nanabi_fc1",0,0,2,6)
  ShowMessage("【七尾】")
  ShowMessage("しっかり覚えないと、術が使えませんよ。")
  ShowMessageFace("youko_fc1",0,0,2,7)
  ShowMessage("【きつね】")
  ShowMessage("えっ……？　使えるよ？")
  ShowMessageFace("nanabi_fc1",2,0,2,8)
  ShowMessage("【七尾】")
  ShowMessage("なぜ、適当な詠唱で術が発動するのか……")
  ShowMessage("不可解な子ですね……")
  RunCommonEvent(540)
  EndEventProcessing()
  0()
 EndIf()
 If(1,1099,0,4,0)
  221()
  205(11,bytes(0x04,0x08,0x6f,0x3a,0x13,0x52,0x50,0x47,0x3a,0x3a,0x4d,0x6f,0x76,0x65,0x52,0x6f,0x75,0x74,0x65,0x09,0x3a,0x0c,0x40,0x72,0x65,0x70,0x65,0x61,0x74,0x46,0x3a,0x0f,0x40,0x73,0x6b,0x69,0x70,0x70,0x61,0x62,0x6c,0x65,0x46,0x3a,0x0a,0x40,0x77,0x61,0x69,0x74,0x54,0x3a,0x0a,0x40,0x6c,0x69,0x73,0x74,0x5b,0x07,0x6f,0x3a,0x15,0x52,0x50,0x47,0x3a,0x3a,0x4d,0x6f,0x76,0x65,0x43,0x6f,0x6d,0x6d,0x61,0x6e,0x64,0x07,0x3a,0x0a,0x40,0x63,0x6f,0x64,0x65,0x69,0x17,0x3a,0x10,0x40,0x70,0x61,0x72,0x61,0x6d,0x65,0x74,0x65,0x72,0x73,0x5b,0x00,0x6f,0x3b,0x0a,0x07,0x3b,0x0b,0x69,0x00,0x3b,0x0c,0x5b,0x00))
  TeleportPlayer(0,84,10,15,4,2)
  222()
  ShowMessageFace("nanabi_fc1",0,0,2,9)
  ShowMessage("【七尾】")
  ShowMessage("もうすぐ、夜祭ですね……")
  ShowMessage("もちろん私も行きますよ。")
  ShowMessageFace("nanabi_fc1",0,0,2,10)
  ShowMessage("【七尾】")
  ShowMessage("尾の少ない子狐の頃から、祭りは大好きなのです。")
  ShowMessage("八尾と一緒に、遅くまで遊んだものですよ……")
  ShowMessageFace("nanabi_fc1",2,0,2,11)
  ShowMessage("【七尾】")
  ShowMessage("……八尾に、金魚すくいで負けたことを思い出しました。")
  ShowMessage("今日こそは、勝たなければ……")
  RunCommonEvent(5820)
  EndEventProcessing()
  0()
 EndIf()
 0()
EndIf()
If(1,9,0,2,0)
 ShowMessageFace("",0,0,2,12)
 ShowMessage("ルカは、異変について相談した……")
 ShowMessageFace("nanabi_fc1",2,0,2,13)
 ShowMessage("【七尾】")
 ShowMessage("それは、まるで時の呪いのようなものですね……")
 ShowMessage("申し訳ありませんが、私では役に立てません。")
 ShowMessageFace("",0,0,2,14)
 ShowMessage("七尾は頼れそうにない……")
 JumpToLabel("メイン")
 0()
EndIf()
If(1,9,0,3,0)
 ShowMessageFace("nanabi_fc1",0,0,2,15)
 ShowMessage("【七尾】")
 ShowMessage("後悔ですか……特にありませんね。")
 ShowMessage("八尾に負けると悔しいですが、時を戻すほどではありません。")
 ShowMessageFace("",0,0,2,16)
 ShowMessage("有益な情報は得られなかった……")
 JumpToLabel("メイン")
 0()
EndIf()
If(1,9,0,4,0)
 ShowMessageFace("nanabi_fc1",2,0,2,17)
 ShowMessage("【七尾】")
 ShowMessage("世の中には、そのような秘宝があるのですか。")
 ShowMessage("たまも様なら、御存知かもしれませんが……")
 ShowMessageFace("",0,0,2,18)
 ShowMessage("有益な情報は得られなかった……")
 JumpToLabel("メイン")
 0()
EndIf()
If(1,9,0,5,0)
 ShowMessageFace("nanabi_fc1",0,0,2,19)
 ShowMessage("【七尾】")
 ShowMessage("配達とは、面白いシステムですね。")
 ShowMessage("きつねの里にも、届けに来てくれるのでしょうか？")
 ShowMessageFace("",0,0,2,20)
 ShowMessage("ピザを頼んだのは七尾ではないようだ……")
 JumpToLabel("メイン")
 0()
EndIf()
If(1,9,0,6,0)
 ShowMessageFace("nanabi_fc1",2,0,2,21)
 ShowMessage("【七尾】")
 ShowMessage("なにぶん、先端技術には疎いもので……")
 ShowMessage("たまも様は、意外にもお詳しいのですが。")
 ShowMessageFace("",0,0,2,22)
 ShowMessage("有益な情報は得られなかった……")
 JumpToLabel("メイン")
 0()
EndIf()
If(1,9,0,7,0)
 ShowMessageFace("nanabi_fc1",2,0,2,23)
 ShowMessage("【七尾】")
 ShowMessage("あのような強者にも効く道具……")
 ShowMessage("残念ですが、持ち合わせていません。")
 ShowMessageFace("",0,0,2,24)
 ShowMessage("有益なアイテムは得られなかった……")
 JumpToLabel("メイン")
 0()
EndIf()
If(1,9,0,8,0)
 ShowMessageFace("nanabi_fc1",3,0,2,25)
 ShowMessage("【七尾】")
 ShowMessage("そ、それは……謹んでお断りします。")
 ShowMessageFace("",0,0,2,26)
 ShowMessage("七尾はお茶会の誘いを断った……")
 JumpToLabel("メイン")
 0()
EndIf()
EndEventProcessing()
0()
