﻿// EVENT 5802
Name "Rクロム"

If(0,443,0)
 PictureDisplay(5,"80_chrom_st07",0,0,0,0,100,100,255,0)
 0()
EndIf()
242(1)
250(bytes(0x04,0x08,0x6f,0x3a,0x0c,0x52,0x50,0x47,0x3a,0x3a,0x53,0x45,0x08,0x3a,0x0a,0x40,0x6e,0x61,0x6d,0x65,0x49,0x22,0x0a,0x7a,0x69,0x68,0x6f,0x75,0x06,0x3a,0x06,0x45,0x54,0x3a,0x0b,0x40,0x70,0x69,0x74,0x63,0x68,0x69,0x69,0x3a,0x0c,0x40,0x76,0x6f,0x6c,0x75,0x6d,0x65,0x69,0x55))
Wait(60)
ShowMessageFace("",0,0,2,1)
ShowMessage("その時――城内に、五時の鐘が鳴り響いた。")
241(bytes(0x04,0x08,0x6f,0x3a,0x0d,0x52,0x50,0x47,0x3a,0x3a,0x42,0x47,0x4d,0x08,0x3a,0x0a,0x40,0x6e,0x61,0x6d,0x65,0x49,0x22,0x09,0x65,0x72,0x6f,0x31,0x06,0x3a,0x06,0x45,0x54,0x3a,0x0c,0x40,0x76,0x6f,0x6c,0x75,0x6d,0x65,0x69,0x69,0x3a,0x0b,0x40,0x70,0x69,0x74,0x63,0x68,0x69,0x69))
ShowMessageFace("chrom_fc2",5,0,2,2)
ShowMessage("【クロム】")
ShowMessage("むっ……？")
ShowMessage("部外者が、なぜ儂の研究所に入り込んでいる……？")
ShowMessageFace("",0,0,2,3)
ShowMessage("不意に、クロムはそう言った。")
ShowMessageFace("",0,0,2,4)
ShowMessage("【ルカ】")
ShowMessage("えっ？　クロムから、許可をもらって――")
ShowMessageFace("chrom_fc2",1,0,2,5)
ShowMessage("【クロム】")
ShowMessage("おのれ、ふてぶてしい奴じゃ……")
ShowMessage("フレデリカ、この不届き者に罰を与えよ！")
ShowMessageFace("frederika_fc1",0,0,2,6)
ShowMessage("【フレデリカ】")
ShowMessage("分かった、いつものやつだな……")
ShowMessage("尻を出せ……")
ShowMessageFace("",0,0,2,7)
ShowMessage("【ルカ】")
ShowMessage("な、何を……わぁぁっ！！")
PictureDisplay(5,"ev_frederika_hd1",0,0,0,0,100,100,255,0)
ShowMessageFace("",0,0,2,8)
ShowMessage("そのまま僕は、フレデリカに抱え込まれ――")
ShowMessage("そして、何度もお尻を叩かれた！")
ShowMessageFace("",0,0,2,9)
ShowMessage("【ルカ】")
ShowMessage("あぅぅっ……！　あ、うぅぅっ！！")
ShowMessageFace("frederika_fc1",0,0,2,10)
ShowMessage("【フレデリカ】")
ShowMessage("悪い子は、尻叩きでお仕置きだ……")
ShowMessageFace("chrom_fc2",1,0,2,11)
ShowMessage("【クロム】")
ShowMessage("はははっ、いいザマだな！")
ShowMessage("フレデリカの尻叩きは痛いだろう！？")
ShowMessageFace("",0,0,2,12)
ShowMessage("【ルカ】")
ShowMessage("うぅっ……！　あ、あぁぁ……！！")
ShowMessageFace("",0,0,2,13)
ShowMessage("何度もお尻を叩かれていると、被虐の興奮が湧き上がってきた。")
ShowMessage("情けないことに、下半身が反応を始め――")
ShowMessageFace("",0,0,2,14)
ShowMessage("【ルカ】")
ShowMessage("やめてぇ……あっ、うぁぁっ！！")
RunCommonEvent(104)
RunCommonEvent(105)
ShowMessageFace("",0,0,2,15)
ShowMessage("そして――そのまま、びゅるびゅると射精してしまった。")
ShowMessage("溢れた精液は、フレデリカの太股をべっとりと汚してしまう――")
ShowMessageFace("frederika_fc1",0,0,2,16)
ShowMessage("【フレデリカ】")
ShowMessage("尻叩きでオモラシしたのか……？")
ShowMessage("恥ずかしい奴だ……")
ShowMessageFace("chrom_fc2",1,0,2,17)
ShowMessage("【クロム】")
ShowMessage("儂でさえ、そんな事はせんぞ。")
ShowMessage("フレデリカ、お漏らしの罰を与えてやれ！")
ShowMessageFace("",0,0,2,18)
ShowMessage("【ルカ】")
ShowMessage("そんな……あぅ、あぁぁぁ……！！")
ShowMessageFace("",0,0,2,19)
ShowMessage("そのまま僕は、延々とお尻を叩かれ続け――")
ShowMessage("何度も射精し、フレデリカの太股を汚してしまったのである。")
221()
PictureClear(5)
242(1)
246(1)
ShowMessageFace("",0,0,2,20)
ShowMessage("・・・・・・・・")
221()
Wait(120)
If(0,443,0)
 EndEventProcessing()
 0()
EndIf()
RunCommonEvent(541)
0()
