// EVENT 4101
Name "Remi"

If(0,25,1)
 221()
 PictureClear(5)
 PictureClear(6)
 ShowMessageFace("",0,0,2,0)
 ShowMessage("......")
 242(2)
 Wait(120)
 241(bytes(0x04,0x08,0x6f,0x3a,0x0d,0x52,0x50,0x47,0x3a,0x3a,0x42,0x47,0x4d,0x08,0x3a,0x0a,0x40,0x6e,0x61,0x6d,0x65,0x49,0x22,0x0c,0x63,0x61,0x73,0x74,0x6c,0x65,0x36,0x06,0x3a,0x06,0x45,0x54,0x3a,0x0c,0x40,0x76,0x6f,0x6c,0x75,0x6d,0x65,0x69,0x69,0x3a,0x0b,0x40,0x70,0x69,0x74,0x63,0x68,0x69,0x69))
 EndEventProcessing()
 0()
EndIf()
PictureDisplay(5,"80_inp_st11",0,0,0,0,100,100,255,0)
ShowMessageFace("inp_fc2",0,0,2,1)
ShowMessage("\\n<Remi>Huh? You want me to... lick your penis?")
ShowMessageFace("",0,0,2,2)
ShowMessage("\\n<Luka>Y-yeah... If you could...")
ShowMessageFace("inp_fc2",1,0,2,3)
ShowMessage("\\n<Remi>So you want me to, uh... To slurp up all your cum. I can do that.\nJ-Just be patient, if you please...")
ShowMessageFace("",0,0,2,4)
ShowMessage("Remi timidly lowers to her knees, pulls down my pants, and watches my face shyly as she moves closer to my already stiff penis.")
241(bytes(0x04,0x08,0x6f,0x3a,0x0d,0x52,0x50,0x47,0x3a,0x3a,0x42,0x47,0x4d,0x08,0x3a,0x0a,0x40,0x6e,0x61,0x6d,0x65,0x49,0x22,0x09,0x65,0x72,0x6f,0x31,0x06,0x3a,0x06,0x45,0x54,0x3a,0x0c,0x40,0x76,0x6f,0x6c,0x75,0x6d,0x65,0x69,0x69,0x3a,0x0b,0x40,0x70,0x69,0x74,0x63,0x68,0x69,0x69))
PictureDisplay(6,"ev_inp_ct11",0,0,0,0,100,100,0,0)
PictureMove(6,null,0,0,0,0,100,100,255,0,30,true)
ShowMessageFace("inp_fc2",0,0,2,5)
ShowMessage("\\n<Remi>Mmn... chu♪")
ShowMessageFace("",0,0,2,6)
ShowMessage("Remi puckers her lips and presses a gentle, sweet kiss to the tip of my penis. From that simple sensation alone, my body shivers and my cock twitches happily.")
ShowMessageFace("",0,0,2,7)
ShowMessage("\\n<Luka>Hauuu...")
ShowMessageFace("inp_fc2",0,0,2,8)
ShowMessage("\\n<Remi>Mmmn. Aaaaah...")
ShowMessageFace("",0,0,2,9)
ShowMessage("Like that, she opens her tiny mouth and gently takes the head of my penis inside. The warmth of her mouth surrounds it, coating it with saliva...")
ShowMessageFace("",0,0,2,10)
ShowMessage("\\n<Luka>Ah, aaaaah...")
245(bytes(0x04,0x08,0x6f,0x3a,0x0d,0x52,0x50,0x47,0x3a,0x3a,0x42,0x47,0x53,0x08,0x3a,0x0a,0x40,0x6e,0x61,0x6d,0x65,0x49,0x22,0x10,0x6d,0x6f,0x6e,0x5f,0x68,0x76,0x6f,0x69,0x63,0x65,0x31,0x06,0x3a,0x06,0x45,0x54,0x3a,0x0c,0x40,0x76,0x6f,0x6c,0x75,0x6d,0x65,0x69,0x55,0x3a,0x0b,0x40,0x70,0x69,0x74,0x63,0x68,0x69,0x69))
ShowMessageFace("inp_fc2",0,0,2,11)
ShowMessage("\\n<Remi>I can really lick you like this...\nN-now I'm motivated!")
ShowMessageFace("",0,0,2,12)
ShowMessage("The tip of Remi's tongue traces little circles and loops around my foreskin, licking all over. I can't help but try and yank back reflexively at the tickling feeling, but...")
ShowMessageFace("inp_fc2",0,0,2,13)
ShowMessage("\\n<Remi>N-no, don't even try to get away...\nLoop de loop de loop...")
ShowMessageFace("",0,0,2,14)
ShowMessage("She manages to hold my hips in place and sucks my penis back past her lips. The way her tongue rolls around the tip of my cock is so incredibly thorough and so good that I can't help but moan appreciatively.")
ShowMessageFace("",0,0,2,15)
ShowMessage("\\n<Luka>Hauuu...")
ShowMessageFace("inp_fc2",0,0,2,16)
ShowMessage("\\n<Remi>Loop de loop de... slurp.")
ShowMessageFace("",0,0,2,17)
ShowMessage("Her tongue continues to swirl around and around the tip of my cock, wriggling under my foreskin. The slickness of her tongue just makes it that much better.")
ShowMessageFace("",0,0,2,18)
ShowMessage("Soon my tip is just as slippery with her warm saliva, and the little hint of stickiness practically makes me melt with pleasure.")
ShowMessageFace("",0,0,2,19)
ShowMessage("\\n<Luka>Auuu... So good...")
ShowMessageFace("inp_fc2",0,0,2,20)
ShowMessage("\\n<Remi>R-Really? M-Make sure you come, okay?\n*lick lick* Slu-u-urp...")
ShowMessageFace("",0,0,2,21)
ShowMessage("She begins to move, moving to suck on the very tip of my cock over and over, releasing it only to slurp at it again, harder than ever. Her lips drag up the skin of my tip before being once more enveloped in her mouth.")
ShowMessageFace("",0,0,2,22)
ShowMessage("The maddening way she almost suckles at the tip of my cock is only made better by the way her tongue continues to lap at it at the same time. Even if she's moving slowly, her skill and control is incredible.")
ShowMessageFace("inp_fc2",0,0,2,23)
ShowMessage("\\n<Remi>Mmmf... I'm almost done, so... just enjoy it, please. Mmf... Mm.")
ShowMessageFace("inp_fc2",0,0,2,24)
ShowMessage("\\n<Remi>...Slurp... Slu-u-u-urp... Mmmf...")
ShowMessageFace("",0,0,2,25)
ShowMessage("\\n<Luka>Hau... ah, aaah...")
ShowMessageFace("",0,0,2,26)
ShowMessage("Thank goodness she's just an imp, because I wouldn't be able to stop her from taking every drop of energy I had if she were a succubus. I'd die with a smile on my face if it felt like this...")
ShowMessageFace("inp_fc2",0,0,2,27)
ShowMessage("\\n<Remi>Here comes the climax...\nEheh... Just enjoy it, dear leader...")
ShowMessageFace("",0,0,2,28)
ShowMessage("Knowing I'm putty in her hands, Remi begins to suck harder than ever on the tip, the wet, milking suction rendering me absolutely and happily helpless against her.")
ShowMessageFace("",0,0,2,29)
ShowMessage("Better yet, her tongue continues its teasing path, tracing the very tip of my glans under my foreskin. Even on the very edge, she doesn't stop for a moment, finishing me off with her best technique.")
ShowMessageFace("",0,0,2,30)
ShowMessage("\\n<Luka>Ah, coming!\nAaaaaaah!")
RunCommonEvent(104)
PictureDisplay(6,"ev_inp_ct12",0,0,0,0,100,100,255,0)
RunCommonEvent(105)
ShowMessageFace("inp_fc2",0,0,2,31)
ShowMessage("\\n<Remi>Mmmnf... Gu-u-ulp...")
ShowMessageFace("",0,0,2,32)
ShowMessage("The sound of her slurping down my cum is all I hear. Suckling for real this time, her mouth's suction is that much stronger, filling my already-white mind with stars. I'm nearly overwhelmed, but there's no way I'd complain.")
ShowMessageFace("",0,0,2,33)
ShowMessage("\\n<Luka>Huaaaa...")
246(1)
ShowMessageFace("inp_fc2",0,0,2,34)
ShowMessage("\\n<Remi>Mmn... Gulp.\nAnnnd... Done.")
PictureClear(6)
ShowMessageFace("",0,0,2,35)
ShowMessage("Remi gives one final swallow and releases my penis from her mouth, even if I don't quite want to leave. A taste of her mouth technique wasn't nearly enough...")
221()
PictureClear(5)
PictureClear(6)
246(2)
ShowMessageFace("",0,0,2,36)
ShowMessage("......")
242(2)
Wait(120)
241(bytes(0x04,0x08,0x6f,0x3a,0x0d,0x52,0x50,0x47,0x3a,0x3a,0x42,0x47,0x4d,0x08,0x3a,0x0a,0x40,0x6e,0x61,0x6d,0x65,0x49,0x22,0x0c,0x63,0x61,0x73,0x74,0x6c,0x65,0x36,0x06,0x3a,0x06,0x45,0x54,0x3a,0x0c,0x40,0x76,0x6f,0x6c,0x75,0x6d,0x65,0x69,0x69,0x3a,0x0b,0x40,0x70,0x69,0x74,0x63,0x68,0x69,0x69))
0()
