// EVENT 4761
Name "Selene"

PictureDisplay(5,"80_serene_st12",0,0,0,0,100,100,255,0)
ShowMessageFace("serene_fc1",3,0,2,1)
ShowMessage("\\n<Selene>")
ShowMessage("...hey, Luka")
ShowMessage("Do you know the secret to making people obey you?")
ShowMessageFace("",0,0,2,2)
ShowMessage("\\n<Luka>")
ShowMessage("Um, I don't know...")
ShowMessageFace("",0,0,2,3)
ShowMessage("With a seductive smile, Selene traces her finger around her groin area...")
ShowMessageFace("serene_fc1",3,0,2,4)
ShowMessage("\\n<Selene>")
ShowMessage("After tasting my sweet 'Carrot',")
ShowMessage("Just by giving sweet amenities, every other pirate joined me.")
ShowMessageFace("serene_fc1",3,0,2,5)
ShowMessage("\\n<Selene>")
ShowMessage("No matter how strong a man, I give him a little and he gives up immediately.")
ShowMessage("There was even one who said my pussy was better than a mermaid's.")
ShowMessageFace("",0,0,2,6)
ShowMessage("\\n<Luka>")
ShowMessage("............")
ShowMessageFace("",0,0,2,7)
ShowMessage("I can't help but swallow.")
ShowMessage("Better than a mermaid's...?")
ShowMessageFace("serene_fc1",3,0,2,8)
ShowMessage("\\n<Selene>")
ShowMessage("...Well, Luka?")
ShowMessage("Don't you want to taste my body?")
ShowMessageFace("serene_fc1",3,0,2,9)
ShowMessage("\\n<Selene>")
ShowMessage("You'll feel good, and I'll get some energy...")
ShowMessage("We both profit, right?")
ShowMessageFace("",0,0,2,10)
ShowMessage("\\n<Luka>")
ShowMessage("Well, that is...")
ShowMessageFace("",0,0,2,11)
ShowMessage("\\n<Luka>")
ShowMessage("Oh, I understand...")
ShowMessage("I want to help others, after all...")
ShowMessageFace("serene_fc1",3,0,2,12)
ShowMessage("\\n<Selene>")
ShowMessage("Hehe... You're such a good child.")
ShowMessage("Then, come to my room...")
ShowMessageFace("",0,0,2,13)
ShowMessage("Thus I was invited to Selene's room...")
221()
PictureDisplay(1,"bg195",0,0,0,0,100,100,255,0)
PictureDisplay(5,"ev_end7_h1",0,0,0,0,100,100,255,0)
222()
241(bytes(0x04,0x08,0x6f,0x3a,0x0d,0x52,0x50,0x47,0x3a,0x3a,0x42,0x47,0x4d,0x08,0x3a,0x0a,0x40,0x6e,0x61,0x6d,0x65,0x49,0x22,0x09,0x65,0x72,0x6f,0x31,0x06,0x3a,0x06,0x45,0x54,0x3a,0x0c,0x40,0x76,0x6f,0x6c,0x75,0x6d,0x65,0x69,0x69,0x3a,0x0b,0x40,0x70,0x69,0x74,0x63,0x68,0x69,0x69))
245(bytes(0x04,0x08,0x6f,0x3a,0x0d,0x52,0x50,0x47,0x3a,0x3a,0x42,0x47,0x53,0x08,0x3a,0x0a,0x40,0x6e,0x61,0x6d,0x65,0x49,0x22,0x1e,0x6d,0x6f,0x6e,0x5f,0x68,0x73,0x65,0x61,0x6e,0x30,0x33,0x5f,0x69,0x6e,0x6e,0x65,0x72,0x77,0x6f,0x72,0x6b,0x73,0x5f,0x61,0x33,0x06,0x3a,0x06,0x45,0x54,0x3a,0x0c,0x40,0x76,0x6f,0x6c,0x75,0x6d,0x65,0x69,0x55,0x3a,0x0b,0x40,0x70,0x69,0x74,0x63,0x68,0x69,0x69))
ShowMessageFace("serene_fc1",3,0,2,14)
ShowMessage("\\n<Selene>")
ShowMessage("Fufu, let's have fun together...")
ShowMessageFace("",0,0,2,15)
ShowMessage("Selene quickly sits down on me.")
ShowMessage("My penis sinks deep into her warm vagina.")
ShowMessageFace("",0,0,2,16)
ShowMessage("\\n<Luka>")
ShowMessage("Ahhh!")
ShowMessageFace("",0,0,2,17)
ShowMessage("The vagina is hot and soft, and there is a unique sense of oppression.")
ShowMessage("It feels like my skin is all being pulled down toward the root of my penis.")
ShowMessageFace("",0,0,2,18)
ShowMessage("\\n<Luka>")
ShowMessage("Ahh... W...What...?")
ShowMessageFace("",0,0,2,19)
ShowMessage("Selene giggles as my eyes roll in confusion.")
ShowMessageFace("serene_fc1",3,0,2,20)
ShowMessage("\\n<Selene>")
ShowMessage("My pussy gets tighter the deeper you get...")
ShowMessage("It pushes back all the skin, leaving your glans completely unguarded.")
ShowMessageFace("serene_fc1",3,0,2,21)
ShowMessage("\\n<Selene>")
ShowMessage("...Fufu, I wonder how yours will feel?")
ShowMessageFace("",0,0,2,22)
ShowMessage("\\n<Luka>")
ShowMessage("Ahhh...")
ShowMessageFace("",0,0,2,23)
ShowMessage("Her vagina itself peeled away my foreskin, completely revealing my weakest point to direct stimulation.")
ShowMessageFace("",0,0,2,24)
ShowMessage("\\n<Luka>")
ShowMessage("W...What the... My tip... Ahh!")
ShowMessageFace("serene_fc1",3,0,2,25)
ShowMessage("\\n<Selene>")
ShowMessage("After pressing down all the skin, I can make my pussy extra tight...")
ShowMessageFace("",0,0,2,26)
ShowMessage("\\n<Luka>")
ShowMessage("Haa... Ahhh!")
ShowMessageFace("",0,0,2,27)
ShowMessage("Squeeze... Squeeze... She presses down hard on my defenseless glans, deep inside of her.")
ShowMessageFace("",0,0,2,28)
ShowMessage("The intense pleasure causes an ejaculation to bubble up in seconds.")
ShowMessageFace("",0,0,2,29)
ShowMessage("\\n<Luka>")
ShowMessage("Ahh... N...no...!")
ShowMessage("Don't move that much!")
ShowMessageFace("",0,0,2,30)
ShowMessage("I gasp in pleasure as the torturous ecstasy assaults me.")
ShowMessage("There's no way I could endure this!")
ShowMessageFace("serene_fc1",3,0,2,31)
ShowMessage("\\n<Selene>")
ShowMessage("Sorry, Luka...")
ShowMessage("I'm not doing it on purpose.")
ShowMessageFace("serene_fc1",3,0,2,32)
ShowMessage("\\n<Selene>")
ShowMessage("I was born with my pussy like this. It's difficult for me at times, too.")
ShowMessageFace("",0,0,2,33)
ShowMessage("\\n<Luka>")
ShowMessage("Ha... Ahhh!")
RunCommonEvent(104)
PictureDisplay(5,"ev_end7_h2",0,0,0,0,100,100,255,0)
RunCommonEvent(105)
ShowMessageFace("",0,0,2,34)
ShowMessage("After only around ten seconds after insertion, I explode inside of her incredible vagina.")
ShowMessageFace("serene_fc1",3,0,2,35)
ShowMessage("\\n<Selene>")
ShowMessage("...Well, that's what normally happens.")
ShowMessage("Don't be ashamed, most men come right away their first time.")
ShowMessageFace("serene_fc1",3,0,2,36)
ShowMessage("\\n<Selene>")
ShowMessage("It's good for breaking and training men, but...")
ShowMessageFace("serene_fc1",3,0,2,37)
ShowMessage("\\n<Selene>")
ShowMessage("Since men always come so fast, I've never been able to find a man that can satisfy me.")
ShowMessageFace("",0,0,2,38)
ShowMessage("While sitting on top of me, Selene sighs.")
ShowMessage("At the same time, her incredible vagina continues to squeeze and attack me...")
ShowMessageFace("",0,0,2,39)
ShowMessage("\\n<Luka>")
ShowMessage("Ahhh!")
ShowMessage("I'm going to come again!")
ShowMessageFace("serene_fc1",3,0,2,40)
ShowMessage("\\n<Selene>")
ShowMessage("Sorry, but can I have you come one more time?")
ShowMessage("There didn't seem to be enough last time...")
245(bytes(0x04,0x08,0x6f,0x3a,0x0d,0x52,0x50,0x47,0x3a,0x3a,0x42,0x47,0x53,0x08,0x3a,0x0a,0x40,0x6e,0x61,0x6d,0x65,0x49,0x22,0x1e,0x6d,0x6f,0x6e,0x5f,0x68,0x73,0x65,0x61,0x6e,0x30,0x37,0x5f,0x69,0x6e,0x6e,0x65,0x72,0x77,0x6f,0x72,0x6b,0x73,0x5f,0x61,0x37,0x06,0x3a,0x06,0x45,0x54,0x3a,0x0c,0x40,0x76,0x6f,0x6c,0x75,0x6d,0x65,0x69,0x55,0x3a,0x0b,0x40,0x70,0x69,0x74,0x63,0x68,0x69,0x69))
ShowMessageFace("",0,0,2,41)
ShowMessage("With that said, Selene starts to slowly move her waist.")
ShowMessage("Her soft vaginal flesh rubs against me as she moves, sending fresh sensations through my spine.")
ShowMessageFace("",0,0,2,42)
ShowMessage("\\n<Luka>")
ShowMessage("Ahhh!!!")
ShowMessageFace("",0,0,2,43)
ShowMessage("Even though she wasn't moving before, I came in no time...")
ShowMessage("Her vagina is like a weapon itself, able to force a man to submit.")
ShowMessageFace("",0,0,2,44)
ShowMessage("\\n<Luka>")
ShowMessage("N...no... Ahh!")
ShowMessageFace("serene_fc1",3,0,2,45)
ShowMessage("\\n<Selene>")
ShowMessage("Hehe, I'll finish you off quickly.")
ShowMessage("Please give me enough energy to move on to the next world...")
ShowMessageFace("",0,0,2,46)
ShowMessage("\\n<Luka>")
ShowMessage("Haaa!!!")
ShowMessageFace("",0,0,2,47)
ShowMessage("Selene's skilled movements bring me to the edge again in seconds.")
ShowMessageFace("",0,0,2,48)
ShowMessage("The unmatched vagina she boasted about is no lie...")
ShowMessage("As she slowly moves, her vagina's shape itself causes each movement to press and pull on my shaft and tip, as the sweet tightness erodes my patience.")
ShowMessageFace("",0,0,2,49)
ShowMessage("\\n<Luka>")
ShowMessage("Ahhh!!!")
RunCommonEvent(104)
PictureDisplay(5,"ev_end7_h3",0,0,0,0,100,100,255,0)
RunCommonEvent(105)
ShowMessageFace("",0,0,2,50)
ShowMessage("I'm easily brought to another orgasm, my penis pulsing inside her with spurts of pure pleasure.")
ShowMessageFace("",0,0,2,51)
ShowMessage("\\n<Luka>")
ShowMessage("Ahh...")
ShowMessageFace("serene_fc1",3,0,2,52)
ShowMessage("\\n<Selene>")
ShowMessage("Now, I can rest in peace... Or not?")
ShowMessage("Was that not enough?")
ShowMessageFace("",0,0,2,53)
ShowMessage("Selene looks puzzled on top of me.")
ShowMessageFace("serene_fc1",3,0,2,54)
ShowMessage("\\n<Selene>")
ShowMessage("If I was lacking energy, I thought I would have had enough after the first orgasm.")
ShowMessage("I mean, your semen is packed full of energy...")
ShowMessageFace("serene_fc1",3,0,2,55)
ShowMessage("\\n<Selene>")
ShowMessage("But if it's still not working... Then is there another reason?")
ShowMessageFace("",0,0,2,56)
ShowMessage("Even as she thinks aloud, focused on other things, her vagina doesn't stop squeezing on me.")
ShowMessage("While she's not even looking at me or trying to make me come, I'm led to another height.")
ShowMessageFace("",0,0,2,57)
ShowMessage("\\n<Luka>")
ShowMessage("Ah... Ahh!")
RunCommonEvent(104)
RunCommonEvent(105)
ShowMessageFace("",0,0,2,58)
ShowMessage("As I come inside her again, she turns back toward me, a look of surprise on her face.")
ShowMessageFace("serene_fc1",3,0,2,59)
ShowMessage("\\n<Selene>")
ShowMessage("Ah... Sorry.")
ShowMessage("I was thinking about something else for a second.")
ShowMessageFace("",0,0,2,60)
ShowMessage("\\n<Luka>")
ShowMessage("Nnngh...")
ShowMessageFace("",0,0,2,61)
ShowMessage("My body relaxes in total weakness beneath her body.")
ShowMessage("Overwhelmed by pleasure, my soul itself has been captured...")
221()
PictureClear(5)
PictureClear(6)
246(2)
ShowMessageFace("",0,0,2,62)
ShowMessage("......")
RunCommonEvent(3998)
0()
