﻿// EVENT 7143
Name "Naia: Defeat"

RunCommonEvent(7000)
PictureDisplay(5,"80_mob_uranai1_st03",0,0,0,0,100,100,255,0)
PictureClear(6)
ShowMessageFace("mob_uranai1_fc1",2,0,2,1)
ShowMessage("\\n<Naia>Yes, it's my victory.\nNow for the wager...")
If(0,443,1)
 125(1,0,270)
 0()
EndIf()
ShowMessageFace("",0,0,2,2)
ShowMessage("Luka hands over 270G!")
ShowMessageFace("mob_uranai1_fc1",2,0,2,3)
ShowMessage("\\n<Naia>If you want a rematch, come back anytime.\nI wonder where you'll come on me next time...")
If(0,443,0)
 EndEventProcessing()
 0()
EndIf()
If(0,2331,1)
 PictureClear(5)
 281(1)
 TeleportPlayer(0,476,56,61,2,0)
 241(bytes(0x04,0x08,0x6f,0x3a,0x0d,0x52,0x50,0x47,0x3a,0x3a,0x42,0x47,0x4d,0x08,0x3a,0x0a,0x40,0x6e,0x61,0x6d,0x65,0x49,0x22,0x0a,0x6d,0x75,0x72,0x61,0x36,0x06,0x3a,0x06,0x45,0x54,0x3a,0x0c,0x40,0x76,0x6f,0x6c,0x75,0x6d,0x65,0x69,0x69,0x3a,0x0b,0x40,0x70,0x69,0x74,0x63,0x68,0x69,0x69))
 216(0)
 0()
EndIf()
EndEventProcessing()
0()
