﻿// EVENT 1219
Name "Talk: Hornet Girl"

If(1,20,0,1,0)
 JumpToLabel("情報")
 0()
EndIf()
If(1,20,0,2,0)
 JumpToLabel("質問")
 0()
EndIf()
If(1,20,0,3,0)
 JumpToLabel("要求")
 0()
EndIf()
If(1,20,0,4,0)
 JumpToLabel("贈与")
 0()
EndIf()
DefineLabel("情報")
ChangeVariable(13,13,0,2,1,100)
If(1,13,0,10,2)
 ShowMessageFace("suzumebati_fc1",0,0,2,1)
 ShowMessage("\\n<Hornet Girl>BZZ, BZZ, BZZ...")
 EndEventProcessing()
 0()
EndIf()
If(1,13,0,20,2)
 ShowMessageFace("suzumebati_fc1",0,0,2,2)
 ShowMessage("\\n<Hornet Girl>HONEY, GATHERING...\nSEMEN, GATHERING...")
 EndEventProcessing()
 0()
EndIf()
If(1,13,0,30,2)
 ShowMessageFace("suzumebati_fc1",0,0,2,3)
 ShowMessage("\\n<Hornet Girl>WE, HORNETS...")
 EndEventProcessing()
 0()
EndIf()
If(1,13,0,40,2)
 ShowMessageFace("suzumebati_fc1",0,0,2,4)
 ShowMessage("\\n<Hornet Girl>FOR THE QUEEN...")
 EndEventProcessing()
 0()
EndIf()
If(1,13,0,50,2)
 ShowMessageFace("suzumebati_fc1",0,0,2,5)
 ShowMessage("\\n<Hornet Girl>GATHERING HONEY...\nGATHERING MEAT DANGO...")
 EndEventProcessing()
 0()
EndIf()
If(1,13,0,60,2)
 ShowMessageFace("suzumebati_fc1",0,0,2,6)
 ShowMessage("\\n<Hornet Girl>ANTS, DON'T LIKE.")
 EndEventProcessing()
 0()
EndIf()
If(1,13,0,70,2)
 ShowMessageFace("suzumebati_fc1",0,0,2,7)
 ShowMessage("\\n<Hornet Girl>THERE ARE ANT, SPIDER, AND COCKROACH QUEENS...\nBUT QUEEN BEE IS BEST!")
 EndEventProcessing()
 0()
EndIf()
If(1,13,0,80,2)
 ShowMessageFace("suzumebati_fc1",0,0,2,8)
 ShowMessage("\\n<Hornet Girl>BEE STING, VERY PAINFUL...")
 EndEventProcessing()
 0()
EndIf()
If(1,13,0,90,2)
 ShowMessageFace("suzumebati_fc1",0,0,2,9)
 ShowMessage("\\n<Hornet Girl>QUEEN, FEEDING TIME...")
 EndEventProcessing()
 0()
EndIf()
If(1,13,0,100,2)
 ShowMessageFace("suzumebati_fc1",0,0,2,10)
 ShowMessage("\\n<Hornet Girl>BEE DANCE...♪ LANLANLAN...♪")
 EndEventProcessing()
 0()
EndIf()
DefineLabel("質問")
ChangeVariable(13,13,0,2,1,50)
If(1,13,0,10,2)
 ShowMessageFace("suzumebati_fc1",0,0,2,11)
 ShowMessage("\\n<Hornet Girl>HUMAN, HAVE QUEEN...?")
 ShowChoices(strings("We do","We don't","I am the Queen"),0)
 IfPlayerPicksChoice(0,"いる")
  ShowMessageFace("suzumebati_fc1",0,0,2,12)
  ShowMessage("\\n<Hornet Girl>THEN, WORK...")
  0()
 IfPlayerPicksChoice(1,"いない")
  ShowMessageFace("suzumebati_fc1",0,0,2,13)
  ShowMessage("\\n<Hornet Girl>THEN, HOW DO YOU LIVE...?")
  0()
 IfPlayerPicksChoice(2,"僕が女王様だ")
  ShowMessageFace("suzumebati_fc1",0,0,2,14)
  ShowMessage("\\n<Hornet Girl>YOU QUEEN?! ...NEW!")
  355("change_friend(10)")
  0()
 404()
 EndEventProcessing()
 0()
EndIf()
If(1,13,0,20,2)
 ShowMessageFace("suzumebati_fc1",0,0,2,15)
 ShowMessage("\\n<Hornet Girl>CAN I STING...?")
 ShowChoices(strings("Go ahead","Stop","Your stinger won't work"),0)
 IfPlayerPicksChoice(0,"いいよ")
  ShowMessageFace("suzumebati_fc1",0,0,2,16)
  ShowMessage("\\n<Hornet Girl>STING...")
  ShowMessageFace("ruka_fc1",0,0,2,17)
  ShowMessage("\\n<Luka>Aaah!")
  313(0,1,0,12)
  ShowMessageFace("",0,0,2,18)
  ShowMessage("Luka has been paralyzed!")
  355("change_friend(10)")
  0()
 IfPlayerPicksChoice(1,"やめて")
  ShowMessageFace("suzumebati_fc1",0,0,2,19)
  ShowMessage("\\n<Hornet Girl>THEN, I STOP...")
  0()
 IfPlayerPicksChoice(2,"毒針は効かない")
  ShowMessageFace("suzumebati_fc1",0,0,2,20)
  ShowMessage("\\n<Hornet Girl>MUST TRY, STING...")
  ShowMessageFace("ruka_fc1",0,0,2,21)
  ShowMessage("\\n<Luka>Aaah!")
  313(0,1,0,12)
  ShowMessageFace("",0,0,2,22)
  ShowMessage("Luka has been paralyzed!")
  0()
 404()
 EndEventProcessing()
 0()
EndIf()
If(1,13,0,30,2)
 ShowMessageFace("suzumebati_fc1",0,0,2,23)
 ShowMessage("\\n<Hornet Girl>SWEET HONEY, WHERE IS IT?")
 ShowChoices(strings("Bee Girl's nest","Bear Girl's den","Alraune's home"),0)
 IfPlayerPicksChoice(0,"ミツバチ娘の巣")
  ShowMessageFace("suzumebati_fc1",1,0,2,24)
  ShowMessage("\\n<Hornet Girl>HONEY BEES, DO NOT LIKE...")
  355("change_friend(-5)")
  0()
 IfPlayerPicksChoice(1,"クマ娘の巣")
  ShowMessageFace("suzumebati_fc1",0,0,2,25)
  ShowMessage("\\n<Hornet Girl>AFTER THAT, BEARS WILL ATTACK!")
  0()
 IfPlayerPicksChoice(2,"アルラウネのすみか")
  ShowMessageFace("suzumebati_fc1",0,0,2,26)
  ShowMessage("\\n<Hornet Girl>TAKE FROM PLANTS! SOUNDS GOOD!")
  355("change_friend(10)")
  0()
 404()
 EndEventProcessing()
 0()
EndIf()
If(1,13,0,40,2)
 ShowMessageFace("suzumebati_fc1",0,0,2,27)
 ShowMessage("\\n<Hornet Girl>LOTS OF HONEY MELTED, TOO HEAVY TO FLY WITH...\nWHAT TO DO?")
 ShowChoices(strings("Gather less honey","Train your flying strength","Skip it"),0)
 IfPlayerPicksChoice(0,"ハチミツの量を減らす")
  ShowMessageFace("suzumebati_fc1",0,0,2,28)
  ShowMessage("\\n<Hornet Girl>QUEEN NEEDS A LOT...")
  0()
 IfPlayerPicksChoice(1,"飛行力を鍛える")
  ShowMessageFace("suzumebati_fc1",0,0,2,29)
  ShowMessage("\\n<Hornet Girl>WING TRAINING! BZZ, BZZ, BZZ...♪")
  355("change_friend(10)")
  0()
 IfPlayerPicksChoice(2,"サボる")
  ShowMessageFace("suzumebati_fc1",1,0,2,30)
  ShowMessage("\\n<Hornet Girl>YOU SKIP, ENEMY!")
  355("change_friend(-5)")
  0()
 404()
 EndEventProcessing()
 0()
EndIf()
If(1,13,0,50,2)
 ShowMessageFace("suzumebati_fc1",0,0,2,31)
 ShowMessage("\\n<Hornet Girl>BZZ♪ BZZ♪ BZZ♪\n...WHAT CAN FLY?")
 ShowChoices(strings("Bee","Fly","Me"),0)
 IfPlayerPicksChoice(0,"ハチ")
  ShowMessageFace("suzumebati_fc1",0,0,2,32)
  ShowMessage("\\n<Hornet Girl>THAT'S CORRECT!")
  355("change_friend(10)")
  0()
 IfPlayerPicksChoice(1,"ハエ")
  ShowMessageFace("suzumebati_fc1",1,0,2,33)
  ShowMessage("\\n<Hornet Girl>DON'T CONFLATE US!")
  355("change_friend(-5)")
  0()
 IfPlayerPicksChoice(2,"僕")
  ShowMessageFace("suzumebati_fc1",1,0,2,34)
  ShowMessage("\\n<Hornet Girl>CAN'T FLY!")
  355("change_friend(-5)")
  0()
 404()
 EndEventProcessing()
 0()
EndIf()
DefineLabel("要求")
ChangeVariable(13,13,0,2,1,30)
If(1,13,0,10,2)
 If(8,329)
  ShowMessageFace("suzumebati_fc1",0,0,2,35)
  ShowMessage("\\n<Hornet Girl>MEAT, WANT TO EAT...")
  ChangeVariable(24,24,0,3,0,329,0)
  ShowMessageFace("",0,0,2,36)
  ShowMessage("Do you want to give \\ii[329]? (Have:\\V[24])")
  ShowChoices(strings("Yes","No"),2)
  IfPlayerPicksChoice(0,"Yes")
   ShowMessageFace("suzumebati_fc1",0,0,2,37)
   ShowMessage("\\n<Hornet Girl>HAPPY!")
   ChangeInventory_Item(329,1,0,1)
   355("change_friend(20)")
   EndEventProcessing()
   0()
  IfPlayerPicksChoice(1,"No")
   ShowMessageFace("suzumebati_fc1",0,0,2,38)
   ShowMessage("\\n<Hornet Girl>............")
   EndEventProcessing()
   0()
  404()
  0()
 Else()
  ChangeVariable(13,13,0,0,20)
  0()
 EndIf()
 0()
EndIf()
If(1,13,0,20,2)
 If(8,13)
  ShowMessageFace("suzumebati_fc1",0,0,2,39)
  ShowMessage("\\n<Hornet Girl>PLANT POISON, NOT DISAPPEARING...\nNEED ANTIDOTE...")
  ChangeVariable(24,24,0,3,0,13,0)
  ShowMessageFace("",0,0,2,40)
  ShowMessage("Do you want to give some \\ii[13]? (Have:\\V[24])")
  ShowChoices(strings("Yes","No"),2)
  IfPlayerPicksChoice(0,"Yes")
   ShowMessageFace("suzumebati_fc1",0,0,2,41)
   ShowMessage("\\n<Hornet Girl>HAPPY!")
   ChangeInventory_Item(13,1,0,1)
   355("change_friend(30)")
   EndEventProcessing()
   0()
  IfPlayerPicksChoice(1,"No")
   ShowMessageFace("suzumebati_fc1",0,0,2,42)
   ShowMessage("\\n<Hornet Girl>............")
   EndEventProcessing()
   0()
  404()
  0()
 Else()
  ChangeVariable(13,13,0,0,30)
  0()
 EndIf()
 0()
EndIf()
If(1,13,0,30,2)
 ShowMessageFace("suzumebati_fc1",0,0,2,43)
 ShowMessage("\\n<Hornet Girl>MONEY, WANT...")
 If(7,1116,0)
  ChangeVariable(24,24,0,3,7,2,0)
  ShowMessageFace("",0,0,2,44)
  ShowMessage("Do you want to give 1116G? (Remaining:\\V[24])")
  ShowChoices(strings("Yes","No"),2)
  IfPlayerPicksChoice(0,"Yes")
   ShowMessageFace("suzumebati_fc1",0,0,2,45)
   ShowMessage("\\n<Hornet Girl>HAPPY!")
   125(1,0,1116)
   355("change_friend(25)")
   EndEventProcessing()
   0()
  IfPlayerPicksChoice(1,"No")
   ShowMessageFace("suzumebati_fc1",0,0,2,46)
   ShowMessage("\\n<Hornet Girl>............")
   EndEventProcessing()
   0()
  404()
  0()
 Else()
  ShowMessageFace("suzumebati_fc1",0,0,2,47)
  ShowMessage("\\n<Hornet Girl>YOU DON'T HAVE ANY...")
  EndEventProcessing()
  0()
 EndIf()
 0()
EndIf()
DefineLabel("贈与")
ChangeVariable(13,13,0,2,1,30)
If(1,25,0,1,0)
 ChangeVariable(13,13,0,0,30)
 ChangeVariable(25,25,0,0,0)
 0()
EndIf()
If(1,25,0,2,0)
 ChangeVariable(13,13,0,2,1,20)
 ChangeVariable(25,25,0,0,0)
 0()
EndIf()
If(1,13,0,10,2)
 ShowMessageFace("suzumebati_fc1",0,0,2,48)
 ShowMessage("\\n<Hornet Girl>STINGER, WILL GIVE...")
 250(bytes(0x04,0x08,0x6f,0x3a,0x0c,0x52,0x50,0x47,0x3a,0x3a,0x53,0x45,0x08,0x3a,0x0a,0x40,0x6e,0x61,0x6d,0x65,0x49,0x22,0x0a,0x49,0x74,0x65,0x6d,0x31,0x06,0x3a,0x06,0x45,0x54,0x3a,0x0b,0x40,0x70,0x69,0x74,0x63,0x68,0x69,0x69,0x3a,0x0c,0x40,0x76,0x6f,0x6c,0x75,0x6d,0x65,0x69,0x55))
 ChangeInventory_Item(217,0,0,1)
 ShowMessageFace("",0,0,2,49)
 ShowMessage("The Hornet Girl gave you a \\ii[217]!")
 EndEventProcessing()
 0()
EndIf()
If(1,13,0,20,2)
 ShowMessageFace("suzumebati_fc1",0,0,2,50)
 ShowMessage("\\n<Hornet Girl>HONEY, WILL GIVE...")
 250(bytes(0x04,0x08,0x6f,0x3a,0x0c,0x52,0x50,0x47,0x3a,0x3a,0x53,0x45,0x08,0x3a,0x0a,0x40,0x6e,0x61,0x6d,0x65,0x49,0x22,0x0a,0x49,0x74,0x65,0x6d,0x31,0x06,0x3a,0x06,0x45,0x54,0x3a,0x0b,0x40,0x70,0x69,0x74,0x63,0x68,0x69,0x69,0x3a,0x0c,0x40,0x76,0x6f,0x6c,0x75,0x6d,0x65,0x69,0x55))
 ChangeInventory_Item(436,0,0,1)
 ShowMessageFace("",0,0,2,51)
 ShowMessage("The Hornet Girl gave you some \\ii[436]!")
 EndEventProcessing()
 0()
EndIf()
If(1,13,0,30,2)
 ShowMessageFace("suzumebati_fc1",0,0,2,52)
 ShowMessage("\\n<Hornet Girl>MONEY, WILL GIVE...")
 250(bytes(0x04,0x08,0x6f,0x3a,0x0c,0x52,0x50,0x47,0x3a,0x3a,0x53,0x45,0x08,0x3a,0x0a,0x40,0x6e,0x61,0x6d,0x65,0x49,0x22,0x0a,0x49,0x74,0x65,0x6d,0x31,0x06,0x3a,0x06,0x45,0x54,0x3a,0x0b,0x40,0x70,0x69,0x74,0x63,0x68,0x69,0x69,0x3a,0x0c,0x40,0x76,0x6f,0x6c,0x75,0x6d,0x65,0x69,0x55))
 125(0,0,1860)
 ShowMessageFace("",0,0,2,53)
 ShowMessage("The Hornet Girl gave you 1860G!")
 EndEventProcessing()
 0()
EndIf()
0()
