﻿// EVENT 0569
Name "ループ：クリア"

ShowMessageFace("",0,0,2,1)
ShowMessage("【透】")
ShowMessage("ちょっと待て、トラップはまだあるんだ。")
ShowMessage("あの宝石の準備をしないと――")
ShowMessageFace("ruka_fc1",0,0,2,2)
ShowMessage("【ルカ】")
ShowMessage("あっ、そうだった……")
ShowMessage("うっかりドアを開けるところだったよ。")
ShowMessageFace("",0,0,2,3)
ShowMessage("用意したサキュバスの毛髪を、何に使うのか――")
ShowMessage("それが心の中に引っ掛かり、僕はすぐに手を止めた。")
ShowMessageFace("",0,0,2,4)
ShowMessage("不思議な宝石を懐から取り出して、見てみると――")
ShowMessage("どうやら、何かに反応して光を放っているようだ。")
ShowMessageFace("ruka_fc1",0,0,2,5)
ShowMessage("【ルカ】")
ShowMessage("これは……？")
ShowMessageFace("",0,0,2,6)
ShowMessage("【透】")
ShowMessage("サキュバスの毛髪を持ってるんだろ？")
ShowMessage("それを、宝石に近づけてみてくれ。")
ShowMessageFace("ruka_fc1",0,0,2,7)
ShowMessage("【ルカ】")
ShowMessage("分かった、やってみよう……")
250(bytes(0x04,0x08,0x6f,0x3a,0x0c,0x52,0x50,0x47,0x3a,0x3a,0x53,0x45,0x08,0x3a,0x0a,0x40,0x6e,0x61,0x6d,0x65,0x49,0x22,0x0b,0x53,0x61,0x69,0x6e,0x74,0x32,0x06,0x3a,0x06,0x45,0x54,0x3a,0x0b,0x40,0x70,0x69,0x74,0x63,0x68,0x69,0x69,0x3a,0x0c,0x40,0x76,0x6f,0x6c,0x75,0x6d,0x65,0x69,0x55))
ShowMessageFace("",0,0,2,8)
ShowMessage("不思議な宝石に、準備した三本の毛髪を近付けると――")
ShowMessage("毛髪は吸い込まれるように消え、宝石は虹色の輝きを放った！")
ShowMessageFace("",0,0,2,9)
ShowMessage("【透】")
ShowMessage("よし、これでやれる事はやった……はずだ。")
ShowMessage("これならドアを開けた後のトラップもきっと……！")
ShowMessageFace("ruka_fc1",0,0,2,10)
ShowMessage("【ルカ】")
ShowMessage("それじゃあ、ドアを開けよう……！")
ShowMessageFace("",0,0,2,11)
ShowMessage("覚悟を決めて、僕は玄関のドアを開けた。")
ShowMessage("すると――")
ShowMessageFace("ruka_fc1",0,0,2,12)
ShowMessage("【ルカ】")
ShowMessage("う……わぁっ！")
241(bytes(0x04,0x08,0x6f,0x3a,0x0d,0x52,0x50,0x47,0x3a,0x3a,0x42,0x47,0x4d,0x08,0x3a,0x0a,0x40,0x6e,0x61,0x6d,0x65,0x49,0x22,0x0a,0x6b,0x69,0x6b,0x69,0x31,0x06,0x3a,0x06,0x45,0x54,0x3a,0x0c,0x40,0x76,0x6f,0x6c,0x75,0x6d,0x65,0x69,0x69,0x3a,0x0b,0x40,0x70,0x69,0x74,0x63,0x68,0x69,0x69))
250(bytes(0x04,0x08,0x6f,0x3a,0x0c,0x52,0x50,0x47,0x3a,0x3a,0x53,0x45,0x08,0x3a,0x0a,0x40,0x6e,0x61,0x6d,0x65,0x49,0x22,0x0e,0x54,0x68,0x75,0x6e,0x64,0x65,0x72,0x31,0x32,0x06,0x3a,0x06,0x45,0x54,0x3a,0x0b,0x40,0x70,0x69,0x74,0x63,0x68,0x69,0x69,0x3a,0x0c,0x40,0x76,0x6f,0x6c,0x75,0x6d,0x65,0x69,0x55))
225(5,5,60,false)
PictureDisplay(1,"iv_trap",0,0,0,0,100,100,0,0)
PictureMove(1,null,0,0,0,0,100,100,255,0,30,true)
ShowMessageFace("",0,0,2,13)
ShowMessage("ドアを開けた瞬間、罠が発動したが――")
ShowMessage("それに抵抗するように、不思議な宝石が輝いた。")
ShowMessageFace("",0,0,2,14)
ShowMessage("まるで、トラップの魔力と加護の力が争っているかのよう。")
ShowMessage("その直後、最後の罠はみるみる消えていき――")
242(1)
221()
Wait(60)
PictureDisplay(1,"iv_saccuhouse",0,0,0,0,100,100,255,0)
222()
ShowMessageFace("ruka_fc1",0,0,2,15)
ShowMessage("【ルカ】")
ShowMessage("そ、外……？")
ShowMessageFace("",0,0,2,16)
ShowMessage("すっかり日が落ち真っ暗だが、僕達は家の外に立っていた。")
ShowMessage("ようやく、この悪魔の家から脱出を果たしたのだ――")
Wait(30)
241(bytes(0x04,0x08,0x6f,0x3a,0x0d,0x52,0x50,0x47,0x3a,0x3a,0x42,0x47,0x4d,0x08,0x3a,0x0a,0x40,0x6e,0x61,0x6d,0x65,0x49,0x22,0x14,0x73,0x63,0x65,0x6e,0x65,0x5f,0x65,0x70,0x69,0x6c,0x6f,0x67,0x75,0x65,0x32,0x06,0x3a,0x06,0x45,0x54,0x3a,0x0c,0x40,0x76,0x6f,0x6c,0x75,0x6d,0x65,0x69,0x69,0x3a,0x0b,0x40,0x70,0x69,0x74,0x63,0x68,0x69,0x69))
ShowMessageFace("",0,0,2,17)
ShowMessage("【透】")
ShowMessage("あっ……まずい！")
ShowMessageFace("",0,0,2,18)
ShowMessage("不意に透が大声を上げた。")
ShowMessageFace("",0,0,2,19)
ShowMessage("なんと、ピザ屋が門のところに立っていて――")
ShowMessage("今にも、チャイムを鳴らそうとするところだったのだ。")
ShowMessageFace("",0,0,2,20)
ShowMessage("【透】")
ShowMessage("ダメだ、鳴らすな！")
250(bytes(0x04,0x08,0x6f,0x3a,0x0c,0x52,0x50,0x47,0x3a,0x3a,0x53,0x45,0x08,0x3a,0x0a,0x40,0x6e,0x61,0x6d,0x65,0x49,0x22,0x10,0x6d,0x6f,0x6e,0x5f,0x61,0x73,0x69,0x6f,0x74,0x6f,0x34,0x06,0x3a,0x06,0x45,0x54,0x3a,0x0b,0x40,0x70,0x69,0x74,0x63,0x68,0x69,0x69,0x3a,0x0c,0x40,0x76,0x6f,0x6c,0x75,0x6d,0x65,0x69,0x69))
ShowMessageFace("",0,0,2,21)
ShowMessage("透は慌てて、ピザ屋の方へと駆け寄っていく。")
PictureDisplay(5,"80_pizza_st01",0,0,0,0,100,100,0,0)
PictureMove(5,null,0,0,0,0,100,100,255,0,30,true)
ShowMessageFace("",0,0,2,22)
ShowMessage("【ピザ屋】")
ShowMessage("あっ、マウンテンピザの宅配ですけど……")
ShowMessage("……この家の方ですか？")
ShowMessageFace("",0,0,2,23)
ShowMessage("【透】")
ShowMessage("そ、そうそう……ピザを受け取るよ。")
ShowMessage("代金は、これで足りるかな。")
ShowMessageFace("",0,0,2,24)
ShowMessage("【ピザ屋】")
ShowMessage("はい、ありがとうございましたー！")
PictureClear(5)
ShowMessageFace("",0,0,2,25)
ShowMessage("ピザと引き替えに、代金を受け取ると――")
ShowMessage("そのまま彼は、自動二輪車に乗って走り去ってしまう。")
ShowMessageFace("",0,0,2,26)
ShowMessage("これで、なんとかピザ屋も助かった。")
ShowMessage("あの悪魔の家に近付かなくて済んだのだ。")
ShowMessageFace("",0,0,2,27)
ShowMessage("やるべき事が終わり、深く息を吐く――")
ShowMessage("すると、頭の中に聞き慣れた声が響いた。")
ShowMessageFace("stein_fc2",1,0,2,28)
ShowMessage("【プロメスティン】")
ShowMessage("ルカさん、聞こえますか……？")
ShowMessage("こちらの世界で、時空異変の消失を確認しました。")
ShowMessageFace("ruka_fc1",0,0,2,29)
ShowMessage("【ルカ】")
ShowMessage("そうか……全部、上手くいったんだな。")
ShowMessageFace("",0,0,2,30)
ShowMessage("こちらの透もピザ屋も助かり――")
ShowMessage("それに従って、あっちの透の妄念も消えた。")
ShowMessageFace("",0,0,2,31)
ShowMessage("これで、全ては終わった。")
ShowMessage("後は、元の世界に戻るだけだ――")
241(bytes(0x04,0x08,0x6f,0x3a,0x0d,0x52,0x50,0x47,0x3a,0x3a,0x42,0x47,0x4d,0x08,0x3a,0x0a,0x40,0x6e,0x61,0x6d,0x65,0x49,0x22,0x14,0x73,0x63,0x65,0x6e,0x65,0x5f,0x65,0x70,0x69,0x6c,0x6f,0x67,0x75,0x65,0x31,0x06,0x3a,0x06,0x45,0x54,0x3a,0x0c,0x40,0x76,0x6f,0x6c,0x75,0x6d,0x65,0x69,0x69,0x3a,0x0b,0x40,0x70,0x69,0x74,0x63,0x68,0x69,0x69))
ShowMessageFace("stein_fc2",0,0,2,32)
ShowMessage("【プロメスティン】")
ShowMessage("それでは、ルカさんをこちらに引き戻します。")
ShowMessage("少しの間、動かないで下さいね……")
ShowMessageFace("ruka_fc1",0,0,2,33)
ShowMessage("【ルカ】")
ShowMessage("ああ、分かった……")
ShowMessageFace("",0,0,2,34)
ShowMessage("【透】")
ShowMessage("お、おい……誰と話してるんだ……？")
ShowMessageFace("ruka_fc1",0,0,2,35)
ShowMessage("【ルカ】")
ShowMessage("……いや、こっちの事。")
ShowMessage("僕は、元の世界に帰るよ。")
ShowMessageFace("",0,0,2,36)
ShowMessage("【透】")
ShowMessage("ああ……誰だか知らないけど、本当にありがとう。")
ShowMessageFace("",0,0,2,37)
ShowMessage("【透】")
ShowMessage("まさか生きてここから出られるなんて……！")
ShowMessage("おまけに誰も犠牲にせずに……")
ShowMessageFace("",0,0,2,38)
ShowMessage("【透】")
ShowMessage("…………そうだ……これで完璧な脱出……")
ShowMessage("それなら……何度でも…………うん……")
ShowMessageFace("ruka_fc1",0,0,2,39)
ShowMessage("【ルカ】")
ShowMessage("どうしたの？　まだ何か……")
ShowMessageFace("",0,0,2,40)
ShowMessage("【透】")
ShowMessage("い、いや！　こっちの事だ！　なんでもない。")
ShowMessageFace("",0,0,2,41)
ShowMessage("【透】")
ShowMessage("……君は、本来いた場所に帰るんだな。")
ShowMessage("じゃあ……俺も本来の場所に帰るよ。")
ShowMessageFace("",0,0,2,42)
ShowMessage("透も、この世界にある自分の家に帰るのだろう。")
ShowMessage("願わくば、二度とこんな事に巻き込まれないように――")
Wait(30)
212(-1,542,false)
Wait(60)
ShowMessageFace("",0,0,2,43)
ShowMessage("と――僕の体の周囲に、時空ゲートが展開された。")
ShowMessage("これで、ようやくこの世界ともお別れだ。")
ShowMessageFace("ruka_fc1",0,0,2,44)
ShowMessage("【ルカ】")
ShowMessage("……それじゃあ、達者でね。")
ShowMessageFace("",0,0,2,45)
ShowMessage("【透】")
ShowMessage("ああ……")
241(bytes(0x04,0x08,0x6f,0x3a,0x0d,0x52,0x50,0x47,0x3a,0x3a,0x42,0x47,0x4d,0x08,0x3a,0x0a,0x40,0x6e,0x61,0x6d,0x65,0x49,0x22,0x0a,0x6b,0x69,0x6b,0x69,0x32,0x06,0x3a,0x06,0x45,0x54,0x3a,0x0c,0x40,0x76,0x6f,0x6c,0x75,0x6d,0x65,0x69,0x69,0x3a,0x0b,0x40,0x70,0x69,0x74,0x63,0x68,0x69,0x69))
250(bytes(0x04,0x08,0x6f,0x3a,0x0c,0x52,0x50,0x47,0x3a,0x3a,0x53,0x45,0x08,0x3a,0x0a,0x40,0x6e,0x61,0x6d,0x65,0x49,0x22,0x10,0x6d,0x6f,0x6e,0x5f,0x61,0x73,0x69,0x6f,0x74,0x6f,0x33,0x06,0x3a,0x06,0x45,0x54,0x3a,0x0b,0x40,0x70,0x69,0x74,0x63,0x68,0x69,0x69,0x3a,0x0c,0x40,0x76,0x6f,0x6c,0x75,0x6d,0x65,0x69,0x69))
ShowMessageFace("",0,0,2,46)
ShowMessage("透はそう言って、僕に背を向けると――")
ShowMessage("なんと、あの家の玄関へと進んでいく。")
ShowMessageFace("",0,0,2,47)
ShowMessage("たった今、脱出したばかりの一軒家。")
ShowMessage("事もあろうに、そこへ戻ろうとしているのだ――")
ShowMessageFace("ruka_fc1",0,0,2,48)
ShowMessage("【ルカ】")
ShowMessage("ちょっと待って、何を――")
250(bytes(0x04,0x08,0x6f,0x3a,0x0c,0x52,0x50,0x47,0x3a,0x3a,0x53,0x45,0x08,0x3a,0x0a,0x40,0x6e,0x61,0x6d,0x65,0x49,0x22,0x0e,0x6d,0x6f,0x6e,0x5f,0x64,0x6f,0x6f,0x72,0x32,0x06,0x3a,0x06,0x45,0x54,0x3a,0x0b,0x40,0x70,0x69,0x74,0x63,0x68,0x69,0x69,0x3a,0x0c,0x40,0x76,0x6f,0x6c,0x75,0x6d,0x65,0x69,0x69))
ShowMessageFace("",0,0,2,49)
ShowMessage("制止する間もなくドアを開け、透は家の中へと消える。")
ShowMessage("僕の目の前で、玄関のドアは再び閉じられてしまった――")
ShowMessageFace("ruka_fc1",0,0,2,50)
ShowMessage("【ルカ】")
ShowMessage("そんな、なんで――")
250(bytes(0x04,0x08,0x6f,0x3a,0x0c,0x52,0x50,0x47,0x3a,0x3a,0x53,0x45,0x08,0x3a,0x0a,0x40,0x6e,0x61,0x6d,0x65,0x49,0x22,0x0e,0x44,0x61,0x72,0x6b,0x6e,0x65,0x73,0x73,0x31,0x06,0x3a,0x06,0x45,0x54,0x3a,0x0b,0x40,0x70,0x69,0x74,0x63,0x68,0x69,0x69,0x3a,0x0c,0x40,0x76,0x6f,0x6c,0x75,0x6d,0x65,0x69,0x55))
242(1)
221()
ShowMessageFace("",0,0,2,51)
ShowMessage("それが、この世界に僕が残した最後の言葉だった。")
ShowMessage("そのまま僕は、元の世界へと繋がる時空ゲートに飲み込まれる。")
ShowMessageFace("",0,0,2,52)
ShowMessage("結局、透はあの家に戻ってしまった。")
ShowMessage("それが、魔性の快楽に取り込まれた者の末路だというのか――")
Wait(120)
222()
Wait(60)
212(-1,542,false)
Wait(60)
PictureDisplay(5,"80_vinum_st03",0,0,0,0,100,100,255,0)
Wait(60)
241(bytes(0x04,0x08,0x6f,0x3a,0x0d,0x52,0x50,0x47,0x3a,0x3a,0x42,0x47,0x4d,0x08,0x3a,0x0a,0x40,0x6e,0x61,0x6d,0x65,0x49,0x22,0x0a,0x62,0x6f,0x73,0x73,0x30,0x06,0x3a,0x06,0x45,0x54,0x3a,0x0c,0x40,0x76,0x6f,0x6c,0x75,0x6d,0x65,0x69,0x69,0x3a,0x0b,0x40,0x70,0x69,0x74,0x63,0x68,0x69,0x69))
ShowMessageFace("vinum_fc1",2,0,2,53)
ShowMessage("【ヴィヌム】")
ShowMessage("あの勇者とやら、元の世界に戻ってしまったか……")
ShowMessage("やれやれ、ほんの少しの入れ違いだったのう。")
ShowMessageFace("vinum_fc1",2,0,2,54)
ShowMessage("【ヴィヌム】")
ShowMessage("まさか、儂の命を取りに来たわけではなく……")
ShowMessage("あんな人間二匹を助けるためだったとは。")
PictureDisplay(5,"80_vinum_st05",0,0,0,0,100,100,255,0)
ShowMessageFace("vinum_fc1",4,0,2,55)
ShowMessage("【ヴィヌム】")
ShowMessage("……じゃが、あやつとはいつの日か、")
ShowMessage("何処かで相まみえる気がするのう。")
ShowMessageFace("vinum_fc1",4,0,2,56)
ShowMessage("【ヴィヌム】")
ShowMessage("その時は、たっぷりと礼をくれてやらねば……な。")
ShowMessageFace("vinum_fc1",4,0,2,57)
ShowMessage("【ヴィヌム】")
ShowMessage("くく……くふふっ……")
ShowMessage("また一つ、先の楽しみが増えたわ……")
242(1)
Wait(60)
221()
Wait(120)
PictureClear(1)
PictureClear(5)
211(0)
TeleportPlayer(0,155,9,4,0,2)
ChangeVariable(1098,1098,0,0,14)
EndEventProcessing()
0()
