﻿// EVENT 2361
Name "Seduction: Uranus"

355("$game_troop.lose_event_id = 3361")
ChangeVariable(26,26,0,3,3,1,4)
ChangeVariable(26,26,4,0,10)
ShowMessageFace("uranus_fc1",2,0,2,1)
ShowMessage("\\n<Uranus>Perpetrating violence against the Holy Beast...\nI must punish you for this sin.")
ShowMessageFace("",0,0,2,2)
ShowMessage("Uranus leaps towards Luka and forces him down!\nLike that, she leans over him!")
ShowMessageFace("uranus_fc1",1,0,2,3)
ShowMessage("\\n<Uranus>I shall rape you as punishment.\nDedicate your semen to the Holy Beast, and repent your sins...")
ChangeSwitch(98,98,0)
ChangeSwitch(96,96,0)
ShowChoices(strings("Struggle","Let her continue"),1)
IfPlayerPicksChoice(0,null)
 ShowMessageFace("",0,0,2,4)
 ShowMessage("Luka struggles violently, and escapes from Uranus' restraint!")
 RunCommonEvent(1999)
 EndEventProcessing()
 0()
IfPlayerPicksChoice(1,null)
 0()
404()
ShowMessageFace("uranus_fc1",1,0,2,5)
ShowMessage("\\n<Uranus>It seems you have resigned yourself to your punishment. In that case, I shall rape you...")
ChangeVariable(26,26,3,0,6)
250(bytes(0x04,0x08,0x6f,0x3a,0x0c,0x52,0x50,0x47,0x3a,0x3a,0x53,0x45,0x08,0x3a,0x0a,0x40,0x6e,0x61,0x6d,0x65,0x49,0x22,0x16,0x6d,0x6f,0x6e,0x5f,0x65,0x72,0x6f,0x5f,0x6d,0x61,0x6b,0x69,0x74,0x75,0x6b,0x69,0x33,0x06,0x3a,0x06,0x45,0x54,0x3a,0x0b,0x40,0x70,0x69,0x74,0x63,0x68,0x69,0x69,0x3a,0x0c,0x40,0x76,0x6f,0x6c,0x75,0x6d,0x65,0x69,0x69))
311(0,1,1,1,26,true)
ShowMessageFace("",0,0,2,6)
ShowMessage("Uranus lowers her back and swallows Luka's penis with her female genitalia! Her squirming soft flesh wraps around his penis!\\D")
ShowMessage("Luka takes \\V[26] damage!")
ChangeVariable(27,27,0,3,3,1,2)
If(1,27,0,0,0)
 JumpToLabel("射精1")
 0()
EndIf()
ShowMessageFace("uranus_fc1",1,0,2,7)
ShowMessage("\\n<Uranus>The Holy Beast's genitals are magnificent.\nAny sinner's semen would flood out in an instant.")
250(bytes(0x04,0x08,0x6f,0x3a,0x0c,0x52,0x50,0x47,0x3a,0x3a,0x53,0x45,0x08,0x3a,0x0a,0x40,0x6e,0x61,0x6d,0x65,0x49,0x22,0x16,0x6d,0x6f,0x6e,0x5f,0x65,0x72,0x6f,0x5f,0x6d,0x61,0x6b,0x69,0x74,0x75,0x6b,0x69,0x33,0x06,0x3a,0x06,0x45,0x54,0x3a,0x0b,0x40,0x70,0x69,0x74,0x63,0x68,0x69,0x69,0x3a,0x0c,0x40,0x76,0x6f,0x6c,0x75,0x6d,0x65,0x69,0x69))
311(0,1,1,1,26,true)
ShowMessageFace("",0,0,2,8)
ShowMessage("Uranus' melting soft flesh twines around Luka's dick as it squirms! It melts his penis as it viscously coils around!\\D")
ShowMessage("Luka takes \\V[26] damage!")
ChangeVariable(27,27,0,3,3,1,2)
If(1,27,0,0,0)
 JumpToLabel("射精1")
 0()
EndIf()
DefineLabel("射精1")
ShowMessageFace("",0,0,2,9)
ShowMessage("\\n<Luka>No, I'm coming... Aaaah...")
RunCommonEvent(104)
RunCommonEvent(105)
ShowMessageFace("",0,0,2,10)
ShowMessage("Unable to withstand the squirming soft flesh, I immediately come. My semen steadily pours into Uranus' interior.")
ShowMessageFace("uranus_fc1",1,0,2,11)
ShowMessage("\\n<Uranus>You released a lot of semen.\nBut your punishment will still continue...")
RunCommonEvent(2000)
EndEventProcessing()
0()
