﻿// EVENT 5752
Name "Est"

PictureDisplay(5,"80_est_st01",0,0,0,0,100,100,0,0)
PictureMove(5,null,0,0,0,0,100,100,255,0,30,true)
ShowMessageFace("",0,0,2,1)
ShowMessage("\\n<Luka>")
ShowMessage("P...please...")
ShowMessageFace("est_fc1",1,0,2,2)
ShowMessage("\\n<Est>")
ShowMessage("Ara...you want to enjoy a dream of pleasure with me?")
ShowMessage("I've been waiting to hear that...")
ShowMessageFace("",0,0,2,3)
ShowMessage("Est spoke alluringly and leaned against me.")
ShowMessageFace("est_fc1",1,0,2,4)
ShowMessage("\\n<Est>")
ShowMessage("I will show you an endless dream of pleasure♥")
ShowMessageFace("",0,0,2,5)
ShowMessage("With that, I was taken to Est's room――")
221()
PictureDisplay(1,"bg195",0,0,0,0,100,100,255,0)
PictureDisplay(5,"ev_est_h1",0,0,0,0,100,100,255,0)
222()
241(bytes(0x04,0x08,0x6f,0x3a,0x0d,0x52,0x50,0x47,0x3a,0x3a,0x42,0x47,0x4d,0x08,0x3a,0x0a,0x40,0x6e,0x61,0x6d,0x65,0x49,0x22,0x09,0x65,0x72,0x6f,0x31,0x06,0x3a,0x06,0x45,0x54,0x3a,0x0c,0x40,0x76,0x6f,0x6c,0x75,0x6d,0x65,0x69,0x69,0x3a,0x0b,0x40,0x70,0x69,0x74,0x63,0x68,0x69,0x69))
ShowMessageFace("",0,0,2,6)
ShowMessage("\\n<Luka>")
ShowMessage("Aaah...")
ShowMessageFace("",0,0,2,7)
ShowMessage("As we entered the room, she pushes me down on my back.")
ShowMessage("Est rests her voluptuous body on top of me.")
ShowMessageFace("",0,0,2,8)
ShowMessage("She brings her hand to my hardened member.")
ShowMessage("And personally leads it towards her secret place――")
ShowMessageFace("",0,0,2,9)
ShowMessage("\\n<Luka>")
ShowMessage("Hauu...")
ShowMessageFace("est_fc1",1,0,2,10)
ShowMessage("\\n<Est>")
ShowMessage("There's no need to be so shy.")
ShowMessage("Just allow yourself to be immersed in this blissful dream...")
ShowMessageFace("",0,0,2,11)
ShowMessage("\\n<Luka>")
ShowMessage("A...aaaah!!")
ShowMessageFace("",0,0,2,12)
ShowMessage("Est slowly lowers her hips――")
245(bytes(0x04,0x08,0x6f,0x3a,0x0d,0x52,0x50,0x47,0x3a,0x3a,0x42,0x47,0x53,0x08,0x3a,0x0a,0x40,0x6e,0x61,0x6d,0x65,0x49,0x22,0x1e,0x6d,0x6f,0x6e,0x5f,0x68,0x73,0x65,0x61,0x6e,0x30,0x35,0x5f,0x69,0x6e,0x6e,0x65,0x72,0x77,0x6f,0x72,0x6b,0x73,0x5f,0x61,0x35,0x06,0x3a,0x06,0x45,0x54,0x3a,0x0c,0x40,0x76,0x6f,0x6c,0x75,0x6d,0x65,0x69,0x55,0x3a,0x0b,0x40,0x70,0x69,0x74,0x63,0x68,0x69,0x69))
PictureDisplay(5,"ev_est_h2",0,0,0,0,100,100,255,0)
ShowMessageFace("",0,0,2,13)
ShowMessage("My member is fully submerged inside of Est.")
ShowMessage("In moments, my penis is wrapped in her sweet, tender body.")
ShowMessageFace("",0,0,2,14)
ShowMessage("I feel her melting warmth and her teasing movements.")
ShowMessage("The way she moves on my penis fills it with joy――")
ShowMessageFace("est_fc1",1,0,2,15)
ShowMessage("\\n<Est>")
ShowMessage("Fufufu. How does it feel to have sex with a succubus...?")
ShowMessage("It feels like paradise, doesnt it♥")
ShowMessageFace("",0,0,2,16)
ShowMessage("\\n<Luka>")
ShowMessage("U...A...")
ShowMessageFace("",0,0,2,17)
ShowMessage("Indeed, this top grade pleasure melts me to my core.")
ShowMessage("Overwhelmed by pleasure, I let out a weak scream――")
RunCommonEvent(104)
PictureDisplay(5,"ev_est_h3",0,0,0,0,100,100,255,0)
RunCommonEvent(105)
ShowMessageFace("",0,0,2,18)
ShowMessage("And then, my semen gushes out a bit too quickly.")
ShowMessage("It all gets poured inside Est's warm pussy――")
ShowMessageFace("",0,0,2,19)
ShowMessage("\\n<Luka>")
ShowMessage("Hauuu...")
ShowMessageFace("est_fc1",1,0,2,20)
ShowMessage("\\n<Est>")
ShowMessage("Fufu, finished so soon?")
ShowMessage("I thought you would resist a little longer...")
ShowMessageFace("",0,0,2,21)
ShowMessage("\\n<Luka>")
ShowMessage("Auuu...")
ShowMessageFace("",0,0,2,22)
ShowMessage("I end up ejaculating immediately after insertion.")
ShowMessage("My body surrenders the moment she begins intercourse with me.")
ShowMessageFace("",0,0,2,23)
ShowMessage("My member was going through stimulations that could enchant any man.")
ShowMessage("It was receiving immense pleasure from her warm insides――")
ShowMessageFace("",0,0,2,24)
ShowMessage("\\n<Luka>")
ShowMessage("L-let me go...already...")
ShowMessageFace("est_fc1",1,0,2,25)
ShowMessage("\\n<Est>")
ShowMessage("Nope... you're not waking up from this dream anymore.")
ShowMessage("Let's enjoy ourselves forever and ever.")
ShowMessageFace("",0,0,2,26)
ShowMessage("\\n<Luka>")
ShowMessage("N-no way...")
ShowMessageFace("est_fc1",1,0,2,27)
ShowMessage("\\n<Est>")
ShowMessage("I have a lot more love to give you...♥")
ShowMessage("Come now, let me suck all this energy...")
PictureDisplay(5,"ev_est_h4",0,0,0,0,100,100,255,0)
ShowMessageFace("",0,0,2,28)
ShowMessage("\\n<Luka>")
ShowMessage("A....! Auuu...!")
ShowMessageFace("",0,0,2,29)
ShowMessage("Est's pussy tightens up.")
ShowMessage("It feels like her pussy is glued firmly to my dick while sucking it up.")
ShowMessageFace("",0,0,2,30)
ShowMessage("At the same time, a feeling of weakness spreads throughout my nether region.")
ShowMessage("The sweet and numbing pleasure makes my hips tremble.")
ShowMessageFace("",0,0,2,31)
ShowMessage("\\n<Luka>")
ShowMessage("A...a, Hauuu...")
ShowMessageFace("est_fc1",1,0,2,32)
ShowMessage("\\n<Est>")
ShowMessage("Ufufu, do you know?")
ShowMessage("How succubi eat their prey...")
ShowMessageFace("",0,0,2,33)
ShowMessage("Energy Drain――")
ShowMessage("Succubi feast on men's energy via sexual intercouse.")
ShowMessageFace("",0,0,2,34)
ShowMessage("And now, my energy was being absorbed as well.")
ShowMessage("Est's magic pussy was gradually stealing away my energy――")
ShowMessageFace("",0,0,2,35)
ShowMessage("\\n<Luka>")
ShowMessage("Au...A-Aaaah!!")
RunCommonEvent(104)
PictureDisplay(5,"ev_est_h5",0,0,0,0,100,100,255,0)
RunCommonEvent(105)
ShowMessageFace("",0,0,2,36)
ShowMessage("The intense pleasure gets me to cum in moments.")
ShowMessage("A large amount of semen gushes into Est's vagina.")
ShowMessageFace("est_fc1",1,0,2,37)
ShowMessage("\\n<Est>")
ShowMessage("Fufu...you did it again.")
ShowMessage("More, satisfy me more...")
ShowMessageFace("",0,0,2,38)
ShowMessage("\\n<Luka>")
ShowMessage("Hauuuu...")
ShowMessageFace("",0,0,2,39)
ShowMessage("While Est is draining my energy――")
ShowMessage("She gently grinds against my nether region.")
ShowMessageFace("",0,0,2,40)
ShowMessage("The walls of her vagina seductively stroke my member.")
ShowMessage("While overwhelming me with its suction.")
ShowMessageFace("",0,0,2,41)
ShowMessage("This must be the dream of pleasure that a succubus can give.")
ShowMessage("I immediately drown in this pleasure and become its slave――")
ShowMessageFace("",0,0,2,42)
ShowMessage("\\n<Luka>")
ShowMessage("A...Aaaaa...")
RunCommonEvent(104)
PictureDisplay(5,"ev_est_h6",0,0,0,0,100,100,255,0)
RunCommonEvent(105)
ShowMessageFace("",0,0,2,43)
ShowMessage("Being absorbed――")
ShowMessage("Or rather, it'd be more correct to say that I was freely offering myself.")
ShowMessageFace("",0,0,2,44)
ShowMessage("In a rush of ecstasy, I ejaculate inside Est in quick succession.")
ShowMessage("It's as if I'm returning the pleasure she gives in the form of semen――")
ShowMessageFace("",0,0,2,45)
ShowMessage("\\n<Luka>")
ShowMessage("Hauu...A-Aaah...")
ShowMessageFace("est_fc1",1,0,2,46)
ShowMessage("\\n<Est>")
ShowMessage("Fufu, I'll be keeping all of this.")
ShowMessage("And as you wish, rejoice in this endless pleasure...")
ShowMessageFace("",0,0,2,47)
ShowMessage("\\n<Luka>")
ShowMessage("Auuuu...!")
ShowMessageFace("",0,0,2,48)
ShowMessage("She tightens her pussy and moves it lewdly.")
ShowMessage("It's like she's thoroughly massaging my dick.")
ShowMessageFace("",0,0,2,49)
ShowMessage("On top of that, the depths of her vagina feel sticky――")
ShowMessage("And I experience the numbness that follows the suction――")
ShowMessageFace("",0,0,2,50)
ShowMessage("\\n<Luka>")
ShowMessage("A-Aaaaa...!!")
RunCommonEvent(104)
RunCommonEvent(105)
ShowMessageFace("",0,0,2,51)
ShowMessage("Semen continues to flow amidst this bewitching pleasure.")
ShowMessage("My energy also gets absorbed with each climax――")
ShowMessageFace("",0,0,2,52)
ShowMessage("\\n<Luka>")
ShowMessage("Hau, Auuu...")
ShowMessageFace("est_fc1",1,0,2,53)
ShowMessage("\\n<Est>")
ShowMessage("No matter how many times you cum you never run out of energy.")
ShowMessage("This is the dream of pleasure a succubus can offer――")
ShowMessageFace("est_fc1",1,0,2,54)
ShowMessage("\\n<Est>")
ShowMessage("Now, let's enjoy this never ending bliss ♥")
ShowMessage("Forever, endlessly... forever and ever...")
ShowMessageFace("",0,0,2,55)
ShowMessage("\\n<Luka>")
ShowMessage("Hauuuuu...")
RunCommonEvent(104)
RunCommonEvent(105)
ShowMessageFace("",0,0,2,56)
ShowMessage("With this, I continued to have sex with Est.")
ShowMessage("Being raped earnestly, having my energy absorbed and offering sperm.")
ShowMessageFace("",0,0,2,57)
ShowMessage("I become a slave to this ultimate pleasure――")
ShowMessage("Both my body and my soul drown in it.")
ShowMessageFace("est_fc1",1,0,2,58)
ShowMessage("\\n<Est>")
ShowMessage("More, more...")
ShowMessage("Drown in this endless dream...")
ShowMessageFace("",0,0,2,59)
ShowMessage("\\n<Luka>")
ShowMessage("A-aaaa...")
RunCommonEvent(104)
RunCommonEvent(105)
ShowMessageFace("",0,0,2,60)
ShowMessage("I dont know if this is reality or a dream.")
ShowMessage("I simply surrender myself to this infinite pleasure――")
ShowMessageFace("est_fc1",1,0,2,61)
ShowMessage("\\n<Est>")
ShowMessage("Fufu...Ufufufu...♥")
ShowMessageFace("",0,0,2,62)
ShowMessage("\\n<Luka>")
ShowMessage("u...aaaa...")
RunCommonEvent(104)
RunCommonEvent(105)
221()
PictureClear(5)
PictureClear(6)
246(2)
ShowMessageFace("",0,0,2,63)
ShowMessage("I woke up the next morning as if nothing had happened.")
ShowMessage("I enjoyed a dream of pleasure to my heart's content――")
ShowMessageFace("",0,0,2,64)
ShowMessage(".........")
RunCommonEvent(3998)
0()
