﻿// EVENT 5786
Name "Rネメア3"

If(0,443,0)
 205(-1,bytes(0x04,0x08,0x6f,0x3a,0x13,0x52,0x50,0x47,0x3a,0x3a,0x4d,0x6f,0x76,0x65,0x52,0x6f,0x75,0x74,0x65,0x09,0x3a,0x0c,0x40,0x72,0x65,0x70,0x65,0x61,0x74,0x46,0x3a,0x0f,0x40,0x73,0x6b,0x69,0x70,0x70,0x61,0x62,0x6c,0x65,0x46,0x3a,0x0a,0x40,0x77,0x61,0x69,0x74,0x54,0x3a,0x0a,0x40,0x6c,0x69,0x73,0x74,0x5b,0x07,0x6f,0x3a,0x15,0x52,0x50,0x47,0x3a,0x3a,0x4d,0x6f,0x76,0x65,0x43,0x6f,0x6d,0x6d,0x61,0x6e,0x64,0x07,0x3a,0x0a,0x40,0x63,0x6f,0x64,0x65,0x69,0x16,0x3a,0x10,0x40,0x70,0x61,0x72,0x61,0x6d,0x65,0x74,0x65,0x72,0x73,0x5b,0x00,0x6f,0x3b,0x0a,0x07,0x3b,0x0b,0x69,0x00,0x3b,0x0c,0x5b,0x00))
 ChangeSwitch(32,32,0)
 222()
 0()
EndIf()
241(bytes(0x04,0x08,0x6f,0x3a,0x0d,0x52,0x50,0x47,0x3a,0x3a,0x42,0x47,0x4d,0x08,0x3a,0x0a,0x40,0x6e,0x61,0x6d,0x65,0x49,0x22,0x09,0x65,0x72,0x6f,0x31,0x06,0x3a,0x06,0x45,0x54,0x3a,0x0c,0x40,0x76,0x6f,0x6c,0x75,0x6d,0x65,0x69,0x69,0x3a,0x0b,0x40,0x70,0x69,0x74,0x63,0x68,0x69,0x69))
ShowMessageFace("nemea_fc1",0,0,2,1)
ShowMessage("【ネメア】")
ShowMessage("うふふっ、それじゃあ……")
ShowMessage("おっぱいで、吸ってあげるわね。")
ShowMessageFace("",0,0,2,2)
ShowMessage("【ルカ】")
ShowMessage("あ……あぁぁ……")
245(bytes(0x04,0x08,0x6f,0x3a,0x0d,0x52,0x50,0x47,0x3a,0x3a,0x42,0x47,0x53,0x08,0x3a,0x0a,0x40,0x6e,0x61,0x6d,0x65,0x49,0x22,0x17,0x6d,0x6f,0x6e,0x5f,0x68,0x73,0x65,0x61,0x6e,0x31,0x37,0x5f,0x73,0x69,0x67,0x6f,0x6b,0x69,0x06,0x3a,0x06,0x45,0x54,0x3a,0x0c,0x40,0x76,0x6f,0x6c,0x75,0x6d,0x65,0x69,0x55,0x3a,0x0b,0x40,0x70,0x69,0x74,0x63,0x68,0x69,0x69))
ShowMessageFace("",0,0,2,3)
ShowMessage("僕のモノが、ネメアの豊満なおっぱいに挟まれた。")
ShowMessage("悪魔的な柔らかさが、肉棒を優しく包み込んでくる。")
ShowMessageFace("",0,0,2,4)
ShowMessage("そして、とろけそうなほどの温もり――")
ShowMessage("それはペニスにじんわりと侵蝕し、極限まで甘やかした。")
ShowMessageFace("",0,0,2,5)
ShowMessage("【ルカ】")
ShowMessage("はぅ……ふぁぁぁ……")
ShowMessageFace("",0,0,2,6)
ShowMessage("たちまち僕の理性は吹き飛び、恍惚に浸ってしまう。")
ShowMessage("ネメアの胸の谷間は、どんな男でも蕩かす天国だった。")
ShowMessageFace("nemea_fc1",1,0,2,7)
ShowMessage("【ネメア】")
ShowMessage("うふふっ、気持ち良さそうなお顔……")
ShowMessage("とってもかわいい……♡")
ShowMessageFace("nemea_fc1",1,0,2,8)
ShowMessage("【ネメア】")
ShowMessage("そのまま、お漏らししてもいいのよ♡")
ShowMessageFace("",0,0,2,9)
ShowMessage("【ルカ】")
ShowMessage("はぅぅぅぅ……")
ShowMessageFace("",0,0,2,10)
ShowMessage("甘い快感に、胸の谷間のペニスまでとろけるかのよう。")
ShowMessage("柔らかな楽園の中で、肉棒はびくびくと脈動を始め――")
RunCommonEvent(104)
RunCommonEvent(105)
ShowMessageFace("",0,0,2,11)
ShowMessage("うっとりしながら、大量の精液をネメアの胸へと吐き出していた。")
ShowMessage("あまりの気持ち良さに、腰がぶるぶると震えてしまう――")
ShowMessageFace("",0,0,2,12)
ShowMessage("【ルカ】")
ShowMessage("あ……あぁぁ……")
ShowMessageFace("nemea_fc1",0,0,2,13)
ShowMessage("【ネメア】")
ShowMessage("あらあら、たっぷり漏らしたわね。")
ShowMessage("私のおっぱい、こんなにしちゃって……♡")
ShowMessageFace("",0,0,2,14)
ShowMessage("ネメアのおっぱいは、僕が放出した精液にまみれていた。")
ShowMessage("うっとりしながら、その淫靡な光景を眺めてしまう――")
ShowMessageFace("nemea_fc1",0,0,2,15)
ShowMessage("【ネメア】")
ShowMessage("うふふっ、もっともっと出していいのよ。")
ShowMessage("全部、出し尽くして……干涸らびるまでね♡")
ShowMessageFace("",0,0,2,16)
ShowMessage("【ルカ】")
ShowMessage("あ……そ、そんな――")
ShowMessageFace("",0,0,2,17)
ShowMessage("不意に僕は、現実に引き戻された。")
ShowMessage("そう――今、ネメアのおっぱいで捕食されているのだ。")
ShowMessageFace("",0,0,2,18)
ShowMessage("これは、男を恍惚に誘って精を吸い尽くす罠そのもの。")
ShowMessage("このままでは、死ぬまで生命を搾取されてしまう――")
ShowMessageFace("",0,0,2,19)
ShowMessage("【ルカ】")
ShowMessage("や、やめて……離してぇ……")
ShowMessageFace("nemea_fc1",5,0,2,20)
ShowMessage("【ネメア】")
ShowMessage("あら……もう逃げられないわよ。")
ShowMessage("死んでしまうまでね……♡")
ShowMessageFace("",0,0,2,21)
ShowMessage("【ルカ】")
ShowMessage("はぅぅぅっ……！！")
ShowMessageFace("",0,0,2,22)
ShowMessage("ネメアのおっぱいが、ペニスから吸精を始める。")
ShowMessage("腰さえ引けないほどの快感で、抵抗の意も奪われた。")
ShowMessageFace("",0,0,2,23)
ShowMessage("男の快楽処刑場と化した胸の谷間で、")
ShowMessage("ペニスがびくびくと脈動し――")
ShowMessageFace("",0,0,2,24)
ShowMessage("【ルカ】")
ShowMessage("あ……あぁぁっ！！")
RunCommonEvent(104)
RunCommonEvent(105)
ShowMessageFace("",0,0,2,25)
ShowMessage("そのまま、ドクドクと精液を吐き散らした。")
ShowMessage("まるで、傷口から大量の血が溢れ出るかのように――")
ShowMessageFace("",0,0,2,26)
ShowMessage("【ルカ】")
ShowMessage("はぅぅ……だめぇ、助けてぇ……！")
ShowMessageFace("",0,0,2,27)
ShowMessage("頭に侵蝕する恍惚感に抗うように、僕は体を引こうとする。")
ShowMessage("しかし、おっぱいに挟まれたペニスは逃げられない。")
ShowMessageFace("",0,0,2,28)
ShowMessage("そのまま、じわじわと精気を奪われていき――")
ShowMessage("甘い吸精に伴う、とろけそうな快楽を味わい――")
RunCommonEvent(104)
RunCommonEvent(105)
ShowMessageFace("",0,0,2,29)
ShowMessage("【ルカ】")
ShowMessage("はぅぅぅ……い、イヤだぁ……")
ShowMessageFace("",0,0,2,30)
ShowMessage("射精を繰り返すたび、体の力が抜けていく。")
ShowMessage("これは、魔性の快楽による嫐り殺しそのものだった。")
ShowMessageFace("nemea_fc1",5,0,2,31)
ShowMessage("【ネメア】")
ShowMessage("うふふっ、そんなに怖がらなくていいわよ。")
ShowMessage("最高の快楽の中で、昇天させてあげる……♡")
ShowMessageFace("",0,0,2,32)
ShowMessage("【ルカ】")
ShowMessage("あ……ふぁぁぁぁ……")
RunCommonEvent(104)
RunCommonEvent(105)
ShowMessageFace("",0,0,2,33)
ShowMessage("ドクドクと溢れ、おっぱいに吸われていく精液。")
ShowMessage("天国のような快楽で、恐怖も恍惚に塗り潰されていく。")
RunCommonEvent(104)
RunCommonEvent(105)
ShowMessageFace("",0,0,2,34)
ShowMessage("【ルカ】")
ShowMessage("ぁ……ぅぁぁ……")
ShowMessageFace("",0,0,2,35)
ShowMessage("出せば出すほど、体の力が失われていき――")
ShowMessage("ついには、意識さえ薄れてしまい――")
246(2)
RunCommonEvent(104)
RunCommonEvent(105)
ShowMessageFace("",0,0,2,36)
ShowMessage("【ルカ】")
ShowMessage("……………………")
ShowMessageFace("nemea_fc1",0,0,2,37)
ShowMessage("【ネメア】")
ShowMessage("うふふっ、天国に逝ったみたいね。")
ShowMessageFace("nemea_fc1",1,0,2,38)
ShowMessage("【ネメア】")
ShowMessage("ぼうやの精、とっても美味しかったわ……♡")
ShowMessage("ごちそうさま……♡")
ShowMessageFace("",0,0,2,39)
ShowMessage("こうしてネメアの胸で搾り尽くされ、僕は屍と化した。")
ShowMessage("天国の快楽を味わいながら、昇天したのである――")
221()
246(2)
PictureClear(5)
PictureClear(6)
ShowMessageFace("",0,0,2,40)
ShowMessage("・・・・・・・・")
221()
242(1)
Wait(120)
ChangeSwitch(32,32,0)
If(0,443,0)
 EndEventProcessing()
 0()
EndIf()
RunCommonEvent(541)
0()
