﻿// EVENT 5832
Name "R妖鬼"

If(0,443,0)
 PictureDisplay(5,"80_youki_st01",0,0,0,0,100,100,255,0)
 0()
EndIf()
241(bytes(0x04,0x08,0x6f,0x3a,0x0d,0x52,0x50,0x47,0x3a,0x3a,0x42,0x47,0x4d,0x08,0x3a,0x0a,0x40,0x6e,0x61,0x6d,0x65,0x49,0x22,0x09,0x65,0x72,0x6f,0x31,0x06,0x3a,0x06,0x45,0x54,0x3a,0x0c,0x40,0x76,0x6f,0x6c,0x75,0x6d,0x65,0x69,0x69,0x3a,0x0b,0x40,0x70,0x69,0x74,0x63,0x68,0x69,0x69))
205(59,bytes(0x04,0x08,0x6f,0x3a,0x13,0x52,0x50,0x47,0x3a,0x3a,0x4d,0x6f,0x76,0x65,0x52,0x6f,0x75,0x74,0x65,0x09,0x3a,0x0c,0x40,0x72,0x65,0x70,0x65,0x61,0x74,0x46,0x3a,0x0f,0x40,0x73,0x6b,0x69,0x70,0x70,0x61,0x62,0x6c,0x65,0x46,0x3a,0x0a,0x40,0x77,0x61,0x69,0x74,0x54,0x3a,0x0a,0x40,0x6c,0x69,0x73,0x74,0x5b,0x08,0x6f,0x3a,0x15,0x52,0x50,0x47,0x3a,0x3a,0x4d,0x6f,0x76,0x65,0x43,0x6f,0x6d,0x6d,0x61,0x6e,0x64,0x07,0x3a,0x0a,0x40,0x63,0x6f,0x64,0x65,0x69,0x29,0x3a,0x10,0x40,0x70,0x61,0x72,0x61,0x6d,0x65,0x74,0x65,0x72,0x73,0x5b,0x00,0x6f,0x3b,0x0a,0x07,0x3b,0x0b,0x69,0x1e,0x3b,0x0c,0x5b,0x00,0x6f,0x3b,0x0a,0x07,0x3b,0x0b,0x69,0x00,0x3b,0x0c,0x5b,0x00))
ShowMessageFace("youki_fc1",0,0,2,1)
ShowMessage("【くれは】")
ShowMessage("よくも、美味そうな獲物を逃がしてくれたよな。")
ShowMessage("代わりに、お前が餌食になってもらうぞ……")
ShowMessageFace("",0,0,2,2)
ShowMessage("【ルカ】")
ShowMessage("そんな、理不尽な――うわぁっ！！")
ShowMessageFace("",0,0,2,3)
ShowMessage("僕はあっという間に、くれはにぎゅっと抱え込まれ――")
245(bytes(0x04,0x08,0x6f,0x3a,0x0d,0x52,0x50,0x47,0x3a,0x3a,0x42,0x47,0x53,0x08,0x3a,0x0a,0x40,0x6e,0x61,0x6d,0x65,0x49,0x22,0x1e,0x6d,0x6f,0x6e,0x5f,0x68,0x73,0x65,0x61,0x6e,0x30,0x33,0x5f,0x69,0x6e,0x6e,0x65,0x72,0x77,0x6f,0x72,0x6b,0x73,0x5f,0x61,0x33,0x06,0x3a,0x06,0x45,0x54,0x3a,0x0c,0x40,0x76,0x6f,0x6c,0x75,0x6d,0x65,0x69,0x55,0x3a,0x0b,0x40,0x70,0x69,0x74,0x63,0x68,0x69,0x69))
PictureDisplay(5,"ev_youki_hc1",0,0,0,0,100,100,255,0)
ShowMessageFace("",0,0,2,4)
ShowMessage("その筋肉質の体で、がっしりと抱き締められてしまった。")
ShowMessage("頭が強引におっぱいへと押しつけられ、柔らかな谷間に挟み込まれてしまう。")
PictureDisplay(6,"ev_youki_hc3",0,0,0,0,100,100,255,0)
ShowMessageFace("",0,0,2,5)
ShowMessage("【ルカ】")
ShowMessage("う、うぅぅっ……")
ShowMessageFace("youki_fc1",0,0,2,6)
ShowMessage("【くれは】")
ShowMessage("これが、乳固めってワザだ。")
ShowMessage("これだけでも、イっちまう男は多いんだぜ……")
ShowMessageFace("",0,0,2,7)
ShowMessage("【ルカ】")
ShowMessage("うぐ、離してぇ……うぅぅっ……")
ShowMessageFace("",0,0,2,8)
ShowMessage("きつめの抱擁と、柔らかなおっぱいの密着感。")
ShowMessage("僕はくれはから逃れようともがいたが、脱出できそうにない――")
ShowMessageFace("youki_fc1",0,0,2,9)
ShowMessage("【くれは】")
ShowMessage("さらに、このまま……")
ShowMessage("肉壺万力搾りに持ち込んでやるのさ！")
ShowMessageFace("",0,0,2,10)
ShowMessage("くれはは、腰を巧みに動かし――")
ShowMessage("その肉壺に、僕のモノを咥え込んできた！")
ShowMessageFace("",0,0,2,11)
ShowMessage("【ルカ】")
ShowMessage("はぅっ……あ、あぁぁぁぁ～～！！")
ShowMessageFace("",0,0,2,12)
ShowMessage("その瞬間、僕は思わず悲鳴を上げていた。")
ShowMessage("くれはの肉壺が、みっしりとペニスを締め上げてきたのだ――")
ShowMessageFace("youki_fc1",0,0,2,13)
ShowMessage("【くれは】")
ShowMessage("アソコの筋肉も、もちろん鍛えてるからな。")
ShowMessage("こうやって締めてやるだけで、男はみんな天国行きだぜ！")
ShowMessageFace("",0,0,2,14)
ShowMessage("【ルカ】")
ShowMessage("あぅぅぅぅぅ～～！！")
ShowMessageFace("",0,0,2,15)
ShowMessage("きつく狭まり、ぎゅうぎゅうと締め上げてくる肉壁。")
ShowMessage("柔肉がじゅぶじゅぶと収縮し、ペニスを揉み潰す――")
ShowMessageFace("",0,0,2,16)
ShowMessage("強烈な快楽刺激で責められ、僕は即座に音を上げてしまった。")
ShowMessage("万力のように締まる膣内で、ペニスがびくびくと脈動し――")
RunCommonEvent(104)
PictureDisplay(5,"ev_youki_hc2",0,0,0,0,100,100,255,0)
RunCommonEvent(105)
ShowMessageFace("",0,0,2,17)
ShowMessage("そして、ドクドクと精液を発射してしまう。")
ShowMessage("鍛え抜かれた名器で、即座にイかされてしまったのだ――")
ShowMessageFace("",0,0,2,18)
ShowMessage("【ルカ】")
ShowMessage("はぅぅぅぅっ……")
ShowMessageFace("youki_fc1",0,0,2,19)
ShowMessage("【くれは】")
ShowMessage("ははっ、まだまだ搾ってやるぜ。")
ShowMessage("ほぉら、たっぷりと精をぶち撒けな！")
ShowMessageFace("",0,0,2,20)
ShowMessage("【ルカ】")
ShowMessage("そんな――あぅ、あぁぁっ！！")
RunCommonEvent(104)
RunCommonEvent(105)
ShowMessageFace("",0,0,2,21)
ShowMessage("その後も僕は、延々とくれはの名器で嫐られ――")
ShowMessage("ひたすらに精を搾り抜かれた。")
ShowMessageFace("",0,0,2,22)
ShowMessage("泣いても叫んでも、その肉壺に精液を搾り抜かれ――")
ShowMessage("そのまま、くれはの胸の中で意識を失ってしまったのである――")
221()
PictureClear(5)
PictureClear(6)
242(1)
246(1)
ShowMessageFace("",0,0,2,23)
ShowMessage("・・・・・・・・")
221()
Wait(120)
If(0,443,0)
 EndEventProcessing()
 0()
EndIf()
RunCommonEvent(541)
0()
