// EVENT 1138
Name "Talk: Shadow Girl"

If(1,20,0,1,0)
 JumpToLabel("情報")
 0()
EndIf()
If(1,20,0,2,0)
 JumpToLabel("質問")
 0()
EndIf()
If(1,20,0,3,0)
 JumpToLabel("要求")
 0()
EndIf()
If(1,20,0,4,0)
 JumpToLabel("贈与")
 0()
EndIf()
DefineLabel("情報")
ChangeVariable(13,13,0,2,1,100)
If(1,13,0,10,2)
 ShowMessageFace("shadow_fc1",0,0,2,1)
 ShowMessage("\\n<Shadow Girl>I am like a ghost... A soul drifting in this world that obtained power...")
 EndEventProcessing()
 0()
EndIf()
If(1,13,0,20,2)
 ShowMessageFace("shadow_fc1",0,0,2,2)
 ShowMessage("\\n<Shadow Girl>......")
 EndEventProcessing()
 0()
EndIf()
If(1,13,0,30,2)
 ShowMessageFace("shadow_fc1",0,0,2,3)
 ShowMessage("\\n<Shadow Girl>I don't want... to talk...")
 EndEventProcessing()
 0()
EndIf()
If(1,13,0,40,2)
 ShowMessageFace("shadow_fc1",0,0,2,4)
 ShowMessage("\\n<Shadow Girl>You are not an apoptosis...? Regardless, I will get rid of you...")
 EndEventProcessing()
 0()
EndIf()
If(1,13,0,50,2)
 ShowMessageFace("shadow_fc1",0,0,2,5)
 ShowMessage("\\n<Shadow Girl>I am a shadow...")
 EndEventProcessing()
 0()
EndIf()
If(1,13,0,60,2)
 ShowMessageFace("shadow_fc1",0,0,2,6)
 ShowMessage("\\n<Shadow Girl>Shadows have nothing to say...")
 EndEventProcessing()
 0()
EndIf()
If(1,13,0,70,2)
 ShowMessageFace("shadow_fc1",0,0,2,7)
 ShowMessage("\\n<Shadow Girl>This world will disappear...")
 EndEventProcessing()
 0()
EndIf()
If(1,13,0,80,2)
 ShowMessageFace("shadow_fc1",0,0,2,8)
 ShowMessage("\\n<Shadow Girl>Only... regret...")
 EndEventProcessing()
 0()
EndIf()
If(1,13,0,90,2)
 ShowMessageFace("shadow_fc1",0,0,2,9)
 ShowMessage("\\n<Shadow Girl>I sacrificed myself for this disappearing world...")
 EndEventProcessing()
 0()
EndIf()
If(1,13,0,100,2)
 ShowMessageFace("shadow_fc1",0,0,2,10)
 ShowMessage("\\n<Shadow Girl>You all... Everything...")
 EndEventProcessing()
 0()
EndIf()
DefineLabel("質問")
ChangeVariable(13,13,0,2,1,50)
If(1,13,0,10,2)
 ShowMessageFace("shadow_fc1",0,0,2,11)
 ShowMessage("\\n<Shadow Girl>You all... came from a different world...? What kind of world is it...?")
 ShowChoices(strings("An ordinary world","A heavenly world","A hellish world"),0)
 IfPlayerPicksChoice(0,"普通の世界")
  ShowMessageFace("shadow_fc1",0,0,2,12)
  ShowMessage("\\n<Shadow Girl>An all-around ordinary world...? Still, I miss that...")
  355("change_friend(10)")
  0()
 IfPlayerPicksChoice(1,"天国のような世界")
  ShowMessageFace("shadow_fc1",0,0,2,13)
  ShowMessage("\\n<Shadow Girl>I'm jealous... Still, that world will also...")
  0()
 IfPlayerPicksChoice(2,"地獄のような世界")
  ShowMessageFace("shadow_fc1",0,0,2,14)
  ShowMessage("\\n<Shadow Girl>There is no hell worse than this...")
  0()
 404()
 EndEventProcessing()
 0()
EndIf()
If(1,13,0,20,2)
 ShowMessageFace("shadow_fc1",0,0,2,15)
 ShowMessage("\\n<Shadow Girl>........What?")
 ShowChoices(strings("I want to talk for a bit","En garde!","Nothing in particular"),0)
 IfPlayerPicksChoice(0,"少しおしゃべりしたい")
  ShowMessageFace("shadow_fc1",0,0,2,16)
  ShowMessage("\\n<Shadow Girl>Strange human... No, people are like that...")
  355("change_friend(10)")
  0()
 IfPlayerPicksChoice(1,"いざ尋常に勝負！")
  ShowMessageFace("shadow_fc1",0,0,2,17)
  ShowMessage("\\n<Shadow Girl>That feels outdated... Where are you from...?")
  0()
 IfPlayerPicksChoice(2,"特に何も無い")
  ShowMessageFace("shadow_fc1",0,0,2,18)
  ShowMessage("\\n<Shadow Girl>I see...")
  0()
 404()
 EndEventProcessing()
 0()
EndIf()
If(1,13,0,30,2)
 ShowMessageFace("shadow_fc1",0,0,2,19)
 ShowMessage("\\n<Shadow Girl>To perish... That is what the world has decided...")
 ShowChoices(strings("That's not true","That's true","That's my intention"),0)
 IfPlayerPicksChoice(0,"そんな事はない")
  ShowMessageFace("shadow_fc1",0,0,2,20)
  ShowMessage("\\n<Shadow Girl>Then prove it... Before everything becomes like this world...")
  0()
 IfPlayerPicksChoice(1,"そうだ")
  ShowMessageFace("shadow_fc1",0,0,2,21)
  ShowMessage("\\n<Shadow Girl>Then everything will disappear...")
  355("change_friend(-5)")
  0()
 IfPlayerPicksChoice(2,"僕の意志だ")
  ShowMessageFace("shadow_fc1",0,0,2,22)
  ShowMessage("\\n<Shadow Girl>Outrageous...")
  355("change_friend(-5)")
  0()
 404()
 EndEventProcessing()
 0()
EndIf()
If(1,13,0,40,2)
 ShowMessageFace("shadow_fc1",0,0,2,23)
 ShowMessage("\\n<Shadow Girl>Do you ever hear anything from your shadow?")
 ShowChoices(strings("I don't hear anything","I hear a whispering voice","I hear a voice giving me commands"),0)
 IfPlayerPicksChoice(0,"聞こえない")
  ShowMessageFace("shadow_fc1",0,0,2,24)
  ShowMessage("\\n<Shadow Girl>Shadows speak to their master... Listen to that voice...")
  0()
 IfPlayerPicksChoice(1,"囁き声が聞こえる")
  ShowMessageFace("shadow_fc1",0,0,2,25)
  ShowMessage("\\n<Shadow Girl>Good...")
  355("change_friend(10)")
  0()
 IfPlayerPicksChoice(2,"働けと命じる声がする")
  ShowMessageFace("shadow_fc1",0,0,2,26)
  ShowMessage("\\n<Shadow Girl>That is a mental illness... Please go to a hospital...")
  0()
 404()
 EndEventProcessing()
 0()
EndIf()
If(1,13,0,50,2)
 ShowMessageFace("shadow_fc1",0,0,2,27)
 ShowMessage("\\n<Shadow Girl>Leave this place...")
 ShowChoices(strings("I'll leave","I won't leave","You leave"),0)
 IfPlayerPicksChoice(0,"去る")
  ShowMessageFace("shadow_fc1",0,0,2,28)
  ShowMessage("\\n<Shadow Girl>Are you really going to leave...? What did you come here for...?")
  355("change_friend(-5)")
  0()
 IfPlayerPicksChoice(1,"去らない")
  ShowMessageFace("shadow_fc1",0,0,2,29)
  ShowMessage("\\n<Shadow Girl>With such determination, the world will...")
  355("change_friend(10)")
  0()
 IfPlayerPicksChoice(2,"お前が去れ")
  ShowMessageFace("shadow_fc1",0,0,2,30)
  ShowMessage("\\n<Shadow Girl>That is unnecessary... I'll disappear sooner or later...")
  0()
 404()
 EndEventProcessing()
 0()
EndIf()
DefineLabel("要求")
ChangeVariable(13,13,0,2,1,30)
If(1,13,0,10,2)
 If(8,442)
  ShowMessageFace("shadow_fc1",0,0,2,31)
  ShowMessage("\\n<Shadow Girl>What is that bone...? I hear a lost voice...")
  ChangeVariable(24,24,0,3,0,442,0)
  ShowMessageFace("",0,0,2,32)
  ShowMessage("Do you want to give a \\ii[442]? (Have:\\V[24])")
  ShowChoices(strings("Yes","No"),2)
  IfPlayerPicksChoice(0,"Yes")
   ShowMessageFace("shadow_fc1",0,0,2,33)
   ShowMessage("\\n<Shadow Girl>You seek... the sea... If you can return to the sea...")
   ChangeInventory_Item(442,1,0,1)
   355("change_friend(20)")
   EndEventProcessing()
   0()
  IfPlayerPicksChoice(1,"No")
   ShowMessageFace("shadow_fc1",0,0,2,34)
   ShowMessage("\\n<Shadow Girl>......")
   EndEventProcessing()
   0()
  404()
  0()
 Else()
  ChangeVariable(13,13,0,0,20)
  0()
 EndIf()
 0()
EndIf()
If(1,13,0,20,2)
 If(8,444)
  ShowMessageFace("shadow_fc1",0,0,2,35)
  ShowMessage("\\n<Shadow Girl>What is that bone...? I hear a lost voice...")
  ChangeVariable(24,24,0,3,0,444,0)
  ShowMessageFace("",0,0,2,36)
  ShowMessage("Do you want to give a \\ii[444]? (Have:\\V[24])")
  ShowChoices(strings("Yes","No"),2)
  IfPlayerPicksChoice(0,"Yes")
   ShowMessageFace("shadow_fc1",0,0,2,37)
   ShowMessage("\\n<Shadow Girl>You seek... peace... If you can return to the earth...")
   ChangeInventory_Item(444,1,0,1)
   355("change_friend(30)")
   EndEventProcessing()
   0()
  IfPlayerPicksChoice(1,"No")
   ShowMessageFace("shadow_fc1",0,0,2,38)
   ShowMessage("\\n<Shadow Girl>......")
   EndEventProcessing()
   0()
  404()
  0()
 Else()
  ChangeVariable(13,13,0,0,30)
  0()
 EndIf()
 0()
EndIf()
If(1,13,0,30,2)
 ShowMessageFace("shadow_fc1",0,0,2,39)
 ShowMessage("\\n<Shadow Girl>Even as a shadow, the desire for money does not vanish...")
 If(7,549,0)
  ChangeVariable(24,24,0,3,7,2,0)
  ShowMessageFace("",0,0,2,40)
  ShowMessage("Do you want to give 549G? (Remaining: \\V[24])")
  ShowChoices(strings("Yes","No"),2)
  IfPlayerPicksChoice(0,"Yes")
   ShowMessageFace("shadow_fc1",0,0,2,41)
   ShowMessage("\\n<Shadow Girl>I have no use for it, but...")
   125(1,0,549)
   355("change_friend(25)")
   EndEventProcessing()
   0()
  IfPlayerPicksChoice(1,"No")
   ShowMessageFace("shadow_fc1",0,0,2,42)
   ShowMessage("\\n<Shadow Girl>......")
   EndEventProcessing()
   0()
  404()
  0()
 Else()
  ShowMessageFace("shadow_fc1",0,0,2,43)
  ShowMessage("\\n<Shadow Girl>...But you don't have any...")
  EndEventProcessing()
  0()
 EndIf()
 0()
EndIf()
DefineLabel("贈与")
ChangeVariable(13,13,0,2,1,30)
If(1,25,0,1,0)
 ChangeVariable(13,13,0,0,30)
 ChangeVariable(25,25,0,0,0)
 0()
EndIf()
If(1,25,0,2,0)
 ChangeVariable(13,13,0,2,1,20)
 ChangeVariable(25,25,0,0,0)
 0()
EndIf()
If(1,13,0,10,2)
 ShowMessageFace("shadow_fc1",0,0,2,44)
 ShowMessage("\\n<Shadow Girl>Part of this body... Take it...")
 250(bytes(0x04,0x08,0x6f,0x3a,0x0c,0x52,0x50,0x47,0x3a,0x3a,0x53,0x45,0x08,0x3a,0x0a,0x40,0x6e,0x61,0x6d,0x65,0x49,0x22,0x0a,0x49,0x74,0x65,0x6d,0x31,0x06,0x3a,0x06,0x45,0x54,0x3a,0x0b,0x40,0x70,0x69,0x74,0x63,0x68,0x69,0x69,0x3a,0x0c,0x40,0x76,0x6f,0x6c,0x75,0x6d,0x65,0x69,0x55))
 ChangeInventory_Item(185,0,0,1)
 ShowMessageFace("",0,0,2,45)
 ShowMessage("The Shadow Girl gave you some \\ii[185]!")
 EndEventProcessing()
 0()
EndIf()
If(1,13,0,20,2)
 ShowMessageFace("shadow_fc1",0,0,2,46)
 ShowMessage("\\n<Shadow Girl>This was rolling around... Take it...")
 250(bytes(0x04,0x08,0x6f,0x3a,0x0c,0x52,0x50,0x47,0x3a,0x3a,0x53,0x45,0x08,0x3a,0x0a,0x40,0x6e,0x61,0x6d,0x65,0x49,0x22,0x0a,0x49,0x74,0x65,0x6d,0x31,0x06,0x3a,0x06,0x45,0x54,0x3a,0x0b,0x40,0x70,0x69,0x74,0x63,0x68,0x69,0x69,0x3a,0x0c,0x40,0x76,0x6f,0x6c,0x75,0x6d,0x65,0x69,0x55))
 ChangeInventory_Item(80,0,0,1)
 ShowMessageFace("",0,0,2,47)
 ShowMessage("The Shadow Girl gave you a \\ii[80]!")
 EndEventProcessing()
 0()
EndIf()
If(1,13,0,30,2)
 ShowMessageFace("shadow_fc1",0,0,2,48)
 ShowMessage("\\n<Shadow Girl>I cannot use it in this world... Take it...")
 250(bytes(0x04,0x08,0x6f,0x3a,0x0c,0x52,0x50,0x47,0x3a,0x3a,0x53,0x45,0x08,0x3a,0x0a,0x40,0x6e,0x61,0x6d,0x65,0x49,0x22,0x0a,0x49,0x74,0x65,0x6d,0x31,0x06,0x3a,0x06,0x45,0x54,0x3a,0x0b,0x40,0x70,0x69,0x74,0x63,0x68,0x69,0x69,0x3a,0x0c,0x40,0x76,0x6f,0x6c,0x75,0x6d,0x65,0x69,0x55))
 125(0,0,915)
 ShowMessageFace("",0,0,2,49)
 ShowMessage("The Shadow Girl gave you 915G!")
 EndEventProcessing()
 0()
EndIf()
0()
