// EVENT 5096
Name "Ghoul1"

PictureDisplay(5,"80_gool_st01",0,0,0,0,100,100,0,0)
PictureDisplay(6,"80_gool_st11",0,0,0,0,100,100,0,0)
PictureDisplay(7,"80_gool_st21",0,0,0,0,100,100,0,0)
PictureMove(5,null,0,0,0,0,100,100,255,0,30,false)
PictureMove(6,null,0,0,0,0,100,100,255,0,30,false)
PictureMove(7,null,0,0,0,0,100,100,255,0,30,true)
ShowMessageFace("",0,0,2,1)
ShowMessage("\\n<Luka>")
ShowMessage("P-please...")
ShowMessageFace("gool_fc1",2,0,2,2)
ShowMessage("\\n<GhoulA>")
ShowMessage("Semen...Suck...")
ShowMessageFace("gool_fc1",1,0,2,3)
ShowMessage("\\n<GhoulB>")
ShowMessage("Ah...Ugh...")
ShowMessageFace("",0,0,2,4)
ShowMessage("\\n<Luka>")
ShowMessage("...wait a minute!")
ShowMessage("Waah, too rough!")
ShowMessageFace("",0,0,2,5)
ShowMessage("The girls pull me down and cling to me.")
ShowMessage("One of them mounts me and guides my penis to her vagina...")
ShowMessageFace("",0,0,2,6)
ShowMessage("\\n<Luka>")
ShowMessage("Aaah...S-stop...!")
PictureClear(6)
PictureClear(7)
241(bytes(0x04,0x08,0x6f,0x3a,0x0d,0x52,0x50,0x47,0x3a,0x3a,0x42,0x47,0x4d,0x08,0x3a,0x0a,0x40,0x6e,0x61,0x6d,0x65,0x49,0x22,0x09,0x65,0x72,0x6f,0x31,0x06,0x3a,0x06,0x45,0x54,0x3a,0x0c,0x40,0x76,0x6f,0x6c,0x75,0x6d,0x65,0x69,0x69,0x3a,0x0b,0x40,0x70,0x69,0x74,0x63,0x68,0x69,0x69))
245(bytes(0x04,0x08,0x6f,0x3a,0x0d,0x52,0x50,0x47,0x3a,0x3a,0x42,0x47,0x53,0x08,0x3a,0x0a,0x40,0x6e,0x61,0x6d,0x65,0x49,0x22,0x1e,0x6d,0x6f,0x6e,0x5f,0x68,0x73,0x65,0x61,0x6e,0x31,0x30,0x5f,0x69,0x6e,0x6e,0x65,0x72,0x77,0x6f,0x72,0x6b,0x73,0x5f,0x62,0x32,0x06,0x3a,0x06,0x45,0x54,0x3a,0x0c,0x40,0x76,0x6f,0x6c,0x75,0x6d,0x65,0x69,0x55,0x3a,0x0b,0x40,0x70,0x69,0x74,0x63,0x68,0x69,0x69))
PictureDisplay(5,"ev_gool_h1",0,0,0,0,100,100,0,0)
PictureMove(5,null,0,0,0,0,100,100,255,0,30,true)
ShowMessageFace("",0,0,2,7)
ShowMessage("In one swift motion, she lowers her waist and takes my penis inside her!")
ShowMessageFace("",0,0,2,8)
ShowMessage("\\n<Luka>")
ShowMessage("Hya! Ah, Aaaaah...")
ShowMessageFace("",0,0,2,9)
ShowMessage("Her vagina is not very tight but her soft slimy flesh rubs against my penis.")
ShowMessage("It feels like sticky mucus is dripping on my penis.")
ShowMessageFace("",0,0,2,10)
ShowMessage("There is nothing more detestable than intersecting with a corpse.")
ShowMessage("I broke the taboo by mating with an undead...")
ShowMessageFace("",0,0,2,11)
ShowMessage("\\n<Luka>")
ShowMessage("S-stop...Auuu...")
ShowMessageFace("",0,0,2,12)
ShowMessage("Even if I managed to push the one on top of me off it was useless.")
ShowMessage("I'm deprived of my freedom by the other ghouls holding me down.")
ShowMessageFace("",0,0,2,13)
ShowMessage("I had no choice but to be raped by this corpse.")
ShowMessage("My thing inside this dead vagina, forced to feel the pleasure...")
ShowMessageFace("gool_fc1",2,0,2,14)
ShowMessage("\\n<GhoulA>")
ShowMessage("Sucking...")
ShowMessage("En...Energy...")
ShowMessageFace("",0,0,2,15)
ShowMessage("All of a sudden, a numbing sensation hits my penis.")
ShowMessage("I feel weakness and ecstasy spreading through me...")
ShowMessageFace("",0,0,2,16)
ShowMessage("\\n<Luka>")
ShowMessage("Th-this is...Auuu...")
ShowMessageFace("",0,0,2,17)
ShowMessage("There's no doubt about it, my energy is being absorbed.")
ShowMessage("Through sex, the Ghouls drain one's life.")
ShowMessageFace("",0,0,2,18)
ShowMessage("Instead of being sucked out all at once, they gradually absorb it...")
ShowMessage("Fear sets in as I come to that realization.")
ShowMessageFace("",0,0,2,19)
ShowMessage("My energy is slowly being sucked out and I feel weaker and weaker.")
ShowMessage("Until it runs out and my life ends...")
ShowMessageFace("",0,0,2,20)
ShowMessage("\\n<Luka>")
ShowMessage("Get off...! Hyaaa...!")
ShowMessageFace("gool_fc1",2,0,2,21)
ShowMessage("\\n<GhoulA>")
ShowMessage("No escape...")
ShowMessageFace("",0,0,2,22)
ShowMessage("I desperately try to get the girls off me...")
ShowMessage("But my attempts end in failure.")
ShowMessageFace("",0,0,2,23)
ShowMessage("Meanwhile, my penis is pleasured inside the Ghoul's vagina...")
ShowMessage("Aside from being forced to feel pleasure, I slowly feel my energy being drained away.")
ShowMessageFace("",0,0,2,24)
ShowMessage("I have to pay the price for this sweet pleasure.")
ShowMessage("Mucus keeps dripping on my penis inside her loose pussy...")
ShowMessageFace("",0,0,2,25)
ShowMessage("\\n<Luka>")
ShowMessage("S-stop...Aaaah...")
ShowMessageFace("",0,0,2,26)
ShowMessage("Numbness spreads from the back of my waist.")
ShowMessage("A sweet paralysis spreads though me, unlike a normal ejaculation.")
ShowMessageFace("",0,0,2,27)
ShowMessage("If this keeps up, I'm going to shoot my semen inside this corpse's vagina...")
ShowMessage("Disgusted, I try to hold back my ejaculation.")
ShowMessageFace("",0,0,2,28)
ShowMessage("\\n<Luka>")
ShowMessage("Uh...Ugh...")
ShowMessageFace("",0,0,2,29)
ShowMessage("However, I can't resist the sweet feeling that's making my groin go numb.")
ShowMessage("I want to release my semen inside her cold pussy, I want to give into this temptation.")
ShowMessageFace("",0,0,2,30)
ShowMessage("\\n<Luka>")
ShowMessage("I'm going to come...Fuaaa...")
ShowMessageFace("",0,0,2,31)
ShowMessage("The urge to ejaculate also feels different.")
ShowMessage("In this sweet ecstasy, the feeling of release is just as if my penis' tap broke...")
RunCommonEvent(104)
PictureDisplay(5,"ev_gool_h2",0,0,0,0,100,100,255,0)
RunCommonEvent(105)
ShowMessageFace("",0,0,2,32)
ShowMessage("I release my semen inside the Ghoul's vagina as if I was leaking it out.")
ShowMessage("A pathetic climax, as I taste the pleasure of having my energy drawn out.")
ShowMessageFace("gool_fc1",2,0,2,33)
ShowMessage("\\n<GhoulA>")
ShowMessage("Energy...Tasty...")
ShowMessageFace("gool_fc1",1,0,2,34)
ShowMessage("\\n<GhoulB>")
ShowMessage("I want too...Energy...")
PictureDisplay(5,"ev_gool_h3",0,0,0,0,100,100,255,0)
ShowMessageFace("",0,0,2,35)
ShowMessage("Another Ghoul's long tongue stretches out...")
ShowMessage("And, it winds itself around my penis.")
ShowMessageFace("",0,0,2,36)
ShowMessage("It starts lapping up the overflowing semen while coiling around the base of my penis.")
ShowMessage("I writhe from the peculiar touch of her tongue.")
ShowMessageFace("",0,0,2,37)
ShowMessage("\\n<Luka>")
ShowMessage("Ah...Auuu...!")
ShowMessageFace("",0,0,2,38)
ShowMessage("The sweet numbness spreads even more on every spot the tongue touches.")
ShowMessage("That's to be expected, I'm getting pleasure in exchange for a price.")
ShowMessageFace("",0,0,2,39)
ShowMessage("My energy is being drained by both Ghouls and I feel even weaker.")
ShowMessage("The increased pleasure erodes away the last of my resistance.")
ShowMessageFace("gool_fc1",2,0,2,40)
ShowMessage("\\n<GhoulA>")
ShowMessage("Warmth...")
ShowMessageFace("gool_fc1",1,0,2,41)
ShowMessage("\\n<GhoulB>")
ShowMessage("*Slurp* *Sluuurp*")
ShowMessageFace("",0,0,2,42)
ShowMessage("\\n<Luka>")
ShowMessage("Aaah... That feels good...")
ShowMessageFace("",0,0,2,43)
ShowMessage("A sweet tingling spreads and erodes my whole body.")
ShowMessage("Enjoying the pleasure of this mating, my penis starts pulsating like crazy...")
RunCommonEvent(104)
PictureDisplay(5,"ev_gool_h4",0,0,0,0,100,100,255,0)
RunCommonEvent(105)
ShowMessageFace("",0,0,2,44)
ShowMessage("And, I ejaculate once more.")
ShowMessage("I shoot a lot of semen and energy inside the Ghoul's vagina...")
PictureDisplay(5,"ev_gool_h5",0,0,0,0,100,100,255,0)
ShowMessageFace("gool_fc1",2,0,2,45)
ShowMessage("\\n<GhoulA>")
ShowMessage("Energy...More...")
ShowMessageFace("gool_fc1",1,0,2,46)
ShowMessage("\\n<GhoulB>")
ShowMessage("*Slurp* *Sluuurp*...*Slurrp*")
ShowMessageFace("",0,0,2,47)
ShowMessage("\\n<Luka>")
ShowMessage("Au...This, Aaaah...")
ShowMessageFace("",0,0,2,48)
ShowMessage("It feels as if my whole body is being greedily devoured by the Ghouls.")
ShowMessage("However it's not my flesh that they're eating, but my energy.")
ShowMessageFace("",0,0,2,49)
ShowMessage("I taste this immoral pleasure in exchange for my energy.")
ShowMessage("I'm completely drowned in pleasure from the Ghouls draining my energy.")
ShowMessageFace("",0,0,2,50)
ShowMessage("\\n<Luka>")
ShowMessage("Hya...Ah, Aaaaah...")
RunCommonEvent(104)
PictureDisplay(5,"ev_gool_h6",0,0,0,0,100,100,255,0)
RunCommonEvent(105)
ShowMessageFace("",0,0,2,51)
ShowMessage("My semen drips out as I indulge in this pleasure.")
ShowMessage("And the Ghouls keep sucking up more of my energy...")
ShowMessageFace("gool_fc1",2,0,2,52)
ShowMessage("\\n<GhoulA>")
ShowMessage("Tasty...")
ShowMessageFace("gool_fc1",1,0,2,53)
ShowMessage("\\n<GhoulB>")
ShowMessage("*Slurp*...*Sluuuurp*...")
ShowMessageFace("",0,0,2,54)
ShowMessage("\\n<Luka>")
ShowMessage("Au...Aaah...")
RunCommonEvent(104)
RunCommonEvent(105)
ShowMessageFace("",0,0,2,55)
ShowMessage("My consciousness gradually fades.")
ShowMessage("The Ghouls are greedily absorbing all my energy...")
ShowMessageFace("gool_fc1",2,0,2,56)
ShowMessage("\\n<GhoulA>")
ShowMessage("Energy...all, give...")
ShowMessageFace("gool_fc1",1,0,2,57)
ShowMessage("\\n<GhoulB>")
ShowMessage("*Slurp*...")
ShowMessageFace("",0,0,2,58)
ShowMessage("\\n<Luka>")
ShowMessage("ah...a...")
RunCommonEvent(104)
RunCommonEvent(105)
246(2)
ShowMessageFace("",0,0,2,59)
ShowMessage("And, my consciousness fades inside this pleasure...")
ShowMessageFace("",0,0,2,60)
ShowMessage("\\n<Luka>")
ShowMessage("........")
ShowMessageFace("",0,0,2,61)
ShowMessage("At last, my energy is totally drained.")
ShowMessage("My life ends as nothing more than food for the Ghouls.")
221()
PictureClear(5)
PictureClear(6)
ShowMessageFace("",0,0,2,62)
ShowMessage("......")
RunCommonEvent(3999)
0()
