// EVENT 7164
Name "Salaan: Victory"

PictureClear(6)
PictureDisplay(5,"80_mob_assasin1_st03",0,0,0,0,100,100,255,0)
ShowMessageFace("mob_assasin1_fc1",2,0,2,1)
ShowMessage("\\n<Salaan>You endured, huh...\nA brilliant victory.")
250(bytes(0x04,0x08,0x6f,0x3a,0x0c,0x52,0x50,0x47,0x3a,0x3a,0x53,0x45,0x08,0x3a,0x0a,0x40,0x6e,0x61,0x6d,0x65,0x49,0x22,0x0d,0x6d,0x6f,0x6e,0x5f,0x6c,0x76,0x75,0x70,0x06,0x3a,0x06,0x45,0x54,0x3a,0x0b,0x40,0x70,0x69,0x74,0x63,0x68,0x69,0x69,0x3a,0x0c,0x40,0x76,0x6f,0x6c,0x75,0x6d,0x65,0x69,0x69))
ChangeSwitch(98,98,1)
ChangeSwitch(96,96,1)
ShowMessageFace("",0,0,2,2)
ShowMessage("Luka emerged from the battle fuck victorious!")
PictureDisplay(5,"80_mob_assasin1_st01",0,0,0,0,100,100,255,0)
ShowMessageFace("",0,0,2,3)
ShowMessage("Salaan puts her accessories back on!")
If(1,817,0,2,1)
 ShowMessageFace("mob_assasin1_fc1",1,0,2,4)
 ShowMessage("\\n<Salaan>I don't have anything left to give.\nYou already won what I had.")
 0()
Else()
 ShowMessageFace("mob_assasin1_fc1",1,0,2,5)
 ShowMessage("\\n<Salaan>I'll give this to you for winning.\nI'm sure it will be useful on your adventure...")
 250(bytes(0x04,0x08,0x6f,0x3a,0x0c,0x52,0x50,0x47,0x3a,0x3a,0x53,0x45,0x08,0x3a,0x0a,0x40,0x6e,0x61,0x6d,0x65,0x49,0x22,0x0a,0x49,0x74,0x65,0x6d,0x31,0x06,0x3a,0x06,0x45,0x54,0x3a,0x0b,0x40,0x70,0x69,0x74,0x63,0x68,0x69,0x69,0x3a,0x0c,0x40,0x76,0x6f,0x6c,0x75,0x6d,0x65,0x69,0x55))
 ChangeInventoryArmor(1186,0,0,1,false)
 ChangeVariable(817,817,0,0,2)
 RunCommonEvent(6999)
 0()
EndIf()
ShowMessageFace("mob_assasin1_fc1",1,0,2,6)
ShowMessage("\\n<Salaan>I'll make up for this loss.\nWe'll have a rematch soon...")
If(0,443,0)
 EndEventProcessing()
 0()
EndIf()
If(0,2331,1)
 PictureClear(5)
 320(66,"Vanilla")
 322(66,"Evil01_cip",0,"vgirl_fc1",0)
 ChangeSwitch(100,100,1)
 281(1)
 250(bytes(0x04,0x08,0x6f,0x3a,0x0c,0x52,0x50,0x47,0x3a,0x3a,0x53,0x45,0x08,0x3a,0x0a,0x40,0x6e,0x61,0x6d,0x65,0x49,0x22,0x09,0x4d,0x6f,0x76,0x65,0x06,0x3a,0x06,0x45,0x54,0x3a,0x0b,0x40,0x70,0x69,0x74,0x63,0x68,0x69,0x69,0x3a,0x0c,0x40,0x76,0x6f,0x6c,0x75,0x6d,0x65,0x69,0x55))
 TeleportPlayer(0,476,16,43,2,0)
 216(0)
 0()
EndIf()
EndEventProcessing()
0()
