﻿// EVENT 1239
Name "Talk: Brom Girl"

If(1,20,0,1,0)
 JumpToLabel("情報")
 0()
EndIf()
If(1,20,0,2,0)
 JumpToLabel("質問")
 0()
EndIf()
If(1,20,0,3,0)
 JumpToLabel("要求")
 0()
EndIf()
If(1,20,0,4,0)
 JumpToLabel("贈与")
 0()
EndIf()
DefineLabel("情報")
ChangeVariable(13,13,0,2,1,100)
If(1,13,0,10,2)
 ShowMessageFace("blom_fc1",0,0,2,1)
 ShowMessage("\\n<Brom Girl>Gush gush...")
 EndEventProcessing()
 0()
EndIf()
If(1,13,0,20,2)
 ShowMessageFace("blom_fc1",0,0,2,2)
 ShowMessage("\\n<Brom Girl>My body is covered with poison!")
 EndEventProcessing()
 0()
EndIf()
If(1,13,0,30,2)
 ShowMessageFace("blom_fc1",0,0,2,3)
 ShowMessage("\\n<Brom Girl>I'll cover you in poison!")
 EndEventProcessing()
 0()
EndIf()
If(1,13,0,40,2)
 ShowMessageFace("blom_fc1",0,0,2,4)
 ShowMessage("\\n<Brom Girl>Nothing living will come near me...\nOnly zombies approach me...")
 EndEventProcessing()
 0()
EndIf()
If(1,13,0,50,2)
 ShowMessageFace("blom_fc1",0,0,2,5)
 ShowMessage("\\n<Brom Girl>I love dirty swamps♪")
 EndEventProcessing()
 0()
EndIf()
If(1,13,0,60,2)
 ShowMessageFace("blom_fc1",0,0,2,6)
 ShowMessage("\\n<Brom Girl>My poison will melt you♪")
 EndEventProcessing()
 0()
EndIf()
If(1,13,0,70,2)
 ShowMessageFace("blom_fc1",0,0,2,7)
 ShowMessage("\\n<Brom Girl>I'm loathed, no matter what...")
 EndEventProcessing()
 0()
EndIf()
If(1,13,0,80,2)
 ShowMessageFace("blom_fc1",0,0,2,8)
 ShowMessage("\\n<Brom Girl>I have no friends! Because I'm poisonous!")
 EndEventProcessing()
 0()
EndIf()
If(1,13,0,90,2)
 ShowMessageFace("blom_fc1",0,0,2,9)
 ShowMessage("\\n<Brom Girl>I'm going to dance with the zombies tonight.\nThe zombies are my only friends...")
 EndEventProcessing()
 0()
EndIf()
If(1,13,0,100,2)
 ShowMessageFace("blom_fc1",0,0,2,10)
 ShowMessage("\\n<Brom Girl>Even slugs won't approach me...\nBeing poisonous is lonely, isn't it?")
 EndEventProcessing()
 0()
EndIf()
DefineLabel("質問")
ChangeVariable(13,13,0,2,1,50)
If(1,13,0,10,2)
 ShowMessageFace("blom_fc1",0,0,2,11)
 ShowMessage("\\n<Brom Girl>Because my body is poisonous, I have no friends... How can I make friends?")
 ShowChoices(strings("I'm right here","Send letters","Buy them with money"),0)
 IfPlayerPicksChoice(0,"僕がいる")
  ShowMessageFace("blom_fc1",0,0,2,12)
  ShowMessage("\\n<Brom Girl>You're not my friend...\nBecause you'll become my prey here.")
  0()
 IfPlayerPicksChoice(1,"文通")
  ShowMessageFace("blom_fc1",2,0,2,13)
  ShowMessage("\\n<Brom Girl>Even paper corrodes from me!")
  355("change_friend(-5)")
  0()
 IfPlayerPicksChoice(2,"金で買う")
  ShowMessageFace("blom_fc1",1,0,2,14)
  ShowMessage("\\n<Brom Girl>That's good isn't it?!\nGive me money for that!")
  355("change_friend(10)")
  0()
 404()
 EndEventProcessing()
 0()
EndIf()
If(1,13,0,20,2)
 ShowMessageFace("blom_fc1",0,0,2,15)
 ShowMessage("\\n<Brom Girl>How many friends do you have?")
 ShowChoices(strings("Around 10 people","Around 100 people","Not even one person"),0)
 IfPlayerPicksChoice(0,"10人くらい")
  ShowMessageFace("blom_fc1",0,0,2,16)
  ShowMessage("\\n<Brom Girl>Give me half of them, please!")
  0()
 IfPlayerPicksChoice(1,"100人くらい")
  ShowMessageFace("blom_fc1",2,0,2,17)
  ShowMessage("\\n<Brom Girl>W-wow... That makes me angry!")
  355("change_friend(-5)")
  0()
 IfPlayerPicksChoice(2,"1人もいない")
  ShowMessageFace("blom_fc1",1,0,2,18)
  ShowMessage("\\n<Brom Girl>In that case, be friends with me!")
  355("change_friend(10)")
  0()
 404()
 EndEventProcessing()
 0()
EndIf()
If(1,13,0,30,2)
 ShowMessageFace("blom_fc1",0,0,2,19)
 ShowMessage("\\n<Brom Girl>As expected, poison is hated...\nI wonder if there is any nice way to use it?")
 ShowChoices(strings("To kill pests","To commit underhanded tricks","To poison your mother-in-law"),0)
 IfPlayerPicksChoice(0,"害虫を殺す")
  ShowMessageFace("blom_fc1",0,0,2,20)
  ShowMessage("\\n<Brom Girl>That's surprisingly convenient, but it doesn't seem to be liked... But it may be good and positive.")
  355("change_friend(10)")
  0()
 IfPlayerPicksChoice(1,"毒手を作る")
  ShowMessageFace("blom_fc1",2,0,2,21)
  ShowMessage("\\n<Brom Girl>I don't want to lose friends!")
  355("change_friend(-5)")
  0()
 IfPlayerPicksChoice(2,"姑を毒殺する")
  ShowMessageFace("blom_fc1",2,0,2,22)
  ShowMessage("\\n<Brom Girl>Then I'd have to get married first...\nThat makes me somewhat sad.")
  0()
 404()
 EndEventProcessing()
 0()
EndIf()
If(1,13,0,40,2)
 ShowMessageFace("blom_fc1",2,0,2,23)
 ShowMessage("\\n<Brom Girl>I'm poisonous, so I can't hold a cat.\nDo you think this body is pitiful?")
 ShowChoices(strings("I think so","I don't think so","Cats are pitiful"),0)
 IfPlayerPicksChoice(0,"思う")
  ShowMessageFace("blom_fc1",1,0,2,24)
  ShowMessage("\\n<Brom Girl>Are you feeling compassionate?\nThen let me embrace you...♪")
  355("change_friend(10)")
  0()
 IfPlayerPicksChoice(1,"思わない")
  ShowMessageFace("blom_fc1",0,0,2,25)
  ShowMessage("\\n<Brom Girl>Well, there are no cats in this swamp.")
  0()
 IfPlayerPicksChoice(2,"ネコが可哀想")
  ShowMessageFace("blom_fc1",0,0,2,26)
  ShowMessage("\\n<Brom Girl>It's okay.\nCats won't come near the smell of poison in the first place.")
  0()
 404()
 EndEventProcessing()
 0()
EndIf()
If(1,13,0,50,2)
 ShowMessageFace("blom_fc1",0,0,2,27)
 ShowMessage("\\n<Brom Girl>Poison and medicine are two sides of the same coin. Could my body become medicine?")
 ShowChoices(strings("It will become medicine","It won't","It doesn't matter"),0)
 IfPlayerPicksChoice(0,"なる")
  ShowMessageFace("blom_fc1",0,0,2,28)
  ShowMessage("\\n<Brom Girl>Then try drinking it, hora hora!")
  ShowMessageFace("ruka_fc1",0,0,2,29)
  ShowMessage("\\n<Luka>*gulp*...")
  313(0,1,0,7)
  ShowMessageFace("",0,0,2,30)
  ShowMessage("Luka has been poisoned!")
  355("change_friend(10)")
  0()
 IfPlayerPicksChoice(1,"ならない")
  ShowMessageFace("blom_fc1",0,0,2,31)
  ShowMessage("\\n<Brom Girl>It's as I expected...")
  0()
 IfPlayerPicksChoice(2,"どうでもいい")
  ShowMessageFace("blom_fc1",0,0,2,32)
  ShowMessage("\\n<Brom Girl>Yeah, I don't care.")
  0()
 404()
 EndEventProcessing()
 0()
EndIf()
DefineLabel("要求")
ChangeVariable(13,13,0,2,1,30)
If(1,13,0,10,2)
 If(8,35)
  ShowMessageFace("blom_fc1",0,0,2,33)
  ShowMessage("\\n<Brom Girl>Could you give me a thread of guidance? I often get lost in the dungeon...")
  ChangeVariable(24,24,0,3,0,35,0)
  ShowMessageFace("",0,0,2,34)
  ShowMessage("Do you want to give a \\ii[35]? (Have:\\V[24])")
  ShowChoices(strings("Yes","No"),2)
  IfPlayerPicksChoice(0,"Yes")
   ShowMessageFace("blom_fc1",0,0,2,35)
   ShowMessage("\\n<Brom Girl>Thanks!")
   ChangeInventory_Item(35,1,0,1)
   355("change_friend(20)")
   EndEventProcessing()
   0()
  IfPlayerPicksChoice(1,"No")
   ShowMessageFace("blom_fc1",0,0,2,36)
   ShowMessage("\\n<Brom Girl>Well, I don't really mind...")
   EndEventProcessing()
   0()
  404()
  0()
 Else()
  ChangeVariable(13,13,0,0,20)
  0()
 EndIf()
 0()
EndIf()
If(1,13,0,20,2)
 If(8,339)
  ShowMessageFace("blom_fc1",0,0,2,37)
  ShowMessage("\\n<Brom Girl>Won't you give me some curry powder?\nIt's spicy and delicious!")
  ChangeVariable(24,24,0,3,0,339,0)
  ShowMessageFace("",0,0,2,38)
  ShowMessage("Do you want to give some \\ii[339]? (Have:\\V[24])")
  ShowChoices(strings("Yes","No"),2)
  IfPlayerPicksChoice(0,"Yes")
   ShowMessageFace("blom_fc1",0,0,2,39)
   ShowMessage("\\n<Brom Girl>Thanks!")
   ChangeInventory_Item(339,1,0,1)
   355("change_friend(30)")
   EndEventProcessing()
   0()
  IfPlayerPicksChoice(1,"No")
   ShowMessageFace("blom_fc1",0,0,2,40)
   ShowMessage("\\n<Brom Girl>Well, I don't really mind...")
   EndEventProcessing()
   0()
  404()
  0()
 Else()
  ChangeVariable(13,13,0,0,30)
  0()
 EndIf()
 0()
EndIf()
If(1,13,0,30,2)
 ShowMessageFace("blom_fc1",0,0,2,41)
 ShowMessage("\\n<Brom Girl>Hey, won't you give me some money?")
 If(7,822,0)
  ChangeVariable(24,24,0,3,7,2,0)
  ShowMessageFace("",0,0,2,42)
  ShowMessage("Do you want to give 822G? (Remaining:\\V[24])")
  ShowChoices(strings("Yes","No"),2)
  IfPlayerPicksChoice(0,"Yes")
   ShowMessageFace("blom_fc1",0,0,2,43)
   ShowMessage("\\n<Brom Girl>Thanks!")
   125(1,0,822)
   355("change_friend(25)")
   EndEventProcessing()
   0()
  IfPlayerPicksChoice(1,"No")
   ShowMessageFace("blom_fc1",0,0,2,44)
   ShowMessage("\\n<Brom Girl>Well, I don't really mind...")
   EndEventProcessing()
   0()
  404()
  0()
 Else()
  ShowMessageFace("blom_fc1",0,0,2,45)
  ShowMessage("\\n<Brom Girl>...I'm sorry, you don't seem to have any money.")
  EndEventProcessing()
  0()
 EndIf()
 0()
EndIf()
DefineLabel("贈与")
ChangeVariable(13,13,0,2,1,30)
If(1,25,0,1,0)
 ChangeVariable(13,13,0,0,30)
 ChangeVariable(25,25,0,0,0)
 0()
EndIf()
If(1,25,0,2,0)
 ChangeVariable(13,13,0,2,1,20)
 ChangeVariable(25,25,0,0,0)
 0()
EndIf()
If(1,13,0,10,2)
 ShowMessageFace("blom_fc1",0,0,2,46)
 ShowMessage("\\n<Brom Girl>As a service, I'll give you some antidote grass!")
 250(bytes(0x04,0x08,0x6f,0x3a,0x0c,0x52,0x50,0x47,0x3a,0x3a,0x53,0x45,0x08,0x3a,0x0a,0x40,0x6e,0x61,0x6d,0x65,0x49,0x22,0x0a,0x49,0x74,0x65,0x6d,0x31,0x06,0x3a,0x06,0x45,0x54,0x3a,0x0b,0x40,0x70,0x69,0x74,0x63,0x68,0x69,0x69,0x3a,0x0c,0x40,0x76,0x6f,0x6c,0x75,0x6d,0x65,0x69,0x55))
 ChangeInventory_Item(13,0,0,1)
 ShowMessageFace("",0,0,2,47)
 ShowMessage("The Brom Girl gave you some \\ii[13]!")
 EndEventProcessing()
 0()
EndIf()
If(1,13,0,20,2)
 ShowMessageFace("blom_fc1",0,0,2,48)
 ShowMessage("\\n<Brom Girl>I'll give you this dark stone as a present!")
 250(bytes(0x04,0x08,0x6f,0x3a,0x0c,0x52,0x50,0x47,0x3a,0x3a,0x53,0x45,0x08,0x3a,0x0a,0x40,0x6e,0x61,0x6d,0x65,0x49,0x22,0x0a,0x49,0x74,0x65,0x6d,0x31,0x06,0x3a,0x06,0x45,0x54,0x3a,0x0b,0x40,0x70,0x69,0x74,0x63,0x68,0x69,0x69,0x3a,0x0c,0x40,0x76,0x6f,0x6c,0x75,0x6d,0x65,0x69,0x55))
 ChangeInventory_Item(80,0,0,1)
 ShowMessageFace("",0,0,2,49)
 ShowMessage("The Brom Girl gave you a \\ii[80]!")
 EndEventProcessing()
 0()
EndIf()
If(1,13,0,30,2)
 ShowMessageFace("blom_fc1",0,0,2,50)
 ShowMessage("\\n<Brom Girl>You want money, don't you?")
 250(bytes(0x04,0x08,0x6f,0x3a,0x0c,0x52,0x50,0x47,0x3a,0x3a,0x53,0x45,0x08,0x3a,0x0a,0x40,0x6e,0x61,0x6d,0x65,0x49,0x22,0x0a,0x49,0x74,0x65,0x6d,0x31,0x06,0x3a,0x06,0x45,0x54,0x3a,0x0b,0x40,0x70,0x69,0x74,0x63,0x68,0x69,0x69,0x3a,0x0c,0x40,0x76,0x6f,0x6c,0x75,0x6d,0x65,0x69,0x55))
 125(0,0,1370)
 ShowMessageFace("",0,0,2,51)
 ShowMessage("The Brom Girl gave you 1370G!")
 EndEventProcessing()
 0()
EndIf()
0()
