﻿// EVENT 4248
Name "Candle Girl 3"

If(0,25,1)
 221()
 PictureClear(5)
 PictureClear(6)
 ShowMessageFace("",0,0,2,1)
 ShowMessage("・・・・・・・・")
 242(2)
 Wait(120)
 241(bytes(0x04,0x08,0x6f,0x3a,0x0d,0x52,0x50,0x47,0x3a,0x3a,0x42,0x47,0x4d,0x08,0x3a,0x0a,0x40,0x6e,0x61,0x6d,0x65,0x49,0x22,0x0c,0x63,0x61,0x73,0x74,0x6c,0x65,0x36,0x06,0x3a,0x06,0x45,0x54,0x3a,0x0c,0x40,0x76,0x6f,0x6c,0x75,0x6d,0x65,0x69,0x69,0x3a,0x0b,0x40,0x70,0x69,0x74,0x63,0x68,0x69,0x69))
 EndEventProcessing()
 0()
EndIf()
PictureDisplay(5,"80_candle_st01",0,0,0,0,100,100,255,0)
ShowMessageFace("candle_fc1",0,0,2,2)
ShowMessage("\\n<Chandra>")
ShowMessage("You want me to pleasure you...?")
ShowMessageFace("",0,0,2,3)
ShowMessage("\\n<Luka>")
ShowMessage("P-please...")
PictureDisplay(5,"80_candle_st02",0,0,0,0,100,100,255,0)
ShowMessageFace("candle_fc1",1,0,2,4)
ShowMessage("\\n<Chandra>")
ShowMessage("Well then...I need to reward you once in a while.")
ShowMessageFace("",0,0,2,5)
ShowMessage("Unexpectedly, Chandra's body splits into two.")
ShowMessage("Both of her bodies stick to me...")
PictureDisplay(5,"80_candle_st02",0,0,-160,0,100,100,255,0)
PictureDisplay(6,"80_candle_st02",0,0,160,0,100,100,255,0)
ShowMessageFace("candle_fc1",1,0,2,6)
ShowMessage("\\n<Chandra A>")
ShowMessage("I'll hold you with two bodies...")
ShowMessageFace("candle_fc1",1,0,2,7)
ShowMessage("\\n<Chandra B>")
ShowMessage("I'll spoil you plenty...")
ShowMessageFace("",0,0,2,8)
ShowMessage("\\n<Luka>")
ShowMessage("Di-divided...? That's...Auuuu!")
ShowMessageFace("",0,0,2,9)
ShowMessage("The lower bodies of the Chandras melt.")
ShowMessage("They trap me between them...")
241(bytes(0x04,0x08,0x6f,0x3a,0x0d,0x52,0x50,0x47,0x3a,0x3a,0x42,0x47,0x4d,0x08,0x3a,0x0a,0x40,0x6e,0x61,0x6d,0x65,0x49,0x22,0x09,0x65,0x72,0x6f,0x31,0x06,0x3a,0x06,0x45,0x54,0x3a,0x0c,0x40,0x76,0x6f,0x6c,0x75,0x6d,0x65,0x69,0x69,0x3a,0x0b,0x40,0x70,0x69,0x74,0x63,0x68,0x69,0x69))
245(bytes(0x04,0x08,0x6f,0x3a,0x0d,0x52,0x50,0x47,0x3a,0x3a,0x42,0x47,0x53,0x08,0x3a,0x0a,0x40,0x6e,0x61,0x6d,0x65,0x49,0x22,0x17,0x6d,0x6f,0x6e,0x5f,0x68,0x73,0x65,0x61,0x6e,0x31,0x38,0x5f,0x73,0x6c,0x69,0x6d,0x65,0x31,0x06,0x3a,0x06,0x45,0x54,0x3a,0x0c,0x40,0x76,0x6f,0x6c,0x75,0x6d,0x65,0x69,0x55,0x3a,0x0b,0x40,0x70,0x69,0x74,0x63,0x68,0x69,0x69))
PictureClear(6)
PictureDisplay(5,"ev_candle_hc1",0,0,0,0,100,100,0,0)
PictureMove(5,null,0,0,0,0,100,100,255,0,30,true)
ShowMessageFace("",0,0,2,10)
ShowMessage("\\n<Luka>")
ShowMessage("R-reward...Aaaah...")
ShowMessageFace("",0,0,2,11)
ShowMessage("My whole body is encased and squeezed between her wax bodies.")
ShowMessage("Hugged both from the front and the back, I'm completely taken into her bodies.")
ShowMessageFace("",0,0,2,12)
ShowMessage("A warm, pleasant feeling wraps my body...")
ShowMessage("This sweet embrace puts me in a trance.")
ShowMessageFace("candle_fc1",1,0,2,13)
ShowMessage("\\n<Chandra A>")
ShowMessage("Nnn...*Kiss*...")
ShowMessageFace("",0,0,2,14)
ShowMessage("And Chandra locks lips with mine.")
ShowMessage("I taste her sticky kiss and feel myself getting weaker.")
ShowMessageFace("",0,0,2,15)
ShowMessage("\\n<Luka>")
ShowMessage("Ah...Fuaaaa...")
ShowMessageFace("candle_fc1",1,0,2,16)
ShowMessage("\\n<Chandra B>")
ShowMessage("Ufufu, just leave everything to us.")
ShowMessage("We'll make your penis feel good.")
PictureDisplay(5,"ev_candle_hc2",0,0,0,0,100,100,255,0)
ShowMessageFace("",0,0,2,17)
ShowMessage("My exposed rod is also covered in their wax.")
ShowMessage("The wax sticks to it and squeezes it thoroughly.")
ShowMessageFace("",0,0,2,18)
ShowMessage("\\n<Luka>")
ShowMessage("This is...Haaa...")
ShowMessageFace("",0,0,2,19)
ShowMessage("Caught between the two Chandras, I'm left breathless after her kiss.")
ShowMessage("Soaked in this melting stimulation, it feels like my penis could just melt away...")
ShowMessageFace("candle_fc1",1,0,2,20)
ShowMessage("\\n<Chandra A>")
ShowMessage("This is the best, ufufu...")
ShowMessageFace("candle_fc1",1,0,2,21)
ShowMessage("\\n<Chandra B>")
ShowMessage("I can make it feel even better.")
ShowMessage("If you can't take it anymore, then just come...")
ShowMessageFace("",0,0,2,22)
ShowMessage("In the next moment, the warmth starts swirling.")
ShowMessage("My penis feels so much pleasure, it feels like it's melting.")
ShowMessageFace("",0,0,2,23)
ShowMessage("\\n<Luka>")
ShowMessage("Auu...It's warm...")
ShowMessageFace("",0,0,2,24)
ShowMessage("In no time, I get drunk on the pleasant warmth.")
ShowMessage("Caught between her two bodies, I feel like I'm in heaven.")
ShowMessageFace("",0,0,2,25)
ShowMessage("It feels like my whole body is melting from this warmth...")
ShowMessage("Mixed in the mushy, melted wax, it feels as if I'm becoming part of her.")
ShowMessageFace("",0,0,2,26)
ShowMessage("\\n<Luka>")
ShowMessage("Auu...That feels good...")
ShowMessageFace("candle_fc1",1,0,2,27)
ShowMessage("\\n<Chandra A>")
ShowMessage("Ufufu, you seem to be completely entranced.")
ShowMessageFace("candle_fc1",1,0,2,28)
ShowMessage("\\n<Chandra B>")
ShowMessage("Your penis also seems to be feeling very good...")
ShowMessage("Now, come...")
ShowMessageFace("",0,0,2,29)
ShowMessage("\\n<Luka>")
ShowMessage("Auu...Fuaaaah...")
ShowMessageFace("",0,0,2,30)
ShowMessage("While slowly tasting this heavenly feeling, I feel myself getting closer to a finish.")
ShowMessage("The wax entwined around my penis starts pulsing.")
ShowMessageFace("",0,0,2,31)
ShowMessage("My waist goes numb as a sweet ache spreads through my lower body.")
ShowMessage("I can't hold back any longer...")
ShowMessageFace("",0,0,2,32)
ShowMessage("\\n<Luka>")
ShowMessage("Fuaaa...I'm going to come...")
ShowMessageFace("candle_fc1",1,0,2,33)
ShowMessage("\\n<Chandra A>")
ShowMessage("Go ahead and come if it's too much...")
ShowMessageFace("candle_fc1",1,0,2,34)
ShowMessage("\\n<Chandra B>")
ShowMessage("You don't have to endure it.")
ShowMessage("Give me plenty of your semen...")
ShowMessageFace("",0,0,2,35)
ShowMessage("While being wrapped by Chandra's bodies...")
ShowMessage("I feel the need to ejaculate overpower me.")
ShowMessageFace("",0,0,2,36)
ShowMessage("\\n<Luka>")
ShowMessage("Auu...Fuaaaa...")
RunCommonEvent(104)
PictureDisplay(5,"ev_candle_hc3",0,0,0,0,100,100,255,0)
RunCommonEvent(105)
ShowMessageFace("",0,0,2,37)
ShowMessage("My semen streams out in her waving hot wax.")
ShowMessage("I come as I feel my penis melt from the constant heat.")
ShowMessageFace("",0,0,2,38)
ShowMessage("\\n<Luka>")
ShowMessage("Aaa...")
ShowMessageFace("",0,0,2,39)
ShowMessage("My body relaxes as I ejaculate.")
ShowMessage("It feels as if my soul itself is leaking out while I taste this sweet feeling of release...")
ShowMessageFace("candle_fc1",1,0,2,40)
ShowMessage("\\n<Chandra A>")
ShowMessage("Fufu, you came.")
ShowMessage("It surely feels like you're in heaven...")
ShowMessageFace("candle_fc1",1,0,2,41)
ShowMessage("\\n<Chandra B>")
ShowMessage("More, I'll make you feel even better.")
ShowMessage("Come as many times as you want...")
ShowMessageFace("",0,0,2,42)
ShowMessage("\\n<Luka>")
ShowMessage("Ah, again...Fuaaaa...")
ShowMessageFace("",0,0,2,43)
ShowMessage("The temperature of the wax covering my body rises steadily.")
ShowMessage("The wax around my penis also moves faster.")
ShowMessageFace("",0,0,2,44)
ShowMessage("My whole body melts as I'm enjoying what seems to be a comfortable massage.")
ShowMessage("While caught in her wax, both my body and mind melt from the pleasure...")
ShowMessageFace("",0,0,2,45)
ShowMessage("\\n<Luka>")
ShowMessage("Amazing...It feels so good...")
ShowMessageFace("candle_fc1",1,0,2,46)
ShowMessage("\\n<Chandra A>")
ShowMessage("Ufufu, you're completely entranced...")
ShowMessageFace("candle_fc1",1,0,2,47)
ShowMessage("\\n<Chandra B>")
ShowMessage("Just by warming you up like this I can make you feel heavenly.")
ShowMessage("It will feel amazing, ufufu...")
ShowMessageFace("",0,0,2,48)
ShowMessage("\\n<Luka>")
ShowMessage("Haaa..Auuu...")
ShowMessageFace("",0,0,2,49)
ShowMessage("Relaxing in her hot wax, I entrust my body to Chandra and her kisses.")
ShowMessage("The warmth and the swirling of the wax around my penis make me melt.")
ShowMessageFace("",0,0,2,50)
ShowMessage("The wax keeps melting and hardening around my penis.")
ShowMessage("The all too familiar sweet ache makes itself felt again and I know I can't take any more.")
ShowMessageFace("",0,0,2,51)
ShowMessage("\\n<Luka>")
ShowMessage("Too good...Fuaaaa...")
RunCommonEvent(104)
PictureDisplay(5,"ev_candle_hc4",0,0,0,0,100,100,255,0)
RunCommonEvent(105)
ShowMessageFace("",0,0,2,52)
ShowMessage("I start coming in the next moment.")
ShowMessage("The wax that wraps my penis gets damp as a steady flow of semen comes out of it...")
ShowMessageFace("",0,0,2,53)
ShowMessage("\\n<Luka>")
ShowMessage("Haaa...")
ShowMessageFace("",0,0,2,54)
ShowMessage("The ejaculation leaves me weak.")
ShowMessage("It seems this sweet release is taking a bigger toll on my body and mind than expected.")
ShowMessageFace("candle_fc1",1,0,2,55)
ShowMessage("\\n<Chandra A>")
ShowMessage("Fufu, you look happy...")
ShowMessageFace("candle_fc1",1,0,2,56)
ShowMessage("\\n<Chandra B>")
ShowMessage("It looks like your penis will melt.")
ShowMessage("Shoot out all of your white semen...")
ShowMessageFace("",0,0,2,57)
ShowMessage("\\n<Luka>")
ShowMessage("Aah...Again, this...Auuuu...")
ShowMessageFace("",0,0,2,58)
ShowMessage("The wax around my penis turns to the consistency of mud and starts flowing around my penis.")
ShowMessage("She sweetly rubs my penis, making it feel heavenly.")
ShowMessageFace("",0,0,2,59)
ShowMessage("Wrapped in her wax, I taste heaven...")
ShowMessage("I relax my body in this superb feeling of ecstasy...")
ShowMessageFace("",0,0,2,60)
ShowMessage("\\n<Luka>")
ShowMessage("Fa...Aaaah...")
RunCommonEvent(104)
RunCommonEvent(105)
ShowMessageFace("",0,0,2,61)
ShowMessage("Semen leaks out and spreads all over her wax.")
ShowMessage("My penis seems to have melted in pleasure and my tap is broken...")
ShowMessageFace("candle_fc1",1,0,2,62)
ShowMessage("\\n<Chandra A>")
ShowMessage("Oh no, you're leaking...")
ShowMessage("You can't control it anymore.")
ShowMessageFace("candle_fc1",1,0,2,63)
ShowMessage("\\n<Chandra B>")
ShowMessage("Taste this heaven even more.")
ShowMessage("Hoo~ra, melt from the pleasure...")
ShowMessageFace("",0,0,2,64)
ShowMessage("\\n<Luka>")
ShowMessage("Fa...Aaaah...")
RunCommonEvent(104)
RunCommonEvent(105)
ShowMessageFace("candle_fc1",1,0,2,65)
ShowMessage("\\n<Chandra A>")
ShowMessage("Fufu, enjoy this melting feeling...")
ShowMessageFace("candle_fc1",1,0,2,66)
ShowMessage("\\n<Chandra B>")
ShowMessage("Dedicate all your semen to my wax...")
ShowMessageFace("",0,0,2,67)
ShowMessage("\\n<Luka>")
ShowMessage("a...aaa...")
ShowMessageFace("",0,0,2,68)
ShowMessage("Immersed in the ecstasy of the wax, my semen spurts out...")
ShowMessage("I continued to taste the wax heaven for the rest of the night.")
ShowMessageFace("",0,0,2,69)
ShowMessage("Finally, when morning came she released me...")
ShowMessage("By that time, both my mind and body were melted away by the pleasure.")
221()
PictureClear(5)
246(2)
ShowMessageFace("",0,0,2,70)
ShowMessage("........")
RunCommonEvent(3998)
0()
