﻿// EVENT 7313
Name "Ophelia: Defeat"

RunCommonEvent(7000)
PictureDisplay(5,"80_mob_kizoku_st01",0,0,0,0,100,100,255,0)
PictureClear(6)
ShowMessageFace("mob_kizoku_fc1",1,0,2,1)
ShowMessage("\\n<Ophelia>Now then, you'll be paying your bet.\nAaaah, even your money is being squeezed...fufu.")
If(0,443,1)
 125(1,0,1300)
 0()
EndIf()
ShowMessageFace("",0,0,2,2)
ShowMessage("Luka hands over 1300G!")
ShowMessageFace("mob_kizoku_fc1",1,0,2,3)
ShowMessage("\\n<Ophelia>Eh? It's against the rules to use a lesser organism? That's not an issue, because this girl is properly registered as my sex toy.")
ShowMessageFace("mob_kizoku_fc1",1,0,2,4)
ShowMessage("\\n<Ophelia>Please visit again whenever you want to come.\nI'll be sure to take out pleeeenty of sperm.")
If(0,443,0)
 EndEventProcessing()
 0()
EndIf()
If(0,2331,1)
 PictureClear(5)
 281(1)
 TeleportPlayer(0,23,53,8,2,0)
 216(0)
 0()
EndIf()
EndEventProcessing()
0()
