﻿// EVENT 2222
Name "Seduction: Quetzalcoatl"

355("$game_troop.lose_event_id = 3222")
ChangeVariable(26,26,0,3,3,1,4)
ChangeVariable(26,26,4,0,10)
ShowMessageFace("coatlus_fc1",1,0,2,1)
ShowMessage("\\n<Quetzalcoatl>Hmm... You possess great power.\nI make it a principle to show boys like you plenty of affection.")
355("battler_graphic_hide")
PictureDisplay(5,"ev_coatlus_hb1",0,0,0,0,100,100,255,0)
ShowMessageFace("",0,0,2,2)
ShowMessage("Quetzalcoatl comes into close contact with Luka!\nShe softly tucks his body between her voluptuous breasts!")
ShowMessageFace("coatlus_fc1",0,0,2,3)
ShowMessage("\\n<Quetzalcoatl>Now, entrust yourself to me.\nI shall take precious care of you as I grant you a gentle ascension.")
ChangeSwitch(98,98,0)
ChangeSwitch(96,96,0)
ShowChoices(strings("Struggle","Let her continue"),1)
IfPlayerPicksChoice(0,"Struggle")
 ShowMessageFace("",0,0,2,4)
 ShowMessage("Luka struggles violently, and escapes from Quetzalcoatl's restraint!")
 RunCommonEvent(1999)
 EndEventProcessing()
 0()
IfPlayerPicksChoice(1,"Let her continue")
 0()
404()
ShowMessageFace("coatlus_fc1",0,0,2,5)
ShowMessage("\\n<Quetzalcoatl>Fufu, good boy...\nIn that case, I shall give you a thick kiss...")
ChangeVariable(26,26,3,0,4)
250(bytes(0x04,0x08,0x6f,0x3a,0x0c,0x52,0x50,0x47,0x3a,0x3a,0x53,0x45,0x08,0x3a,0x0a,0x40,0x6e,0x61,0x6d,0x65,0x49,0x22,0x12,0x6d,0x6f,0x6e,0x5f,0x65,0x72,0x6f,0x5f,0x6b,0x6f,0x6b,0x69,0x31,0x06,0x3a,0x06,0x45,0x54,0x3a,0x0b,0x40,0x70,0x69,0x74,0x63,0x68,0x69,0x69,0x3a,0x0c,0x40,0x76,0x6f,0x6c,0x75,0x6d,0x65,0x69,0x69))
PictureDisplay(5,"ev_coatlus_hb2",0,0,0,0,100,100,255,0)
311(0,1,1,1,26,true)
ShowMessageFace("",0,0,2,6)
ShowMessage("Quetzalcoatl reaches her tongue and licks Luka's lips!\nAt the same time, she skillfully pressures his penis as his body is held between her breasts!\\D")
ShowMessage("Luka takes \\V[26] damage!")
ChangeVariable(27,27,0,3,3,1,2)
If(1,27,0,0,0)
 JumpToLabel("射精1")
 0()
EndIf()
ShowMessageFace("coatlus_fc1",0,0,2,7)
ShowMessage("\\n<Quetzalcoatl>*lick* *lick*...\nUfufu, cute boy...")
250(bytes(0x04,0x08,0x6f,0x3a,0x0c,0x52,0x50,0x47,0x3a,0x3a,0x53,0x45,0x08,0x3a,0x0a,0x40,0x6e,0x61,0x6d,0x65,0x49,0x22,0x12,0x6d,0x6f,0x6e,0x5f,0x65,0x72,0x6f,0x5f,0x6b,0x6f,0x6b,0x69,0x31,0x06,0x3a,0x06,0x45,0x54,0x3a,0x0b,0x40,0x70,0x69,0x74,0x63,0x68,0x69,0x69,0x3a,0x0c,0x40,0x76,0x6f,0x6c,0x75,0x6d,0x65,0x69,0x69))
311(0,1,1,1,26,true)
ShowMessageFace("",0,0,2,8)
ShowMessage("Quetzalcoatl continues to exchange sweet kisses with Luka!\nHis penis is stimulated by her soft breasts, giving him incredible pleasure!\\D")
ShowMessage("Luka takes \\V[26] damage!")
ChangeVariable(27,27,0,3,3,1,2)
If(1,27,0,0,0)
 JumpToLabel("射精1")
 0()
EndIf()
ShowMessageFace("coatlus_fc1",0,0,2,9)
ShowMessage("\\n<Quetzalcoatl>Now, leak out lots of semen.\nWhile wrapped between my breasts...")
250(bytes(0x04,0x08,0x6f,0x3a,0x0c,0x52,0x50,0x47,0x3a,0x3a,0x53,0x45,0x08,0x3a,0x0a,0x40,0x6e,0x61,0x6d,0x65,0x49,0x22,0x12,0x6d,0x6f,0x6e,0x5f,0x65,0x72,0x6f,0x5f,0x6b,0x6f,0x6b,0x69,0x31,0x06,0x3a,0x06,0x45,0x54,0x3a,0x0b,0x40,0x70,0x69,0x74,0x63,0x68,0x69,0x69,0x3a,0x0c,0x40,0x76,0x6f,0x6c,0x75,0x6d,0x65,0x69,0x69))
311(0,1,1,1,26,true)
ShowMessageFace("",0,0,2,10)
ShowMessage("Quetzalcoatl gently rubs her breasts against Luka's body!\nShe continues to force pleasure into him with her breasts while exchanging sweet kisses with him!\\D")
ShowMessage("Luka takes \\V[26] damage!")
ChangeVariable(27,27,0,3,3,1,2)
If(1,27,0,0,0)
 JumpToLabel("射精1")
 0()
EndIf()
DefineLabel("射精1")
ShowMessageFace("",0,0,2,11)
ShowMessage("\\n<Luka>No, I'm coming... Aaaah...")
RunCommonEvent(104)
PictureDisplay(5,"ev_coatlus_hb3",0,0,0,0,100,100,255,0)
RunCommonEvent(105)
ShowMessageFace("",0,0,2,12)
ShowMessage("While exchanging kisses with Quetzalcoatl, my semen leaks between her breasts. Her plump breasts have been stained with lots of my semen.")
ShowMessageFace("coatlus_fc1",0,0,2,13)
ShowMessage("\\n<Quetzalcoatl>Ufufu, bad boy...\nYou peed out so much...")
RunCommonEvent(2000)
EndEventProcessing()
0()
