﻿// EVENT 2237
Name "Seduction: Medusa"

355("$game_troop.lose_event_id = 3237")
ChangeVariable(26,26,0,3,3,1,4)
ChangeVariable(26,26,4,0,10)
ShowMessageFace("medusa_fc1",2,0,2,1)
ShowMessage("\\n<Medusa>I can't be beaten like this...!")
ShowMessageFace("medusa_fc1",0,0,2,2)
ShowMessage("\\n<Medusa>Hey, at least hear out my request.\nLook into my eyes...")
ChangeSwitch(98,98,0)
ChangeSwitch(96,96,0)
ShowChoices(strings("Ignore her","Look into the Medusa's eyes"),1)
IfPlayerPicksChoice(0,"Ignore her")
 ShowMessageFace("",0,0,2,3)
 ShowMessage("Luka ignored the Medusa's words!")
 RunCommonEvent(1999)
 EndEventProcessing()
 0()
IfPlayerPicksChoice(1,"Look into the Medusa's eyes")
 0()
404()
ShowMessageFace("",0,0,2,4)
ShowMessage("Luka gazes into the Medusa's eyes.")
ShowMessageFace("medusa_fc1",1,0,2,5)
ShowMessage("\\n<Medusa>Ahaha, I've caught you!\nHooora, I'll turn you to stone...!")
250(bytes(0x04,0x08,0x6f,0x3a,0x0c,0x52,0x50,0x47,0x3a,0x3a,0x53,0x45,0x08,0x3a,0x0a,0x40,0x6e,0x61,0x6d,0x65,0x49,0x22,0x0e,0x6d,0x6f,0x6e,0x5f,0x66,0x6c,0x61,0x73,0x68,0x06,0x3a,0x06,0x45,0x54,0x3a,0x0b,0x40,0x70,0x69,0x74,0x63,0x68,0x69,0x69,0x3a,0x0c,0x40,0x76,0x6f,0x6c,0x75,0x6d,0x65,0x69,0x69))
ShowMessageFace("",0,0,2,6)
ShowMessage("Medusa's demonic eyes gleam mysteriously!\nLuka's body has been petrified!")
ShowMessageFace("",0,0,2,7)
ShowMessage("\\n<Luka>Ah, uuu...!")
ShowMessageFace("",0,0,2,8)
ShowMessage("I fall on my back as I'm unable to move my body at all.\nMy entire body literally appears to have become stone cold.")
ShowMessageFace("medusa_fc1",1,0,2,9)
ShowMessage("\\n<Medusa>Ahaha, you've already become stone.\nBut there is one place where your senses still remain...")
ShowMessageFace("",0,0,2,10)
ShowMessage("\\n<Luka>Uu...gh...")
ShowMessageFace("",0,0,2,11)
ShowMessage("Just like Medusa said, there was still sensation remaining in my crotch. The only part of my body that wasn't petrified, the skin there still remained intact.")
ShowMessageFace("medusa_fc1",1,0,2,12)
ShowMessage("\\n<Medusa>If I petrified your penis, I wouldn't be able to enjoy it, now would I? Now, I'm going to rape you...!")
ChangeVariable(26,26,3,0,2)
250(bytes(0x04,0x08,0x6f,0x3a,0x0c,0x52,0x50,0x47,0x3a,0x3a,0x53,0x45,0x08,0x3a,0x0a,0x40,0x6e,0x61,0x6d,0x65,0x49,0x22,0x11,0x6d,0x6f,0x6e,0x5f,0x65,0x72,0x6f,0x5f,0x70,0x79,0x75,0x34,0x06,0x3a,0x06,0x45,0x54,0x3a,0x0b,0x40,0x70,0x69,0x74,0x63,0x68,0x69,0x69,0x3a,0x0c,0x40,0x76,0x6f,0x6c,0x75,0x6d,0x65,0x69,0x69))
311(0,1,1,1,26,true)
ShowMessageFace("",0,0,2,13)
ShowMessage("The Medusa straddles Luka's body and immediately sinks her waist! His penis is inserted into her hot vagina!\\D")
ShowMessage("Luka takes \\V[26] damage!")
ChangeVariable(27,27,0,3,3,1,2)
If(1,27,0,0,0)
 JumpToLabel("射精1")
 0()
EndIf()
ShowMessageFace("medusa_fc1",1,0,2,14)
ShowMessage("\\n<Medusa>Ahaha... Being raped while you're petrified is miserable, isn't it? I'll shake my waist like this until you come♪")
250(bytes(0x04,0x08,0x6f,0x3a,0x0c,0x52,0x50,0x47,0x3a,0x3a,0x53,0x45,0x08,0x3a,0x0a,0x40,0x6e,0x61,0x6d,0x65,0x49,0x22,0x13,0x6d,0x6f,0x6e,0x5f,0x65,0x72,0x6f,0x5f,0x63,0x68,0x75,0x70,0x61,0x34,0x06,0x3a,0x06,0x45,0x54,0x3a,0x0b,0x40,0x70,0x69,0x74,0x63,0x68,0x69,0x69,0x3a,0x0c,0x40,0x76,0x6f,0x6c,0x75,0x6d,0x65,0x69,0x69))
311(0,1,1,1,26,true)
ShowMessageFace("",0,0,2,15)
ShowMessage("The Medusa slowly shakes her waist, rubbing Luka's glans against her vaginal folds!\\D")
ShowMessage("Luka takes \\V[26] damage!")
ChangeVariable(27,27,0,3,3,1,2)
If(1,27,0,0,0)
 JumpToLabel("射精2")
 0()
EndIf()
ShowMessageFace("medusa_fc1",1,0,2,16)
ShowMessage("\\n<Medusa>I'll squeeze out your dirty semen like this!")
250(bytes(0x04,0x08,0x6f,0x3a,0x0c,0x52,0x50,0x47,0x3a,0x3a,0x53,0x45,0x08,0x3a,0x0a,0x40,0x6e,0x61,0x6d,0x65,0x49,0x22,0x13,0x6d,0x6f,0x6e,0x5f,0x65,0x72,0x6f,0x5f,0x63,0x68,0x75,0x70,0x61,0x34,0x06,0x3a,0x06,0x45,0x54,0x3a,0x0b,0x40,0x70,0x69,0x74,0x63,0x68,0x69,0x69,0x3a,0x0c,0x40,0x76,0x6f,0x6c,0x75,0x6d,0x65,0x69,0x69))
311(0,1,1,1,26,true)
ShowMessageFace("",0,0,2,17)
ShowMessage("The inside of the Medusa's vagina tightens, comfortably pressuring Luka's penis!\\D")
ShowMessage("Luka takes \\V[26] damage!")
ChangeVariable(27,27,0,3,3,1,2)
If(1,27,0,0,0)
 JumpToLabel("射精2")
 0()
EndIf()
ShowMessageFace("medusa_fc1",1,0,2,18)
ShowMessage("\\n<Medusa>Hora hora... Will you be able to endure it if I tighten up deep inside?!")
250(bytes(0x04,0x08,0x6f,0x3a,0x0c,0x52,0x50,0x47,0x3a,0x3a,0x53,0x45,0x08,0x3a,0x0a,0x40,0x6e,0x61,0x6d,0x65,0x49,0x22,0x13,0x6d,0x6f,0x6e,0x5f,0x65,0x72,0x6f,0x5f,0x63,0x68,0x75,0x70,0x61,0x34,0x06,0x3a,0x06,0x45,0x54,0x3a,0x0b,0x40,0x70,0x69,0x74,0x63,0x68,0x69,0x69,0x3a,0x0c,0x40,0x76,0x6f,0x6c,0x75,0x6d,0x65,0x69,0x69))
311(0,1,1,1,26,true)
ShowMessageFace("",0,0,2,19)
ShowMessage("The back of the Medusa's vagina continues shrinking to wring out Luka's semen!\\D")
ShowMessage("Luka takes \\V[26] damage!")
ChangeVariable(27,27,0,3,3,1,2)
If(1,27,0,0,0)
 JumpToLabel("射精2")
 0()
EndIf()
ShowMessageFace("medusa_fc1",1,0,2,20)
ShowMessage("\\n<Medusa>Hora, hora, hora... Come inside me!")
ChangeVariable(26,26,3,0,2)
250(bytes(0x04,0x08,0x6f,0x3a,0x0c,0x52,0x50,0x47,0x3a,0x3a,0x53,0x45,0x08,0x3a,0x0a,0x40,0x6e,0x61,0x6d,0x65,0x49,0x22,0x13,0x6d,0x6f,0x6e,0x5f,0x65,0x72,0x6f,0x5f,0x63,0x68,0x75,0x70,0x61,0x34,0x06,0x3a,0x06,0x45,0x54,0x3a,0x0b,0x40,0x70,0x69,0x74,0x63,0x68,0x69,0x69,0x3a,0x0c,0x40,0x76,0x6f,0x6c,0x75,0x6d,0x65,0x69,0x69))
311(0,1,1,1,26,true)
ShowMessageFace("",0,0,2,21)
ShowMessage("The Medusa violently shakes her waist, grinding Luka's penis against her vaginal walls!\\D")
ShowMessage("Luka takes \\V[26] damage!")
ChangeVariable(27,27,0,3,3,1,2)
If(1,27,0,0,0)
 JumpToLabel("射精2")
 0()
EndIf()
DefineLabel("射精1")
ShowMessageFace("",0,0,2,22)
ShowMessage("\\n<Luka>No, I'm coming... Aaaah...")
RunCommonEvent(104)
RunCommonEvent(105)
ShowMessageFace("",0,0,2,23)
ShowMessage("The moment I inserted into the Medusa's vagina, I immediately came. I could not withstand the warm, slimy pleasure at all.")
ShowMessageFace("medusa_fc1",1,0,2,24)
ShowMessage("\\n<Medusa>Ahahahaha, you came already?\nSooo fast! That's so pathetic!")
RunCommonEvent(2000)
EndEventProcessing()
DefineLabel("射精2")
ShowMessageFace("",0,0,2,25)
ShowMessage("\\n<Luka>No, I'm coming... Aaaah...")
RunCommonEvent(104)
RunCommonEvent(105)
ShowMessageFace("",0,0,2,26)
ShowMessage("As the Medusa harshly shakes her waist, I finally come inside her vagina. My semen steadily pours into her vagina.")
ShowMessageFace("medusa_fc1",1,0,2,27)
ShowMessage("\\n<Medusa>Ahaha... You shot out your dirty semen inside me!")
RunCommonEvent(2000)
EndEventProcessing()
0()
