// EVENT 3058
Name "Lamia"

If(0,25,1)
 JumpToLabel("反省会")
 0()
EndIf()
PictureDisplay(5,"80_lamia_st02",0,0,0,0,100,100,0,0)
PictureMove(5,null,0,0,0,0,100,100,255,0,30,true)
241(bytes(0x04,0x08,0x6f,0x3a,0x0d,0x52,0x50,0x47,0x3a,0x3a,0x42,0x47,0x4d,0x08,0x3a,0x0a,0x40,0x6e,0x61,0x6d,0x65,0x49,0x22,0x09,0x65,0x72,0x6f,0x31,0x06,0x3a,0x06,0x45,0x54,0x3a,0x0c,0x40,0x76,0x6f,0x6c,0x75,0x6d,0x65,0x69,0x69,0x3a,0x0b,0x40,0x70,0x69,0x74,0x63,0x68,0x69,0x69))
ShowMessageFace("",0,0,2,1)
ShowMessage("\\n<Luka>U-Ugh...")
ShowMessageFace("lamia_fc1",1,0,2,2)
ShowMessage("\\n<Lamia>Now, you're my prey...")
250(bytes(0x04,0x08,0x6f,0x3a,0x0c,0x52,0x50,0x47,0x3a,0x3a,0x53,0x45,0x08,0x3a,0x0a,0x40,0x6e,0x61,0x6d,0x65,0x49,0x22,0x16,0x6d,0x6f,0x6e,0x5f,0x65,0x72,0x6f,0x5f,0x6d,0x61,0x6b,0x69,0x74,0x75,0x6b,0x69,0x33,0x06,0x3a,0x06,0x45,0x54,0x3a,0x0b,0x40,0x70,0x69,0x74,0x63,0x68,0x69,0x69,0x3a,0x0c,0x40,0x76,0x6f,0x6c,0x75,0x6d,0x65,0x69,0x69))
ShowMessageFace("",0,0,2,3)
ShowMessage("The Lamia rolls me up in her serpent body.")
ShowMessage("My whole body bound by her tail, I can't move at all.")
ShowMessageFace("",0,0,2,4)
ShowMessage("\\n<Luka>Urhg...")
ShowMessageFace("lamia_fc1",1,0,2,5)
ShowMessage("\\n<Lamia>You're like a rat caught by a snake...\nFufu... Well, you'll have almost the same fate.")
ShowMessageFace("",0,0,2,6)
ShowMessage("The Lamia stares at me with a triumphant look on her face, as I pant in exhaustion.")
ShowMessageFace("",0,0,2,7)
ShowMessage("She's going to eat me...")
ShowMessage("I can tell just looking at her sadistic face...")
ShowMessageFace("lamia_fc1",1,0,2,8)
ShowMessage("\\n<Lamia>Hahaha... I'm going to swallow you in a few seconds.\nAre you mortified? Are you miserable?")
ShowMessageFace("",0,0,2,9)
ShowMessage("\\n<Luka>No, don't! Stop, please!")
ShowMessageFace("",0,0,2,10)
ShowMessage("Unable to resist, all I can do is plead to the Lamia.")
ShowMessage("But my pleading seems to only make her happier...")
ShowMessageFace("",0,0,2,11)
ShowMessage("The dread fills my body as I realize what's going to happen next...")
ShowMessageFace("lamia_fc1",1,0,2,12)
ShowMessage("\\n<Lamia>Now, I'll swallow you whole!")
ShowMessageFace("",0,0,2,13)
ShowMessage("\\n<Luka>Hiiii!")
If(0,95,0)
 246(2)
 221()
 ShowMessageFace("",0,0,2,14)
 ShowMessage("＊＊＊The rest of the vore scene is being skipped.＊＊＊")
 JumpToLabel("zzz")
 0()
EndIf()
ShowMessageFace("",0,0,2,15)
ShowMessage("In an instant, the Lamia's jaw unhinges and opens her mouth wide.")
ShowMessage("She bends over, and swallows me in a single bite!")
ShowMessageFace("",0,0,2,16)
ShowMessage("\\n<Luka>No! Help me!")
245(bytes(0x04,0x08,0x6f,0x3a,0x0d,0x52,0x50,0x47,0x3a,0x3a,0x42,0x47,0x53,0x08,0x3a,0x0a,0x40,0x6e,0x61,0x6d,0x65,0x49,0x22,0x1e,0x6d,0x6f,0x6e,0x5f,0x68,0x73,0x65,0x61,0x6e,0x31,0x31,0x5f,0x69,0x6e,0x6e,0x65,0x72,0x77,0x6f,0x72,0x6b,0x73,0x5f,0x63,0x31,0x06,0x3a,0x06,0x45,0x54,0x3a,0x0c,0x40,0x76,0x6f,0x6c,0x75,0x6d,0x65,0x69,0x55,0x3a,0x0b,0x40,0x70,0x69,0x74,0x63,0x68,0x69,0x69))
ShowMessageFace("",0,0,2,17)
ShowMessage("My body is forced through her down her narrow esophagus.")
ShowMessageFace("",0,0,2,18)
ShowMessage("The narrow tube inside of her contracts and loosens, slowly forcing my body deeper inside of her.")
ShowMessageFace("",0,0,2,19)
ShowMessage("\\n<Luka>Ahhh!")
ShowMessageFace("",0,0,2,20)
ShowMessage("I've been swallowed alive...")
ShowMessage("But for some reason, my fear is slowly fading...")
ShowMessageFace("",0,0,2,21)
ShowMessage("\\n<Luka>Faa... What is this...\nSomehow... It feels good...")
ShowMessageFace("",0,0,2,22)
ShowMessage("From her tight esophagus, I'm forced into her stomach.")
245(bytes(0x04,0x08,0x6f,0x3a,0x0d,0x52,0x50,0x47,0x3a,0x3a,0x42,0x47,0x53,0x08,0x3a,0x0a,0x40,0x6e,0x61,0x6d,0x65,0x49,0x22,0x1e,0x6d,0x6f,0x6e,0x5f,0x68,0x73,0x65,0x61,0x6e,0x31,0x32,0x5f,0x69,0x6e,0x6e,0x65,0x72,0x77,0x6f,0x72,0x6b,0x73,0x5f,0x63,0x32,0x06,0x3a,0x06,0x45,0x54,0x3a,0x0c,0x40,0x76,0x6f,0x6c,0x75,0x6d,0x65,0x69,0x55,0x3a,0x0b,0x40,0x70,0x69,0x74,0x63,0x68,0x69,0x69))
PictureDisplay(6,"ev_lamia_ct04",0,0,0,0,100,100,255,0)
ShowMessageFace("",0,0,2,23)
ShowMessage("Now in her stomach, my fear and horror start to fade.")
ShowMessageFace("",0,0,2,24)
ShowMessage("\\n<Luka>Faaa...")
ShowMessageFace("",0,0,2,25)
ShowMessage("Stuck in her stomach, it's as if I'm in a tight meaty sleeping bag.")
ShowMessage("As her walls close in on me, the Lamia's digestive juices cover my body.")
ShowMessageFace("",0,0,2,26)
ShowMessage("As the digestive juices start to slowly melt my body, I feel overcome by ecstasy.")
ShowMessageFace("",0,0,2,27)
ShowMessage("\\n<Luka>Aaa... It feels good...")
245(bytes(0x04,0x08,0x6f,0x3a,0x0d,0x52,0x50,0x47,0x3a,0x3a,0x42,0x47,0x53,0x08,0x3a,0x0a,0x40,0x6e,0x61,0x6d,0x65,0x49,0x22,0x1e,0x6d,0x6f,0x6e,0x5f,0x68,0x73,0x65,0x61,0x6e,0x31,0x33,0x5f,0x69,0x6e,0x6e,0x65,0x72,0x77,0x6f,0x72,0x6b,0x73,0x5f,0x63,0x33,0x06,0x3a,0x06,0x45,0x54,0x3a,0x0c,0x40,0x76,0x6f,0x6c,0x75,0x6d,0x65,0x69,0x55,0x3a,0x0b,0x40,0x70,0x69,0x74,0x63,0x68,0x69,0x69))
ShowMessageFace("",0,0,2,28)
ShowMessage("Feeling my body dissolve inside of her, I don't feel any pain.")
ShowMessage("Rather, I'm stuck in some sort of trance.")
ShowMessageFace("",0,0,2,29)
ShowMessage("Being eaten and digested by a monster... It feels like this...?")
ShowMessageFace("",0,0,2,30)
ShowMessage("\\n<Luka>Faa... Amazing...")
RunCommonEvent(104)
PictureDisplay(6,"ev_lamia_ct05",0,0,0,0,100,100,255,0)
RunCommonEvent(105)
ShowMessageFace("",0,0,2,31)
ShowMessage("The overpowering ecstasy forces me to ejaculate.")
ShowMessageFace("",0,0,2,32)
ShowMessage("Even though I'm being eaten alive in this terrifying situation...")
ShowMessageFace("",0,0,2,33)
ShowMessage("\\n<Luka>Aaaa... I came...\nHau! I'm coming again!")
RunCommonEvent(104)
RunCommonEvent(105)
ShowMessageFace("",0,0,2,34)
ShowMessage("Ashamed at feeling so good while being digested, I ejaculate again.")
ShowMessage("As I shoot out semen inside the Lamia, my body continues to dissolve.")
ShowMessageFace("",0,0,2,36)
ShowMessage("\\n<Luka>Aaaa...")
ShowMessageFace("",0,0,2,37)
ShowMessage("I'm only food to the Lamia...")
ShowMessage("Filled with joy, instead of fear...")
ShowMessageFace("",0,0,2,38)
ShowMessage("As if experiencing the best thing in the world, I rejoice at my situation.")
ShowMessage("No... Being eaten by a Lamia may actually be the best thing in the world...")
ShowMessageFace("",0,0,2,39)
ShowMessage("\\n<Luka>A...aa....")
221()
PictureClear(5)
PictureClear(6)
246(2)
ShowMessageFace("",0,0,2,40)
ShowMessage("While experiencing the best pleasure in the world, I'm absorbed by the Lamia.")
ShowMessage("My body fully digested, I'm nothing but nutrients for the Lamia.")
ShowMessageFace("",0,0,2,41)
ShowMessage("But until the last moment, I was happy...")
DefineLabel("反省会")
ShowMessageFace("",0,0,2,42)
ShowMessage("...............")
DefineLabel("zzz")
221()
242(1)
Wait(120)
355("memory_interruption")
ShowMessageFace("",0,0,2,43)
ShowMessage("You hear Ilias's voice calling out to you...")
ShowMessage("Receive her evaluation?")
ShowChoices(strings("Receive evaluation","Change difficulty","Reincarnate"),3)
IfPlayerPicksChoice(0,null)
 241(bytes(0x04,0x08,0x6f,0x3a,0x0d,0x52,0x50,0x47,0x3a,0x3a,0x42,0x47,0x4d,0x08,0x3a,0x0a,0x40,0x6e,0x61,0x6d,0x65,0x49,0x22,0x0a,0x69,0x72,0x69,0x61,0x73,0x06,0x3a,0x06,0x45,0x54,0x3a,0x0c,0x40,0x76,0x6f,0x6c,0x75,0x6d,0x65,0x69,0x5f,0x3a,0x0b,0x40,0x70,0x69,0x74,0x63,0x68,0x69,0x6e))
 PictureDisplay(1,"bg001",0,0,0,0,100,100,255,0)
 222()
 PictureDisplay(5,"80_iriasu_st04",0,0,0,0,100,100,0,0)
 PictureMove(5,null,0,0,0,0,100,100,255,0,30,true)
 ShowMessageFace("iriasu_fc1",3,0,2,44)
 ShowMessage("\\n<Ilias>Did you become prey to a Lamia?\nSheesh, you're totally incompetent.")
 PictureDisplay(5,"80_iriasu_st01",0,0,0,0,100,100,255,0)
 ShowMessageFace("iriasu_fc1",0,0,2,45)
 ShowMessage("\\n<Ilias>The Lamia has high offense and defense.\nHer snake attacks and binds are also painful.")
 ShowMessageFace("iriasu_fc1",0,0,2,46)
 ShowMessage("\\n<Ilias>She isn't strong in magic, so attack her with that.\nAlso, Sleep seems to be quite effective.")
 ShowMessageFace("iriasu_fc1",0,0,2,47)
 ShowMessage("\\n<Ilias>Ice and Sleep are common to Lamias as weak points.\nMake sure to remember that.")
 PictureDisplay(5,"80_iriasu_st02",0,0,0,0,100,100,255,0)
 ShowMessageFace("iriasu_fc1",1,0,2,48)
 ShowMessage("\\n<Ilias>Now go, oh brave Luka.\nCast your hammer of justice down upon the abominable existences known as Lamias.")
 242(1)
 221()
 PictureClear(5)
 PictureClear(1)
 Wait(60)
 0()
IfPlayerPicksChoice(1,null)
 ShowMessageFace("",0,0,2,49)
 ShowMessage("Please choose a difficulty level.")
 RunCommonEvent(110)
 0()
IfPlayerPicksChoice(2,null)
 0()
404()
RunCommonEvent(3000)
0()
