﻿// EVENT 2273
Name "Seduction: Maccubus"

355("$game_troop.lose_event_id = 3273")
ChangeVariable(26,26,0,3,3,1,4)
ChangeVariable(26,26,4,0,10)
ShowMessageFace("maccubus_fc1",6,0,2,1)
ShowMessage("\\n<Maccubus>Why are you glaring at me like that...?\nI just wanted to have some fun, but...")
ShowMessageFace("maccubus_fc1",2,0,2,2)
ShowMessage("\\n<Maccubus>...it can't be helped.\nI'll show you the technique of a prostitute!")
355("battler_graphic_hide")
PictureDisplay(6,"ev_maccubus_h21",0,0,0,0,100,100,255,0)
ShowMessageFace("",0,0,2,3)
ShowMessage("The Maccubus catches Luka's penis between her breasts!")
ShowMessageFace("maccubus_fc1",4,0,2,4)
ShowMessage("\\n<Maccubus>I'll show you my technique.\nNo customer has lasted even a minute...")
ChangeSwitch(98,98,0)
ChangeSwitch(96,96,0)
ShowChoices(strings("Struggle","Let her continue"),1)
IfPlayerPicksChoice(0,null)
 ShowMessageFace("",0,0,2,5)
 ShowMessage("Luka struggles violently, and escapes from the Maccubus' restraint!")
 RunCommonEvent(1999)
 EndEventProcessing()
 0()
IfPlayerPicksChoice(1,null)
 0()
404()
ShowMessageFace("maccubus_fc1",4,0,2,6)
ShowMessage("\\n<Maccubus>Fufu, I'll make you ascend really quick...")
ChangeVariable(26,26,3,0,6)
250(bytes(0x04,0x08,0x6f,0x3a,0x0c,0x52,0x50,0x47,0x3a,0x3a,0x53,0x45,0x08,0x3a,0x0a,0x40,0x6e,0x61,0x6d,0x65,0x49,0x22,0x12,0x6d,0x6f,0x6e,0x5f,0x65,0x72,0x6f,0x5f,0x6b,0x6f,0x6b,0x69,0x31,0x06,0x3a,0x06,0x45,0x54,0x3a,0x0b,0x40,0x70,0x69,0x74,0x63,0x68,0x69,0x69,0x3a,0x0c,0x40,0x76,0x6f,0x6c,0x75,0x6d,0x65,0x69,0x69))
311(0,1,1,1,26,true)
ShowMessageFace("",0,0,2,7)
ShowMessage("The Maccubus slowly moves her semen-covered breasts up and down! Luka is given a sweet stimulation as his dick is massaged by her breasts!\\D")
ShowMessage("Luka takes \\V[26] damage!")
ChangeVariable(27,27,0,3,3,1,2)
If(1,27,0,0,0)
 JumpToLabel("射精1")
 0()
EndIf()
ShowMessageFace("maccubus_fc1",4,0,2,8)
ShowMessage("\\n<Maccubus>It seems like you're already about to come...\nThis is how I finish my customers in an instant.")
250(bytes(0x04,0x08,0x6f,0x3a,0x0c,0x52,0x50,0x47,0x3a,0x3a,0x53,0x45,0x08,0x3a,0x0a,0x40,0x6e,0x61,0x6d,0x65,0x49,0x22,0x12,0x6d,0x6f,0x6e,0x5f,0x65,0x72,0x6f,0x5f,0x6b,0x6f,0x6b,0x69,0x31,0x06,0x3a,0x06,0x45,0x54,0x3a,0x0b,0x40,0x70,0x69,0x74,0x63,0x68,0x69,0x69,0x3a,0x0c,0x40,0x76,0x6f,0x6c,0x75,0x6d,0x65,0x69,0x69))
311(0,1,1,1,26,true)
ShowMessageFace("",0,0,2,9)
ShowMessage("The Maccubus crushes Luka's penis between her breasts while massaging it! Her soft breasts give an ascending pleasure!\\D")
ShowMessage("Luka takes \\V[26] damage!")
ChangeVariable(27,27,0,3,3,1,2)
If(1,27,0,0,0)
 JumpToLabel("射精1")
 0()
EndIf()
DefineLabel("射精1")
ShowMessageFace("",0,0,2,10)
ShowMessage("\\n<Luka>No, I'm coming... Aaaah...")
RunCommonEvent(104)
PictureDisplay(6,"ev_maccubus_h22",0,0,0,0,100,100,255,0)
RunCommonEvent(105)
ShowMessageFace("",0,0,2,11)
ShowMessage("As the Maccubus tortures my penis between her breasts, I come in an instant. My semen becomes mixed with the semen of other men staining her breasts.")
ShowMessageFace("maccubus_fc1",4,0,2,12)
ShowMessage("\\n<Maccubus>Fufu... That is a prostitute's technique.\nYou couldn't stand it, could you?")
RunCommonEvent(2000)
EndEventProcessing()
0()
