// EVENT 0316
Name "Administrator's Tower, Radio"

If(0,2112,1)
 ChangeSwitch(2112,2112,0)
 ShowMessageFace("radio_fc1",0,0,2,1)
 ShowMessage("\\n<Radio>......")
 ShowMessageFace("radio_fc1",0,0,2,2)
 ShowMessage("\\n<Radio>Emotions do not exist for me. SadneSS, regret... These are things I do noTUnderstand.")
 ShowMessageFace("radio_fc1",0,0,2,3)
 ShowMessage("\\n<Radio>But I am the oNe who is left.\nOnly me. The one with no emotioNS...")
 ShowMessageFace("radio_fc1",0,0,2,4)
 ShowMessage("\\n<Radio>EveRYone tried so hard...\nBut even though they desperately fought to surVive...")
 ShowMessageFace("radio_fc1",0,0,2,5)
 ShowMessage("\\n<Radio>......")
 If(0,6,0)
  ShowMessageFace("sonia_fc2",2,0,2,6)
  ShowMessage("\\n<Sonya>Radio-chan...")
  0()
 EndIf()
 If(0,1129,0)
  ShowMessageFace("brunhild_fc1",0,0,2,7)
  ShowMessage("\\n<Hild>...Radio is in mourning.\nYou are sad and feeling regret.")
  ShowMessageFace("radio_fc1",0,0,2,8)
  ShowMessage("\\n<Radio>Me...?\nBut I hAVe no emotions...")
  ShowMessageFace("brunhild_fc1",0,0,2,9)
  ShowMessage("\\n<Hild>...Hild understands.\nRadio has performed well.")
  ShowMessageFace("radio_fc1",0,0,2,10)
  ShowMessage("\\n<Radio>I...")
  ShowMessageFace("radio_fc1",0,0,2,11)
  ShowMessage("\\n<Radio>......")
  ShowMessageFace("radio_fc1",0,0,2,12)
  ShowMessage("\\n<Radio>Please meeT master...\nThey fought to the bITTer end for everyone's sake...")
  0()
 EndIf()
 0()
EndIf()
0()
