﻿// EVENT 3039
Name "Dark Elf Fencer"

If(0,25,1)
 JumpToLabel("反省会")
 0()
EndIf()
PictureDisplay(5,"80_delh_a_st02",0,0,0,0,100,100,0,0)
PictureMove(5,null,0,0,0,0,100,100,255,0,30,true)
241(bytes(0x04,0x08,0x6f,0x3a,0x0d,0x52,0x50,0x47,0x3a,0x3a,0x42,0x47,0x4d,0x08,0x3a,0x0a,0x40,0x6e,0x61,0x6d,0x65,0x49,0x22,0x09,0x65,0x72,0x6f,0x31,0x06,0x3a,0x06,0x45,0x54,0x3a,0x0c,0x40,0x76,0x6f,0x6c,0x75,0x6d,0x65,0x69,0x69,0x3a,0x0b,0x40,0x70,0x69,0x74,0x63,0x68,0x69,0x69))
ShowMessageFace("delh_a_fc1",1,0,2,1)
ShowMessage("\\n<Dark Elf>Huhu... You can no longer fight back, trespasser. Now you will fall to darkness...")
ShowMessageFace("",0,0,2,2)
ShowMessage("\\n<Luka>W-w-what! No, get away from me!")
ShowMessageFace("delh_a_fc1",1,0,2,3)
ShowMessage("\\n<Dark Elf>Your only future is to be corrupted and raped until death...")
PictureDisplay(5,"ev_delh_a_h1",0,0,0,0,100,100,255,0)
ShowMessageFace("",0,0,2,4)
ShowMessage("As she says that, the Dark Elf straddles my waist and pulls out my cock. It already stands erect as she brings it up against her pussy.")
ShowMessageFace("delh_a_fc1",1,0,2,5)
ShowMessage("\\n<Dark Elf>This is just the beginning...\nI'll violate you until you sink into depravity...")
ShowMessageFace("",0,0,2,6)
ShowMessage("\\n<Luka>No... I don't want...")
ShowMessageFace("",0,0,2,7)
ShowMessage("Weakened from my defeat, I can't summon the strength to escape. She smiles cruelly at me and fondles my erection before the inevitable...")
ShowMessageFace("delh_a_fc1",1,0,2,8)
ShowMessage("\\n<Dark Elf>Now meet your fate, intruder!")
ShowMessageFace("",0,0,2,9)
ShowMessage("She slams her waist down, plunging my penis deep into her.")
245(bytes(0x04,0x08,0x6f,0x3a,0x0d,0x52,0x50,0x47,0x3a,0x3a,0x42,0x47,0x53,0x08,0x3a,0x0a,0x40,0x6e,0x61,0x6d,0x65,0x49,0x22,0x1e,0x6d,0x6f,0x6e,0x5f,0x68,0x73,0x65,0x61,0x6e,0x30,0x31,0x5f,0x69,0x6e,0x6e,0x65,0x72,0x77,0x6f,0x72,0x6b,0x73,0x5f,0x61,0x31,0x06,0x3a,0x06,0x45,0x54,0x3a,0x0c,0x40,0x76,0x6f,0x6c,0x75,0x6d,0x65,0x69,0x55,0x3a,0x0b,0x40,0x70,0x69,0x74,0x63,0x68,0x69,0x69))
PictureDisplay(5,"ev_delh_a_h2",0,0,0,0,100,100,255,0)
ShowMessageFace("",0,0,2,10)
ShowMessage("With her pussy completely enveloping my penis, I let out a moan at the intense stimulation already assaulting me.")
ShowMessageFace("",0,0,2,11)
ShowMessage("\\n<Luka>Auuuu!")
ShowMessageFace("",0,0,2,12)
ShowMessage("As soon as it entered her, I feel her wet walls move around me. Even without any movement, it felt amazing.")
ShowMessageFace("delh_a_fc1",1,0,2,13)
ShowMessage("\\n<Dark Elf>You were already a virgin...\nDefiling something that mustn't be defiled, the joy of corrupting others... I just can't get enough of it...")
ShowMessageFace("",0,0,2,14)
ShowMessage("\\n<Luka>Aaaaa!")
245(bytes(0x04,0x08,0x6f,0x3a,0x0d,0x52,0x50,0x47,0x3a,0x3a,0x42,0x47,0x53,0x08,0x3a,0x0a,0x40,0x6e,0x61,0x6d,0x65,0x49,0x22,0x1e,0x6d,0x6f,0x6e,0x5f,0x68,0x73,0x65,0x61,0x6e,0x30,0x32,0x5f,0x69,0x6e,0x6e,0x65,0x72,0x77,0x6f,0x72,0x6b,0x73,0x5f,0x61,0x32,0x06,0x3a,0x06,0x45,0x54,0x3a,0x0c,0x40,0x76,0x6f,0x6c,0x75,0x6d,0x65,0x69,0x55,0x3a,0x0b,0x40,0x70,0x69,0x74,0x63,0x68,0x69,0x69))
ShowMessageFace("",0,0,2,15)
ShowMessage("The Dark Elf wastes no time pumping her hips and working my length inside her. Grinding against me each time our waists meet, she sends sparks of pleasure creeping up my spine.")
ShowMessageFace("",0,0,2,16)
ShowMessage("Feeling the inescapable pleasure drive me closer to corruption, I try my hardest to struggle free from her hold.")
ShowMessageFace("",0,0,2,17)
ShowMessage("As I make my futile escape attempt, the Dark Elf pushes me down with her free arm and tightens her pussy around me. The intensity of the stimulation paralyzes my body.")
ShowMessageFace("",0,0,2,19)
ShowMessage("\\n<Luka>Stop! Let go of me!")
ShowMessageFace("delh_a_fc1",1,0,2,21)
ShowMessage("\\n<Dark Elf>Fufufu... You struggle now, but it feels amazing to be corrupted... Pour your semen into me and experience depravity like never before...")
ShowMessageFace("",0,0,2,22)
ShowMessage("\\n<Luka>I don't want that!")
ShowMessageFace("",0,0,2,23)
ShowMessage("Watching me intently, the Dark Elf grinds her waist into me before pulling up and slamming back down. The tightness of her vagina squeezes every inch of my length as she pumps it in and out.")
ShowMessageFace("delh_a_fc1",1,0,2,24)
ShowMessage("\\n<Dark Elf>Fufu... There's no escape. You'll stay until you're corrupted. You'll continue to mate with me until you die.")
ShowMessageFace("",0,0,2,25)
ShowMessage("\\n<Luka>Auu...")
ShowMessageFace("",0,0,2,26)
ShowMessage("Unable to move, I pour every last bit of my will into preventing myself from coming. The Dark Elf speeds up her movements, pistoning her hips to erode my endurance and force me to climax.")
ShowMessageFace("delh_a_fc1",1,0,2,27)
ShowMessage("\\n<Dark Elf>You can't endure for much longer. Soon the pleasure will overtake you. Come inside me, and let darkness take you.")
ShowMessageFace("delh_a_fc1",1,0,2,28)
ShowMessage("\\n<Dark Elf>Then we'll keep going until you die...")
ShowMessageFace("",0,0,2,29)
ShowMessage("\\n<Luka>Auuuu....")
ShowMessageFace("",0,0,2,30)
ShowMessage("Laughing as she watches my face contort in horror mixed with pleasure, she continues to pump me. Every time I'm hilted inside her narrow passage, I'm pushed closer to the edge.")
ShowMessageFace("delh_a_fc1",1,0,2,33)
ShowMessage("\\n<Dark Elf>Not much longer now... You'll release your semen into me. The first release of many more to come...")
ShowMessageFace("",0,0,2,34)
ShowMessage("The Dark Elf looks down at me and presses herself lower until I'm rooted inside. She begins to shake and twist her waist, tempting me to accept her corruption...")
ShowMessageFace("",0,0,2,35)
ShowMessage("\\n<Luka>N...no...")
ShowMessageFace("",0,0,2,36)
ShowMessage("With my last bit of strength, I resist the powerful urge to come. Suddenly, the Dark Elf leans over and presses her lips to mine. Her tongue plunges into my mouth, pushing in far enough to nearly suffocate me before she pulls away...")
ShowMessageFace("delh_a_fc1",1,0,2,37)
ShowMessage("\\n<Dark Elf>Fufu... That was my kiss of death.\nNow give in to depravity while you drown in ecstasy...")
ShowMessageFace("",0,0,2,38)
ShowMessage("\\n<Luka>Faaaa!")
ShowMessageFace("",0,0,2,39)
ShowMessage("As soon as her aggressive kiss breaks off, I feel a trance beginning to overpower my brain. A sweet numbness spreads from the point her tongue invaded my mouth...")
ShowMessageFace("",0,0,2,40)
ShowMessage("I feel the numbness inch towards my waist, and I recognize my inevitable defeat... As it enters my penis, all of my endurance vanishes.")
ShowMessageFace("",0,0,2,41)
ShowMessage("\\n<Luka>Aaaahhhhh!")
RunCommonEvent(104)
PictureDisplay(5,"ev_delh_a_h3",0,0,0,0,100,100,255,0)
RunCommonEvent(105)
246(1)
ShowMessageFace("",0,0,2,42)
ShowMessage("I erupt inside the Dark Elf, the force of my ejaculation stunning me. The unusual orgasm drains me far more than any I've experienced before...")
ShowMessageFace("",0,0,2,43)
ShowMessage("With each pulse, it feels as if my soul itself were shooting out of me, infusing sweet ecstasy within my body. The more semen my penis shoots out, the more the feeling spreads through me.")
ShowMessageFace("",0,0,2,44)
ShowMessage("The orgasm lasts far longer than normal, draining me of my strength and causing my body and limbs to go slack...")
ShowMessageFace("delh_a_fc1",1,0,2,46)
ShowMessage("\\n<Dark Elf>Fufu... Now you understand what falling to corruption is like, don't you? Once you've been tainted like this, there's no going back...")
ShowMessageFace("",0,0,2,47)
ShowMessage("\\n<Luka>Faa....")
ShowMessageFace("",0,0,2,48)
ShowMessage("The Dark Elf watches me as my ejaculation continues. She occasionally pumps her hips to encourage me to keep going, not willing to let this end until I've surrendered my body and soul to her.")
ShowMessageFace("",0,0,2,49)
ShowMessage("\\n<Luka>Auu... Aaa....")
ShowMessageFace("",0,0,2,50)
ShowMessage("When it finally does, I can hardly move or think, and my body feels distant. I barely feel the Dark Elf shift and lean over me. She kisses me once more and enters my mouth unimpeded, forcing me fully erect inside her.")
ShowMessageFace("delh_a_fc1",1,0,2,51)
ShowMessage("\\n<Dark Elf>Fufu... No stopping just yet.\nFall deeper into corruption and have some more fun with me for now...")
ShowMessageFace("delh_a_fc1",1,0,2,52)
ShowMessage("\\n<Dark Elf>I'll let you enjoy it until you're no more...\nHahahahaha.")
ShowMessageFace("",0,0,2,53)
ShowMessage("\\n<Luka>............")
ShowMessageFace("",0,0,2,54)
ShowMessage("The Dark Elf continues to rape me. After surrendering to the darkness, I am merely a shell of a human in her arms for the little time I have left to live...")
221()
PictureClear(5)
DefineLabel("反省会")
ShowMessageFace("",0,0,2,56)
ShowMessage(".............")
221()
242(1)
Wait(120)
355("memory_interruption")
ShowMessageFace("",0,0,2,57)
ShowMessage("You hear Ilias' voice calling out to you...\nReceive her evaluation?")
ShowChoices(strings("Receive Evaluation","Change Difficulty","Reincarnate"),3)
IfPlayerPicksChoice(0,null)
 241(bytes(0x04,0x08,0x6f,0x3a,0x0d,0x52,0x50,0x47,0x3a,0x3a,0x42,0x47,0x4d,0x08,0x3a,0x0a,0x40,0x6e,0x61,0x6d,0x65,0x49,0x22,0x0a,0x69,0x72,0x69,0x61,0x73,0x06,0x3a,0x06,0x45,0x54,0x3a,0x0c,0x40,0x76,0x6f,0x6c,0x75,0x6d,0x65,0x69,0x5f,0x3a,0x0b,0x40,0x70,0x69,0x74,0x63,0x68,0x69,0x6e))
 PictureDisplay(1,"bg001",0,0,0,0,100,100,255,0)
 222()
 PictureDisplay(5,"80_iriasu_st04",0,0,0,0,100,100,0,0)
 PictureMove(5,null,0,0,0,0,100,100,255,0,30,true)
 ShowMessageFace("iriasu_fc1",3,0,2,58)
 ShowMessage("\\n<Ilias>A hero becoming corrupted...\nCan you see how sad that makes me?")
 PictureDisplay(5,"80_iriasu_st01",0,0,0,0,100,100,255,0)
 ShowMessageFace("iriasu_fc1",0,0,2,59)
 ShowMessage("\\n<Ilias>The Dark Elf Fencer has high attack power.\nShe also uses powerful sword skills.")
 ShowMessageFace("iriasu_fc1",0,0,2,60)
 ShowMessage("\\n<Ilias>In addition to her pleasure attacks, she can also use trance-inducing skills. Without a doubt, she's a troublesome opponent.")
 ShowMessageFace("iriasu_fc1",0,0,2,61)
 ShowMessage("\\n<Ilias>However since she's an elf, she is vulnerable to pleasure attacks. Pleasure related status ailments are very effective, so use them to your advantage.")
 ShowMessageFace("iriasu_fc1",0,0,2,62)
 ShowMessage("\\n<Ilias>Other status ailments that aren't pleasure-related are really hard to apply. It would be best to focus on applying horny and trance.")
 PictureDisplay(5,"80_iriasu_st02",0,0,0,0,100,100,255,0)
 ShowMessageFace("iriasu_fc1",1,0,2,63)
 ShowMessage("\\n<Ilias>Now go, oh brave Luka.\nSend her back to the darkness where she belongs.")
 242(1)
 221()
 PictureClear(5)
 PictureClear(1)
 Wait(60)
 0()
IfPlayerPicksChoice(1,null)
 ShowMessageFace("",0,0,2,64)
 ShowMessage("Please choose a difficulty level.")
 RunCommonEvent(110)
 0()
IfPlayerPicksChoice(2,null)
 0()
404()
RunCommonEvent(3000)
0()
