﻿// EVENT 5833
Name "R妖鬼（白念）"

PictureDisplay(1,"bg195",0,0,0,0,100,100,255,0)
PictureDisplay(5,"ev_youki_hd1",0,0,0,0,100,100,255,0)
222()
241(bytes(0x04,0x08,0x6f,0x3a,0x0d,0x52,0x50,0x47,0x3a,0x3a,0x42,0x47,0x4d,0x08,0x3a,0x0a,0x40,0x6e,0x61,0x6d,0x65,0x49,0x22,0x09,0x65,0x72,0x6f,0x31,0x06,0x3a,0x06,0x45,0x54,0x3a,0x0c,0x40,0x76,0x6f,0x6c,0x75,0x6d,0x65,0x69,0x69,0x3a,0x0b,0x40,0x70,0x69,0x74,0x63,0x68,0x69,0x69))
245(bytes(0x04,0x08,0x6f,0x3a,0x0d,0x52,0x50,0x47,0x3a,0x3a,0x42,0x47,0x53,0x08,0x3a,0x0a,0x40,0x6e,0x61,0x6d,0x65,0x49,0x22,0x1e,0x6d,0x6f,0x6e,0x5f,0x68,0x73,0x65,0x61,0x6e,0x30,0x33,0x5f,0x69,0x6e,0x6e,0x65,0x72,0x77,0x6f,0x72,0x6b,0x73,0x5f,0x61,0x33,0x06,0x3a,0x06,0x45,0x54,0x3a,0x0c,0x40,0x76,0x6f,0x6c,0x75,0x6d,0x65,0x69,0x55,0x3a,0x0b,0x40,0x70,0x69,0x74,0x63,0x68,0x69,0x69))
ShowMessageFace("byakunen_fc1",5,0,2,1)
ShowMessage("【白念】")
ShowMessage("こんな……ひ、ひどいです……")
ShowMessageFace("youki_fc1",0,0,2,2)
ShowMessage("【くれは】")
ShowMessage("ははっ、何がひどいんだ？")
ShowMessage("約束通り、技を教えてやってるだろうが……")
PictureDisplay(6,"ev_youki_hd3",0,0,0,0,100,100,255,0)
ShowMessageFace("",0,0,2,3)
ShowMessage("白念は、くれはの筋肉質の体に抱き込まれ――")
ShowMessage("その頭を、柔らかな胸の谷間に挟み込まれていた。")
ShowMessageFace("byakunen_fc1",5,0,2,4)
ShowMessage("【白念】")
ShowMessage("う、うぅぅっ……")
ShowMessageFace("youki_fc1",0,0,2,5)
ShowMessage("【くれは】")
ShowMessage("これが、乳固めってワザだ。")
ShowMessage("これだけでも、イっちまう男は多いんだぜ……")
ShowMessageFace("byakunen_fc1",5,0,2,6)
ShowMessage("【白念】")
ShowMessage("は、離して下さい……")
ShowMessageFace("",0,0,2,7)
ShowMessage("きつめの抱擁と、柔らかなおっぱいの密着感。")
ShowMessage("まるで筋肉の牢獄のごとく、脱出を許さなかった。")
ShowMessageFace("youki_fc1",0,0,2,8)
ShowMessage("【くれは】")
ShowMessage("さらに、このまま……")
ShowMessage("肉壺万力搾りに持ち込んでやるのさ！")
ShowMessageFace("",0,0,2,9)
ShowMessage("くれはは、腰を巧みに動かし――")
ShowMessage("その肉壺に、白念のモノを咥え込んできた！")
ShowMessageFace("byakunen_fc1",5,0,2,10)
ShowMessage("【白念】")
ShowMessage("あぅぅぅっ……！")
ShowMessageFace("",0,0,2,11)
ShowMessage("くれはの肉壺が、みっしりとペニスを締め上げる――")
ShowMessage("文字通り、肉壁が万力のように押し潰してくるのだ。")
ShowMessageFace("youki_fc1",0,0,2,12)
ShowMessage("【くれは】")
ShowMessage("アソコの筋肉も、もちろん鍛えてるからな。")
ShowMessage("こうやって締めてやるだけで、男はみんな天国行きだぜ！")
ShowMessageFace("byakunen_fc1",5,0,2,13)
ShowMessage("【白念】")
ShowMessage("き、きつい……うぁぁぁっ……！")
ShowMessageFace("",0,0,2,14)
ShowMessage("きつく狭まり、ぎゅうぎゅうと締め上げてくる肉壁。")
ShowMessage("柔肉がじゅぶじゅぶと収縮し、ペニスを揉み潰す――")
ShowMessageFace("",0,0,2,15)
ShowMessage("くれはの繰り出した性技により、白念はたちまち絶頂に導かれた。")
ShowMessage("強烈に搾り上げてくる膣内で、ペニスがびくびくと脈動し――")
RunCommonEvent(104)
PictureDisplay(5,"ev_youki_hd2",0,0,0,0,100,100,255,0)
RunCommonEvent(105)
ShowMessageFace("",0,0,2,16)
ShowMessage("そして、ドクドクと精液を発射してしまう。")
ShowMessage("鍛え抜かれた名器で、即座にイかされてしまったのだ――")
ShowMessageFace("byakunen_fc1",5,0,2,17)
ShowMessage("【白念】")
ShowMessage("あぁぁぁぁ……")
ShowMessageFace("youki_fc1",0,0,2,18)
ShowMessage("【くれは】")
ShowMessage("ははっ、まだまだ搾ってやるぜ。")
ShowMessage("ほぉら、たっぷりと精をぶち撒けな！")
ShowMessageFace("byakunen_fc1",5,0,2,19)
ShowMessage("【白念】")
ShowMessage("た、助け……あぅぅっ……！")
ShowMessageFace("",0,0,2,20)
ShowMessage("こうして白念は、延々とくれはの名器で嫐られ――")
ShowMessage("意識を失うまで、ひたすらに精を搾り抜かれたのである。")
221()
PictureClear(1)
PictureClear(5)
PictureClear(6)
242(1)
246(1)
ShowMessageFace("",0,0,2,21)
ShowMessage("・・・・・・・・")
221()
Wait(120)
If(0,443,0)
 EndEventProcessing()
 0()
EndIf()
ChangeSwitch(2403,2403,0)
TeleportPlayer(0,78,45,30,2,2)
241(bytes(0x04,0x08,0x6f,0x3a,0x0d,0x52,0x50,0x47,0x3a,0x3a,0x42,0x47,0x4d,0x08,0x3a,0x0a,0x40,0x6e,0x61,0x6d,0x65,0x49,0x22,0x0c,0x63,0x61,0x73,0x74,0x6c,0x65,0x36,0x06,0x3a,0x06,0x45,0x54,0x3a,0x0c,0x40,0x76,0x6f,0x6c,0x75,0x6d,0x65,0x69,0x69,0x3a,0x0b,0x40,0x70,0x69,0x74,0x63,0x68,0x69,0x69))
222()
0()
