// EVENT 0344
Name "Emily and Cassandra Event"

241(bytes(0x04,0x08,0x6f,0x3a,0x0d,0x52,0x50,0x47,0x3a,0x3a,0x42,0x47,0x4d,0x08,0x3a,0x0a,0x40,0x6e,0x61,0x6d,0x65,0x49,0x22,0x0a,0x62,0x6f,0x73,0x73,0x30,0x06,0x3a,0x06,0x45,0x54,0x3a,0x0c,0x40,0x76,0x6f,0x6c,0x75,0x6d,0x65,0x69,0x69,0x3a,0x0b,0x40,0x70,0x69,0x74,0x63,0x68,0x69,0x69))
PictureDisplay(6,"80_cassandra_st21",0,0,-150,0,100,100,0,0)
PictureDisplay(5,"80_emily_st01",0,0,150,0,100,100,0,0)
PictureMove(6,null,0,0,-150,0,100,100,255,0,30,false)
PictureMove(5,null,0,0,150,0,100,100,255,0,30,true)
If(0,4,0)
 ShowMessageFace("cassandra_fc1",5,0,2,1)
 ShowMessage("\\n<Cassandra>I figured I'd see you here, Alipheese, given your current form.")
 ShowMessageFace("alice_fc5",6,0,2,2)
 ShowMessage("\\n<Alice>Consider your age, Cassandra!")
 ShowMessageFace("emily_fc1",1,0,2,3)
 ShowMessage("\\n<Emily>Don't be rude to mother.\nWe're going to be the first mother-daughter magical girl duo in history!")
 0()
EndIf()
If(0,5,0)
 ShowMessageFace("cassandra_fc1",5,0,2,4)
 ShowMessage("\\n<Cassandra>You're trying to become a magical girl, too?\nWell, I guess it makes sense given your current form.")
 ShowMessageFace("iriasu_fc4",2,0,2,5)
 ShowMessage("\\n<Ilias>I don't particularly want the job, but I suppose I'll have to take it.")
 ShowMessageFace("emily_fc1",1,0,2,6)
 ShowMessage("\\n<Emily>We won't just stand aside!\nWe're going to be the first mother-daughter magical girl duo in history!")
 0()
EndIf()
ShowMessageFace("cassandra_fc1",5,0,2,7)
ShowMessage("\\n<Cassandra>We've taken care of most of the other candidates so far. It's just us, you, and one other.")
If(0,6,0)
 ShowMessageFace("sonia_fc3",7,0,2,8)
 ShowMessage("\\n<Sonya>That's crazy. The battle royale is almost over already? I can't believe there's just one other person besides us left...")
 0()
Else()
 ShowMessageFace("ruka_fc1",0,0,2,9)
 ShowMessage("\\n<Luka>The battle royale is almost over already? I can't believe there's just one other person besides us left...")
 0()
EndIf()
ShowMessageFace("emily_fc1",1,0,2,10)
ShowMessage("\\n<Emily>The others were just super weak...\nNow it's time for us to eliminate you guys too!")
If(4,289,0)
 ShowMessageFace("cassandra_fc1",5,0,2,11)
 ShowMessage("\\n<Cassandra>Oh, Ran's here too.\nWill you join in on our fun?")
 ShowMessageFace("maidscyulla_fc1",1,0,2,12)
 ShowMessage("\\n<Ran>As you wish...\nI'm happy to oblige.")
 0()
EndIf()
If(4,294,0)
 ShowMessageFace("emily_fc1",1,0,2,13)
 ShowMessage("\\n<Emily'>Ooh, so this is what it feels like to see yourself. She's fatter than me, though, I think?")
 ShowMessageFace("emily_fc1",3,0,2,14)
 ShowMessage("\\n<Emily>Whoa, a fake of me!\nI'll show you who the real Emily is!")
 0()
EndIf()
If(4,295,0)
 ShowMessageFace("cassandra_fc1",5,0,2,15)
 ShowMessage("\\n<Cassandra'>Ufufu, there's another of me...")
 ShowMessageFace("cassandra_fc1",7,0,2,16)
 ShowMessage("\\n<Cassandra>I don't recall having any daughters other than Emily. Are you using some kind of transformation magic?")
 0()
EndIf()
ShowMessageFace("cassandra_fc1",5,0,2,17)
ShowMessage("\\n<Cassandra>We'll show you why we're the most suited to be magical girls!")
ShowMessageFace("ruka_fc1",0,0,2,18)
ShowMessage("\\n<Luka>And we won't give up without a fight!")
PictureClear(5)
PictureClear(6)
SetBattleBGM(bytes(0x04,0x08,0x6f,0x3a,0x0d,0x52,0x50,0x47,0x3a,0x3a,0x42,0x47,0x4d,0x08,0x3a,0x0a,0x40,0x6e,0x61,0x6d,0x65,0x49,0x22,0x0a,0x62,0x6f,0x73,0x73,0x31,0x06,0x3a,0x06,0x45,0x54,0x3a,0x0c,0x40,0x76,0x6f,0x6c,0x75,0x6d,0x65,0x69,0x69,0x3a,0x0b,0x40,0x70,0x69,0x74,0x63,0x68,0x69,0x69))
ChangeSwitch(22,22,0)
Battle(0,770,false,false)
ChangeSwitch(22,22,1)
SetBattleBGM(bytes(0x04,0x08,0x6f,0x3a,0x0d,0x52,0x50,0x47,0x3a,0x3a,0x42,0x47,0x4d,0x08,0x3a,0x0a,0x40,0x6e,0x61,0x6d,0x65,0x49,0x22,0x0b,0x62,0x61,0x74,0x74,0x6c,0x65,0x06,0x3a,0x06,0x45,0x54,0x3a,0x0c,0x40,0x76,0x6f,0x6c,0x75,0x6d,0x65,0x69,0x69,0x3a,0x0b,0x40,0x70,0x69,0x74,0x63,0x68,0x69,0x69))
241(bytes(0x04,0x08,0x6f,0x3a,0x0d,0x52,0x50,0x47,0x3a,0x3a,0x42,0x47,0x4d,0x08,0x3a,0x0a,0x40,0x6e,0x61,0x6d,0x65,0x49,0x22,0x15,0x64,0x75,0x6e,0x67,0x65,0x6f,0x6e,0x5f,0x70,0x6c,0x61,0x6e,0x73,0x65,0x63,0x74,0x06,0x3a,0x06,0x45,0x54,0x3a,0x0c,0x40,0x76,0x6f,0x6c,0x75,0x6d,0x65,0x69,0x69,0x3a,0x0b,0x40,0x70,0x69,0x74,0x63,0x68,0x69,0x69))
PictureDisplay(6,"80_cassandra_st23",0,0,-150,0,100,100,0,0)
PictureDisplay(5,"80_emily_st04",0,0,150,0,100,100,0,0)
PictureMove(6,null,0,0,-150,0,100,100,255,0,30,false)
PictureMove(5,null,0,0,150,0,100,100,255,0,30,true)
ShowMessageFace("cassandra_fc1",7,0,2,19)
ShowMessage("\\n<Cassandra>Damn, I can't believe we lost...")
ShowMessageFace("emily_fc1",3,0,2,20)
ShowMessage("\\n<Emily>No faaaaaair!")
If(4,289,0)
 ShowMessageFace("maidscyulla_fc1",1,0,2,21)
 ShowMessage("\\n<Ran>Lord Cassandra, Miss Emily, let's return to the mansion.")
 0()
EndIf()
ShowMessageFace("ruka_fc1",0,0,2,22)
ShowMessage("\\n<Luka>We're going to win this!")
PictureClear(5)
PictureClear(6)
If(0,4,0)
 ShowMessageFace("alice_fc5",1,0,2,23)
 ShowMessage("\\n<Alice>Just one person left now!\nOnce we beat her, one of us will qualify to become a magical girl.")
 0()
EndIf()
If(0,5,0)
 ShowMessageFace("iriasu_fc4",0,0,2,24)
 ShowMessage("\\n<Ilias>Just one person left now!\nOnce we beat her, one of us will qualify to become a magical girl.")
 0()
EndIf()
If(0,6,0)
 ShowMessageFace("sonia_fc2",2,0,2,25)
 ShowMessage("\\n<Sonya>Which one of us, though?")
 0()
Else()
 ShowMessageFace("ruka_fc1",0,0,2,26)
 ShowMessage("\\n<Luka>Which one of us, though?")
 0()
EndIf()
If(0,4,0)
 ShowMessageFace("alice_fc5",0,0,2,27)
 ShowMessage("\\n<Alice>Luka, naturally.")
 0()
EndIf()
If(0,5,0)
 ShowMessageFace("iriasu_fc4",0,0,2,28)
 ShowMessage("\\n<Ilias>Luka, naturally.")
 0()
EndIf()
ShowMessageFace("ruka_fc1",0,0,2,29)
ShowMessage("\\n<Luka>No thanks!")
PictureDisplay(6,"80_cassandra_st21",0,0,-150,0,100,100,0,0)
PictureDisplay(5,"80_emily_st01",0,0,150,0,100,100,0,0)
PictureMove(6,null,0,0,-150,0,100,100,255,0,30,false)
PictureMove(5,null,0,0,150,0,100,100,255,0,30,true)
ShowMessageFace("cassandra_fc1",5,0,2,30)
ShowMessage("\\n<Cassandra>Sorry to bother you again, but would you be willing to take us along?")
ShowMessageFace("emily_fc1",1,0,2,31)
ShowMessage("\\n<Emily>You're traveling around the world, right?\nThat sounds like a ton of fun!")
If(0,6,0)
 ShowMessageFace("sonia_fc2",2,0,2,32)
 ShowMessage("\\n<Sonya>What do you think, Luka?")
 0()
EndIf()
ShowMessageFace("ruka_fc1",0,0,2,33)
ShowMessage("\\n<Luka>.........")
ShowChoices(strings("Invite Emily and Cassandra","Refuse"),2)
IfPlayerPicksChoice(0,"エミリとカサンドラを仲間にする")
 ShowMessageFace("cassandra_fc1",5,0,2,34)
 ShowMessage("\\n<Cassandra>Thank you for the warm reception.\nWe'll fight on your side from now on.")
 ShowMessageFace("emily_fc1",1,0,2,35)
 ShowMessage("\\n<Emily>Looking forward to it! ♪")
 0()
IfPlayerPicksChoice(1,"仲間にしない")
 ShowMessageFace("cassandra_fc1",5,0,2,36)
 ShowMessage("\\n<Cassandra>Thank you for the warm reception.\nWe'll fight on your side from now on.")
 ShowMessageFace("emily_fc1",1,0,2,37)
 ShowMessage("\\n<Emily>Looking forward to it! ♪")
 If(0,6,0)
  ShowMessageFace("sonia_fc3",2,0,2,38)
  ShowMessage("\\n<Sonya>They're just going to ignore the fact we refused!?")
  0()
 Else()
  ShowMessageFace("ruka_fc1",0,0,2,39)
  ShowMessage("\\n<Luka>They're just going to ignore the fact we refused!?")
  0()
 EndIf()
 If(0,4,0)
  ShowMessageFace("alice_fc5",5,0,2,40)
  ShowMessage("\\n<Alice>What a shameless pair...")
  0()
 EndIf()
 If(0,5,0)
  ShowMessageFace("iriasu_fc4",2,0,2,41)
  ShowMessage("\\n<Ilias>What a shameless pair...")
  0()
 EndIf()
 0()
404()
PictureClear(5)
PictureClear(6)
ChangeVariable(1078,1078,0,0,4)
355("add_actor_ex(295)")
355("add_actor_ex(294)")
249(bytes(0x04,0x08,0x6f,0x3a,0x0c,0x52,0x50,0x47,0x3a,0x3a,0x4d,0x45,0x08,0x3a,0x0a,0x40,0x6e,0x61,0x6d,0x65,0x49,0x22,0x0c,0x66,0x61,0x6e,0x66,0x61,0x6c,0x65,0x06,0x3a,0x06,0x45,0x54,0x3a,0x0b,0x40,0x70,0x69,0x74,0x63,0x68,0x69,0x69,0x3a,0x0c,0x40,0x76,0x6f,0x6c,0x75,0x6d,0x65,0x69,0x69))
ShowMessageFace("",0,0,2,42)
ShowMessage("Cassandra and Emily have joined the party!")
Wait(60)
If(4,289,0)
 ShowMessageFace("maidscyulla_fc1",1,0,2,43)
 ShowMessage("\\n<Ran>So we won't be returning to the mansion then.\nIn that case, I'll continue to accompany you.")
 ShowMessageFace("cassandra_fc1",5,0,2,44)
 ShowMessage("\\n<Cassandra>I look forward to fighting together with you, Ran.")
 0()
EndIf()
If(0,4,0)
 ShowMessageFace("alice_fc5",2,0,2,45)
 ShowMessage("\\n<Alice>All right, let's go defeat the last candidate. I'm sure she's waiting for us somewhere in this swamp.")
 0()
EndIf()
If(0,5,0)
 ShowMessageFace("iriasu_fc4",0,0,2,46)
 ShowMessage("\\n<Ilias>All right, let's go defeat the last candidate. She should be waiting for us somewhere in this swamp.")
 0()
EndIf()
0()
