﻿// EVENT 0626
Name "Event: Black Alice"

ChangeSwitch(73,73,0)
If(1,129,0,1,0)
 ShowMessageFace("alice8th_fc1",0,0,2,1)
 ShowMessage("\\n<Black Alice>I would like to meet you in the real world next time. Not in this space of chaos...")
 ChangeSwitch(73,73,1)
 EndEventProcessing()
 0()
EndIf()
If(0,66,0)
 ShowMessageFace("alice8th_fc1",0,0,2,2)
 ShowMessage("\\n<Black Alice>Combat skills are now sealed.\nPlease make your way to Floor \\V[131]...")
 ChangeSwitch(73,73,1)
 EndEventProcessing()
 0()
EndIf()
If(0,67,0)
 ShowMessageFace("alice8th_fc1",0,0,2,3)
 ShowMessage("\\n<Black Alice>Magic skills are now sealed.\nPlease make your way to Floor \\V[131]...")
 ChangeSwitch(73,73,1)
 EndEventProcessing()
 0()
EndIf()
If(0,68,0)
 ShowMessageFace("alice8th_fc1",0,0,2,4)
 ShowMessage("\\n<Black Alice>Job skills are now sealed.\nPlease make your way to Floor \\V[131]...")
 ChangeSwitch(73,73,1)
 EndEventProcessing()
 0()
EndIf()
ShowMessageFace("alice8th_fc1",0,0,2,5)
ShowMessage("\\n<Black Alice>Can you keep up with my play?\nLet's seal some skills until the 10th floor.")
ShowMessageFace("alice8th_fc1",0,0,2,6)
ShowMessage("\\n<Black Alice>If you reach the 10th floor, I'll give you a little reward.")
ShowMessageFace("",0,0,2,7)
ShowMessage("Which skills do you want to seal?")
ShowChoices(strings("Combat skills","Magic skills","Job skills","Decline"),4)
IfPlayerPicksChoice(0,"武技")
 If(1,123,0,9,2)
  ShowMessageFace("alice8th_fc1",0,0,2,8)
  ShowMessage("\\n<Black Alice>Then let's seal your weapon-based skills.\nYou can't use Attack either, so be careful...")
  ChangeVariable(131,131,0,1,121)
  ChangeVariable(131,131,1,0,10)
  ChangeSwitch(66,66,0)
  ShowMessageFace("",0,0,2,9)
  ShowMessage("Combat skills have been sealed!\nIf you reach Floor \\V[131], you'll receive an item!")
  ChangeSwitch(73,73,1)
  EndEventProcessing()
  0()
 Else()
  ShowMessageFace("alice8th_fc1",0,0,2,10)
  ShowMessage("\\n<Black Alice>Then let's seal your weapon-based skills...\n...is what I'd like to say, but being here in of itself is an ordeal.")
  ShowMessageFace("alice8th_fc1",0,0,2,11)
  ShowMessage("\\n<Black Alice>I won't say anything harsh for now, so allow me to give you a reward instead.")
  250(bytes(0x04,0x08,0x6f,0x3a,0x0c,0x52,0x50,0x47,0x3a,0x3a,0x53,0x45,0x08,0x3a,0x0a,0x40,0x6e,0x61,0x6d,0x65,0x49,0x22,0x0a,0x49,0x74,0x65,0x6d,0x31,0x06,0x3a,0x06,0x45,0x54,0x3a,0x0b,0x40,0x70,0x69,0x74,0x63,0x68,0x69,0x69,0x3a,0x0c,0x40,0x76,0x6f,0x6c,0x75,0x6d,0x65,0x69,0x55))
  ChangeInventoryWeapon(118,0,0,1,false)
  ChangeInventoryWeapon(172,0,0,1,false)
  ChangeInventoryWeapon(329,0,0,1,false)
  ChangeInventoryWeapon(721,0,0,1,false)
  RunCommonEvent(824)
  ChangeVariable(129,129,0,0,1)
  ChangeSwitch(73,73,1)
  EndEventProcessing()
  0()
 EndIf()
 0()
IfPlayerPicksChoice(1,"魔法")
 If(1,123,0,9,2)
  ShowMessageFace("alice8th_fc1",0,0,2,12)
  ShowMessage("\\n<Black Alice>Then, let's seal your magic skills.\nYou can't use Magic Science or Grimoire skills either, so be careful...")
  ChangeVariable(131,131,0,1,121)
  ChangeVariable(131,131,1,0,10)
  ChangeSwitch(67,67,0)
  ShowMessageFace("",0,0,2,13)
  ShowMessage("Magic skills have been sealed!\nIf you reach Floor \\V[131], you'll receive an item!")
  ChangeSwitch(73,73,1)
  EndEventProcessing()
  0()
 Else()
  ShowMessageFace("alice8th_fc1",0,0,2,14)
  ShowMessage("\\n<Black Alice>Then, let's seal your magic skills...\n...is what I'd like to say, but being here in of itself is an ordeal.")
  ShowMessageFace("alice8th_fc1",0,0,2,15)
  ShowMessage("\\n<Black Alice>I won't say anything harsh for now, so allow me to give you a reward instead.")
  250(bytes(0x04,0x08,0x6f,0x3a,0x0c,0x52,0x50,0x47,0x3a,0x3a,0x53,0x45,0x08,0x3a,0x0a,0x40,0x6e,0x61,0x6d,0x65,0x49,0x22,0x0a,0x49,0x74,0x65,0x6d,0x31,0x06,0x3a,0x06,0x45,0x54,0x3a,0x0b,0x40,0x70,0x69,0x74,0x63,0x68,0x69,0x69,0x3a,0x0c,0x40,0x76,0x6f,0x6c,0x75,0x6d,0x65,0x69,0x55))
  ChangeInventoryWeapon(886,0,0,1,false)
  ChangeInventoryWeapon(583,0,0,1,false)
  ChangeInventoryWeapon(616,0,0,1,false)
  RunCommonEvent(824)
  ChangeVariable(129,129,0,0,1)
  ChangeSwitch(73,73,1)
  EndEventProcessing()
  0()
 EndIf()
 0()
IfPlayerPicksChoice(2,"職技")
 If(1,123,0,9,2)
  ShowMessageFace("alice8th_fc1",0,0,2,16)
  ShowMessage("\\n<Black Alice>Then, let's seal your job skills.\nYou can't use Ruling or Heroism skills either, so be careful...")
  ChangeVariable(131,131,0,1,121)
  ChangeVariable(131,131,1,0,10)
  ChangeSwitch(68,68,0)
  ShowMessageFace("",0,0,2,17)
  ShowMessage("Job skills have been sealed!\nIf you reach Floor \\V[131], you'll receive an item!")
  ChangeSwitch(73,73,1)
  EndEventProcessing()
  0()
 Else()
  ShowMessageFace("alice8th_fc1",0,0,2,18)
  ShowMessage("\\n<Black Alice>Then, let's seal your job skills...\n...is what I'd like to say, but being here in of itself is an ordeal.")
  ShowMessageFace("alice8th_fc1",0,0,2,19)
  ShowMessage("\\n<Black Alice>I won't say anything harsh for now, so allow me to give you a reward instead.")
  250(bytes(0x04,0x08,0x6f,0x3a,0x0c,0x52,0x50,0x47,0x3a,0x3a,0x53,0x45,0x08,0x3a,0x0a,0x40,0x6e,0x61,0x6d,0x65,0x49,0x22,0x0a,0x49,0x74,0x65,0x6d,0x31,0x06,0x3a,0x06,0x45,0x54,0x3a,0x0b,0x40,0x70,0x69,0x74,0x63,0x68,0x69,0x69,0x3a,0x0c,0x40,0x76,0x6f,0x6c,0x75,0x6d,0x65,0x69,0x55))
  ChangeInventoryArmor(98,0,0,1,false)
  ChangeInventoryArmor(227,0,0,1,false)
  ChangeInventoryArmor(322,0,0,1,false)
  RunCommonEvent(824)
  ChangeVariable(129,129,0,0,1)
  ChangeSwitch(73,73,1)
  EndEventProcessing()
  0()
 EndIf()
 0()
IfPlayerPicksChoice(3,"断る")
 ShowMessageFace("alice8th_fc1",0,0,2,20)
 ShowMessage("\\n<Black Alice>Are you not confident?\nUfufu...")
 ChangeSwitch(73,73,1)
 EndEventProcessing()
 0()
404()
0()
