// EVENT 7101
Name "Nightingale: Talk"

If(0,25,1)
 ShowMessageFace("",0,0,2,0)
 ShowMessage("You cannot challenge this BF without copying over the pictures from the first chapter.")
 PictureClear(5)
 EndEventProcessing()
 0()
EndIf()
If(1,811,0,0,0)
 ChangeVariable(811,811,0,0,1)
 0()
EndIf()
241(bytes(0x04,0x08,0x6f,0x3a,0x0d,0x52,0x50,0x47,0x3a,0x3a,0x42,0x47,0x4d,0x08,0x3a,0x0a,0x40,0x6e,0x61,0x6d,0x65,0x49,0x22,0x09,0x65,0x72,0x6f,0x32,0x06,0x3a,0x06,0x45,0x54,0x3a,0x0c,0x40,0x76,0x6f,0x6c,0x75,0x6d,0x65,0x69,0x50,0x3a,0x0b,0x40,0x70,0x69,0x74,0x63,0x68,0x69,0x69))
PictureDisplay(5,"80_mob_nasu1_st01",0,0,0,0,100,100,0,0)
PictureMove(5,null,0,0,0,0,100,100,255,0,30,true)
If(0,2331,1)
 ShowMessageFace("mob_nasu1_fc1",0,0,2,1)
 ShowMessage("\\n<Nightingale>Ufufu... You're a Battle Fucker, right?\nWant to be my opponent?")
 0()
EndIf()
If(1,811,0,2,1)
 ShowMessageFace("mob_nasu1_fc1",0,0,2,2)
 ShowMessage("\\n<Nightingale>The bet is 180G. You've already won before, so no prize.\nYou took my prize already, remember?")
 0()
Else()
 ShowMessageFace("mob_nasu1_fc1",0,0,2,3)
 ShowMessage("\\n<Nightingale>The bet is 180G. If you win, I'll give you something good...\nSomething amazing... Ufufufu.")
 0()
EndIf()
ShowMessageFace("mob_nasu1_fc1",0,0,2,4)
ShowMessage("\\n<Nightingale>Ufufu, want me to make you come?\nShall your white stuff be extracted by a nurse?")
ShowChoices(strings("Battle Fuck Challenge","Reconsider"),2)
IfPlayerPicksChoice(0,"バトルファックを挑む")
 If(7,180,0)
  If(0,2331,1)
   216(1)
   ShowMessageFace("",0,0,2,5)
   ShowMessage("Luka's allies leave the building...")
   0()
  EndIf()
  RunCommonEvent(7102)
  EndEventProcessing()
  0()
 Else()
  ShowMessageFace("mob_nasu1_fc1",0,0,2,6)
  ShowMessage("\\n<Nightingale>Arara, don't get ahead of yourself.\nYou don't have enough money.")
  If(0,2331,1)
   PictureClear(5)
   241(bytes(0x04,0x08,0x6f,0x3a,0x0d,0x52,0x50,0x47,0x3a,0x3a,0x42,0x47,0x4d,0x08,0x3a,0x0a,0x40,0x6e,0x61,0x6d,0x65,0x49,0x22,0x0a,0x63,0x69,0x74,0x79,0x31,0x06,0x3a,0x06,0x45,0x54,0x3a,0x0c,0x40,0x76,0x6f,0x6c,0x75,0x6d,0x65,0x69,0x69,0x3a,0x0b,0x40,0x70,0x69,0x74,0x63,0x68,0x69,0x69))
   0()
  EndIf()
  EndEventProcessing()
  0()
 EndIf()
 0()
IfPlayerPicksChoice(1,"やめておく")
 ShowMessageFace("mob_nasu1_fc1",0,0,2,7)
 ShowMessage("\\n<Nightingale>Arara, you don't like feeling good?\nThere aren't too many chances to taste a nurse's techniques...")
 If(0,2331,1)
  PictureClear(5)
  241(bytes(0x04,0x08,0x6f,0x3a,0x0d,0x52,0x50,0x47,0x3a,0x3a,0x42,0x47,0x4d,0x08,0x3a,0x0a,0x40,0x6e,0x61,0x6d,0x65,0x49,0x22,0x0a,0x63,0x69,0x74,0x79,0x31,0x06,0x3a,0x06,0x45,0x54,0x3a,0x0c,0x40,0x76,0x6f,0x6c,0x75,0x6d,0x65,0x69,0x69,0x3a,0x0b,0x40,0x70,0x69,0x74,0x63,0x68,0x69,0x69))
  0()
 EndIf()
 EndEventProcessing()
 0()
404()
0()
