﻿// EVENT 7351
Name "Gloria: Talk"

If(1,835,0,1,2)
 If(1,834,0,1,2)
  ShowMessageFace("mob_kaizoku3_fc1",1,0,2,1)
  ShowMessage("\\n<Gloria>First win against Ariadne and Cresta.\nIf you can do that, then I'll play with you...")
  If(0,6,0)
   ShowMessageFace("sonia_fc1",5,0,2,2)
   ShowMessage("\\n<Sonya>We'll leave the BF matches to yourself...")
   EndEventProcessing()
   0()
  EndIf()
  0()
 EndIf()
 0()
EndIf()
If(1,836,0,0,0)
 ChangeVariable(836,836,0,0,1)
 0()
EndIf()
241(bytes(0x04,0x08,0x6f,0x3a,0x0d,0x52,0x50,0x47,0x3a,0x3a,0x42,0x47,0x4d,0x08,0x3a,0x0a,0x40,0x6e,0x61,0x6d,0x65,0x49,0x22,0x09,0x65,0x72,0x6f,0x32,0x06,0x3a,0x06,0x45,0x54,0x3a,0x0c,0x40,0x76,0x6f,0x6c,0x75,0x6d,0x65,0x69,0x50,0x3a,0x0b,0x40,0x70,0x69,0x74,0x63,0x68,0x69,0x69))
PictureDisplay(5,"80_mob_kaizoku3_st01",0,0,0,0,100,100,0,0)
PictureMove(5,null,0,0,0,0,100,100,255,0,30,true)
ShowMessageFace("mob_kaizoku3_fc1",1,0,2,3)
ShowMessage("\\n<Gloria>Now then, I'll be your opponent.\nDon't worry, I'll make you feel really good...")
If(1,836,0,2,1)
 ShowMessageFace("mob_kaizoku3_fc1",1,0,2,4)
 ShowMessage("\\n<Gloria>The bet will be 1800G.\nEven if you win, I don't have any prizes to give you.")
 0()
Else()
 ShowMessageFace("mob_kaizoku3_fc1",1,0,2,5)
 ShowMessage("\\n<Gloria>The bet will be 1800G.\nIf you win, I'll give you the treasure of the Gloria Pirates.")
 0()
EndIf()
ShowMessageFace("mob_kaizoku3_fc1",1,0,2,6)
ShowMessage("\\n<Gloria>Well, are you prepared?\nI'll be sure to steal lots of your sperm...")
ShowChoices(strings("Battle Fuck Challenge","Reconsider"),2)
IfPlayerPicksChoice(0,"バトルファックを挑む")
 If(7,1800,0)
  RunCommonEvent(7352)
  EndEventProcessing()
  0()
 Else()
  ShowMessageFace("mob_kaizoku3_fc1",1,0,2,7)
  ShowMessage("\\n<Gloria>What, you don't have enough money...?\nI didn't expect the rumored hero to be very impoverished.")
  If(0,2331,1)
   PictureClear(5)
   241(bytes(0x04,0x08,0x6f,0x3a,0x0d,0x52,0x50,0x47,0x3a,0x3a,0x42,0x47,0x4d,0x08,0x3a,0x0a,0x40,0x6e,0x61,0x6d,0x65,0x49,0x22,0x0a,0x6b,0x69,0x6b,0x69,0x34,0x06,0x3a,0x06,0x45,0x54,0x3a,0x0c,0x40,0x76,0x6f,0x6c,0x75,0x6d,0x65,0x69,0x69,0x3a,0x0b,0x40,0x70,0x69,0x74,0x63,0x68,0x69,0x69))
   0()
  EndIf()
  EndEventProcessing()
  0()
 EndIf()
 0()
IfPlayerPicksChoice(1,"やめておく")
 ShowMessageFace("mob_kaizoku3_fc1",1,0,2,8)
 ShowMessage("\\n<Gloria>Did you come here just to run away?\nSome shameful hero you are...")
 If(0,2331,1)
  PictureClear(5)
  241(bytes(0x04,0x08,0x6f,0x3a,0x0d,0x52,0x50,0x47,0x3a,0x3a,0x42,0x47,0x4d,0x08,0x3a,0x0a,0x40,0x6e,0x61,0x6d,0x65,0x49,0x22,0x0a,0x6b,0x69,0x6b,0x69,0x34,0x06,0x3a,0x06,0x45,0x54,0x3a,0x0c,0x40,0x76,0x6f,0x6c,0x75,0x6d,0x65,0x69,0x69,0x3a,0x0b,0x40,0x70,0x69,0x74,0x63,0x68,0x69,0x69))
  0()
 EndIf()
 EndEventProcessing()
 0()
404()
0()
