﻿// EVENT 0077
Name "Skill: Play 371-380"

ChangeVariable(11,11,0,2,1,5)
If(1,100,0,372,0)
 If(1,11,0,1,0)
  ShowMessageFace("cirqueb_fc3",0,0,2,1)
  ShowMessage("\\n<Roza>I am Roza, the Pirate Queen...")
  ShowMessageFace("",0,0,2,2)
  ShowMessage("Roza is practicing her catchphrase...")
  EndEventProcessing()
  0()
 EndIf()
 If(1,11,0,2,0)
  ShowMessageFace("cirqueb_fc3",0,0,2,3)
  ShowMessage("\\n<Roza>Fufu...")
  355("interrupt_skill(3296)")
  EndEventProcessing()
  0()
 EndIf()
 If(1,11,0,3,0)
  ShowMessageFace("cirqueb_fc3",0,0,2,4)
  ShowMessage("\\n<Roza>Rampage...")
  355("interrupt_skill(1821)")
  EndEventProcessing()
  0()
 EndIf()
 If(1,11,0,4,0)
  ShowMessageFace("cirqueb_fc3",0,0,2,5)
  ShowMessage("\\n<Roza>Eat this...\nIt is slippery, just like me...")
  ShowMessageFace("",0,0,2,6)
  ShowMessage("Roza presents a gift!")
  250(bytes(0x04,0x08,0x6f,0x3a,0x0c,0x52,0x50,0x47,0x3a,0x3a,0x53,0x45,0x08,0x3a,0x0a,0x40,0x6e,0x61,0x6d,0x65,0x49,0x22,0x0a,0x49,0x74,0x65,0x6d,0x31,0x06,0x3a,0x06,0x45,0x54,0x3a,0x0b,0x40,0x70,0x69,0x74,0x63,0x68,0x69,0x69,0x3a,0x0c,0x40,0x76,0x6f,0x6c,0x75,0x6d,0x65,0x69,0x55))
  ChangeInventory_Item(328,0,0,1)
  ShowMessageFace("",0,0,2,7)
  ShowMessage("You obtain an \\ii[328]!")
  EndEventProcessing()
  0()
 EndIf()
 If(1,11,0,5,0)
  ShowMessageFace("cirqueb_fc3",0,0,2,8)
  ShowMessage("\\n<Roza>I'll take you on seriously...!")
  355("interrupt_skill(3294)")
  EndEventProcessing()
  0()
 EndIf()
 0()
EndIf()
If(1,100,0,374,0)
 If(1,11,0,1,0)
  ShowMessageFace("cirqueb_fc4",0,0,2,9)
  ShowMessage("\\n<Aria Lamia>This is the power of a demon's eyes...")
  355("interrupt_skill(2551)")
  EndEventProcessing()
  0()
 EndIf()
 If(1,11,0,2,0)
  ShowMessageFace("cirqueb_fc4",0,0,2,10)
  ShowMessage("\\n<Aria Lamia>Let us pray...")
  355("interrupt_skill(3302)")
  EndEventProcessing()
  0()
 EndIf()
 If(1,11,0,3,0)
  ShowMessageFace("cirqueb_fc4",0,0,2,11)
  ShowMessage("\\n<Aria Lamia>Let's hibernate...")
  313(0,374,0,11)
  ShowMessageFace("",0,0,2,12)
  ShowMessage("Aria Lamia fell asleep...")
  EndEventProcessing()
  0()
 EndIf()
 If(1,11,0,4,0)
  ShowMessageFace("cirqueb_fc4",0,0,2,13)
  ShowMessage("\\n<Aria Lamia>Lamia stylish pose...")
  ShowMessageFace("",0,0,2,14)
  ShowMessage("Aria Lamia struck her signature pose!\n...But nobody was watching.")
  EndEventProcessing()
  0()
 EndIf()
 If(1,11,0,5,0)
  ShowMessageFace("cirqueb_fc4",0,0,2,15)
  ShowMessage("\\n<Aria Lamia>Pardon my tail...")
  355("interrupt_skill(2741)")
  EndEventProcessing()
  0()
 EndIf()
 0()
EndIf()
If(1,100,0,376,0)
 If(1,11,0,1,0)
  ShowMessageFace("cirqueb_fc5",0,0,2,16)
  ShowMessage("\\n<Refletsia>Ufufu...")
  355("interrupt_skill(3296)")
  EndEventProcessing()
  0()
 EndIf()
 If(1,11,0,2,0)
  ShowMessageFace("cirqueb_fc5",0,0,2,17)
  ShowMessage("\\n<Refletsia>I need to fill my stomach before a battle...")
  ShowMessageFace("",0,0,2,18)
  ShowMessage("Refletsia is eating some food she stole...")
  EndEventProcessing()
  0()
 EndIf()
 If(1,11,0,3,0)
  ShowMessageFace("cirqueb_fc5",0,0,2,19)
  ShowMessage("\\n<Refletsia>I'm getting into the fighting spirit!")
  355("interrupt_skill(3294)")
  EndEventProcessing()
  0()
 EndIf()
 If(1,11,0,4,0)
  ShowMessageFace("cirqueb_fc5",0,0,2,20)
  ShowMessage("\\n<Refletsia>Here, I'll give you this.")
  ShowMessageFace("",0,0,2,21)
  ShowMessage("Refletsia presents a gift!")
  250(bytes(0x04,0x08,0x6f,0x3a,0x0c,0x52,0x50,0x47,0x3a,0x3a,0x53,0x45,0x08,0x3a,0x0a,0x40,0x6e,0x61,0x6d,0x65,0x49,0x22,0x0a,0x49,0x74,0x65,0x6d,0x31,0x06,0x3a,0x06,0x45,0x54,0x3a,0x0b,0x40,0x70,0x69,0x74,0x63,0x68,0x69,0x69,0x3a,0x0c,0x40,0x76,0x6f,0x6c,0x75,0x6d,0x65,0x69,0x55))
  ChangeInventory_Item(409,0,0,1)
  ShowMessageFace("",0,0,2,22)
  ShowMessage("You obtain an \\ii[409]!")
  EndEventProcessing()
  0()
 EndIf()
 If(1,11,0,5,0)
  ShowMessageFace("cirqueb_fc5",0,0,2,23)
  ShowMessage("\\n<Refletsia>I'll blow you away...!")
  355("interrupt_skill(2831)")
  EndEventProcessing()
  0()
 EndIf()
 0()
EndIf()
If(1,100,0,378,0)
 If(1,11,0,1,0)
  ShowMessageFace("cirqueb_fc6",0,0,2,24)
  ShowMessage("\\n<Zenovia>Let's pray...")
  355("interrupt_skill(3302)")
  EndEventProcessing()
  0()
 EndIf()
 If(1,11,0,2,0)
  ShowMessageFace("cirqueb_fc6",0,0,2,25)
  ShowMessage("\\n<Zenovia>Let's celebrate...")
  ShowMessageFace("",0,0,2,26)
  ShowMessage("Zenovia popped a party cracker!\n...But no one paid any attention.")
  EndEventProcessing()
  0()
 EndIf()
 If(1,11,0,3,0)
  ShowMessageFace("cirqueb_fc6",0,0,2,27)
  ShowMessage("\\n<Zenovia>Come, let's enjoy ourselves...")
  ShowMessageFace("",0,0,2,28)
  ShowMessage("Zenovia is dancing and singing happily...")
  EndEventProcessing()
  0()
 EndIf()
 If(1,11,0,4,0)
  ShowMessageFace("cirqueb_fc6",0,0,2,29)
  ShowMessage("\\n<Zenovia>Please eat this...")
  ShowMessageFace("",0,0,2,30)
  ShowMessage("Zenovia presents a gift!")
  250(bytes(0x04,0x08,0x6f,0x3a,0x0c,0x52,0x50,0x47,0x3a,0x3a,0x53,0x45,0x08,0x3a,0x0a,0x40,0x6e,0x61,0x6d,0x65,0x49,0x22,0x0a,0x49,0x74,0x65,0x6d,0x31,0x06,0x3a,0x06,0x45,0x54,0x3a,0x0b,0x40,0x70,0x69,0x74,0x63,0x68,0x69,0x69,0x3a,0x0c,0x40,0x76,0x6f,0x6c,0x75,0x6d,0x65,0x69,0x55))
  ChangeInventory_Item(421,0,0,1)
  ShowMessageFace("",0,0,2,31)
  ShowMessage("You obtain an \\ii[421]!")
  EndEventProcessing()
  0()
 EndIf()
 If(1,11,0,5,0)
  ShowMessageFace("cirqueb_fc6",0,0,2,32)
  ShowMessage("\\n<Zenovia>Tentacled judgment...")
  355("interrupt_skill(2776)")
  EndEventProcessing()
  0()
 EndIf()
 0()
EndIf()
0()
