// EVENT 0202
Name "Talk Seduction 2 Enemy Valid"

ChangeSwitch(11,11,1)
108("「ルカが有効」と「敵が有効」は判定に使うステートが違うので注意")
408("このコモンの実行後にスイッチ11がオフなら、敵は有効ではない")
If(5,0,1,3)
 EndEventProcessing()
 0()
EndIf()
If(5,0,1,5)
 EndEventProcessing()
 0()
EndIf()
If(5,0,1,10)
 EndEventProcessing()
 0()
EndIf()
If(5,0,1,11)
 EndEventProcessing()
 0()
EndIf()
If(5,0,1,12)
 EndEventProcessing()
 0()
EndIf()
If(5,0,1,13)
 EndEventProcessing()
 0()
EndIf()
If(5,0,1,14)
 EndEventProcessing()
 0()
EndIf()
If(5,0,1,15)
 EndEventProcessing()
 0()
EndIf()
If(5,0,1,17)
 EndEventProcessing()
 0()
EndIf()
If(5,0,1,18)
 EndEventProcessing()
 0()
EndIf()
If(5,0,1,20)
 EndEventProcessing()
 0()
EndIf()
If(5,0,1,25)
 EndEventProcessing()
 0()
EndIf()
If(5,0,1,26)
 EndEventProcessing()
 0()
EndIf()
If(5,0,1,27)
 EndEventProcessing()
 0()
EndIf()
If(5,0,1,28)
 EndEventProcessing()
 0()
EndIf()
ChangeSwitch(11,11,0)
0()
