// EVENT 4081
Name "Bunny Slime"

If(0,25,1)
 221()
 PictureClear(5)
 PictureClear(6)
 ShowMessageFace("",0,0,2,0)
 ShowMessage("......")
 242(2)
 Wait(120)
 241(bytes(0x04,0x08,0x6f,0x3a,0x0d,0x52,0x50,0x47,0x3a,0x3a,0x42,0x47,0x4d,0x08,0x3a,0x0a,0x40,0x6e,0x61,0x6d,0x65,0x49,0x22,0x0c,0x63,0x61,0x73,0x74,0x6c,0x65,0x36,0x06,0x3a,0x06,0x45,0x54,0x3a,0x0c,0x40,0x76,0x6f,0x6c,0x75,0x6d,0x65,0x69,0x69,0x3a,0x0b,0x40,0x70,0x69,0x74,0x63,0x68,0x69,0x69))
 EndEventProcessing()
 0()
EndIf()
PictureDisplay(5,"80_bunnyslime_st01",0,0,0,0,100,100,255,0)
ShowMessageFace("bunnyslime_fc1",1,0,2,1)
ShowMessage("\\n<Bunni>...Eh? You want to put your penis between my breasts...?")
ShowMessageFace("",0,0,2,2)
ShowMessage("\\n<Luka>W-Well, yeah...")
ShowMessageFace("",0,0,2,3)
ShowMessage("I don't even bother taking my eyes off her jiggly pink tits as she speaks to me.")
ShowMessageFace("",0,0,2,4)
ShowMessage("What would it feel like to stick my penis between them? I have to know the answer to this burning question.")
ShowMessageFace("",0,0,2,5)
ShowMessage("\\n<Luka>Please? Just once, I swear...")
ShowMessageFace("bunnyslime_fc1",1,0,2,6)
ShowMessage("\\n<Bunni>Welllll... All right! ♪\nAnything for a friend as good as you♪")
ShowMessageFace("",0,0,2,7)
ShowMessage("Inviting me to a private room, I follow Bunni as she hops along, humming to herself...")
221()
PictureDisplay(1,"bg195",0,0,0,0,100,100,255,0)
PictureDisplay(5,"80_bunnyslime_st01",0,0,0,0,100,100,255,0)
222()
241(bytes(0x04,0x08,0x6f,0x3a,0x0d,0x52,0x50,0x47,0x3a,0x3a,0x42,0x47,0x4d,0x08,0x3a,0x0a,0x40,0x6e,0x61,0x6d,0x65,0x49,0x22,0x09,0x65,0x72,0x6f,0x31,0x06,0x3a,0x06,0x45,0x54,0x3a,0x0c,0x40,0x76,0x6f,0x6c,0x75,0x6d,0x65,0x69,0x69,0x3a,0x0b,0x40,0x70,0x69,0x74,0x63,0x68,0x69,0x69))
245(bytes(0x04,0x08,0x6f,0x3a,0x0d,0x52,0x50,0x47,0x3a,0x3a,0x42,0x47,0x53,0x08,0x3a,0x0a,0x40,0x6e,0x61,0x6d,0x65,0x49,0x22,0x17,0x6d,0x6f,0x6e,0x5f,0x68,0x73,0x65,0x61,0x6e,0x31,0x38,0x5f,0x73,0x6c,0x69,0x6d,0x65,0x31,0x06,0x3a,0x06,0x45,0x54,0x3a,0x0c,0x40,0x76,0x6f,0x6c,0x75,0x6d,0x65,0x69,0x55,0x3a,0x0b,0x40,0x70,0x69,0x74,0x63,0x68,0x69,0x69))
ShowMessageFace("bunnyslime_fc1",1,0,2,8)
ShowMessage("\\n<Bunni>Here, let's give you a sample♪\nDon't say I didn't warn you, though!")
ShowMessageFace("",0,0,2,9)
ShowMessage("\\n<Luka>S-So soft and bouncy... Ah!")
245(bytes(0x04,0x08,0x6f,0x3a,0x0d,0x52,0x50,0x47,0x3a,0x3a,0x42,0x47,0x53,0x08,0x3a,0x0a,0x40,0x6e,0x61,0x6d,0x65,0x49,0x22,0x17,0x6d,0x6f,0x6e,0x5f,0x68,0x73,0x65,0x61,0x6e,0x31,0x37,0x5f,0x73,0x69,0x67,0x6f,0x6b,0x69,0x06,0x3a,0x06,0x45,0x54,0x3a,0x0c,0x40,0x76,0x6f,0x6c,0x75,0x6d,0x65,0x69,0x55,0x3a,0x0b,0x40,0x70,0x69,0x74,0x63,0x68,0x69,0x69))
PictureDisplay(5,"ev_bunnyslime_h1",0,0,0,0,100,100,255,0)
ShowMessageFace("",0,0,2,10)
ShowMessage("In a single jiggle of her chest on my lap, my penis slides smoothly between her breasts, soft, jiggly pink on either side of my shaft.")
ShowMessageFace("bunnyslime_fc1",1,0,2,11)
ShowMessage("\\n<Bunni>Already hard? Well, that's to be expected♪\nHere, just relax. Let me take care of you.")
ShowMessageFace("bunnyslime_fc1",1,0,2,12)
ShowMessage("\\n<Bunni>Let's begin! ♪\nJiggle, jiggle, jiggle♪")
ShowMessageFace("",0,0,2,13)
ShowMessage("\\n<Luka>Hauu... ah, auuu!")
ShowMessageFace("",0,0,2,14)
ShowMessage("Just as I thought, they're as soft as they look, maybe even softer. And the way they both press up against me at once... It's divine.")
ShowMessageFace("",0,0,2,15)
ShowMessage("They bounce gently around me, one going up, one going down, over and over. And with a consistency of slime, too. It's completely unique.")
ShowMessageFace("bunnyslime_fc1",1,0,2,16)
ShowMessage("\\n<Bunni>Hm? You want more than just a taste? ♪")
ShowMessageFace("",0,0,2,17)
ShowMessage("\\n<Luka>A-Amazing... Yesss...")
ShowMessageFace("bunnyslime_fc1",1,0,2,18)
ShowMessage("\\n<Bunni>Oooh, I thought so.\nLet's get serious, then♪")
ShowMessageFace("",0,0,2,19)
ShowMessage("\\n<Luka>Auuu... Ah, ahhh!")
ShowMessageFace("",0,0,2,20)
ShowMessage("With a giggle, she begins to press her breasts up against my penis even harder, and my eyelids droop as tension oozes from my muscles.")
ShowMessageFace("bunnyslime_fc1",1,0,2,21)
ShowMessage("\\n<Bunni>Awww, look at you! Ehehe, you need a li'l time off, don't you?")
ShowMessageFace("bunnyslime_fc1",1,0,2,22)
ShowMessage("\\n<Bunni>Here, let's work out that stress, master. Just lay back and enjoy.")
ShowMessageFace("",0,0,2,23)
ShowMessage("\\n<Luka>Haaa... Faaaah...")
ShowMessageFace("",0,0,2,24)
ShowMessage("The pressure on either side just gets more intense, bringing my pleasure higher and higher. It's already incredible, and it's just getting moreso.")
ShowMessageFace("",0,0,2,25)
ShowMessage("My penis is almost sinking into her breasts, but never quite doing so. Just when it's about to, she pulls them apart, only to press them together harder.")
ShowMessageFace("",0,0,2,26)
ShowMessage("\\n<Luka>Can't hold... Going to come...")
ShowMessageFace("",0,0,2,27)
ShowMessage("The way her breasts jiggle around me is almost elastic, and soon I feel myself sagging back, cock twitching in anticipation.")
ShowMessageFace("bunnyslime_fc1",1,0,2,28)
ShowMessage("\\n<Bunni>That's right, that's right, just let it all out.\nHere, let's finish you off♪")
ShowMessageFace("",0,0,2,29)
ShowMessage("\\n<Luka>Haaa! Ah, aaaah!")
ShowMessageFace("",0,0,2,30)
ShowMessage("Before, Bunni was slow and methodical, but now her speed is nothing short of staggering. Her pink breasts jiggle and bounce on my lap harder and harder.")
ShowMessageFace("",0,0,2,31)
ShowMessage("I can't possibly resist this kind of pleasure, and why would I want to? My penis gives a happy twitch as telltale droplets ooze from the tip...")
ShowMessageFace("",0,0,2,32)
ShowMessage("\\n<Luka>C-coming... Hauuu...")
ShowMessageFace("bunnyslime_fc1",1,0,2,33)
ShowMessage("\\n<Bunni>And the grand finale... for now. Squish♪")
ShowMessageFace("",0,0,2,29)
ShowMessage("\\n<Luka>Ah, aaaaah....")
ShowMessageFace("",0,0,2,30)
ShowMessage("My vision goes white and I can't help but moan as she suddenly gives one final squeeze, harder than ever--")
RunCommonEvent(104)
PictureDisplay(5,"ev_bunnyslime_h2",0,0,0,0,100,100,255,0)
RunCommonEvent(105)
ShowMessageFace("",0,0,2,31)
ShowMessage("And just like that, I climax, milky white spurting up into her cleavage, one shot after another.")
ShowMessageFace("",0,0,2,32)
ShowMessage("\\n<Luka>Faaaa...")
ShowMessageFace("bunnyslime_fc1",1,0,2,33)
ShowMessage("\\n<Bunni>Ahaha, I'm glad you enjoyed it♪\nSee? Aren't my breasts the best? ♪")
ShowMessageFace("",0,0,2,34)
ShowMessage("Bunni giggles softly as she watches my eyelids flutter and my chest heave with each deep, exhausted breath.")
ShowMessageFace("bunnyslime_fc1",1,0,2,35)
ShowMessage("\\n<Bunni>But you still seem like you need some you time, mm? ♪")
ShowMessageFace("bunnyslime_fc1",1,0,2,36)
ShowMessage("\\n<Bunni>Here, let's see if you like this.\nThis is something only a slime can do, so please enjoy it♪")
ShowMessageFace("",0,0,2,37)
ShowMessage("\\n<Luka>W-What do you-- Haaaau!")
245(bytes(0x04,0x08,0x6f,0x3a,0x0d,0x52,0x50,0x47,0x3a,0x3a,0x42,0x47,0x53,0x08,0x3a,0x0a,0x40,0x6e,0x61,0x6d,0x65,0x49,0x22,0x17,0x6d,0x6f,0x6e,0x5f,0x68,0x73,0x65,0x61,0x6e,0x31,0x38,0x5f,0x73,0x6c,0x69,0x6d,0x65,0x31,0x06,0x3a,0x06,0x45,0x54,0x3a,0x0c,0x40,0x76,0x6f,0x6c,0x75,0x6d,0x65,0x69,0x55,0x3a,0x0b,0x40,0x70,0x69,0x74,0x63,0x68,0x69,0x69))
ShowMessageFace("",0,0,2,43)
ShowMessage("Suddenly, the pressure on either side of my penis almost blends together, replaced by a single, hard sucking feeling on my penis.")
ShowMessageFace("",0,0,2,39)
ShowMessage("It's a titfuck only a slime can give, feeling like a whirlpool of suction around my manhood.")
ShowMessageFace("",0,0,2,40)
ShowMessage("\\n<Luka>I-Incredible!\nAaaah!")
ShowMessageFace("bunnyslime_fc1",1,0,2,41)
ShowMessage("\\n<Bunni>Aw, you think so?\nWell, let's see which one you prefer: regular or slimy♪")
ShowMessageFace("",0,0,2,42)
ShowMessage("\\n<Luka>Hauuu... A-Aaaah!")
ShowMessageFace("",0,0,2,43)
ShowMessage("As she speaks, her slime begins to slowly coil and swirl around the tip of my penis, pulsing and clenching.")
ShowMessageFace("bunnyslime_fc1",1,0,2,44)
ShowMessage("\\n<Bunni>That's right, that's right♪\nDo you like it? It just loops around and around, swiiirling♪")
ShowMessageFace("",0,0,2,45)
ShowMessage("\\n<Luka>Haaa... Faaaa!")
ShowMessageFace("",0,0,2,46)
ShowMessage("In the face of this foreign sensation, I can't help but feel my lower body begin to go numb as my penis throbs with pleasure.")
RunCommonEvent(104)
PictureDisplay(5,"ev_bunnyslime_h3",0,0,0,0,100,100,255,0)
RunCommonEvent(105)
ShowMessageFace("",0,0,2,47)
ShowMessage("\\n<Luka>Faaa...")
ShowMessageFace("bunnyslime_fc1",1,0,2,48)
ShowMessage("\\n<Bunni>I guess I shouldn't be surprised, mm? But you're not going to stop there, are you?")
ShowMessageFace("",0,0,2,49)
ShowMessage("Even as I've just finished, the slimy swirling keeps churning around me, and Bunni just grins at me, her smile wider than ever.")
ShowMessageFace("bunnyslime_fc1",1,0,2,50)
ShowMessage("\\n<Bunni>It's the best! So we'll continue a little longer. Don't worry, it's a personal favor from me to you.")
ShowMessageFace("bunnyslime_fc1",1,0,2,51)
ShowMessage("\\n<Bunni>In fact, just to make sure you don't miss out by leaving too soon, we'll keep going until your balls are completely empty♪")
ShowMessageFace("",0,0,2,52)
ShowMessage("\\n<Luka>W-Wait, hold on!\nAh... Aaaah!!")
ShowMessageFace("",0,0,2,53)
ShowMessage("Suddenly, the pressure of her cleavage returns, sliding up and down my shaft. The tip, however, is still held fast in the swirling of her slime.")
ShowMessageFace("",0,0,2,54)
ShowMessage("Every technique a slime could have, all at once... My eyelids flutter again as my jaw drops, and even my penis gives a happy twitch of approval.")
ShowMessageFace("bunnyslime_fc1",1,0,2,55)
ShowMessage("\\n<Bunni>There we go♪\nYou've needed to relax for a while, so just enjoy it♪")
ShowMessageFace("bunnyslime_fc1",1,0,2,56)
ShowMessage("\\n<Bunni>Think you have one more shot for me? ♪\nCome on, let's see♪")
ShowMessageFace("",0,0,2,57)
ShowMessage("\\n<Luka>Haauuu.... So good...\nAh, I'm coming again!")
ShowMessageFace("",0,0,2,58)
ShowMessage("My penis gives a throb of pleasure, trapped in pink, jiggly heaven, and soon the pleasure is overwhelming.")
RunCommonEvent(104)
PictureDisplay(5,"ev_bunnyslime_h4",0,0,0,0,100,100,255,0)
RunCommonEvent(105)
ShowMessageFace("",0,0,2,59)
ShowMessage("\\n<Luka>Hauuu...")
ShowMessageFace("",0,0,2,60)
ShowMessage("Yet again I spurt another load of cloudy seed into her cleavage, dyeing it whiter still. My muscles are nearly limp, but she still doesn't stop.")
ShowMessageFace("bunnyslime_fc1",1,0,2,61)
ShowMessage("\\n<Bunni>That's right, I'll do all the work. You still have a bit more, don't you?")
ShowMessageFace("",0,0,2,62)
ShowMessage("\\n<Luka>No, there's no more...\nAaah...")
ShowMessageFace("bunnyslime_fc1",1,0,2,63)
ShowMessage("\\n<Bunni>Never say never, darling♪\nSquish squish squish...♪")
ShowMessageFace("",0,0,2,69)
ShowMessage("\\n<Luka>Please, this is too much... A-Ah! A-Again?!")
ShowMessageFace("",0,0,2,70)
ShowMessage("Even as I tell her there's no more, she expertly milks another load from me, coaxing it out with a grin on her face.")
RunCommonEvent(104)
RunCommonEvent(105)
ShowMessageFace("",0,0,2,66)
ShowMessage("Just as she said, another shot spurts out into her chest, my vision hazing over with exhaustion, even as pleasure courses through me.")
ShowMessageFace("bunnyslime_fc1",1,0,2,67)
ShowMessage("\\n<Bunni>No, no, you definitely have more! ♪\nYou're properly hydrated, right? Let's go again!")
ShowMessageFace("",0,0,2,68)
ShowMessage("\\n<Luka>Hyaaaaa!!")
RunCommonEvent(104)
RunCommonEvent(105)
221()
PictureClear(5)
246(1)
ShowMessageFace("",0,0,2,74)
ShowMessage("Trapped between her slimy, pink breasts, my penis is milked completely dry. All I wanted was a taste, but she got a feast...")
ShowMessageFace("",0,0,2,75)
ShowMessage("I can't even stand for a while after she lets me go. I shouldn't request things like that on a whim, even from an ally...")
ShowMessageFace("",0,0,2,76)
ShowMessage("......")
242(2)
Wait(120)
241(bytes(0x04,0x08,0x6f,0x3a,0x0d,0x52,0x50,0x47,0x3a,0x3a,0x42,0x47,0x4d,0x08,0x3a,0x0a,0x40,0x6e,0x61,0x6d,0x65,0x49,0x22,0x0c,0x63,0x61,0x73,0x74,0x6c,0x65,0x36,0x06,0x3a,0x06,0x45,0x54,0x3a,0x0c,0x40,0x76,0x6f,0x6c,0x75,0x6d,0x65,0x69,0x69,0x3a,0x0b,0x40,0x70,0x69,0x74,0x63,0x68,0x69,0x69))
0()
