// EVENT 1062
Name "Talk: Anglerfish Girl"

If(1,20,0,1,0)
 JumpToLabel("情報")
 0()
EndIf()
If(1,20,0,2,0)
 JumpToLabel("質問")
 0()
EndIf()
If(1,20,0,3,0)
 JumpToLabel("要求")
 0()
EndIf()
If(1,20,0,4,0)
 JumpToLabel("贈与")
 0()
EndIf()
DefineLabel("情報")
ChangeVariable(13,13,0,2,1,100)
If(1,13,0,10,2)
 ShowMessageFace("ankou_fc1",0,0,2,1)
 ShowMessage("\\n<Anglerfish Girl>......")
 EndEventProcessing()
 0()
EndIf()
If(1,13,0,20,2)
 ShowMessageFace("ankou_fc1",0,0,2,2)
 ShowMessage("\\n<Anglerfish Girl>......?")
 EndEventProcessing()
 0()
EndIf()
If(1,13,0,30,2)
 ShowMessageFace("ankou_fc1",0,0,2,3)
 ShowMessage("\\n<Anglerfish Girl>Daze...")
 EndEventProcessing()
 0()
EndIf()
If(1,13,0,40,2)
 ShowMessageFace("ankou_fc1",0,0,2,4)
 ShowMessage("\\n<Anglerfish Girl>Whaaat?")
 EndEventProcessing()
 0()
EndIf()
If(1,13,0,50,2)
 ShowMessageFace("ankou_fc1",0,0,2,5)
 ShowMessage("\\n<Anglerfish Girl>Sleepy...")
 EndEventProcessing()
 0()
EndIf()
If(1,13,0,60,2)
 ShowMessageFace("ankou_fc1",0,0,2,6)
 ShowMessage("\\n<Anglerfish Girl>The sea is...big...")
 EndEventProcessing()
 0()
EndIf()
If(1,13,0,70,2)
 ShowMessageFace("ankou_fc1",0,0,2,7)
 ShowMessage("\\n<Anglerfish Girl>Dark, brighten...")
 EndEventProcessing()
 0()
EndIf()
If(1,13,0,80,2)
 ShowMessageFace("ankou_fc1",0,0,2,8)
 ShowMessage("\\n<Anglerfish Girl>Waver...")
 EndEventProcessing()
 0()
EndIf()
If(1,13,0,90,2)
 ShowMessageFace("ankou_fc1",0,0,2,9)
 ShowMessage("\\n<Anglerfish Girl>I'm hungry...")
 EndEventProcessing()
 0()
EndIf()
If(1,13,0,100,2)
 ShowMessageFace("ankou_fc1",0,0,2,10)
 ShowMessage("\\n<Anglerfish Girl>Go home...")
 EndEventProcessing()
 0()
EndIf()
DefineLabel("質問")
ChangeVariable(13,13,0,2,1,50)
If(1,13,0,10,2)
 ShowMessageFace("ankou_fc1",0,0,2,11)
 ShowMessage("\\n<Anglerfish Girl>......")
 ShowMessageFace("",0,0,2,12)
 ShowMessage("The Anglerfish Girl is staring...")
 ShowChoices(strings("Watch her closely","Intimidate her"),0)
 IfPlayerPicksChoice(0,"じっと見る")
  ShowMessageFace("ankou_fc1",0,0,2,13)
  ShowMessage("\\n<Anglerfish Girl>......")
  ShowMessageFace("",0,0,2,14)
  ShowMessage("She seems to like you a little more.")
  355("change_friend(10)")
  0()
 IfPlayerPicksChoice(1,"威嚇する")
  ShowMessageFace("ankou_fc1",0,0,2,15)
  ShowMessage("\\n<Anglerfish Girl>......?!")
  ShowMessageFace("",0,0,2,16)
  ShowMessage("She seems to have been frightened.")
  355("change_friend(-5)")
  0()
 404()
 EndEventProcessing()
 0()
EndIf()
If(1,13,0,20,2)
 ShowMessageFace("ankou_fc1",0,0,2,17)
 ShowMessage("\\n<Anglerfish Girl>Crab... Crab...")
 ShowMessageFace("",0,0,2,18)
 ShowMessage("The Anglerfish Girl is complaining about something.")
 ShowMessage("There seems to be a crab crawling on her back!")
 ShowChoices(strings("Remove the crab","Add another crab from nearby"),0)
 IfPlayerPicksChoice(0,"取ってあげる")
  ShowMessageFace("ankou_fc1",0,0,2,19)
  ShowMessage("\\n<Anglerfish Girl>......")
  ShowMessageFace("",0,0,2,20)
  ShowMessage("She seems to like you a little more.")
  355("change_friend(10)")
  0()
 IfPlayerPicksChoice(1,"近くのカニをさらに背に乗せる")
  ShowMessageFace("ankou_fc1",0,0,2,21)
  ShowMessage("\\n<Anglerfish Girl>Crab... Crab... Crab...")
  ShowMessageFace("",0,0,2,22)
  ShowMessage("Her back seems to be itching!")
  355("change_friend(-5)")
  0()
 404()
 EndEventProcessing()
 0()
EndIf()
If(1,13,0,30,2)
 ShowMessageFace("ankou_fc1",0,0,2,23)
 ShowMessage("\\n<Anglerfish Girl>You are... What?")
 ShowChoices(strings("A human","A hero","Food"),0)
 IfPlayerPicksChoice(0,"人間だ")
  ShowMessageFace("ankou_fc1",0,0,2,24)
  ShowMessage("\\n<Anglerfish Girl>Human? I am... Angler...")
  ShowMessageFace("",0,0,2,25)
  ShowMessage("She seems to like you a little more.")
  355("change_friend(10)")
  0()
 IfPlayerPicksChoice(1,"勇者だ")
  ShowMessageFace("ankou_fc1",0,0,2,26)
  ShowMessage("\\n<Anglerfish Girl>Heroes... Bad guys...")
  ShowMessageFace("",0,0,2,27)
  ShowMessage("She seems to have become hostile!")
  355("change_friend(-5)")
  0()
 IfPlayerPicksChoice(2,"餌だ")
  ShowMessageFace("ankou_fc1",0,0,2,28)
  ShowMessage("\\n<Anglerfish Girl>Food... Eat...")
  ShowMessageFace("",0,0,2,29)
  ShowMessage("She seems to see you as prey.")
  0()
 404()
 EndEventProcessing()
 0()
EndIf()
If(1,13,0,40,2)
 ShowMessageFace("ankou_fc1",0,0,2,30)
 ShowMessage("\\n<Anglerfish Girl>Good?")
 ShowChoices(strings("Don't eat me","I am good","I taste bad"),0)
 IfPlayerPicksChoice(0,"食べちゃだめ")
  ShowMessageFace("ankou_fc1",0,0,2,31)
  ShowMessage("\\n<Anglerfish Girl>No... Eat...")
  ShowMessageFace("",0,0,2,32)
  ShowMessage("She seems to see you as prey.")
  0()
 IfPlayerPicksChoice(1,"おいしい")
  ShowMessageFace("ankou_fc1",0,0,2,33)
  ShowMessage("\\n<Anglerfish Girl>Good...")
  ShowMessageFace("",0,0,2,34)
  ShowMessage("She seems to like you a little more.")
  355("change_friend(10)")
  0()
 IfPlayerPicksChoice(2,"まずい")
  ShowMessageFace("ankou_fc1",0,0,2,35)
  ShowMessage("\\n<Anglerfish Girl>......")
  ShowMessageFace("",0,0,2,36)
  ShowMessage("She seems to have lost interest.")
  355("change_friend(-5)")
  0()
 404()
 EndEventProcessing()
 0()
EndIf()
If(1,13,0,50,2)
 ShowMessageFace("ankou_fc1",0,0,2,37)
 ShowMessage("\\n<Anglerfish Girl>Sea...")
 ShowChoices(strings("Ocean","Mountain","River"),0)
 IfPlayerPicksChoice(0,"海")
  ShowMessageFace("ankou_fc1",0,0,2,38)
  ShowMessage("\\n<Anglerfish Girl>Sea...")
  ShowMessageFace("",0,0,2,39)
  ShowMessage("She seems to like you a little more.")
  355("change_friend(10)")
  0()
 IfPlayerPicksChoice(1,"山")
  ShowMessageFace("ankou_fc1",0,0,2,40)
  ShowMessage("\\n<Anglerfish Girl>......")
  ShowMessageFace("",0,0,2,41)
  ShowMessage("She seems to have lost interest.")
  355("change_friend(-5)")
  0()
 IfPlayerPicksChoice(2,"かわ")
  ShowMessageFace("ankou_fc1",0,0,2,42)
  ShowMessage("\\n<Anglerfish Girl>River means...?")
  ShowMessageFace("",0,0,2,43)
  ShowMessage("She has a curious look.")
  0()
 404()
 EndEventProcessing()
 0()
EndIf()
DefineLabel("要求")
ChangeVariable(13,13,0,2,1,30)
If(1,13,0,10,2)
 If(8,1)
  ShowMessageFace("ankou_fc1",0,0,2,44)
  ShowMessage("\\n<Anglerfish Girl>Herb...")
  ChangeVariable(24,24,0,3,0,1,0)
  ShowMessageFace("",0,0,2,45)
  ShowMessage("Do you want to give an \\ii[1]? (Have:\\V[24])")
  ShowChoices(strings("Yes","No"),2)
  IfPlayerPicksChoice(0,"Yes")
   ShowMessageFace("ankou_fc1",0,0,2,46)
   ShowMessage("\\n<Anglerfish Girl>......")
   ChangeInventory_Item(1,1,0,1)
   355("change_friend(20)")
   EndEventProcessing()
   0()
  IfPlayerPicksChoice(1,"No")
   ShowMessageFace("ankou_fc1",0,0,2,47)
   ShowMessage("\\n<Anglerfish Girl>......")
   EndEventProcessing()
   0()
  404()
  0()
 Else()
  ChangeVariable(13,13,0,0,20)
  0()
 EndIf()
 0()
EndIf()
If(1,13,0,20,2)
 If(8,322)
  ShowMessageFace("ankou_fc1",0,0,2,48)
  ShowMessage("\\n<Anglerfish Girl>Fish...")
  ChangeVariable(24,24,0,3,0,322,0)
  ShowMessageFace("",0,0,2,49)
  ShowMessage("Do you want to give a \\ii[322]? (Have:\\V[24])")
  ShowChoices(strings("Yes","No"),2)
  IfPlayerPicksChoice(0,"Yes")
   ShowMessageFace("ankou_fc1",0,0,2,50)
   ShowMessage("\\n<Anglerfish Girl>......")
   ChangeInventory_Item(322,1,0,1)
   355("change_friend(30)")
   EndEventProcessing()
   0()
  IfPlayerPicksChoice(1,"No")
   ShowMessageFace("ankou_fc1",0,0,2,51)
   ShowMessage("\\n<Anglerfish Girl>......")
   EndEventProcessing()
   0()
  404()
  0()
 Else()
  ChangeVariable(13,13,0,0,30)
  0()
 EndIf()
 0()
EndIf()
If(1,13,0,30,2)
 ShowMessageFace("ankou_fc1",0,0,2,52)
 ShowMessage("\\n<Anglerfish Girl>Money...")
 If(7,255,0)
  ChangeVariable(24,24,0,3,7,2,0)
  ShowMessageFace("",0,0,2,53)
  ShowMessage("Do you want to give 255G? (Remaining: \\V[24])")
  ShowChoices(strings("Yes","No"),2)
  IfPlayerPicksChoice(0,"Yes")
   ShowMessageFace("ankou_fc1",0,0,2,54)
   ShowMessage("\\n<Anglerfish Girl>......")
   125(1,0,255)
   355("change_friend(25)")
   EndEventProcessing()
   0()
  IfPlayerPicksChoice(1,"No")
   ShowMessageFace("ankou_fc1",0,0,2,55)
   ShowMessage("\\n<Anglerfish Girl>......")
   EndEventProcessing()
   0()
  404()
  0()
 Else()
  ShowMessageFace("ankou_fc1",0,0,2,56)
  ShowMessage("\\n<Anglerfish Girl>None...?")
  EndEventProcessing()
  0()
 EndIf()
 0()
EndIf()
DefineLabel("贈与")
ChangeVariable(13,13,0,2,1,30)
If(1,25,0,1,0)
 ChangeVariable(13,13,0,0,30)
 ChangeVariable(25,25,0,0,0)
 0()
EndIf()
If(1,25,0,2,0)
 ChangeVariable(13,13,0,2,1,20)
 ChangeVariable(25,25,0,0,0)
 0()
EndIf()
If(1,13,0,10,2)
 ShowMessageFace("ankou_fc1",0,0,2,57)
 ShowMessage("\\n<Anglerfish Girl>Caught it. Gift...")
 250(bytes(0x04,0x08,0x6f,0x3a,0x0c,0x52,0x50,0x47,0x3a,0x3a,0x53,0x45,0x08,0x3a,0x0a,0x40,0x6e,0x61,0x6d,0x65,0x49,0x22,0x0a,0x49,0x74,0x65,0x6d,0x31,0x06,0x3a,0x06,0x45,0x54,0x3a,0x0b,0x40,0x70,0x69,0x74,0x63,0x68,0x69,0x69,0x3a,0x0c,0x40,0x76,0x6f,0x6c,0x75,0x6d,0x65,0x69,0x55))
 ChangeInventory_Item(327,0,0,1)
 ShowMessageFace("",0,0,2,58)
 ShowMessage("The Anglerfish Girl gave you a \\ii[327]!")
 EndEventProcessing()
 0()
EndIf()
If(1,13,0,20,2)
 ShowMessageFace("ankou_fc1",0,0,2,59)
 ShowMessage("\\n<Anglerfish Girl>Caught it. Gift...")
 250(bytes(0x04,0x08,0x6f,0x3a,0x0c,0x52,0x50,0x47,0x3a,0x3a,0x53,0x45,0x08,0x3a,0x0a,0x40,0x6e,0x61,0x6d,0x65,0x49,0x22,0x0a,0x49,0x74,0x65,0x6d,0x31,0x06,0x3a,0x06,0x45,0x54,0x3a,0x0b,0x40,0x70,0x69,0x74,0x63,0x68,0x69,0x69,0x3a,0x0c,0x40,0x76,0x6f,0x6c,0x75,0x6d,0x65,0x69,0x55))
 ChangeInventory_Item(328,0,0,1)
 ShowMessageFace("",0,0,2,60)
 ShowMessage("The Anglerfish Girl gave you an \\ii[328]!")
 EndEventProcessing()
 0()
EndIf()
If(1,13,0,30,2)
 ShowMessageFace("ankou_fc1",0,0,2,61)
 ShowMessage("\\n<Anglerfish Girl>Found it. Gift...")
 250(bytes(0x04,0x08,0x6f,0x3a,0x0c,0x52,0x50,0x47,0x3a,0x3a,0x53,0x45,0x08,0x3a,0x0a,0x40,0x6e,0x61,0x6d,0x65,0x49,0x22,0x0a,0x49,0x74,0x65,0x6d,0x31,0x06,0x3a,0x06,0x45,0x54,0x3a,0x0b,0x40,0x70,0x69,0x74,0x63,0x68,0x69,0x69,0x3a,0x0c,0x40,0x76,0x6f,0x6c,0x75,0x6d,0x65,0x69,0x55))
 125(0,0,425)
 ShowMessageFace("",0,0,2,62)
 ShowMessage("The Anglerfish Girl gave you 425G!")
 EndEventProcessing()
 0()
EndIf()
0()
