﻿// EVENT 0557
Name "RC:ヴァルキリー"

If(1,1099,0,2,0)
 ShowMessageFace("valkyrie_fc1",0,0,2,1)
 ShowMessage("【ヴィクトリア】")
 ShowMessage("食事中よ。あなたも、どう……？")
 0()
EndIf()
If(1,1099,0,3,1)
 ShowMessageFace("valkyrie_fc1",0,0,2,2)
 ShowMessage("【ヴィクトリア】")
 ShowMessage("毎日、剣の訓練は欠かさないわ。")
 ShowMessage("あなたも一緒に訓練しない……？")
 If(0,2338,0)
  ShowMessageFace("",0,0,2,3)
  ShowMessage("今は、荷物を運んでいる最中だ。")
  ShowMessage("大聖堂に向かうことを優先しよう。")
  EndEventProcessing()
  0()
 EndIf()
 0()
EndIf()
DefineLabel("メイン")
If(1,1099,0,2,0)
 355("ex_choice_add(\"一緒に食事する（時間経過）\",1,")
 655("\"v[1098] >= 5\",0)")
 0()
EndIf()
If(1,1099,0,3,1)
 355("ex_choice_add(\"訓練に付き合う（時間経過）\",1,")
 655("\"v[1098] >= 5\",0)")
 0()
EndIf()
355("ex_choice_add(\"異変について相談する\",2,")
655("\"s[2341]\",0)")
655("ex_choice_add(\"後悔していることについて聞く\",3,")
655("\"s[2342]\",0)")
655("ex_choice_add(\"時を繰り返す道具について聞く\",4,")
655("\"s[2343]\",0)")
655("ex_choice_add(\"ピザを注文したか聞く\",5,")
655("\"s[2345]\",0)")
355("ex_choice_add(\"謎のマキナについて聞く\",6,")
655("\"s[2365]\",0)")
655("ex_choice_add(\"作戦に必要な品について聞く\",7,")
655("\"s[2364]\",0)")
655("ex_choice_add(\"お茶会に誘う\",8,")
655("\"s[2378]\",0)")
655("ex_choice_add(\"立ち去る\",10)")
355("ex_choice_show(0,11,[0,0])")
If(1,9,0,1,0)
 If(1,1099,0,2,0)
  221()
  205(87,bytes(0x04,0x08,0x6f,0x3a,0x13,0x52,0x50,0x47,0x3a,0x3a,0x4d,0x6f,0x76,0x65,0x52,0x6f,0x75,0x74,0x65,0x09,0x3a,0x0c,0x40,0x72,0x65,0x70,0x65,0x61,0x74,0x46,0x3a,0x0f,0x40,0x73,0x6b,0x69,0x70,0x70,0x61,0x62,0x6c,0x65,0x46,0x3a,0x0a,0x40,0x77,0x61,0x69,0x74,0x54,0x3a,0x0a,0x40,0x6c,0x69,0x73,0x74,0x5b,0x07,0x6f,0x3a,0x15,0x52,0x50,0x47,0x3a,0x3a,0x4d,0x6f,0x76,0x65,0x43,0x6f,0x6d,0x6d,0x61,0x6e,0x64,0x07,0x3a,0x0a,0x40,0x63,0x6f,0x64,0x65,0x69,0x18,0x3a,0x10,0x40,0x70,0x61,0x72,0x61,0x6d,0x65,0x74,0x65,0x72,0x73,0x5b,0x00,0x6f,0x3b,0x0a,0x07,0x3b,0x0b,0x69,0x00,0x3b,0x0c,0x5b,0x00))
  TeleportPlayer(0,83,27,31,6,2)
  222()
  ShowMessageFace("cupid_fc1",4,0,2,4)
  ShowMessage("【キューピー】")
  ShowMessage("地上は、甘いものがいっぱいで楽しいよね～♪")
  ShowMessage("シロクマちゃんも可愛いし♪")
  ShowMessageFace("shirokuma_fc1",0,0,2,5)
  ShowMessage("【クヌート】")
  ShowMessage("むしゃむしゃ……")
  ShowMessageFace("valkyrie_fc1",0,0,2,6)
  ShowMessage("【ヴィクトリア】")
  ShowMessage("美味しいものがあるのはいいけど……")
  ShowMessage("やっぱり、天界が恋しいわ。")
  ShowMessageFace("cupid_fc1",4,0,2,7)
  ShowMessage("【キューピー】")
  ShowMessage("そんなコト言っちゃって～♪")
  ShowMessage("おいしいもの色々食べて、体重増えちゃった癖に……♪")
  ShowMessageFace("valkyrie_fc1",2,0,2,8)
  ShowMessage("【ヴィクトリア】")
  ShowMessage("斬る……")
  ShowMessageFace("cupid_fc1",2,0,2,9)
  ShowMessage("【キューピー】")
  ShowMessage("ちょ！　食事中は剣をしまって～～！！")
  ShowMessageFace("shirokuma_fc1",0,0,2,10)
  ShowMessage("【クヌート】")
  ShowMessage("むしゃむしゃ……")
  ShowMessageFace("",0,0,2,11)
  ShowMessage("ヴィクトリア達と食事をして時間を過ごした……")
  RunCommonEvent(540)
  EndEventProcessing()
  0()
 EndIf()
 If(1,1099,0,3,1)
  221()
  205(15,bytes(0x04,0x08,0x6f,0x3a,0x13,0x52,0x50,0x47,0x3a,0x3a,0x4d,0x6f,0x76,0x65,0x52,0x6f,0x75,0x74,0x65,0x09,0x3a,0x0c,0x40,0x72,0x65,0x70,0x65,0x61,0x74,0x46,0x3a,0x0f,0x40,0x73,0x6b,0x69,0x70,0x70,0x61,0x62,0x6c,0x65,0x46,0x3a,0x0a,0x40,0x77,0x61,0x69,0x74,0x54,0x3a,0x0a,0x40,0x6c,0x69,0x73,0x74,0x5b,0x07,0x6f,0x3a,0x15,0x52,0x50,0x47,0x3a,0x3a,0x4d,0x6f,0x76,0x65,0x43,0x6f,0x6d,0x6d,0x61,0x6e,0x64,0x07,0x3a,0x0a,0x40,0x63,0x6f,0x64,0x65,0x69,0x17,0x3a,0x10,0x40,0x70,0x61,0x72,0x61,0x6d,0x65,0x74,0x65,0x72,0x73,0x5b,0x00,0x6f,0x3b,0x0a,0x07,0x3b,0x0b,0x69,0x00,0x3b,0x0c,0x5b,0x00))
  TeleportPlayer(0,90,6,18,4,2)
  222()
  ShowMessageFace("valkyrie_fc1",0,0,2,12)
  ShowMessage("【ヴィクトリア】")
  ShowMessage("岩を斬るのが、戦乙女の訓練の基本。")
  ShowMessage("今でも、基本訓練は疎かにはしていないわ……")
  ShowMessageFace("ruka_fc1",0,0,2,13)
  ShowMessage("【ルカ】")
  ShowMessage("城内で、よく両断された岩を見かけるけど……")
  ShowMessage("まさか……")
  ShowMessageFace("valkyrie_fc1",0,0,2,14)
  ShowMessage("【ヴィクトリア】")
  ShowMessage("……バレちゃった。")
  ShowMessageFace("ruka_fc1",0,0,2,15)
  ShowMessage("【ルカ】")
  ShowMessage("台所で、よく斬り刻まれた野菜を見るけど……")
  ShowMessage("まさか……")
  ShowMessageFace("valkyrie_fc1",0,0,2,16)
  ShowMessage("【ヴィクトリア】")
  ShowMessage("それは知らないわ……")
  ShowMessageFace("",0,0,2,17)
  ShowMessage("ヴィクトリアと訓練をして時間を過ごした……")
  If(1,1099,0,4,0)
   RunCommonEvent(5830)
   EndEventProcessing()
   0()
  EndIf()
  RunCommonEvent(540)
  EndEventProcessing()
  0()
 EndIf()
 0()
EndIf()
If(1,9,0,2,0)
 ShowMessageFace("",0,0,2,18)
 ShowMessage("ルカは、異変について相談した……")
 ShowMessageFace("valkyrie_fc1",0,0,2,19)
 ShowMessage("【ヴィクトリア】")
 ShowMessage("それは、戦乙女の仕事ではないわ。")
 ShowMessage("他の部署に相談して……")
 ShowMessageFace("ruka_fc1",0,0,2,20)
 ShowMessage("【ルカ】")
 ShowMessage("天界はつくづく役所仕事だよね……")
 ShowMessageFace("",0,0,2,21)
 ShowMessage("ヴィクトリアは頼れそうにない……")
 JumpToLabel("メイン")
 0()
EndIf()
If(1,9,0,3,0)
 ShowMessageFace("valkyrie_fc1",0,0,2,22)
 ShowMessage("【ヴィクトリア】")
 ShowMessage("別にないわ……")
 ShowMessage("強いて言えば、スーパーチョコレートパフェが売り切れ……")
 ShowMessageFace("valkyrie_fc1",0,0,2,23)
 ShowMessage("【ヴィクトリア】")
 ShowMessage("……時間が戻ればいいのに。")
 ShowMessageFace("ruka_fc1",0,0,2,24)
 ShowMessage("【ルカ】")
 ShowMessage("流石に、これは関係ないよね……")
 ShowMessageFace("",0,0,2,25)
 ShowMessage("有益な情報は得られなかった……")
 JumpToLabel("メイン")
 0()
EndIf()
If(1,9,0,4,0)
 ShowMessageFace("valkyrie_fc1",0,0,2,26)
 ShowMessage("【ヴィクトリア】")
 ShowMessage("知らないわ……")
 ShowMessage("神の御業としか思えないわね。")
 ShowMessageFace("",0,0,2,27)
 ShowMessage("有益な情報は得られなかった……")
 JumpToLabel("メイン")
 0()
EndIf()
If(1,9,0,5,0)
 ShowMessageFace("valkyrie_fc1",0,0,2,28)
 ShowMessage("【ヴィクトリア】")
 ShowMessage("ここにピザが届くの？")
 ShowMessage("いったい、誰が届けるの……？")
 ShowMessageFace("",0,0,2,29)
 ShowMessage("ピザを頼んだのはヴィクトリアではないようだ……")
 JumpToLabel("メイン")
 0()
EndIf()
If(1,9,0,6,0)
 ShowMessageFace("valkyrie_fc1",0,0,2,30)
 ShowMessage("【ヴィクトリア】")
 ShowMessage("私の役目じゃないわ……")
 ShowMessage("技術部門に行って。")
 ShowMessageFace("ruka_fc1",0,0,2,31)
 ShowMessage("【ルカ】")
 ShowMessage("天界はつくづく役所仕事だよね……")
 ShowMessageFace("",0,0,2,32)
 ShowMessage("有益な情報は得られなかった……")
 JumpToLabel("メイン")
 0()
EndIf()
If(1,9,0,7,0)
 ShowMessageFace("valkyrie_fc1",0,0,2,33)
 ShowMessage("【ヴィクトリア】")
 ShowMessage("役立ちそうな品はないわね……")
 ShowMessageFace("",0,0,2,34)
 ShowMessage("有益なアイテムは得られなかった……")
 JumpToLabel("メイン")
 0()
EndIf()
If(1,9,0,8,0)
 ShowMessageFace("valkyrie_fc1",0,0,2,35)
 ShowMessage("【ヴィクトリア】")
 ShowMessage("黒のアリスは敵よ……")
 ShowMessage("行くわけがないわ……")
 ShowMessageFace("",0,0,2,36)
 ShowMessage("ヴィクトリアはお茶会の誘いを断った……")
 JumpToLabel("メイン")
 0()
EndIf()
EndEventProcessing()
0()
