// EVENT 4501
Name "Minotauros"

If(0,25,1)
 221()
 PictureClear(5)
 PictureClear(6)
 ShowMessageFace("",0,0,2,0)
 ShowMessage("......")
 242(2)
 Wait(120)
 241(bytes(0x04,0x08,0x6f,0x3a,0x0d,0x52,0x50,0x47,0x3a,0x3a,0x42,0x47,0x4d,0x08,0x3a,0x0a,0x40,0x6e,0x61,0x6d,0x65,0x49,0x22,0x0c,0x63,0x61,0x73,0x74,0x6c,0x65,0x36,0x06,0x3a,0x06,0x45,0x54,0x3a,0x0c,0x40,0x76,0x6f,0x6c,0x75,0x6d,0x65,0x69,0x69,0x3a,0x0b,0x40,0x70,0x69,0x74,0x63,0x68,0x69,0x69))
 EndEventProcessing()
 0()
EndIf()
PictureDisplay(5,"80_mino_st01",0,0,0,0,100,100,255,0)
ShowMessageFace("mino_fc1",1,0,2,1)
ShowMessage("\\n<Mina>You want me to pleasure you?\nAre you seriously asking for pleasure from a Minotaur?")
ShowMessageFace("",0,0,2,2)
ShowMessage("\\n<Luka>Y-yeah...")
ShowMessageFace("mino_fc1",1,0,2,3)
ShowMessage("\\n<Mina>Well then, come to my room.\nI'll show you a good time.")
ShowMessageFace("",0,0,2,4)
ShowMessage("Thus, I was invited to Mina's room.")
221()
PictureDisplay(1,"bg195",0,0,0,0,100,100,255,0)
PictureDisplay(5,"ev_mino_h1",0,0,0,0,100,100,255,0)
222()
241(bytes(0x04,0x08,0x6f,0x3a,0x0d,0x52,0x50,0x47,0x3a,0x3a,0x42,0x47,0x4d,0x08,0x3a,0x0a,0x40,0x6e,0x61,0x6d,0x65,0x49,0x22,0x09,0x65,0x72,0x6f,0x31,0x06,0x3a,0x06,0x45,0x54,0x3a,0x0c,0x40,0x76,0x6f,0x6c,0x75,0x6d,0x65,0x69,0x69,0x3a,0x0b,0x40,0x70,0x69,0x74,0x63,0x68,0x69,0x69))
ShowMessageFace("mino_fc1",1,0,2,5)
ShowMessage("\\n<Mina>Let's have some fun!")
ShowMessageFace("",0,0,2,6)
ShowMessage("As soon as I enter the room, my clothes are ripped apart.")
ShowMessage("As soon as I'm naked, she effortlessly picks me up and holds me tightly.")
ShowMessageFace("",0,0,2,7)
ShowMessage("My penis is pressed hard against her chest.")
ShowMessage("As my penis sinks into her cleavage, it becomes completely surrounded by her breasts!")
ShowMessageFace("",0,0,2,8)
ShowMessage("\\n<Luka>Ooooh...!")
ShowMessageFace("",0,0,2,9)
ShowMessage("Even as I struggle, my waist is held in her strong, vice-like grip.")
ShowMessage("I can not escape from the pressure of her chest.")
ShowMessageFace("mino_fc1",1,0,2,10)
ShowMessage("\\n<Mina>How do my breasts feel?\nWith these breasts, I will milk you dry!")
245(bytes(0x04,0x08,0x6f,0x3a,0x0d,0x52,0x50,0x47,0x3a,0x3a,0x42,0x47,0x53,0x08,0x3a,0x0a,0x40,0x6e,0x61,0x6d,0x65,0x49,0x22,0x17,0x6d,0x6f,0x6e,0x5f,0x68,0x73,0x65,0x61,0x6e,0x31,0x37,0x5f,0x73,0x69,0x67,0x6f,0x6b,0x69,0x06,0x3a,0x06,0x45,0x54,0x3a,0x0c,0x40,0x76,0x6f,0x6c,0x75,0x6d,0x65,0x69,0x55,0x3a,0x0b,0x40,0x70,0x69,0x74,0x63,0x68,0x69,0x69))
PictureDisplay(6,"ev_mino_ct01",0,0,0,0,100,100,255,0)
ShowMessageFace("",0,0,2,11)
ShowMessage("Even though her breasts are so heavy, they have a soft comfort to them.")
ShowMessageFace("",0,0,2,12)
ShowMessage("The elasticity is also extraordinary, even just from being inserted into her cleavage.")
ShowMessage("The tightness was also something to behold.")
ShowMessageFace("",0,0,2,13)
ShowMessage("\\n<Luka>Aaah...")
ShowMessageFace("",0,0,2,14)
ShowMessage("When a man's penis is trapped within the cleavage of a Minotauros...")
ShowMessage("There is nothing to do but accept the pleasure.")
ShowMessageFace("mino_fc1",1,0,2,15)
ShowMessage("\\n<Mina>Sora, sora... I'll gradually make it tighter.\nHahaha, how long will you be able to endure?")
ShowMessageFace("",0,0,2,16)
ShowMessage("\\n<Luka>Ungh!")
ShowMessageFace("",0,0,2,17)
ShowMessage("Just like she said, her arms start to squeeze harder.")
ShowMessage("At the same time, the pressure from her breasts grows stronger.")
ShowMessageFace("",0,0,2,18)
ShowMessage("While holding my hips, her arms skillfully put pressure on her chest.")
ShowMessageFace("",0,0,2,19)
ShowMessage("The feeling of pressure gradually becomes intense, and my penis is in the middle of it.")
ShowMessage("At the same time, the warmth of her valley instills a sweet, gentle sensation.")
ShowMessageFace("",0,0,2,20)
ShowMessage("By the gentle warmth of her body, my penis is lead only to pleasure.")
ShowMessageFace("",0,0,2,21)
ShowMessage("\\n<Luka>Amazing... it feels good...")
ShowMessageFace("mino_fc1",1,0,2,22)
ShowMessage("\\n<Mina>Oh, are you feeling good?\nWell then, let me finish you off!")
ShowMessageFace("",0,0,2,23)
ShowMessage("After she speaks, she puts even more strength into her arms.")
ShowMessage("My body feels the pressure grow even stronger than before.")
ShowMessageFace("",0,0,2,24)
ShowMessage("My penis is crushed by her soft, elastic skin from both sides.")
ShowMessage("As the tightness grows stronger, a familiar ache begins to rise.")
ShowMessageFace("",0,0,2,25)
ShowMessage("\\n<Luka>Unnngh... I'm going to...")
ShowMessageFace("mino_fc1",1,0,2,26)
ShowMessage("\\n<Mina>You held on long enough, so go ahead...\nHora hora, come!")
ShowMessageFace("",0,0,2,27)
ShowMessage("She puts immeasurable strength into her arms.")
ShowMessageFace("",0,0,2,28)
ShowMessage("A unique sense of oppression is created from the combination of elasticity and softness.")
ShowMessage("With my penis trapped in her bosom, I'm lead to an inevitable end.")
ShowMessageFace("",0,0,2,29)
ShowMessage("\\n<Luka>Ah, aaaah...!!")
RunCommonEvent(104)
PictureDisplay(5,"ev_mino_h2",0,0,0,0,100,100,255,0)
PictureDisplay(6,"ev_mino_ct02",0,0,0,0,100,100,255,0)
RunCommonEvent(105)
ShowMessageFace("",0,0,2,30)
ShowMessage("Semen overflows from her cleavage, staining her chest white.")
PictureDisplay(6,"ev_mino_ct03",0,0,0,0,100,100,255,0)
ShowMessageFace("",0,0,2,31)
ShowMessage("Looking down at the mess I made, Mina smiles with victory.")
ShowMessageFace("mino_fc1",1,0,2,32)
ShowMessage("\\n<Mina>Ahahaha...\nMy breasts are the best, aren't they...")
ShowMessageFace("",0,0,2,33)
ShowMessage("\\n<Luka>Haaa...")
ShowMessageFace("",0,0,2,34)
ShowMessage("While soaking in the ecstasy, my penis remains sandwiched between her breasts.")
ShowMessage("Their softness, elasticity and warmth immediately pleasure me after my ejaculation.")
ShowMessageFace("mino_fc1",1,0,2,35)
ShowMessage("\\n<Mina>Well then... I'll squeeze you even harder!")
ShowMessageFace("",0,0,2,36)
ShowMessage("She immediately starts to move her arms violently.")
ShowMessage("Following that movement, both of her breasts begin to shake and tremble.")
ShowMessageFace("",0,0,2,37)
ShowMessage("The vibration violently stimulates my penis.")
ShowMessageFace("",0,0,2,38)
ShowMessage("\\n<Luka>W-wait... Aaaah...!")
ShowMessageFace("mino_fc1",1,0,2,39)
ShowMessage("\\n<Mina>Hora hora, isn't this amazing?\nThis is a technique that makes men come quickly.")
ShowMessageFace("mino_fc1",1,0,2,40)
ShowMessage("\\n<Mina>No man can withstand even a minute! Let's see how you do!\nHorahorahora!")
ShowMessageFace("",0,0,2,41)
ShowMessage("My penis is wrapped in the cleavage of her chest, and is massaged violently.")
ShowMessage("With her flesh assaulting me, a feeling of pleasure and weakness flows through me.")
ShowMessageFace("",0,0,2,42)
ShowMessage("\\n<Luka>Ah, aaaaaah!\nS-slowly, please!!!")
ShowMessageFace("mino_fc1",1,0,2,43)
ShowMessage("\\n<Mina>Sora, sora, sora!\nIf you can't endure this, then just come!")
ShowMessageFace("",0,0,2,44)
ShowMessage("The violent movements of her breasts pours immense pleasure into my penis.")
ShowMessageFace("",0,0,2,45)
ShowMessage("They move up and down, left and right, and even in alternative motions.")
ShowMessage("I could only drown in the rich taste of her pleasure.")
ShowMessageFace("",0,0,2,46)
ShowMessage("With my penis trapped in her chasm of warmth and softness...\nA never-ending tightness assaults me.")
ShowMessageFace("",0,0,2,47)
ShowMessage("No matter how much I struggle, I cannot resist the violent stimulation created by her breasts.")
ShowMessage("I begin to fear that there is no escape from this fate.")
ShowMessageFace("",0,0,2,48)
ShowMessage("\\n<Luka>Aaah...I'm about to come again......")
ShowMessageFace("mino_fc1",1,0,2,49)
ShowMessage("\\n<Mina>Ahaha... Shall I milk out your semen again?\nThis reminds me of my farm days!")
ShowMessageFace("",0,0,2,50)
ShowMessage("Her movements start to grow more and more violent.")
ShowMessage("It was clear that she has every intention of milking every drop of semen from me.")
ShowMessageFace("",0,0,2,51)
ShowMessage("As my resistance crumbles, my body gives in to the pleasure.")
ShowMessageFace("mino_fc1",1,0,2,52)
ShowMessage("\\n<Mina>Ho~ra, come again!")
ShowMessageFace("",0,0,2,53)
ShowMessage("\\n<Luka>Ah, aaaaaah!!")
RunCommonEvent(104)
PictureDisplay(5,"ev_mino_h3",0,0,0,0,100,100,255,0)
PictureDisplay(6,"ev_mino_ct04",0,0,0,0,100,100,255,0)
RunCommonEvent(105)
ShowMessageFace("",0,0,2,54)
ShowMessage("Once again, semen flows from her cleavage and covers her breasts.")
ShowMessage("Some of it even drips down to the floor from the bottom of her valley.")
ShowMessageFace("",0,0,2,55)
ShowMessage("\\n<Luka>Huaaa...")
ShowMessageFace("mino_fc1",1,0,2,56)
ShowMessage("\\n<Mina>Ahahah, are you satisfied?\nDoes it feel good to come all over my amazing breasts?")
ShowMessageFace("mino_fc1",1,0,2,57)
ShowMessage("\\n<Mina>But... it is still too early to be finished!\nI'll keep going until the VERY last drop!")
ShowMessageFace("",0,0,2,58)
ShowMessage("\\n<Luka>Ah... Aieee!!")
ShowMessageFace("",0,0,2,59)
ShowMessage("Her breasts start moving again as her milking Hell resumes.")
ShowMessage("The pleasurable ache continues to render me defenseless.")
ShowMessageFace("",0,0,2,60)
ShowMessage("\\n<Luka>Aaaah...! S-stop! Anymore and...!!")
ShowMessageFace("mino_fc1",1,0,2,61)
ShowMessage("\\n<Mina>I said I'll keep going.\nI'll milk you until you can't even stand up!")
ShowMessageFace("",0,0,2,62)
ShowMessage("Her breasts move in all directions as they continue to hold me.")
ShowMessage("My penis is trapped in a hurricane of flesh and come.")
ShowMessageFace("",0,0,2,63)
ShowMessage("Unable to escape or resist, I can only taste the Hell of her milking.")
ShowMessage("I'm forced to do nothing but accept another forced ejaculation.")
ShowMessageFace("",0,0,2,64)
ShowMessage("\\n<Luka>Aiyee...! Aaaaaah!!")
RunCommonEvent(104)
PictureDisplay(6,"ev_mino_ct05",0,0,0,0,100,100,255,0)
RunCommonEvent(105)
ShowMessageFace("",0,0,2,65)
ShowMessage("Semen erupts from her cleavage, spurting all over her chest once again.")
ShowMessage("Rather than die down, the pleasure only increases violently.")
ShowMessageFace("",0,0,2,66)
ShowMessage("\\n<Luka>Haaa....stop...\nI can't...come anymore...")
ShowMessageFace("mino_fc1",1,0,2,67)
ShowMessage("\\n<Mina>I've lived on a farm for a long time, so I know when there's more to milk out.\nHorahorahora...!!")
ShowMessageFace("",0,0,2,68)
ShowMessage("True to her words, there was indeed more to milk out.")
RunCommonEvent(104)
RunCommonEvent(105)
ShowMessageFace("",0,0,2,69)
ShowMessage("I ejaculate again, my semen acting not unlike a white flag of surrender.")
ShowMessage("Despite my ejaculation, the milking continues without rest.")
ShowMessageFace("",0,0,2,70)
ShowMessage("\\n<Luka>No more... please...")
ShowMessageFace("mino_fc1",1,0,2,71)
ShowMessage("\\n<Mina>Don't you worry, there's more in you.\nI'll make sure to get everything! Horahorahora...!!!")
RunCommonEvent(104)
RunCommonEvent(105)
ShowMessageFace("",0,0,2,72)
ShowMessage("More and more semen is milked out of my penis.")
ShowMessage("At the same time, my vision grows darker and darker.")
RunCommonEvent(104)
RunCommonEvent(105)
ShowMessageFace("",0,0,2,73)
ShowMessage("\\n<Luka>Aaah...")
ShowMessageFace("",0,0,2,74)
ShowMessage("With the last of my semen milked, my consciousness fades.")
221()
PictureClear(5)
PictureClear(6)
246(2)
ShowMessageFace("mino_fc1",1,0,2,75)
ShowMessage("\\n<Mina>Looks like you fainted.\nYou'll need a lot more training in the future.")
ShowMessageFace("",0,0,2,76)
ShowMessage("Mina puts me into her bed and covers me with her blankets.")
ShowMessage("I feel her bedroom door close as I fall asleep with a goofy grin on my face.")
ShowMessageFace("",0,0,2,77)
ShowMessage("......")
242(2)
Wait(120)
241(bytes(0x04,0x08,0x6f,0x3a,0x0d,0x52,0x50,0x47,0x3a,0x3a,0x42,0x47,0x4d,0x08,0x3a,0x0a,0x40,0x6e,0x61,0x6d,0x65,0x49,0x22,0x0c,0x63,0x61,0x73,0x74,0x6c,0x65,0x36,0x06,0x3a,0x06,0x45,0x54,0x3a,0x0c,0x40,0x76,0x6f,0x6c,0x75,0x6d,0x65,0x69,0x69,0x3a,0x0b,0x40,0x70,0x69,0x74,0x63,0x68,0x69,0x69))
0()
