﻿// EVENT 1331
Name "Talk: Carmilla"

If(1,20,0,1,0)
 JumpToLabel("情報")
 0()
EndIf()
If(1,20,0,2,0)
 JumpToLabel("質問")
 0()
EndIf()
If(1,20,0,3,0)
 JumpToLabel("要求")
 0()
EndIf()
If(1,20,0,4,0)
 JumpToLabel("贈与")
 0()
EndIf()
DefineLabel("情報")
ChangeVariable(13,13,0,2,1,100)
If(1,13,0,10,2)
 ShowMessageFace("carmilla_fc1",0,0,2,1)
 ShowMessage("\\n<Carmilla>The Queen's right hand is me!\nElizabeth is the Queen's left hand.")
 EndEventProcessing()
 0()
EndIf()
If(1,13,0,20,2)
 ShowMessageFace("carmilla_fc1",0,0,2,2)
 ShowMessage("\\n<Carmilla>For the sake of the Queen, I will do whatever it takes!")
 EndEventProcessing()
 0()
EndIf()
If(1,13,0,30,2)
 ShowMessageFace("carmilla_fc1",0,0,2,3)
 ShowMessage("\\n<Carmilla>Enemies who oppose the Queen shall become rust on my sword!")
 EndEventProcessing()
 0()
EndIf()
If(1,13,0,40,2)
 ShowMessageFace("carmilla_fc1",0,0,2,4)
 ShowMessage("\\n<Carmilla>Bats are my friends.\nWe talk about looove!")
 EndEventProcessing()
 0()
EndIf()
If(1,13,0,50,2)
 ShowMessageFace("carmilla_fc1",0,0,2,5)
 ShowMessage("\\n<Carmilla>I want to become the princess of Sabasa♪")
 EndEventProcessing()
 0()
EndIf()
If(1,13,0,60,2)
 ShowMessageFace("carmilla_fc1",0,0,2,6)
 ShowMessage("\\n<Carmilla>I often go shopping with Elizabeth♪")
 EndEventProcessing()
 0()
EndIf()
If(1,13,0,70,2)
 ShowMessageFace("carmilla_fc1",0,0,2,7)
 ShowMessage("\\n<Carmilla>The Queen is a very noble lady!")
 EndEventProcessing()
 0()
EndIf()
If(1,13,0,80,2)
 ShowMessageFace("carmilla_fc1",0,0,2,8)
 ShowMessage("\\n<Carmilla>You look delicious...\nIs it okay if I suck your blood?")
 EndEventProcessing()
 0()
EndIf()
If(1,13,0,90,2)
 ShowMessageFace("carmilla_fc1",0,0,2,9)
 ShowMessage("\\n<Carmilla>Once Sabasa is under our control, I'd like to drink lots of coffee.")
 EndEventProcessing()
 0()
EndIf()
If(1,13,0,100,2)
 ShowMessageFace("carmilla_fc1",2,0,2,10)
 ShowMessage("\\n<Carmilla>Please stop using fire!")
 EndEventProcessing()
 0()
EndIf()
DefineLabel("質問")
ChangeVariable(13,13,0,2,1,50)
If(1,13,0,10,2)
 ShowMessageFace("carmilla_fc1",0,0,2,11)
 ShowMessage("\\n<Carmilla>Do you like bats...?")
 ShowChoices(strings("I like them","I hate them","Depends on the type"),0)
 IfPlayerPicksChoice(0,"好き")
  ShowMessageFace("carmilla_fc1",0,0,2,12)
  ShowMessage("\\n<Carmilla>Ufufu, you can be my friend♪")
  355("change_friend(10)")
  0()
 IfPlayerPicksChoice(1,"嫌い")
  ShowMessageFace("carmilla_fc1",2,0,2,13)
  ShowMessage("\\n<Carmilla>How awful...")
  355("change_friend(-5)")
  0()
 IfPlayerPicksChoice(2,"種類による")
  ShowMessageFace("carmilla_fc1",0,0,2,14)
  ShowMessage("\\n<Carmilla>You're right.\nYou seem to know a lot about bats♪")
  355("change_friend(10)")
  0()
 404()
 EndEventProcessing()
 0()
EndIf()
If(1,13,0,20,2)
 ShowMessageFace("carmilla_fc1",0,0,2,15)
 ShowMessage("\\n<Carmilla>Which do you prefer, men or women?")
 ShowChoices(strings("Women","Men","Both"),0)
 IfPlayerPicksChoice(0,"女")
  ShowMessageFace("carmilla_fc1",0,0,2,16)
  ShowMessage("\\n<Carmilla>That's normal!")
  0()
 IfPlayerPicksChoice(1,"男")
  ShowMessageFace("carmilla_fc1",0,0,2,17)
  ShowMessage("\\n<Carmilla>You're abnormal♪")
  355("change_friend(10)")
  0()
 IfPlayerPicksChoice(2,"どっちも")
  ShowMessageFace("carmilla_fc1",0,0,2,18)
  ShowMessage("\\n<Carmilla>What, you like both?!\nI'm also completely fine with both♪")
  355("change_friend(10)")
  0()
 404()
 EndEventProcessing()
 0()
EndIf()
If(1,13,0,30,2)
 ShowMessageFace("carmilla_fc1",0,0,2,19)
 ShowMessage("\\n<Carmilla>Elizabeth tells me I'm too laid-back...\nBut isn't that good?")
 ShowChoices(strings("It's good","It's not good","It doesn't matter"),0)
 IfPlayerPicksChoice(0,"いい")
  ShowMessageFace("carmilla_fc1",0,0,2,20)
  ShowMessage("\\n<Carmilla>That's right, let's take it easy♪")
  355("change_friend(10)")
  0()
 IfPlayerPicksChoice(1,"ダメだ")
  ShowMessageFace("carmilla_fc1",2,0,2,21)
  ShowMessage("\\n<Carmilla>Pardon me...\nI'm sorry...")
  355("change_friend(-5)")
  0()
 IfPlayerPicksChoice(2,"どうでもいい")
  ShowMessageFace("carmilla_fc1",2,0,2,22)
  ShowMessage("\\n<Carmilla>I agree...")
  0()
 404()
 EndEventProcessing()
 0()
EndIf()
If(1,13,0,40,2)
 ShowMessageFace("carmilla_fc1",0,0,2,23)
 ShowMessage("\\n<Carmilla>I'm actually a sword user...\nDoes that surprise you?")
 ShowChoices(strings("I'm surprised","Not really","We're the same"),0)
 IfPlayerPicksChoice(0,"意外だ")
  ShowMessageFace("carmilla_fc1",0,0,2,24)
  ShowMessage("\\n<Carmilla>Fufuuun! Isn't it amazing?!")
  355("change_friend(10)")
  0()
 IfPlayerPicksChoice(1,"そうでもない")
  ShowMessageFace("carmilla_fc1",2,0,2,25)
  ShowMessage("\\n<Carmilla>Is that so...")
  0()
 IfPlayerPicksChoice(2,"僕もそうだ")
  ShowMessageFace("carmilla_fc1",0,0,2,26)
  ShowMessage("\\n<Carmilla>Then let's fight and settle this!")
  355("change_friend(10)")
  0()
 404()
 EndEventProcessing()
 0()
EndIf()
If(1,13,0,50,2)
 ShowMessageFace("carmilla_fc1",0,0,2,27)
 ShowMessage("\\n<Carmilla>Sometimes, I want to wear something other than a black mantle... What color do you think looks good?")
 ShowChoices(strings("Red","Purple","Gold"),0)
 IfPlayerPicksChoice(0,"赤")
  ShowMessageFace("carmilla_fc1",2,0,2,28)
  ShowMessage("\\n<Carmilla>It would sort of be the same color as the Queen's...")
  0()
 IfPlayerPicksChoice(1,"紫")
  ShowMessageFace("carmilla_fc1",2,0,2,29)
  ShowMessage("\\n<Carmilla>You have poor taste...")
  355("change_friend(-5)")
  0()
 IfPlayerPicksChoice(2,"金")
  ShowMessageFace("carmilla_fc1",0,0,2,30)
  ShowMessage("\\n<Carmilla>Sounds good! It will shine!")
  355("change_friend(10)")
  0()
 404()
 EndEventProcessing()
 0()
EndIf()
DefineLabel("要求")
ChangeVariable(13,13,0,2,1,30)
If(1,13,0,10,2)
 If(8,313)
  ShowMessageFace("carmilla_fc1",0,0,2,31)
  ShowMessage("\\n<Carmilla>I'd like to eat a tomato...")
  ChangeVariable(24,24,0,3,0,313,0)
  ShowMessageFace("",0,0,2,32)
  ShowMessage("Do you want to give a \\ii[313]? (Have:\\V[24])")
  ShowChoices(strings("Yes","No"),2)
  IfPlayerPicksChoice(0,"Yes")
   ShowMessageFace("carmilla_fc1",0,0,2,33)
   ShowMessage("\\n<Carmilla>Wow, how delightful! ♪")
   ChangeInventory_Item(313,1,0,1)
   355("change_friend(20)")
   EndEventProcessing()
   0()
  IfPlayerPicksChoice(1,"No")
   ShowMessageFace("carmilla_fc1",2,0,2,34)
   ShowMessage("\\n<Carmilla>Is that so, how disappointing...")
   EndEventProcessing()
   0()
  404()
  0()
 Else()
  ChangeVariable(13,13,0,0,20)
  0()
 EndIf()
 0()
EndIf()
If(1,13,0,20,2)
 If(8,394)
  ShowMessageFace("carmilla_fc1",0,0,2,35)
  ShowMessage("\\n<Carmilla>I'd like to eat some spaghetti...")
  ChangeVariable(24,24,0,3,0,394,0)
  ShowMessageFace("",0,0,2,36)
  ShowMessage("Do you want to give some \\ii[394]? (Have:\\V[24])")
  ShowChoices(strings("Yes","No"),2)
  IfPlayerPicksChoice(0,"Yes")
   ShowMessageFace("carmilla_fc1",0,0,2,37)
   ShowMessage("\\n<Carmilla>Wow, how delightful! ♪")
   ChangeInventory_Item(394,1,0,1)
   355("change_friend(30)")
   EndEventProcessing()
   0()
  IfPlayerPicksChoice(1,"No")
   ShowMessageFace("carmilla_fc1",2,0,2,38)
   ShowMessage("\\n<Carmilla>Is that so, how disappointing...")
   EndEventProcessing()
   0()
  404()
  0()
 Else()
  ChangeVariable(13,13,0,0,30)
  0()
 EndIf()
 0()
EndIf()
If(1,13,0,30,2)
 ShowMessageFace("carmilla_fc1",0,0,2,39)
 ShowMessage("\\n<Carmilla>I'd like some money...")
 If(7,1350,0)
  ChangeVariable(24,24,0,3,7,2,0)
  ShowMessageFace("",0,0,2,40)
  ShowMessage("Do you want to give 1350G? (Remaining:\\V[24])")
  ShowChoices(strings("Yes","No"),2)
  IfPlayerPicksChoice(0,"Yes")
   ShowMessageFace("carmilla_fc1",0,0,2,41)
   ShowMessage("\\n<Carmilla>Wow, how delightful! ♪")
   125(1,0,1350)
   355("change_friend(25)")
   EndEventProcessing()
   0()
  IfPlayerPicksChoice(1,"No")
   ShowMessageFace("carmilla_fc1",2,0,2,42)
   ShowMessage("\\n<Carmilla>Is that so, how disappointing...")
   EndEventProcessing()
   0()
  404()
  0()
 Else()
  ShowMessageFace("carmilla_fc1",2,0,2,43)
  ShowMessage("\\n<Carmilla>...You don't have any?")
  EndEventProcessing()
  0()
 EndIf()
 0()
EndIf()
DefineLabel("贈与")
ChangeVariable(13,13,0,2,1,30)
If(1,25,0,1,0)
 ChangeVariable(13,13,0,0,30)
 ChangeVariable(25,25,0,0,0)
 0()
EndIf()
If(1,25,0,2,0)
 ChangeVariable(13,13,0,2,1,20)
 ChangeVariable(25,25,0,0,0)
 0()
EndIf()
If(1,13,0,10,2)
 ShowMessageFace("carmilla_fc1",0,0,2,44)
 ShowMessage("\\n<Carmilla>It's not good to be horny.")
 250(bytes(0x04,0x08,0x6f,0x3a,0x0c,0x52,0x50,0x47,0x3a,0x3a,0x53,0x45,0x08,0x3a,0x0a,0x40,0x6e,0x61,0x6d,0x65,0x49,0x22,0x0a,0x49,0x74,0x65,0x6d,0x31,0x06,0x3a,0x06,0x45,0x54,0x3a,0x0b,0x40,0x70,0x69,0x74,0x63,0x68,0x69,0x69,0x3a,0x0c,0x40,0x76,0x6f,0x6c,0x75,0x6d,0x65,0x69,0x55))
 ChangeInventory_Item(21,0,0,1)
 ShowMessageFace("",0,0,2,45)
 ShowMessage("Carmilla gave you a \\ii[21]!")
 EndEventProcessing()
 0()
EndIf()
If(1,13,0,20,2)
 ShowMessageFace("carmilla_fc1",0,0,2,46)
 ShowMessage("\\n<Carmilla>Hey, please eat this.")
 250(bytes(0x04,0x08,0x6f,0x3a,0x0c,0x52,0x50,0x47,0x3a,0x3a,0x53,0x45,0x08,0x3a,0x0a,0x40,0x6e,0x61,0x6d,0x65,0x49,0x22,0x0a,0x49,0x74,0x65,0x6d,0x31,0x06,0x3a,0x06,0x45,0x54,0x3a,0x0b,0x40,0x70,0x69,0x74,0x63,0x68,0x69,0x69,0x3a,0x0c,0x40,0x76,0x6f,0x6c,0x75,0x6d,0x65,0x69,0x55))
 ChangeInventory_Item(364,0,0,1)
 ShowMessageFace("",0,0,2,47)
 ShowMessage("Carmilla gave you an \\ii[364]!")
 EndEventProcessing()
 0()
EndIf()
If(1,13,0,30,2)
 ShowMessageFace("carmilla_fc1",0,0,2,48)
 ShowMessage("\\n<Carmilla>Hey, please use this.")
 250(bytes(0x04,0x08,0x6f,0x3a,0x0c,0x52,0x50,0x47,0x3a,0x3a,0x53,0x45,0x08,0x3a,0x0a,0x40,0x6e,0x61,0x6d,0x65,0x49,0x22,0x0a,0x49,0x74,0x65,0x6d,0x31,0x06,0x3a,0x06,0x45,0x54,0x3a,0x0b,0x40,0x70,0x69,0x74,0x63,0x68,0x69,0x69,0x3a,0x0c,0x40,0x76,0x6f,0x6c,0x75,0x6d,0x65,0x69,0x55))
 125(0,0,2250)
 ShowMessageFace("",0,0,2,49)
 ShowMessage("Carmilla gave you 2250G!")
 EndEventProcessing()
 0()
EndIf()
0()
