﻿// EVENT 0638
Name "Event: Page 65537"

ChangeSwitch(73,73,0)
If(1,129,0,0,0)
 ShowMessageFace("page65537_fc1",2,0,2,1)
 ShowMessage("\\n<Page 65537>I'll teach you about the dark grimoire skill, \"Page 666 of The End\". However, you won't be able to use it unless you are familiar with [Grimoire] skills.")
 ShowChoices(strings("Receive lesson","No thanks"),0)
 IfPlayerPicksChoice(0,"伝授してもらう")
  ShowMessageFace("",0,0,2,2)
  ShowMessage("Who will learn Page 666 of The End?")
  DefineLabel("選択")
  355("names = party_members.collect{|m|m.name}")
  655("unlimited_choices(11, names)")
  655("actor = party_members[$game_variables[11]]")
  655("$game_variables[10] = actor ? actor.id : 0")
  If(1,10,0,0,0)
   ChangeSwitch(73,73,1)
   EndEventProcessing()
   0()
  EndIf()
  If(12,"actor_skill_have?(v(10),2210)")
   ShowMessageFace("",0,0,2,3)
   ShowMessage("That character already knows Page 666 of The End...")
   JumpToLabel("選択")
   0()
  EndIf()
  ChangeVariable(129,129,0,0,1)
  318(1,10,0,2210)
  250(bytes(0x04,0x08,0x6f,0x3a,0x0c,0x52,0x50,0x47,0x3a,0x3a,0x53,0x45,0x08,0x3a,0x0a,0x40,0x6e,0x61,0x6d,0x65,0x49,0x22,0x0a,0x49,0x74,0x65,0x6d,0x31,0x06,0x3a,0x06,0x45,0x54,0x3a,0x0b,0x40,0x70,0x69,0x74,0x63,0x68,0x69,0x69,0x3a,0x0c,0x40,0x76,0x6f,0x6c,0x75,0x6d,0x65,0x69,0x55))
  ShowMessageFace("",0,0,2,4)
  ShowMessage("You learned \\I[183]\\C[1]Page 666 of The End\\C[0]!")
  ChangeSwitch(73,73,1)
  EndEventProcessing()
  0()
 IfPlayerPicksChoice(1,"必要ない")
  ChangeSwitch(73,73,1)
  EndEventProcessing()
  0()
 404()
 0()
EndIf()
If(1,129,0,1,0)
 ShowMessageFace("page65537_fc1",2,0,2,5)
 ShowMessage("\\n<Page 65537>That is all for today.\nI'll see you another time...")
 ChangeSwitch(73,73,1)
 EndEventProcessing()
 0()
EndIf()
0()
