﻿// EVENT 0063
Name "Skill: Play 231-240"

ChangeVariable(11,11,0,2,1,5)
If(1,100,0,231,0)
 If(1,11,0,1,0)
  ShowMessageFace("bugstaff_fc1",0,0,2,1)
  ShowMessage("\\n<Bugstaves>So, the kid sitting next door...")
  ShowMessageFace("",0,0,2,2)
  ShowMessage("The Bugstaves are having a plesant chat...")
  EndEventProcessing()
  0()
 EndIf()
 If(1,11,0,2,0)
  ShowMessageFace("bugstaff_fc1",0,0,2,3)
  ShowMessage("\\n<Bugstaves>Buzzzz...")
  ShowMessageFace("",0,0,2,4)
  ShowMessage("The Bugstaves are flying around in circles!\nIt's really irritating!")
  EndEventProcessing()
  0()
 EndIf()
 If(1,11,0,3,0)
  ShowMessageFace("bugstaff_fc1",0,0,2,5)
  ShowMessage("\\n<Bugstaves>Ehehe...")
  355("interrupt_skill(3295)")
  EndEventProcessing()
  0()
 EndIf()
 If(1,11,0,4,0)
  ShowMessageFace("bugstaff_fc1",0,0,2,6)
  ShowMessage("\\n<Bugstaves>This kid got lost.\nCould you please help?")
  250(bytes(0x04,0x08,0x6f,0x3a,0x0c,0x52,0x50,0x47,0x3a,0x3a,0x53,0x45,0x08,0x3a,0x0a,0x40,0x6e,0x61,0x6d,0x65,0x49,0x22,0x0a,0x49,0x74,0x65,0x6d,0x31,0x06,0x3a,0x06,0x45,0x54,0x3a,0x0b,0x40,0x70,0x69,0x74,0x63,0x68,0x69,0x69,0x3a,0x0c,0x40,0x76,0x6f,0x6c,0x75,0x6d,0x65,0x69,0x55))
  ChangeInventory_Item(448,0,0,1)
  ShowMessageFace("",0,0,2,7)
  ShowMessage("You obtained a \\ii[448]!")
  EndEventProcessing()
  0()
 EndIf()
 If(1,11,0,5,0)
  ShowMessageFace("bugstaff_fc1",0,0,2,8)
  ShowMessage("\\n<Bugstaves>This is a new spell... Ultra Fire!")
  355("interrupt_skill(3306)")
  EndEventProcessing()
  0()
 EndIf()
 0()
EndIf()
If(1,100,0,232,0)
 If(1,11,0,1,0)
  ShowMessageFace("magistans_fc1",0,0,2,9)
  ShowMessage("\\n<Magi Staens>Everyone, do your best!")
  355("interrupt_skill(3300)")
  EndEventProcessing()
  0()
 EndIf()
 If(1,11,0,2,0)
  ShowMessageFace("magistans_fc1",0,0,2,10)
  ShowMessage("\\n<Magi Staens>Don't you have homework...?")
  ShowMessageFace("",0,0,2,11)
  ShowMessage("The Magi Staens are studying...")
  EndEventProcessing()
  0()
 EndIf()
 If(1,11,0,3,0)
  ShowMessageFace("magistans_fc1",0,0,2,12)
  ShowMessage("\\n<Magi Staens>We will become the strongest magicians!")
  ShowMessageFace("",0,0,2,13)
  ShowMessage("The Magi Staens made a bold declaration!\n...But no one was listening to them.")
  EndEventProcessing()
  0()
 EndIf()
 If(1,11,0,4,0)
  ShowMessageFace("magistans_fc1",0,0,2,14)
  ShowMessage("\\n<Magi Staens>Doesn't this look delicious?")
  ShowMessageFace("",0,0,2,15)
  ShowMessage("The Magi Staens present a gift!")
  250(bytes(0x04,0x08,0x6f,0x3a,0x0c,0x52,0x50,0x47,0x3a,0x3a,0x53,0x45,0x08,0x3a,0x0a,0x40,0x6e,0x61,0x6d,0x65,0x49,0x22,0x0a,0x49,0x74,0x65,0x6d,0x31,0x06,0x3a,0x06,0x45,0x54,0x3a,0x0b,0x40,0x70,0x69,0x74,0x63,0x68,0x69,0x69,0x3a,0x0c,0x40,0x76,0x6f,0x6c,0x75,0x6d,0x65,0x69,0x55))
  ChangeInventory_Item(422,0,0,1)
  ShowMessageFace("",0,0,2,16)
  ShowMessage("You obtain some \\ii[422]!")
  EndEventProcessing()
  0()
 EndIf()
 If(1,11,0,5,0)
  ShowMessageFace("magistans_fc1",0,0,2,17)
  ShowMessage("\\n<Magi Staens>To whom it may concern, my mom is at home.\nI am on a journey...")
  355("interrupt_skill(3286)")
  EndEventProcessing()
  0()
 EndIf()
 0()
EndIf()
If(1,100,0,233,0)
 If(1,11,0,1,0)
  ShowMessageFace("mefist_fc1",2,0,2,18)
  ShowMessage("\\n<Mephisto>It is important to have a frame of mind for battle...")
  ShowMessageFace("",0,0,2,19)
  ShowMessage("Mephisto began preaching!\n...But nobody was listening.")
  EndEventProcessing()
  0()
 EndIf()
 If(1,11,0,2,0)
  ShowMessageFace("mefist_fc1",0,0,2,20)
  ShowMessage("\\n<Mephisto>This is a spell I invented...Super Fire!")
  355("interrupt_skill(3306)")
  EndEventProcessing()
  0()
 EndIf()
 If(1,11,0,3,0)
  ShowMessageFace("mefist_fc1",2,0,2,21)
  ShowMessage("\\n<Mephisto>All the students ever do is talk back and forth with one another...")
  ShowMessageFace("",0,0,2,22)
  ShowMessage("Mephisto is complaining to herself...")
  EndEventProcessing()
  0()
 EndIf()
 If(1,11,0,4,0)
  ShowMessageFace("mefist_fc1",0,0,2,23)
  ShowMessage("\\n<Mephisto>Please take this, it is filled with energy.")
  ShowMessageFace("",0,0,2,24)
  ShowMessage("Mephisto presents a gift!")
  250(bytes(0x04,0x08,0x6f,0x3a,0x0c,0x52,0x50,0x47,0x3a,0x3a,0x53,0x45,0x08,0x3a,0x0a,0x40,0x6e,0x61,0x6d,0x65,0x49,0x22,0x0a,0x49,0x74,0x65,0x6d,0x31,0x06,0x3a,0x06,0x45,0x54,0x3a,0x0b,0x40,0x70,0x69,0x74,0x63,0x68,0x69,0x69,0x3a,0x0c,0x40,0x76,0x6f,0x6c,0x75,0x6d,0x65,0x69,0x55))
  ChangeInventory_Item(328,0,0,1)
  ShowMessageFace("",0,0,2,25)
  ShowMessage("You obtain an \\ii[328]!")
  EndEventProcessing()
  0()
 EndIf()
 If(1,11,0,5,0)
  ShowMessageFace("mefist_fc1",0,0,2,26)
  ShowMessage("\\n<Mephisto>I shall use this ultimate spell I invented...\nUltramephy!")
  ShowMessageFace("",0,0,2,27)
  ShowMessage("Mephisto casts Ultramephy!\n...But nothing happened.")
  EndEventProcessing()
  0()
 EndIf()
 0()
EndIf()
If(1,100,0,234,0)
 If(1,11,0,1,0)
  ShowMessageFace("kamakiri_fc1",0,0,2,28)
  ShowMessage("\\n<Matis>Slash!")
  355("interrupt_skill(3312)")
  EndEventProcessing()
  0()
 EndIf()
 If(1,11,0,2,0)
  ShowMessageFace("kamakiri_fc1",0,0,2,29)
  ShowMessage("\\n<Matis>............")
  ShowMessageFace("",0,0,2,30)
  ShowMessage("Matis makes a sidelong glance...\nHowever, it appeared to be more like a glare!")
  EndEventProcessing()
  0()
 EndIf()
 If(1,11,0,3,0)
  ShowMessageFace("kamakiri_fc1",0,0,2,31)
  ShowMessage("\\n<Matis>Heeheehee...!!")
  355("interrupt_skill(3292)")
  EndEventProcessing()
  0()
 EndIf()
 If(1,11,0,4,0)
  ShowMessageFace("kamakiri_fc1",1,0,2,32)
  ShowMessage("\\n<Matis>I caught this...")
  ShowMessageFace("",0,0,2,33)
  ShowMessage("Matis presents a gift!")
  250(bytes(0x04,0x08,0x6f,0x3a,0x0c,0x52,0x50,0x47,0x3a,0x3a,0x53,0x45,0x08,0x3a,0x0a,0x40,0x6e,0x61,0x6d,0x65,0x49,0x22,0x0a,0x49,0x74,0x65,0x6d,0x31,0x06,0x3a,0x06,0x45,0x54,0x3a,0x0b,0x40,0x70,0x69,0x74,0x63,0x68,0x69,0x69,0x3a,0x0c,0x40,0x76,0x6f,0x6c,0x75,0x6d,0x65,0x69,0x55))
  ChangeInventory_Item(448,0,0,1)
  ShowMessageFace("",0,0,2,34)
  ShowMessage("You obtain a \\ii[448]!")
  EndEventProcessing()
  0()
 EndIf()
 If(1,11,0,5,0)
  ShowMessageFace("kamakiri_fc1",1,0,2,35)
  ShowMessage("\\n<Matis>Heehee...")
  355("interrupt_skill(3288)")
  EndEventProcessing()
  0()
 EndIf()
 0()
EndIf()
If(1,100,0,235,0)
 If(1,11,0,1,0)
  ShowMessageFace("kaiko_fc1",0,0,2,36)
  ShowMessage("\\n<Silk>Ufufu...")
  355("interrupt_skill(3296)")
  EndEventProcessing()
  0()
 EndIf()
 If(1,11,0,2,0)
  ShowMessageFace("kaiko_fc1",0,0,2,37)
  ShowMessage("\\n<Silk>I like to take it easy in a while...")
  ShowMessageFace("",0,0,2,38)
  ShowMessage("Silk is knitting...")
  EndEventProcessing()
  0()
 EndIf()
 If(1,11,0,3,0)
  ShowMessageFace("kaiko_fc1",0,0,2,39)
  ShowMessage("\\n<Silk>Don't you think I'm fluffy...?")
  ShowMessageFace("",0,0,2,40)
  ShowMessage("Silk is talking to someone...\nBut no one responded!")
  EndEventProcessing()
  0()
 EndIf()
 If(1,11,0,4,0)
  ShowMessageFace("kaiko_fc1",2,0,2,41)
  ShowMessage("\\n<Silk>Ah, I have no time for this...")
  ShowMessageFace("",0,0,2,42)
  ShowMessage("Silk is pulling weeds...")
  250(bytes(0x04,0x08,0x6f,0x3a,0x0c,0x52,0x50,0x47,0x3a,0x3a,0x53,0x45,0x08,0x3a,0x0a,0x40,0x6e,0x61,0x6d,0x65,0x49,0x22,0x0a,0x49,0x74,0x65,0x6d,0x31,0x06,0x3a,0x06,0x45,0x54,0x3a,0x0b,0x40,0x70,0x69,0x74,0x63,0x68,0x69,0x69,0x3a,0x0c,0x40,0x76,0x6f,0x6c,0x75,0x6d,0x65,0x69,0x55))
  ChangeInventory_Item(445,0,0,1)
  ShowMessageFace("",0,0,2,43)
  ShowMessage("You obtain some \\ii[445]!")
  EndEventProcessing()
  0()
 EndIf()
 If(1,11,0,5,0)
  ShowMessageFace("kaiko_fc1",0,0,2,44)
  ShowMessage("\\n<Silk>This is a strange seed I picked up earlier...")
  355("interrupt_skill(3299)")
  EndEventProcessing()
  0()
 EndIf()
 0()
EndIf()
If(1,100,0,236,0)
 If(1,11,0,1,0)
  ShowMessageFace("plantwin_fc1",0,0,2,45)
  ShowMessage("\\n<Plantwins>Let's relax...")
  ShowMessageFace("",0,0,2,46)
  ShowMessage("The Plantwins are laying on the ground sunbathing...")
  EndEventProcessing()
  0()
 EndIf()
 If(1,11,0,2,0)
  ShowMessageFace("plantwin_fc1",0,0,2,47)
  ShowMessage("\\n<Plantwins>Taste our floral aroma...")
  355("interrupt_skill(2922)")
  EndEventProcessing()
  0()
 EndIf()
 If(1,11,0,3,0)
  ShowMessageFace("plantwin_fc1",0,0,2,48)
  ShowMessage("\\n<Plantwins>Shall we rest for a bit...?")
  313(0,236,0,11)
  ShowMessageFace("",0,0,2,49)
  ShowMessage("The Plantwins fell asleep...")
  EndEventProcessing()
  0()
 EndIf()
 If(1,11,0,4,0)
  ShowMessageFace("plantwin_fc1",0,0,2,50)
  ShowMessage("\\n<Plantwins>These are fresh vegetables.")
  ShowMessageFace("",0,0,2,51)
  ShowMessage("The Plantwins present a gift!")
  250(bytes(0x04,0x08,0x6f,0x3a,0x0c,0x52,0x50,0x47,0x3a,0x3a,0x53,0x45,0x08,0x3a,0x0a,0x40,0x6e,0x61,0x6d,0x65,0x49,0x22,0x0a,0x49,0x74,0x65,0x6d,0x31,0x06,0x3a,0x06,0x45,0x54,0x3a,0x0b,0x40,0x70,0x69,0x74,0x63,0x68,0x69,0x69,0x3a,0x0c,0x40,0x76,0x6f,0x6c,0x75,0x6d,0x65,0x69,0x55))
  ChangeInventory_Item(307,0,0,1)
  ShowMessageFace("",0,0,2,52)
  ShowMessage("You obtain a \\ii[307]!")
  EndEventProcessing()
  0()
 EndIf()
 If(1,11,0,5,0)
  ShowMessageFace("plantwin_fc1",0,0,2,53)
  ShowMessage("\\n<Plantwins>Let's plant these strange seeds...")
  355("interrupt_skill(3299)")
  EndEventProcessing()
  0()
 EndIf()
 0()
EndIf()
If(1,100,0,237,0)
 If(1,11,0,1,0)
  ShowMessageFace("alplants_fc1",0,0,2,54)
  ShowMessage("\\n<Alplants>Flowers♪ Mushrooms♪")
  ShowMessageFace("",0,0,2,55)
  ShowMessage("The Alplants are singing a song...")
  EndEventProcessing()
  0()
 EndIf()
 If(1,11,0,2,0)
  ShowMessageFace("alplants_fc1",2,0,2,56)
  ShowMessage("\\n<Alplants>Hey, what's up?")
  ShowMessageFace("",0,0,2,57)
  ShowMessage("The Alplants are looking after each other...")
  EndEventProcessing()
  0()
 EndIf()
 If(1,11,0,3,0)
  ShowMessageFace("alplants_fc1",0,0,2,58)
  ShowMessage("\\n<Alplants>So, we're going to secretly scatter spores around the town...")
  ShowMessageFace("",0,0,2,59)
  ShowMessage("The Alplants are scheming something...")
  EndEventProcessing()
  0()
 EndIf()
 If(1,11,0,4,0)
  ShowMessageFace("alplants_fc1",0,0,2,60)
  ShowMessage("\\n<Alplants>Eat this, and become our seedbed!")
  ShowMessageFace("",0,0,2,61)
  ShowMessage("The Alplants present a gift!")
  250(bytes(0x04,0x08,0x6f,0x3a,0x0c,0x52,0x50,0x47,0x3a,0x3a,0x53,0x45,0x08,0x3a,0x0a,0x40,0x6e,0x61,0x6d,0x65,0x49,0x22,0x0a,0x49,0x74,0x65,0x6d,0x31,0x06,0x3a,0x06,0x45,0x54,0x3a,0x0b,0x40,0x70,0x69,0x74,0x63,0x68,0x69,0x69,0x3a,0x0c,0x40,0x76,0x6f,0x6c,0x75,0x6d,0x65,0x69,0x55))
  ChangeInventory_Item(318,0,0,1)
  ShowMessageFace("",0,0,2,62)
  ShowMessage("You obtain a \\ii[318]!")
  EndEventProcessing()
  0()
 EndIf()
 If(1,11,0,5,0)
  ShowMessageFace("alplants_fc1",0,0,2,63)
  ShowMessage("\\n<Alplants>Let's plant these extra seeds!")
  355("interrupt_skill(3299)")
  EndEventProcessing()
  0()
 EndIf()
 0()
EndIf()
If(1,100,0,238,0)
 If(1,11,0,1,0)
  ShowMessageFace("dorothy_fc1",0,0,2,64)
  ShowMessage("\\n<Dorothy>I'm hungry...\nI'd like to eat people once in a while...")
  ShowMessageFace("",0,0,2,65)
  ShowMessage("Dorothy is complaining to herself...")
  EndEventProcessing()
  0()
 EndIf()
 If(1,11,0,2,0)
  ShowMessageFace("dorothy_fc1",0,0,2,66)
  ShowMessage("\\n<Dorothy>I have to photosynthesize once in a while...")
  ShowMessageFace("",0,0,2,67)
  ShowMessage("Dorothy is laying on the ground sunbathing...")
  EndEventProcessing()
  0()
 EndIf()
 If(1,11,0,3,0)
  ShowMessageFace("dorothy_fc1",0,0,2,68)
  ShowMessage("\\n<Dorothy>I can't go on like this!")
  ShowMessageFace("",0,0,2,69)
  ShowMessage("Dorothy ran away!\n...But she didn't know the way and soon came back.")
  EndEventProcessing()
  0()
 EndIf()
 If(1,11,0,4,0)
  ShowMessageFace("dorothy_fc1",0,0,2,70)
  ShowMessage("\\n<Dorothy>Please eat this...")
  ShowMessageFace("",0,0,2,71)
  ShowMessage("Dorothy presents a gift!")
  250(bytes(0x04,0x08,0x6f,0x3a,0x0c,0x52,0x50,0x47,0x3a,0x3a,0x53,0x45,0x08,0x3a,0x0a,0x40,0x6e,0x61,0x6d,0x65,0x49,0x22,0x0a,0x49,0x74,0x65,0x6d,0x31,0x06,0x3a,0x06,0x45,0x54,0x3a,0x0b,0x40,0x70,0x69,0x74,0x63,0x68,0x69,0x69,0x3a,0x0c,0x40,0x76,0x6f,0x6c,0x75,0x6d,0x65,0x69,0x55))
  ChangeInventory_Item(302,0,0,1)
  ShowMessageFace("",0,0,2,72)
  ShowMessage("You obtain a \\ii[302]!")
  EndEventProcessing()
  0()
 EndIf()
 If(1,11,0,5,0)
  ShowMessageFace("dorothy_fc1",0,0,2,73)
  ShowMessage("\\n<Dorothy>I'll make you dissolve in my digestive juices...")
  355("interrupt_skill(2646)")
  EndEventProcessing()
  0()
 EndIf()
 0()
EndIf()
If(1,100,0,239,0)
 If(1,11,0,1,0)
  ShowMessageFace("rafi_fc1",0,0,2,74)
  ShowMessage("\\n<Raffia>Be immersed in the ecstasy of my sweet aroma...")
  355("interrupt_skill(2921)")
  EndEventProcessing()
  0()
 EndIf()
 If(1,11,0,2,0)
  ShowMessageFace("rafi_fc1",0,0,2,75)
  ShowMessage("\\n<Raffia>Ufufufu...")
  ShowMessageFace("",0,0,2,76)
  ShowMessage("Raffia is giggling...")
  EndEventProcessing()
  0()
 EndIf()
 If(1,11,0,3,0)
  ShowMessageFace("rafi_fc1",1,0,2,77)
  ShowMessage("\\n<Raffia>Ah, I accidentally breathed in my aroma...")
  313(0,239,0,25)
  ShowMessageFace("",0,0,2,78)
  ShowMessage("Raffia was soaked in ecstasy...")
  EndEventProcessing()
  0()
 EndIf()
 If(1,11,0,4,0)
  ShowMessageFace("rafi_fc1",0,0,2,79)
  ShowMessage("\\n<Raffia>Please have these melted leftovers...")
  ShowMessageFace("",0,0,2,80)
  ShowMessage("Raffia presents a gift!")
  250(bytes(0x04,0x08,0x6f,0x3a,0x0c,0x52,0x50,0x47,0x3a,0x3a,0x53,0x45,0x08,0x3a,0x0a,0x40,0x6e,0x61,0x6d,0x65,0x49,0x22,0x0a,0x49,0x74,0x65,0x6d,0x31,0x06,0x3a,0x06,0x45,0x54,0x3a,0x0b,0x40,0x70,0x69,0x74,0x63,0x68,0x69,0x69,0x3a,0x0c,0x40,0x76,0x6f,0x6c,0x75,0x6d,0x65,0x69,0x55))
  ChangeInventory_Item(444,0,0,1)
  ShowMessageFace("",0,0,2,81)
  ShowMessage("You obtain a \\ii[444]!")
  EndEventProcessing()
  0()
 EndIf()
 If(1,11,0,5,0)
  ShowMessageFace("rafi_fc1",0,0,2,82)
  ShowMessage("\\n<Raffia>Now, I'll melt you...")
  355("interrupt_skill(2646)")
  EndEventProcessing()
  0()
 EndIf()
 0()
EndIf()
If(1,100,0,240,0)
 If(1,11,0,1,0)
  ShowMessageFace("dina_fc1",0,0,2,83)
  ShowMessage("\\n<Deana>I'm bored...")
  ShowMessageFace("",0,0,2,84)
  ShowMessage("Deana is in a daze...")
  EndEventProcessing()
  0()
 EndIf()
 If(1,11,0,2,0)
  ShowMessageFace("dina_fc1",0,0,2,85)
  ShowMessage("\\n<Deana>I'm worried about the savageness of my younger sisters...")
  ShowMessageFace("",0,0,2,86)
  ShowMessage("Deana is complaining to herself.")
  EndEventProcessing()
  0()
 EndIf()
 If(1,11,0,3,0)
  ShowMessageFace("dina_fc1",0,0,2,87)
  ShowMessage("\\n<Deana>Hmph, do the best you can...")
  ShowMessageFace("",0,0,2,88)
  ShowMessage("Deana is cheering for everyone!\n...But nobody heard her.")
  EndEventProcessing()
  0()
 EndIf()
 If(1,11,0,4,0)
  ShowMessageFace("dina_fc1",0,0,2,89)
  ShowMessage("\\n<Deana>Here, please eat this...")
  ShowMessageFace("",0,0,2,90)
  ShowMessage("Deana presents a gift!")
  250(bytes(0x04,0x08,0x6f,0x3a,0x0c,0x52,0x50,0x47,0x3a,0x3a,0x53,0x45,0x08,0x3a,0x0a,0x40,0x6e,0x61,0x6d,0x65,0x49,0x22,0x0a,0x49,0x74,0x65,0x6d,0x31,0x06,0x3a,0x06,0x45,0x54,0x3a,0x0b,0x40,0x70,0x69,0x74,0x63,0x68,0x69,0x69,0x3a,0x0c,0x40,0x76,0x6f,0x6c,0x75,0x6d,0x65,0x69,0x55))
  ChangeInventory_Item(329,0,0,1)
  ShowMessageFace("",0,0,2,91)
  ShowMessage("You obtain some \\ii[329]!")
  EndEventProcessing()
  0()
 EndIf()
 If(1,11,0,5,0)
  ShowMessageFace("dina_fc1",0,0,2,92)
  ShowMessage("\\n<Deana>Be covered in my digestive juices...")
  355("interrupt_skill(2646)")
  EndEventProcessing()
  0()
 EndIf()
 0()
EndIf()
0()
