// EVENT 7052
Name "Louis: Match"

ChangeSwitch(96,96,0)
ChangeSwitch(98,98,0)
ShowMessageFace("mob_touzoku_fc1",0,0,2,1)
ShowMessage("\\n<Louise>All righty then, I'll make ya come.\nMy hands are trained in thief skills, you won't stand a chance.")
250(bytes(0x04,0x08,0x6f,0x3a,0x0c,0x52,0x50,0x47,0x3a,0x3a,0x53,0x45,0x08,0x3a,0x0a,0x40,0x6e,0x61,0x6d,0x65,0x49,0x22,0x12,0x6d,0x6f,0x6e,0x5f,0x65,0x72,0x6f,0x5f,0x6b,0x6f,0x6b,0x69,0x31,0x06,0x3a,0x06,0x45,0x54,0x3a,0x0b,0x40,0x70,0x69,0x74,0x63,0x68,0x69,0x69,0x3a,0x0c,0x40,0x76,0x6f,0x6c,0x75,0x6d,0x65,0x69,0x69))
PictureDisplay(5,"ev_mob_touzoku_h1",0,0,0,0,100,100,255,0)
ChangeVariable(11,11,0,2,16,18)
311(0,1,1,1,11,true)
ShowMessageFace("",0,0,2,2)
ShowMessage("Louise starts to gently stroke Luka's penis!\\D")
ShowMessage("Luka takes \\V[11] damage!")
ChangeVariable(27,27,0,3,3,1,2)
If(1,27,0,0,0)
 RunCommonEvent(7053)
 EndEventProcessing()
 0()
EndIf()
250(bytes(0x04,0x08,0x6f,0x3a,0x0c,0x52,0x50,0x47,0x3a,0x3a,0x53,0x45,0x08,0x3a,0x0a,0x40,0x6e,0x61,0x6d,0x65,0x49,0x22,0x12,0x6d,0x6f,0x6e,0x5f,0x65,0x72,0x6f,0x5f,0x6b,0x6f,0x6b,0x69,0x31,0x06,0x3a,0x06,0x45,0x54,0x3a,0x0b,0x40,0x70,0x69,0x74,0x63,0x68,0x69,0x69,0x3a,0x0c,0x40,0x76,0x6f,0x6c,0x75,0x6d,0x65,0x69,0x69))
ChangeVariable(11,11,0,2,16,18)
311(0,1,1,1,11,true)
ShowMessageFace("",0,0,2,3)
ShowMessage("Louise grabs hold of Luka's shaft!")
ShowMessage("Her hand moves up and down rapidly!\\D")
ShowMessage("Luka takes \\V[11] damage!")
ChangeVariable(27,27,0,3,3,1,2)
If(1,27,0,0,0)
 RunCommonEvent(7053)
 EndEventProcessing()
 0()
EndIf()
ShowMessageFace("mob_touzoku_fc1",0,0,2,4)
ShowMessage("\\n<Louise>Now for some finger skills.\nIt's more than just a normal handjob!")
250(bytes(0x04,0x08,0x6f,0x3a,0x0c,0x52,0x50,0x47,0x3a,0x3a,0x53,0x45,0x08,0x3a,0x0a,0x40,0x6e,0x61,0x6d,0x65,0x49,0x22,0x12,0x6d,0x6f,0x6e,0x5f,0x65,0x72,0x6f,0x5f,0x6b,0x6f,0x6b,0x69,0x31,0x06,0x3a,0x06,0x45,0x54,0x3a,0x0b,0x40,0x70,0x69,0x74,0x63,0x68,0x69,0x69,0x3a,0x0c,0x40,0x76,0x6f,0x6c,0x75,0x6d,0x65,0x69,0x69))
ChangeVariable(11,11,0,2,16,18)
311(0,1,1,1,11,true)
ShowMessageFace("",0,0,2,5)
ShowMessage("Louise deftly fingers the tip of Luka's penis!\\D")
ShowMessage("Luka takes \\V[11] damage!")
ChangeVariable(27,27,0,3,3,1,2)
If(1,27,0,0,0)
 RunCommonEvent(7054)
 EndEventProcessing()
 0()
EndIf()
ShowMessageFace("mob_touzoku_fc1",0,0,2,6)
ShowMessage("\\n<Louise>Haha, time to play with the tip.\nJust like this, tickling...")
250(bytes(0x04,0x08,0x6f,0x3a,0x0c,0x52,0x50,0x47,0x3a,0x3a,0x53,0x45,0x08,0x3a,0x0a,0x40,0x6e,0x61,0x6d,0x65,0x49,0x22,0x12,0x6d,0x6f,0x6e,0x5f,0x65,0x72,0x6f,0x5f,0x6b,0x6f,0x6b,0x69,0x31,0x06,0x3a,0x06,0x45,0x54,0x3a,0x0b,0x40,0x70,0x69,0x74,0x63,0x68,0x69,0x69,0x3a,0x0c,0x40,0x76,0x6f,0x6c,0x75,0x6d,0x65,0x69,0x69))
ChangeVariable(11,11,0,2,16,18)
311(0,1,1,1,11,true)
ShowMessageFace("",0,0,2,7)
ShowMessage("Her five fingers crawl around his glans!")
ShowMessage("The ticklish sensation stimulates Luka!\\D")
ShowMessage("Luka takes \\V[11] damage!")
ChangeVariable(27,27,0,3,3,1,2)
If(1,27,0,0,0)
 RunCommonEvent(7054)
 EndEventProcessing()
 0()
EndIf()
ShowMessageFace("mob_touzoku_fc1",0,0,2,8)
ShowMessage("\\n<Louise>Looks like my fingering skills are effective.\nYou can't take the ticklish sensation, can you?")
250(bytes(0x04,0x08,0x6f,0x3a,0x0c,0x52,0x50,0x47,0x3a,0x3a,0x53,0x45,0x08,0x3a,0x0a,0x40,0x6e,0x61,0x6d,0x65,0x49,0x22,0x12,0x6d,0x6f,0x6e,0x5f,0x65,0x72,0x6f,0x5f,0x6b,0x6f,0x6b,0x69,0x31,0x06,0x3a,0x06,0x45,0x54,0x3a,0x0b,0x40,0x70,0x69,0x74,0x63,0x68,0x69,0x69,0x3a,0x0c,0x40,0x76,0x6f,0x6c,0x75,0x6d,0x65,0x69,0x69))
ChangeVariable(11,11,0,2,16,18)
311(0,1,1,1,11,true)
ShowMessageFace("",0,0,2,9)
ShowMessage("Louise tickles the tip of Luka's penis!")
ShowMessage("She traces her fingertips around the neck of Luka's penis!\\D")
ShowMessage("Luka takes \\V[11] damage!")
ChangeVariable(27,27,0,3,3,1,2)
If(1,27,0,0,0)
 RunCommonEvent(7054)
 EndEventProcessing()
 0()
EndIf()
If(1,27,0,85,4)
 ShowMessageFace("ruka_fc1",0,0,2,10)
 ShowMessage("\\n<Luka>Ah, aaah...!")
 ShowMessageFace("mob_touzoku_fc1",0,0,2,11)
 ShowMessage("\\n<Louise>Men always struggle against my technique...\nThey just let loose, and come all over my hands.")
 ShowMessageFace("mob_touzoku_fc1",0,0,2,12)
 ShowMessage("\\n<Louise>You'll join them soon enough!")
 0()
Else()
 ShowMessageFace("mob_touzoku_fc1",0,0,2,13)
 ShowMessage("\\n<Louise>Heh, you seem to be enduring.\nThen how about this?")
 0()
EndIf()
250(bytes(0x04,0x08,0x6f,0x3a,0x0c,0x52,0x50,0x47,0x3a,0x3a,0x53,0x45,0x08,0x3a,0x0a,0x40,0x6e,0x61,0x6d,0x65,0x49,0x22,0x12,0x6d,0x6f,0x6e,0x5f,0x65,0x72,0x6f,0x5f,0x6b,0x6f,0x6b,0x69,0x31,0x06,0x3a,0x06,0x45,0x54,0x3a,0x0b,0x40,0x70,0x69,0x74,0x63,0x68,0x69,0x69,0x3a,0x0c,0x40,0x76,0x6f,0x6c,0x75,0x6d,0x65,0x69,0x69))
ChangeVariable(11,11,0,2,16,18)
311(0,1,1,1,11,true)
ShowMessageFace("",0,0,2,14)
ShowMessage("Louise's fingers pick up speed across Luka's tip!")
ShowMessage("The rising stimulation assaults Luka!\\D")
ShowMessage("Luka takes \\V[11] damage!")
ChangeVariable(27,27,0,3,3,1,2)
If(1,27,0,0,0)
 RunCommonEvent(7054)
 EndEventProcessing()
 0()
EndIf()
ShowMessageFace("mob_touzoku_fc1",0,0,2,15)
ShowMessage("\\n<Louise>Come on now, isn't this your weak point!?\nBe happy, because I'm gonna give you plenty!")
250(bytes(0x04,0x08,0x6f,0x3a,0x0c,0x52,0x50,0x47,0x3a,0x3a,0x53,0x45,0x08,0x3a,0x0a,0x40,0x6e,0x61,0x6d,0x65,0x49,0x22,0x12,0x6d,0x6f,0x6e,0x5f,0x65,0x72,0x6f,0x5f,0x6b,0x6f,0x6b,0x69,0x31,0x06,0x3a,0x06,0x45,0x54,0x3a,0x0b,0x40,0x70,0x69,0x74,0x63,0x68,0x69,0x69,0x3a,0x0c,0x40,0x76,0x6f,0x6c,0x75,0x6d,0x65,0x69,0x69))
ChangeVariable(11,11,0,2,16,18)
311(0,1,1,1,11,true)
ShowMessageFace("",0,0,2,16)
ShowMessage("Louise's fingers trace up and down the back of Luka's penis!")
ShowMessage("Her soft fingers run all over Luka's penis!\\D")
ShowMessage("Luka takes \\V[11] damage!")
ChangeVariable(27,27,0,3,3,1,2)
If(1,27,0,0,0)
 RunCommonEvent(7054)
 EndEventProcessing()
 0()
EndIf()
ShowMessageFace("mob_touzoku_fc1",0,0,2,17)
ShowMessage("\\n<Louise>This part feels good, doesn't it?\nYou can't escape from this pleasure!")
250(bytes(0x04,0x08,0x6f,0x3a,0x0c,0x52,0x50,0x47,0x3a,0x3a,0x53,0x45,0x08,0x3a,0x0a,0x40,0x6e,0x61,0x6d,0x65,0x49,0x22,0x12,0x6d,0x6f,0x6e,0x5f,0x65,0x72,0x6f,0x5f,0x6b,0x6f,0x6b,0x69,0x31,0x06,0x3a,0x06,0x45,0x54,0x3a,0x0b,0x40,0x70,0x69,0x74,0x63,0x68,0x69,0x69,0x3a,0x0c,0x40,0x76,0x6f,0x6c,0x75,0x6d,0x65,0x69,0x69))
ChangeVariable(11,11,0,2,16,18)
311(0,1,1,1,11,true)
ShowMessageFace("",0,0,2,18)
ShowMessage("Louise's fingers trace around the neck of Luka's glans!")
ShowMessage("She plays with the mushroom-like tip all over!\\D")
ShowMessage("Luka takes \\V[11] damage!")
ChangeVariable(27,27,0,3,3,1,2)
If(1,27,0,0,0)
 RunCommonEvent(7054)
 EndEventProcessing()
 0()
EndIf()
ShowMessageFace("mob_touzoku_fc1",0,0,2,19)
ShowMessage("\\n<Louise>Haha, pre-come is leaking out!\nDoes this little hole want to be teased too?")
250(bytes(0x04,0x08,0x6f,0x3a,0x0c,0x52,0x50,0x47,0x3a,0x3a,0x53,0x45,0x08,0x3a,0x0a,0x40,0x6e,0x61,0x6d,0x65,0x49,0x22,0x12,0x6d,0x6f,0x6e,0x5f,0x65,0x72,0x6f,0x5f,0x6b,0x6f,0x6b,0x69,0x31,0x06,0x3a,0x06,0x45,0x54,0x3a,0x0b,0x40,0x70,0x69,0x74,0x63,0x68,0x69,0x69,0x3a,0x0c,0x40,0x76,0x6f,0x6c,0x75,0x6d,0x65,0x69,0x69))
ChangeVariable(11,11,0,2,16,18)
311(0,1,1,1,11,true)
ShowMessageFace("",0,0,2,20)
ShowMessage("Louise touches Luka's urethral opening with her pinky tip!")
ShowMessage("His sensitive tip is stimulated!\\D")
ShowMessage("Luka takes \\V[11] damage!")
ChangeVariable(27,27,0,3,3,1,2)
If(1,27,0,0,0)
 RunCommonEvent(7054)
 EndEventProcessing()
 0()
EndIf()
ShowMessageFace("mob_touzoku_fc1",0,0,2,21)
ShowMessage("\\n<Louise>This is the finish!\nI'll run my fingers all over you...")
250(bytes(0x04,0x08,0x6f,0x3a,0x0c,0x52,0x50,0x47,0x3a,0x3a,0x53,0x45,0x08,0x3a,0x0a,0x40,0x6e,0x61,0x6d,0x65,0x49,0x22,0x12,0x6d,0x6f,0x6e,0x5f,0x65,0x72,0x6f,0x5f,0x6b,0x6f,0x6b,0x69,0x31,0x06,0x3a,0x06,0x45,0x54,0x3a,0x0b,0x40,0x70,0x69,0x74,0x63,0x68,0x69,0x69,0x3a,0x0c,0x40,0x76,0x6f,0x6c,0x75,0x6d,0x65,0x69,0x69))
ChangeVariable(11,11,0,2,16,18)
311(0,1,1,1,11,true)
ShowMessageFace("",0,0,2,22)
ShowMessage("Louise uses all fiver fingers to rub Luka's penis!")
ShowMessage("A sweet sensation overwhlems Luka's penis!\\D")
ShowMessage("Luka takes \\V[11] damage!")
ChangeVariable(27,27,0,3,3,1,2)
If(1,27,0,0,0)
 RunCommonEvent(7054)
 EndEventProcessing()
 0()
EndIf()
RunCommonEvent(7056)
EndEventProcessing()
0()
