﻿// EVENT 1498
Name "会話：カサンドラ"

If(1,20,0,1,0)
 JumpToLabel("情報")
 0()
EndIf()
If(1,20,0,2,0)
 JumpToLabel("質問")
 0()
EndIf()
If(1,20,0,3,0)
 JumpToLabel("要求")
 0()
EndIf()
If(1,20,0,4,0)
 JumpToLabel("贈与")
 0()
EndIf()
DefineLabel("情報")
ChangeVariable(13,13,0,2,1,100)
If(1,13,0,10,2)
 ShowMessageFace("cassandra_fc1",1,0,2,1)
 ShowMessage("【カサンドラ】")
 ShowMessage("体に力が漲ります、うふふっ……")
 EndEventProcessing()
 0()
EndIf()
If(1,13,0,20,2)
 ShowMessageFace("cassandra_fc1",1,0,2,2)
 ShowMessage("【カサンドラ】")
 ShowMessage("うふふっ、私と遊びたいのですか……？")
 EndEventProcessing()
 0()
EndIf()
If(1,13,0,30,2)
 ShowMessageFace("cassandra_fc1",0,0,2,3)
 ShowMessage("【カサンドラ】")
 ShowMessage("アイドルなどに未練はありません。")
 ShowMessage("ありませんとも……")
 EndEventProcessing()
 0()
EndIf()
If(1,13,0,40,2)
 ShowMessageFace("cassandra_fc1",2,0,2,4)
 ShowMessage("【カサンドラ】")
 ShowMessage("アリスフィーズ17世……凄まじい力でした。")
 ShowMessage("そしてあの者は、確かに魔王の血脈のようです……")
 EndEventProcessing()
 0()
EndIf()
If(1,13,0,50,2)
 ShowMessageFace("cassandra_fc1",0,0,2,5)
 ShowMessage("【カサンドラ】")
 ShowMessage("せっかく覚えた歌も踊りも無駄に……")
 ShowMessage("……いえ、未練はありません。")
 EndEventProcessing()
 0()
EndIf()
If(1,13,0,60,2)
 ShowMessageFace("cassandra_fc1",1,0,2,6)
 ShowMessage("【カサンドラ】")
 ShowMessage("私の粘肉で包み込んで……")
 ShowMessage("精液を搾り尽くして差し上げますからね。")
 EndEventProcessing()
 0()
EndIf()
If(1,13,0,70,2)
 ShowMessageFace("cassandra_fc1",1,0,2,7)
 ShowMessage("【カサンドラ】")
 ShowMessage("粘肉で包み、快楽を与えましょう……")
 ShowMessage("そのまま消化してあげてもいいのですよ。")
 EndEventProcessing()
 0()
EndIf()
If(1,13,0,80,2)
 ShowMessageFace("cassandra_fc1",1,0,2,8)
 ShowMessage("【カサンドラ】")
 ShowMessage("やはり、馴染んだ肉体は良いものですね。")
 ShowMessage("ヤングな体も、悪くはありませんが……")
 EndEventProcessing()
 0()
EndIf()
If(1,13,0,90,2)
 ShowMessageFace("cassandra_fc1",1,0,2,9)
 ShowMessage("【カサンドラ】")
 ShowMessage("ついに取り戻した、本来の力……")
 ShowMessage("存分に振る舞って差し上げましょう。")
 EndEventProcessing()
 0()
EndIf()
If(1,13,0,100,2)
 ShowMessageFace("cassandra_fc1",0,0,2,10)
 ShowMessage("【カサンドラ】")
 ShowMessage("今の姿では、用意した衣装も……")
 ShowMessage("いえ、何でもありません。")
 EndEventProcessing()
 0()
EndIf()
DefineLabel("質問")
ChangeVariable(13,13,0,2,1,50)
If(1,13,0,10,2)
 ShowMessageFace("cassandra_fc1",1,0,2,11)
 ShowMessage("【カサンドラ】")
 ShowMessage("私の粘肉ドレス、素敵でしょう……？")
 ShowChoices(strings("素敵だ","ヤングだ","微妙だ"),0)
 IfPlayerPicksChoice(0,"素敵だ")
  ShowMessageFace("cassandra_fc1",1,0,2,12)
  ShowMessage("【カサンドラ】")
  ShowMessage("このドレスも、私の体の一部なのですよ。")
  ShowMessage("たっぷり包んであげますからね……♪")
  355("change_friend(10)")
  0()
 IfPlayerPicksChoice(1,"ヤングだ")
  ShowMessageFace("cassandra_fc1",1,0,2,13)
  ShowMessage("【カサンドラ】")
  ShowMessage("まあ、ヤングだなんて……うふふっ。")
  355("change_friend(10)")
  0()
 IfPlayerPicksChoice(2,"微妙だ")
  ShowMessageFace("cassandra_fc1",2,0,2,14)
  ShowMessage("【カサンドラ】")
  ShowMessage("無礼ですね……")
  355("change_friend(-5)")
  0()
 404()
 EndEventProcessing()
 0()
EndIf()
If(1,13,0,20,2)
 ShowMessageFace("cassandra_fc1",1,0,2,15)
 ShowMessage("【カサンドラ】")
 ShowMessage("今の体と前の体、どちらが良いですか……？")
 ShowChoices(strings("今の体","前の体","両方"),0)
 IfPlayerPicksChoice(0,null)
  ShowMessageFace("cassandra_fc1",0,0,2,16)
  ShowMessage("【カサンドラ】")
  ShowMessage("そうでしょう。")
  ShowMessage("やはり、この体こそが……")
  0()
 IfPlayerPicksChoice(1,null)
  ShowMessageFace("cassandra_fc1",0,0,2,17)
  ShowMessage("【カサンドラ】")
  ShowMessage("そうですか……")
  ShowMessage("あの体も、やはり悪くは……")
  0()
 IfPlayerPicksChoice(2,null)
  ShowMessageFace("cassandra_fc1",1,0,2,18)
  ShowMessage("【カサンドラ】")
  ShowMessage("欲張りですねぇ……")
  ShowMessage("欲が深いのは、嫌いではありませんよ。")
  355("change_friend(10)")
  0()
 404()
 EndEventProcessing()
 0()
EndIf()
If(1,13,0,30,2)
 ShowMessageFace("cassandra_fc1",1,0,2,19)
 ShowMessage("【カサンドラ】")
 ShowMessage("あなたに、憧れの者はいますか……？")
 ShowChoices(strings("女神イリアス","魔王アリスフィーズ","黒のアリス"),0)
 IfPlayerPicksChoice(0,"女神イリアス")
  ShowMessageFace("cassandra_fc1",2,0,2,20)
  ShowMessage("【カサンドラ】")
  ShowMessage("女神に憧れるなど……")
  ShowMessage("あなたとは、生涯相容れないようですね。")
  355("change_friend(-5)")
  0()
 IfPlayerPicksChoice(1,"魔王アリスフィーズ")
  ShowMessageFace("cassandra_fc1",2,0,2,21)
  ShowMessage("【カサンドラ】")
  ShowMessage("魔王アリスフィーズ……")
  ShowMessage("かのような者に、憧れる要素など一つとしてありません。")
  355("change_friend(-5)")
  0()
 IfPlayerPicksChoice(2,"黒のアリス")
  ShowMessageFace("cassandra_fc1",1,0,2,22)
  ShowMessage("【カサンドラ】")
  ShowMessage("あなたも黒のアリスに憧れているのですか……")
  ShowMessage("私も、あの方に憧れているのですよ。")
  355("change_friend(10)")
  0()
 404()
 EndEventProcessing()
 0()
EndIf()
If(1,13,0,40,2)
 ShowMessageFace("cassandra_fc1",1,0,2,23)
 ShowMessage("【カサンドラ】")
 ShowMessage("三人の魔王のうち、最も相応しいのは誰だと思いますか……？")
 ShowChoices(strings("アリス15世","アリス17世","黒のアリス"),0)
 IfPlayerPicksChoice(0,"アリス15世")
  ShowMessageFace("cassandra_fc1",2,0,2,24)
  ShowMessage("【カサンドラ】")
  ShowMessage("あのような者が、魔王に相応しいなど……")
  ShowMessage("あなたの目は節穴のようですね。")
  355("change_friend(-5)")
  0()
 IfPlayerPicksChoice(1,"アリス17世")
  ShowMessageFace("cassandra_fc1",2,0,2,25)
  ShowMessage("【カサンドラ】")
  ShowMessage("確かに強力な力を誇っていますが……")
  ShowMessage("叩きのめされた恨みは忘れられませんね。")
  0()
 IfPlayerPicksChoice(2,"黒のアリス")
  ShowMessageFace("cassandra_fc1",1,0,2,26)
  ShowMessage("【カサンドラ】")
  ShowMessage("あなたの見る目は、確かですね。")
  ShowMessage("あの方こそ、最高の魔王でしょう……")
  355("change_friend(10)")
  0()
 404()
 EndEventProcessing()
 0()
EndIf()
If(1,13,0,50,2)
 ShowMessageFace("cassandra_fc1",0,0,2,27)
 ShowMessage("【カサンドラ】")
 ShowMessage("エミリに誘われて、アイドルデビューするつもりでしたが……")
 ShowMessage("どうせ、うまく行かなかったでしょう。")
 ShowChoices(strings("上手くいく","無理だった","年を考えろ"),0)
 IfPlayerPicksChoice(0,null)
  ShowMessageFace("cassandra_fc1",0,0,2,28)
  ShowMessage("【カサンドラ】")
  ShowMessage("ですが、もう私は……")
  355("change_friend(5)")
  0()
 IfPlayerPicksChoice(1,null)
  ShowMessageFace("cassandra_fc1",2,0,2,29)
  ShowMessage("【カサンドラ】")
  ShowMessage("なんと失礼な……！")
  ShowMessage("いえ、もはやアイドルなど興味ありませんが……")
  0()
 IfPlayerPicksChoice(2,null)
  ShowMessageFace("cassandra_fc1",7,0,2,30)
  ShowMessage("【カサンドラ】")
  ShowMessage("も、戻ろうとすれば戻れます！")
  355("change_friend(-5)")
  0()
 404()
 EndEventProcessing()
 0()
EndIf()
DefineLabel("要求")
ChangeVariable(13,13,0,2,1,30)
If(1,13,0,10,2)
 If(8,329)
  ShowMessageFace("cassandra_fc1",1,0,2,31)
  ShowMessage("【カサンドラ】")
  ShowMessage("肉をくれませんか……？")
  ChangeVariable(24,24,0,3,0,329,0)
  ShowMessageFace("",0,0,2,32)
  ShowMessage("「肉」をあげますか？（所持数：\\V[24]）")
  ShowChoices(strings("はい","いいえ"),2)
  IfPlayerPicksChoice(0,"はい")
   ShowMessageFace("cassandra_fc1",1,0,2,33)
   ShowMessage("【カサンドラ】")
   ShowMessage("ふふっ、良い子ですね……")
   ChangeInventory_Item(329,1,0,1)
   355("change_friend(20)")
   EndEventProcessing()
   0()
  IfPlayerPicksChoice(1,"いいえ")
   ShowMessageFace("cassandra_fc1",0,0,2,34)
   ShowMessage("【カサンドラ】")
   ShowMessage("それがあなたの気持ちなのですね……")
   EndEventProcessing()
   0()
  404()
  0()
 Else()
  ChangeVariable(13,13,0,0,20)
  0()
 EndIf()
 0()
EndIf()
If(1,13,0,20,2)
 If(8,376)
  ShowMessageFace("cassandra_fc1",1,0,2,35)
  ShowMessage("【カサンドラ】")
  ShowMessage("ハンバーグって、とっても素敵……")
  ChangeVariable(24,24,0,3,0,376,0)
  ShowMessageFace("",0,0,2,36)
  ShowMessage("「ハンバーグ」をあげますか？（所持数：\\V[24]）")
  ShowChoices(strings("はい","いいえ"),2)
  IfPlayerPicksChoice(0,"はい")
   ShowMessageFace("cassandra_fc1",1,0,2,37)
   ShowMessage("【カサンドラ】")
   ShowMessage("ふふっ、良い子ですね……")
   ChangeInventory_Item(376,1,0,1)
   355("change_friend(30)")
   EndEventProcessing()
   0()
  IfPlayerPicksChoice(1,"いいえ")
   ShowMessageFace("cassandra_fc1",0,0,2,38)
   ShowMessage("【カサンドラ】")
   ShowMessage("それがあなたの気持ちなのですね……")
   EndEventProcessing()
   0()
  404()
  0()
 Else()
  ChangeVariable(13,13,0,0,30)
  0()
 EndIf()
 0()
EndIf()
If(1,13,0,30,2)
 ShowMessageFace("cassandra_fc1",1,0,2,39)
 ShowMessage("【カサンドラ】")
 ShowMessage("遊ぶお金をくれませんか……？")
 If(7,1500,0)
  ChangeVariable(24,24,0,3,7,2,0)
  ShowMessageFace("",0,0,2,40)
  ShowMessage("1500Gをあげますか？（所持金：\\V[24]）")
  ShowChoices(strings("はい","いいえ"),2)
  IfPlayerPicksChoice(0,"はい")
   ShowMessageFace("cassandra_fc1",1,0,2,41)
   ShowMessage("【カサンドラ】")
   ShowMessage("ふふっ、良い子ですね……")
   125(1,0,1500)
   355("change_friend(25)")
   EndEventProcessing()
   0()
  IfPlayerPicksChoice(1,"いいえ")
   ShowMessageFace("cassandra_fc1",0,0,2,42)
   ShowMessage("【カサンドラ】")
   ShowMessage("それがあなたの気持ちなのですね……")
   EndEventProcessing()
   0()
  404()
  0()
 Else()
  ShowMessageFace("cassandra_fc1",0,0,2,43)
  ShowMessage("【カサンドラ】")
  ShowMessage("……甲斐性のない事ですね。")
  EndEventProcessing()
  0()
 EndIf()
 0()
EndIf()
DefineLabel("贈与")
ChangeVariable(13,13,0,2,1,30)
If(1,25,0,1,0)
 ChangeVariable(13,13,0,0,30)
 ChangeVariable(25,25,0,0,0)
 0()
EndIf()
If(1,25,0,2,0)
 ChangeVariable(13,13,0,2,1,20)
 ChangeVariable(25,25,0,0,0)
 0()
EndIf()
If(1,13,0,10,2)
 ShowMessageFace("cassandra_fc1",1,0,2,44)
 ShowMessage("【カサンドラ】")
 ShowMessage("ゼリーをあげましょう、ふふふっ……")
 250(bytes(0x04,0x08,0x6f,0x3a,0x0c,0x52,0x50,0x47,0x3a,0x3a,0x53,0x45,0x08,0x3a,0x0a,0x40,0x6e,0x61,0x6d,0x65,0x49,0x22,0x0a,0x49,0x74,0x65,0x6d,0x31,0x06,0x3a,0x06,0x45,0x54,0x3a,0x0b,0x40,0x70,0x69,0x74,0x63,0x68,0x69,0x69,0x3a,0x0c,0x40,0x76,0x6f,0x6c,0x75,0x6d,0x65,0x69,0x55))
 ChangeInventory_Item(218,0,0,1)
 ShowMessageFace("",0,0,2,45)
 ShowMessage("カサンドラから「ぐにゅぐにゅゼリー」をもらった！")
 EndEventProcessing()
 0()
EndIf()
If(1,13,0,20,2)
 ShowMessageFace("cassandra_fc1",1,0,2,46)
 ShowMessage("【カサンドラ】")
 ShowMessage("薬をあげましょう、ふふふっ……")
 250(bytes(0x04,0x08,0x6f,0x3a,0x0c,0x52,0x50,0x47,0x3a,0x3a,0x53,0x45,0x08,0x3a,0x0a,0x40,0x6e,0x61,0x6d,0x65,0x49,0x22,0x0a,0x49,0x74,0x65,0x6d,0x31,0x06,0x3a,0x06,0x45,0x54,0x3a,0x0b,0x40,0x70,0x69,0x74,0x63,0x68,0x69,0x69,0x3a,0x0c,0x40,0x76,0x6f,0x6c,0x75,0x6d,0x65,0x69,0x55))
 ChangeInventory_Item(22,0,0,1)
 ShowMessageFace("",0,0,2,47)
 ShowMessage("カサンドラから「万能薬」をもらった！")
 EndEventProcessing()
 0()
EndIf()
If(1,13,0,30,2)
 ShowMessageFace("cassandra_fc1",1,0,2,48)
 ShowMessage("【カサンドラ】")
 ShowMessage("お金をあげましょう、ふふふっ……")
 250(bytes(0x04,0x08,0x6f,0x3a,0x0c,0x52,0x50,0x47,0x3a,0x3a,0x53,0x45,0x08,0x3a,0x0a,0x40,0x6e,0x61,0x6d,0x65,0x49,0x22,0x0a,0x49,0x74,0x65,0x6d,0x31,0x06,0x3a,0x06,0x45,0x54,0x3a,0x0b,0x40,0x70,0x69,0x74,0x63,0x68,0x69,0x69,0x3a,0x0c,0x40,0x76,0x6f,0x6c,0x75,0x6d,0x65,0x69,0x55))
 125(0,0,2500)
 ShowMessageFace("",0,0,2,49)
 ShowMessage("カサンドラから2500Gをもらった！")
 EndEventProcessing()
 0()
EndIf()
0()
