﻿// EVENT 0121
Name "Stage 1"

355("ex_choice_add(\"Saki-chan Concert\",1)")
655("ex_choice_add(\"Succubus Show\",2,")
655("\"s[1123] and s[1143] and s[1166] and ")
655("s[1056]\",1)")
655("ex_choice_add(\"Night Parade?\",3,")
655("\"s[1062] and s[1164] and s[1168]\",1)")
655("ex_choice_add(\"Walk on the Wild Side\",4,")
655("\"s[1060] and s[1070] and s[1071] and ")
655("s[1124] and s[1125]\",1)")
655("ex_choice_add(\"Band of Harpies\",5,")
655("\"s[1082] and s[1083] and s[1084] and ")
655("s[1148]\",1)")
355("ex_choice_add(\"Lamia Show\",6,")
655("\"s[1061] and s[1113] and s[1122] and ")
655("s[1151] and s[1152]\",1)")
655("ex_choice_add(\"Friends of the Sea\",7,")
655("\"s[1098] and s[1107] and s[1108] and ")
655("s[1109] and s[1115] and s[1116] and ")
655("s[1117]\",1)")
655("ex_choice_add(\"We're Not Bad Slimes!\",8,")
655("\"s[1053] and s[1054] and s[1110]\",1)")
355("ex_choice_add(\"Bugs\",9,")
655("\"s[1081] and s[1090] and s[1104] and ")
655("s[1127] and s[1140] and s[1145] and ")
655("s[1146] and s[1157] and s[1173]\",1)")
655("ex_choice_add(\"Flower Show\",10,")
655("\"s[1059] and s[1100] and s[1111] and ")
655("s[1147]\",1)")
655("ex_choice_add(\"Cancel\",11)")
355("ex_choice_show(0,11,[0,0])")
If(1,9,0,1,0)
 ChangeSwitch(601,601,0)
 221()
 242(1)
 Wait(60)
 211(0)
 TeleportPlayer(0,639,0,1,0,2)
 222()
 EndEventProcessing()
 0()
EndIf()
If(1,9,0,2,0)
 ChangeSwitch(602,602,0)
 221()
 242(1)
 Wait(60)
 211(0)
 TeleportPlayer(0,639,0,1,0,2)
 222()
 EndEventProcessing()
 0()
EndIf()
If(1,9,0,3,0)
 ChangeSwitch(603,603,0)
 221()
 242(1)
 Wait(60)
 211(0)
 TeleportPlayer(0,639,0,1,0,2)
 222()
 EndEventProcessing()
 0()
EndIf()
If(1,9,0,4,0)
 ChangeSwitch(604,604,0)
 221()
 242(1)
 Wait(60)
 211(0)
 TeleportPlayer(0,639,0,1,0,2)
 222()
 EndEventProcessing()
 0()
EndIf()
If(1,9,0,5,0)
 ChangeSwitch(605,605,0)
 221()
 242(1)
 Wait(60)
 211(0)
 TeleportPlayer(0,639,0,1,0,2)
 222()
 EndEventProcessing()
 0()
EndIf()
If(1,9,0,6,0)
 ChangeSwitch(606,606,0)
 221()
 242(1)
 Wait(60)
 211(0)
 TeleportPlayer(0,639,0,1,0,2)
 222()
 EndEventProcessing()
 0()
EndIf()
If(1,9,0,7,0)
 ChangeSwitch(607,607,0)
 221()
 242(1)
 Wait(60)
 211(0)
 TeleportPlayer(0,639,0,1,0,2)
 222()
 EndEventProcessing()
 0()
EndIf()
If(1,9,0,8,0)
 ChangeSwitch(608,608,0)
 221()
 242(1)
 Wait(60)
 211(0)
 TeleportPlayer(0,639,0,1,0,2)
 222()
 EndEventProcessing()
 0()
EndIf()
If(1,9,0,9,0)
 ChangeSwitch(609,609,0)
 221()
 242(1)
 Wait(60)
 211(0)
 TeleportPlayer(0,639,0,1,0,2)
 222()
 EndEventProcessing()
 0()
EndIf()
If(1,9,0,10,0)
 ChangeSwitch(610,610,0)
 221()
 242(1)
 Wait(60)
 211(0)
 TeleportPlayer(0,639,0,1,0,2)
 222()
 EndEventProcessing()
 0()
EndIf()
0()
