﻿// EVENT 7007
Name "Marie: Victory"

PictureClear(6)
ShowMessageFace("mob_maid_fc1",0,0,2,1)
ShowMessage("\\n<Marie>Time's up...\nWell done, Luka. You won.")
250(bytes(0x04,0x08,0x6f,0x3a,0x0c,0x52,0x50,0x47,0x3a,0x3a,0x53,0x45,0x08,0x3a,0x0a,0x40,0x6e,0x61,0x6d,0x65,0x49,0x22,0x0d,0x6d,0x6f,0x6e,0x5f,0x6c,0x76,0x75,0x70,0x06,0x3a,0x06,0x45,0x54,0x3a,0x0b,0x40,0x70,0x69,0x74,0x63,0x68,0x69,0x69,0x3a,0x0c,0x40,0x76,0x6f,0x6c,0x75,0x6d,0x65,0x69,0x69))
ChangeSwitch(98,98,1)
ChangeSwitch(96,96,1)
ShowMessageFace("",0,0,2,2)
ShowMessage("Luka emerged from the battle fuck victorious!")
If(1,801,0,2,1)
 ShowMessageFace("mob_maid_fc1",0,0,2,3)
 ShowMessage("\\n<Marie>Since you've won before, there's no reward this\ntime. Sorry, but I did warn you before we began.")
 0()
Else()
 ShowMessageFace("mob_maid_fc1",0,0,2,4)
 ShowMessage("\\n<Marie>All right, to the victor go the spoils. Here's\nproof that you prevailed against me...")
 250(bytes(0x04,0x08,0x6f,0x3a,0x0c,0x52,0x50,0x47,0x3a,0x3a,0x53,0x45,0x08,0x3a,0x0a,0x40,0x6e,0x61,0x6d,0x65,0x49,0x22,0x0a,0x49,0x74,0x65,0x6d,0x31,0x06,0x3a,0x06,0x45,0x54,0x3a,0x0b,0x40,0x70,0x69,0x74,0x63,0x68,0x69,0x69,0x3a,0x0c,0x40,0x76,0x6f,0x6c,0x75,0x6d,0x65,0x69,0x55))
 ChangeInventory_Item(500,0,0,1)
 ChangeVariable(801,801,0,0,2)
 RunCommonEvent(6999)
 0()
EndIf()
ShowMessageFace("mob_maid_fc1",0,0,2,5)
ShowMessage("\\n<Marie>There are plenty more women skilled in battle\nfucking all over the world. If you meet them\nin your travels, try to challenge them.")
ShowMessageFace("mob_maid_fc1",0,0,2,6)
ShowMessage("\\n<Marie>I'll be here in my tent if you ever get the urge\nto battle fuck against me again.")
If(0,443,0)
 EndEventProcessing()
 0()
EndIf()
If(0,2331,1)
 PictureClear(5)
 281(1)
 TeleportPlayer(0,2,289,355,2,0)
 216(0)
 0()
EndIf()
EndEventProcessing()
0()
