// EVENT 1065
Name "Talk: Page 257"

If(1,20,0,1,0)
 JumpToLabel("情報")
 0()
EndIf()
If(1,20,0,2,0)
 JumpToLabel("質問")
 0()
EndIf()
If(1,20,0,3,0)
 JumpToLabel("要求")
 0()
EndIf()
If(1,20,0,4,0)
 JumpToLabel("贈与")
 0()
EndIf()
DefineLabel("情報")
ChangeVariable(13,13,0,2,1,100)
If(1,13,0,10,2)
 ShowMessageFace("page257_fc1",0,0,2,1)
 ShowMessage("\\n<Page 257>There are so many books I want to read, fufufuu...")
 EndEventProcessing()
 0()
EndIf()
If(1,13,0,20,2)
 ShowMessageFace("page257_fc1",0,0,2,2)
 ShowMessage("\\n<Page 257>It's nice to be able to enjoy books. To only seek pointless knowledge and self-improvement is selfish.")
 EndEventProcessing()
 0()
EndIf()
If(1,13,0,30,2)
 ShowMessageFace("page257_fc1",0,0,2,3)
 ShowMessage("\\n<Page 257>I am not hostile toward humans... In fact, I have to protect creative writers.")
 EndEventProcessing()
 0()
EndIf()
If(1,13,0,40,2)
 ShowMessageFace("page257_fc1",0,0,2,4)
 ShowMessage("\\n<Page 257>When one of my favorite authors releases a new book, I have to disguise myself as a human and get in line at the bookstore.")
 EndEventProcessing()
 0()
EndIf()
If(1,13,0,50,2)
 ShowMessageFace("page257_fc1",0,0,2,5)
 ShowMessage("\\n<Page 257>This library's line up only contains formal books... When they make a purchase order for new books, I often add in romance novels.")
 EndEventProcessing()
 0()
EndIf()
If(1,13,0,60,2)
 ShowMessageFace("page257_fc1",0,0,2,6)
 ShowMessage("\\n<Page 257>This arm bodyguard was summoned with my magic. It moves freely in accordance with my will.")
 EndEventProcessing()
 0()
EndIf()
If(1,13,0,70,2)
 ShowMessageFace("page257_fc1",0,0,2,7)
 ShowMessage("\\n<Page 257>I get so engrossed that I read late into the night and then oversleep.")
 EndEventProcessing()
 0()
EndIf()
If(1,13,0,80,2)
 ShowMessageFace("page257_fc1",2,0,2,8)
 ShowMessage("\\n<Page 257>I have been crazy about reading since I was young and my eyesight got worse and worse. I can never take these glasses off again...")
 EndEventProcessing()
 0()
EndIf()
If(1,13,0,90,2)
 ShowMessageFace("page257_fc1",0,0,2,9)
 ShowMessage("\\n<Page 257>My best techniques are Grimoire magic. That is because I am a monster that lurks inside a book... Well, that should be obvious.")
 EndEventProcessing()
 0()
EndIf()
If(1,13,0,100,2)
 ShowMessageFace("page257_fc1",0,0,2,10)
 ShowMessage("\\n<Page 257>I can sense when someone is reading my book, but I can also read it myself from the inside, which means I can sense myself reading...")
 ShowMessageFace("page257_fc1",2,0,2,11)
 ShowMessage("\\n<Page 257>That loop is kinda scary...")
 EndEventProcessing()
 0()
EndIf()
DefineLabel("質問")
ChangeVariable(13,13,0,2,1,50)
If(1,13,0,10,2)
 ShowMessageFace("page257_fc1",0,0,2,12)
 ShowMessage("\\n<Page 257>What is your favorite kind of woman?")
 ShowChoices(strings("An intelligent one","A meek one","One that wears glasses","None of the above"),0)
 IfPlayerPicksChoice(0,"知的な子")
  ShowMessageFace("page257_fc1",1,0,2,13)
  ShowMessage("\\n<Page 257>Fufuu... Isn't that me?")
  355("change_friend(10)")
  0()
 IfPlayerPicksChoice(1,"おとなしい子")
  ShowMessageFace("page257_fc1",1,0,2,14)
  ShowMessage("\\n<Page 257>Fufuu... Isn't that me?")
  355("change_friend(10)")
  0()
 IfPlayerPicksChoice(2,"眼鏡をかけた子")
  ShowMessageFace("page257_fc1",1,0,2,15)
  ShowMessage("\\n<Page 257>Fufuu... Isn't that me?")
  355("change_friend(10)")
  0()
 IfPlayerPicksChoice(3,"この中にはない")
  ShowMessageFace("page257_fc1",2,0,2,16)
  ShowMessage("\\n<Page 257>Oh? You're heartless...")
  355("change_friend(-5)")
  0()
 404()
 EndEventProcessing()
 0()
EndIf()
If(1,13,0,20,2)
 ShowMessageFace("page257_fc1",0,0,2,17)
 ShowMessage("\\n<Page 257>What kind of romance novel is your favorite?")
 ShowChoices(strings("True love stories","Tragedies","Romantic comedies","Harem stories"),0)
 IfPlayerPicksChoice(0,"純愛もの")
  ShowMessageFace("page257_fc1",0,0,2,18)
  ShowMessage("\\n<Page 257>You like true love? Fufuu, we think alike.")
  355("change_friend(10)")
  0()
 IfPlayerPicksChoice(1,"悲恋もの")
  ShowMessageFace("page257_fc1",0,0,2,19)
  ShowMessage("\\n<Page 257>Oh? That's surprising... I like that kind of man as well.")
  0()
 IfPlayerPicksChoice(2,"ラブコメもの")
  ShowMessageFace("page257_fc1",2,0,2,20)
  ShowMessage("\\n<Page 257>Is that so? I don't really think we can agree on that.")
  0()
 IfPlayerPicksChoice(3,"ハーレムもの")
  ShowMessageFace("page257_fc1",2,0,2,21)
  ShowMessage("\\n<Page 257>It seems you only like women who have the hots for you...")
  355("change_friend(-5)")
  0()
 404()
 EndEventProcessing()
 0()
EndIf()
If(1,13,0,30,2)
 ShowMessageFace("page257_fc1",0,0,2,22)
 ShowMessage("\\n<Page 257>Fufufuu... Do you read 'erotic' novels?")
 ShowChoices(strings("I do not read them","I read them","That's disgusting!"),0)
 IfPlayerPicksChoice(0,"読まない")
  ShowMessageFace("page257_fc1",0,0,2,23)
  ShowMessage("\\n<Page 257>Oh, that's a shame... Would you like me to teach you the sensual aspects?")
  0()
 IfPlayerPicksChoice(1,"読む")
  ShowMessageFace("page257_fc1",1,0,2,24)
  ShowMessage("\\n<Page 257>Is that so? Fufufu... Then let's enjoy putting them to practice.")
  355("change_friend(10)")
  0()
 IfPlayerPicksChoice(2,"汚らわしい！")
  ShowMessageFace("page257_fc1",2,0,2,25)
  ShowMessage("\\n<Page 257>Oh, what a boring person... You're just like the priests. You seem to have lost your personality.")
  355("change_friend(-5)")
  0()
 404()
 EndEventProcessing()
 0()
EndIf()
If(1,13,0,40,2)
 ShowMessageFace("page257_fc1",2,0,2,26)
 ShowMessage("\\n<Page 257>I seem to lose my glasses a lot recently. I swear, they are such a pain...")
 ShowChoices(strings("That's cute","It's because of your age","I lose mine too"),0)
 IfPlayerPicksChoice(0,"かわいい")
  ShowMessageFace("page257_fc1",0,0,2,27)
  ShowMessage("\\n<Page 257>Flattery will get you nowhere...")
  355("change_friend(10)")
  0()
 IfPlayerPicksChoice(1,"年のせい")
  ShowMessageFace("page257_fc1",2,0,2,28)
  ShowMessage("\\n<Page 257>That's rude, even as a joke!")
  355("change_friend(-5)")
  0()
 IfPlayerPicksChoice(2,"僕もだ")
  ShowMessageFace("page257_fc1",0,0,2,29)
  ShowMessage("\\n<Page 257>You do not appear to have any... Could it be that you lost them?")
  0()
 404()
 EndEventProcessing()
 0()
EndIf()
If(1,13,0,50,2)
 ShowMessageFace("page257_fc1",0,0,2,30)
 ShowMessage("\\n<Page 257>You see a loving couple walking your way. What are your thoughts?")
 ShowChoices(strings("May they be happy forever","I hope they face hardships","An explosion!"),0)
 IfPlayerPicksChoice(0,"末永くお幸せに")
  ShowMessageFace("page257_fc1",0,0,2,31)
  ShowMessage("\\n<Page 257>Oh? That is kind of you. But love without mistakes is missing part of the fun...")
  0()
 IfPlayerPicksChoice(1,"苦労すればいい")
  ShowMessageFace("page257_fc1",1,0,2,32)
  ShowMessage("\\n<Page 257>That's right, mistakes are a part of love. There are a lot of ups and downs, but that makes it interesting.")
  355("change_friend(10)")
  0()
 IfPlayerPicksChoice(2,"An explosion！")
  ShowMessageFace("page257_fc1",2,0,2,33)
  ShowMessage("\\n<Page 257>Ending the love story with a bang. Putting it to an end with no tears or smiles. Well it definitely won't become boring...")
  0()
 404()
 EndEventProcessing()
 0()
EndIf()
DefineLabel("要求")
ChangeVariable(13,13,0,2,1,30)
If(1,13,0,10,2)
 If(8,14)
  ShowMessageFace("page257_fc1",2,0,2,34)
  ShowMessage("\\n<Page 257>I was up all night reading so my vision is a little blurry... Excuse me, but can I have some eye drops?")
  ChangeVariable(24,24,0,3,0,14,0)
  ShowMessageFace("",0,0,2,35)
  ShowMessage("Do you want to give some \\ii[14]? (Have:\\V[24])")
  ShowChoices(strings("Yes","No"),2)
  IfPlayerPicksChoice(0,"Yes")
   ShowMessageFace("page257_fc1",1,0,2,36)
   ShowMessage("\\n<Page 257>No way, really? Thank you... I will be sure to give you my heartfelt thanks, fufuu.")
   ChangeInventory_Item(14,1,0,1)
   355("change_friend(20)")
   EndEventProcessing()
   0()
  IfPlayerPicksChoice(1,"No")
   ShowMessageFace("page257_fc1",2,0,2,37)
   ShowMessage("\\n<Page 257>Is that so? I'm not good with coaxing people after all.")
   EndEventProcessing()
   0()
  404()
  0()
 Else()
  ChangeVariable(13,13,0,0,20)
  0()
 EndIf()
 0()
EndIf()
If(1,13,0,20,2)
 If(8,434)
  ShowMessageFace("page257_fc1",0,0,2,38)
  ShowMessage("\\n<Page 257>Would you give me a cookie? I don't have an eye for sweet things...")
  ChangeVariable(24,24,0,3,0,434,0)
  ShowMessageFace("",0,0,2,39)
  ShowMessage("Do you want to give a \\ii[434]? (Have:\\V[24])")
  ShowChoices(strings("Yes","No"),2)
  IfPlayerPicksChoice(0,"Yes")
   ShowMessageFace("page257_fc1",1,0,2,40)
   ShowMessage("\\n<Page 257>No way, really? Thank you... I will be sure to give you my heartfelt thanks, fufuu.")
   ChangeInventory_Item(434,1,0,1)
   355("change_friend(30)")
   EndEventProcessing()
   0()
  IfPlayerPicksChoice(1,"No")
   ShowMessageFace("page257_fc1",2,0,2,41)
   ShowMessage("\\n<Page 257>Is that so? I'm not good with coaxing people after all.")
   EndEventProcessing()
   0()
  404()
  0()
 Else()
  ChangeVariable(13,13,0,0,30)
  0()
 EndIf()
 0()
EndIf()
If(1,13,0,30,2)
 ShowMessageFace("page257_fc1",2,0,2,42)
 ShowMessage("\\n<Page 257>Today there are four new books coming out that I want. Oh, I don't have enough money...")
 If(7,270,0)
  ChangeVariable(24,24,0,3,7,2,0)
  ShowMessageFace("",0,0,2,43)
  ShowMessage("Do you want to give 270G? (Remaining: \\V[24])")
  ShowChoices(strings("Yes","No"),2)
  IfPlayerPicksChoice(0,"Yes")
   ShowMessageFace("page257_fc1",1,0,2,44)
   ShowMessage("\\n<Page 257>No way, really? Thank you... I will be sure to give you my heartfelt thanks, fufuu.")
   125(1,0,270)
   355("change_friend(25)")
   EndEventProcessing()
   0()
  IfPlayerPicksChoice(1,"No")
   ShowMessageFace("page257_fc1",2,0,2,45)
   ShowMessage("\\n<Page 257>Is that so? I'm not good with coaxing people after all.")
   EndEventProcessing()
   0()
  404()
  0()
 Else()
  ShowMessageFace("page257_fc1",2,0,2,46)
  ShowMessage("\\n<Page 257>...You don't have any money either? We are a lot alike.")
  EndEventProcessing()
  0()
 EndIf()
 0()
EndIf()
DefineLabel("贈与")
ChangeVariable(13,13,0,2,1,30)
If(1,25,0,1,0)
 ChangeVariable(13,13,0,0,30)
 ChangeVariable(25,25,0,0,0)
 0()
EndIf()
If(1,25,0,2,0)
 ChangeVariable(13,13,0,2,1,20)
 ChangeVariable(25,25,0,0,0)
 0()
EndIf()
If(1,13,0,10,2)
 ShowMessageFace("page257_fc1",0,0,2,47)
 ShowMessage("\\n<Page 257>Injuries are inherent to an adventure... This should heal your wounds.")
 250(bytes(0x04,0x08,0x6f,0x3a,0x0c,0x52,0x50,0x47,0x3a,0x3a,0x53,0x45,0x08,0x3a,0x0a,0x40,0x6e,0x61,0x6d,0x65,0x49,0x22,0x0a,0x49,0x74,0x65,0x6d,0x31,0x06,0x3a,0x06,0x45,0x54,0x3a,0x0b,0x40,0x70,0x69,0x74,0x63,0x68,0x69,0x69,0x3a,0x0c,0x40,0x76,0x6f,0x6c,0x75,0x6d,0x65,0x69,0x55))
 ChangeInventory_Item(2,0,0,1)
 ShowMessageFace("",0,0,2,48)
 ShowMessage("The Page 257 gave you a \\ii[2]!")
 EndEventProcessing()
 0()
EndIf()
If(1,13,0,20,2)
 ShowMessageFace("page257_fc1",0,0,2,49)
 ShowMessage("\\n<Page 257>I want to treasure this long-awaited meeting. You can take this. It is a part of my book.")
 250(bytes(0x04,0x08,0x6f,0x3a,0x0c,0x52,0x50,0x47,0x3a,0x3a,0x53,0x45,0x08,0x3a,0x0a,0x40,0x6e,0x61,0x6d,0x65,0x49,0x22,0x0a,0x49,0x74,0x65,0x6d,0x31,0x06,0x3a,0x06,0x45,0x54,0x3a,0x0b,0x40,0x70,0x69,0x74,0x63,0x68,0x69,0x69,0x3a,0x0c,0x40,0x76,0x6f,0x6c,0x75,0x6d,0x65,0x69,0x55))
 ChangeInventory_Item(180,0,0,1)
 ShowMessageFace("",0,0,2,50)
 ShowMessage("The Page 257 gave you a \\ii[180]!")
 EndEventProcessing()
 0()
EndIf()
If(1,13,0,30,2)
 ShowMessageFace("page257_fc1",0,0,2,51)
 ShowMessage("\\n<Page 257>You want to find more good books, right? Come on, let's use this to go to a bookstore.")
 250(bytes(0x04,0x08,0x6f,0x3a,0x0c,0x52,0x50,0x47,0x3a,0x3a,0x53,0x45,0x08,0x3a,0x0a,0x40,0x6e,0x61,0x6d,0x65,0x49,0x22,0x0a,0x49,0x74,0x65,0x6d,0x31,0x06,0x3a,0x06,0x45,0x54,0x3a,0x0b,0x40,0x70,0x69,0x74,0x63,0x68,0x69,0x69,0x3a,0x0c,0x40,0x76,0x6f,0x6c,0x75,0x6d,0x65,0x69,0x55))
 125(0,0,450)
 ShowMessageFace("",0,0,2,52)
 ShowMessage("The Page 257 gave you 450G!")
 EndEventProcessing()
 0()
EndIf()
0()
