﻿// EVENT 5742
Name "Sonya Sex Toys 925"

PictureDisplay(5,"80_sonia_m1_st08",0,0,0,0,100,100,255,0)
ShowMessageFace("sonia_fc1",3,0,2,1)
ShowMessage("\\n<Sonya>")
ShowMessage("Luka, these...")
ShowMessage("Do you want me to train you with these special weapons?")
ShowMessageFace("",0,0,2,2)
ShowMessage("\\n<Luka>")
ShowMessage("Yea, ok.")
ShowMessageFace("",0,0,2,3)
ShowMessage("Thus, I go train with Sonya using special weapons...")
221()
PictureDisplay(1,"bg195",0,0,0,0,100,100,255,0)
PictureDisplay(5,"ev_sonia_hx925_01",0,0,0,0,100,100,255,0)
222()
241(bytes(0x04,0x08,0x6f,0x3a,0x0d,0x52,0x50,0x47,0x3a,0x3a,0x42,0x47,0x4d,0x08,0x3a,0x0a,0x40,0x6e,0x61,0x6d,0x65,0x49,0x22,0x09,0x65,0x72,0x6f,0x31,0x06,0x3a,0x06,0x45,0x54,0x3a,0x0c,0x40,0x76,0x6f,0x6c,0x75,0x6d,0x65,0x69,0x69,0x3a,0x0b,0x40,0x70,0x69,0x74,0x63,0x68,0x69,0x69))
ShowMessageFace("",0,0,2,4)
ShowMessage("\\n<Luka>")
ShowMessage("Ah, auuu...")
ShowMessageFace("sonia_fc1",2,0,2,5)
ShowMessage("\\n<Sonya>")
ShowMessage("Ho~ra, these disgusting snakes will coil around you~♪")
ShowMessage("I'll wrap them around your penis~♪")
ShowMessageFace("",0,0,2,6)
ShowMessage("My clothes are taken off and I'm forced on all fours.")
ShowMessage("Sonya's right hand equipped with the sex toy reaches for my crotch.")
ShowMessageFace("",0,0,2,7)
ShowMessage("\\n<Luka>")
ShowMessage("W-wait a minute Sonya... This is...")
ShowMessage("W-wasn't this supposed to be special training...?")
ShowMessageFace("sonia_fc1",2,0,2,8)
ShowMessage("\\n<Sonya>")
ShowMessage("Of course, it's special training using sex toys.")
ShowMessage("Now, I'm going to wring you dry with this sex toy...!")
245(bytes(0x04,0x08,0x6f,0x3a,0x0d,0x52,0x50,0x47,0x3a,0x3a,0x42,0x47,0x53,0x08,0x3a,0x0a,0x40,0x6e,0x61,0x6d,0x65,0x49,0x22,0x17,0x6d,0x6f,0x6e,0x5f,0x68,0x73,0x65,0x61,0x6e,0x31,0x37,0x5f,0x73,0x69,0x67,0x6f,0x6b,0x69,0x06,0x3a,0x06,0x45,0x54,0x3a,0x0c,0x40,0x76,0x6f,0x6c,0x75,0x6d,0x65,0x69,0x55,0x3a,0x0b,0x40,0x70,0x69,0x74,0x63,0x68,0x69,0x69))
PictureDisplay(5,"ev_sonia_hx925_02",0,0,0,0,100,100,255,0)
ShowMessageFace("",0,0,2,9)
ShowMessage("\\n<Luka>")
ShowMessage("Ah... Auuuu!")
ShowMessageFace("",0,0,2,10)
ShowMessage("Sonya makes the snakes slither and coil around my penis!")
ShowMessageFace("sonia_fc1",2,0,2,11)
ShowMessage("\\n<Sonya>")
ShowMessage("Ahaha, how does it feel to have snakes coiled around you...?")
ShowMessage("It looks adorable caught in their coils, as if it were their prey~♪")
ShowMessageFace("",0,0,2,12)
ShowMessage("\\n<Luka>")
ShowMessage("Th-that's... Ugh...")
ShowMessageFace("",0,0,2,13)
ShowMessage("I feel a strange pleasure as the snakes coil around my penis.")
ShowMessage("The unexpected pleasure makes my hips tremble.")
ShowMessageFace("sonia_fc1",2,0,2,14)
ShowMessage("\\n<Sonya>")
ShowMessage("What? Does this make you feel good?")
ShowMessage("Feeling the snakes playing with your penis...?")
ShowMessageFace("",0,0,2,15)
ShowMessage("Sonya giggles as she gently plays with my penis.")
ShowMessage("The snakes keep slithering wildly all over the surface of my dick.")
ShowMessageFace("",0,0,2,16)
ShowMessage("\\n<Luka>")
ShowMessage("Th-that's... Not...")
ShowMessageFace("sonia_fc1",2,0,2,17)
ShowMessage("\\n<Sonya>")
ShowMessage("Really...?")
ShowMessage("You like to have your penis tormented like this?")
PictureDisplay(5,"ev_sonia_hx925_03",0,0,0,0,100,100,255,0)
ShowMessageFace("",0,0,2,18)
ShowMessage("\\n<Luka>")
ShowMessage("Ah... Auuuu...!")
ShowMessageFace("",0,0,2,19)
ShowMessage("The snakes wriggle and wind, squeezing my penis.")
ShowMessage("My waist starts jerking from the pleasure.")
ShowMessageFace("sonia_fc1",2,0,2,20)
ShowMessage("\\n<Sonya>")
ShowMessage("Ahaha, your tip is leaking♪")
ShowMessage("Hey, are you still saying it doesn't feel good...?")
ShowMessageFace("",0,0,2,21)
ShowMessage("\\n<Luka>")
ShowMessage("Hau, auuuu...!")
ShowMessageFace("",0,0,2,22)
ShowMessage("The serpents wrap around my penis, tightening around it.")
ShowMessage("At times they squeeze hard, making me feel agonizing pleasure.")
ShowMessageFace("",0,0,2,23)
ShowMessage("\\n<Luka>")
ShowMessage("Ah, au... Auuu!")
ShowMessageFace("sonia_fc1",2,0,2,24)
ShowMessage("\\n<Sonya>")
ShowMessage("Ahaha, you look like you're in agony when they squeeze you...♪")
ShowMessage("Like this, the snakes will crush your penis~♪")
PictureDisplay(5,"ev_sonia_hx925_05",0,0,0,0,100,100,255,0)
ShowMessageFace("",0,0,2,25)
ShowMessage("\\n<Luka>")
ShowMessage("Ah, aaaaaau...!!")
ShowMessageFace("",0,0,2,26)
ShowMessage("The snakes tighten around my penis more and more.")
ShowMessage("They wind, stroke, rub, and squeeze, relentlessly attacking me with pleasure.")
ShowMessageFace("",0,0,2,27)
ShowMessage("The intense squeezing fills me with agonizing pleasure.")
ShowMessage("The feeling of release rises from the back of my waist...")
ShowMessageFace("",0,0,2,28)
ShowMessage("\\n<Luka>")
ShowMessage("No... This, I'm coming already...")
ShowMessageFace("sonia_fc1",2,0,2,29)
ShowMessage("\\n<Sonya>")
ShowMessage("What, you're about to come...?")
ShowMessage("You're going to leak your white stuff from snakes playing with your penis...?")
ShowMessageFace("",0,0,2,30)
ShowMessage("\\n<Luka>")
ShowMessage("Au... Hauuu...")
ShowMessageFace("sonia_fc1",2,0,2,31)
ShowMessage("\\n<Sonya>")
ShowMessage("Well then, come...")
ShowMessage("Shamelessly spill your semen with the snakes wrapped around you~♪")
ShowMessageFace("",0,0,2,32)
ShowMessage("The snakes squeeze my penis to the limit.")
ShowMessage("They stroke and crawl over my glans, squeezing it tight...")
ShowMessageFace("",0,0,2,33)
ShowMessage("\\n<Luka>")
ShowMessage("Ah, aaaaaah!!")
ShowMessageFace("",0,0,2,34)
ShowMessage("Finally I can't take it anymore and lose all control over my waist.")
ShowMessage("As the feeling of release rises, the inside of my head goes pure white...")
RunCommonEvent(104)
PictureDisplay(5,"ev_sonia_hx925_06",0,0,0,0,100,100,255,0)
RunCommonEvent(105)
ShowMessageFace("",0,0,2,35)
ShowMessage("As if it were a sign of surrender, my semen shoots out.")
ShowMessage("My penis starts pulsating and semen shoots out of it with every pulse.")
ShowMessageFace("sonia_fc1",2,0,2,36)
ShowMessage("\\n<Sonya>")
ShowMessage("Haha, you let it out~♪")
ShowMessage("It's so embarrassing to come from snakes playing with your penis♪")
ShowMessageFace("",0,0,2,37)
ShowMessage("\\n<Luka>")
ShowMessage("Hau... Ah, aaaaau...!!")
ShowMessageFace("",0,0,2,38)
ShowMessage("The snakes begin to squeeze me in rhythm with the throbs of my ejaculation.")
ShowMessage("My penis pulses and scatters my semen all over.")
ShowMessageFace("",0,0,2,39)
ShowMessage("\\n<Luka>")
ShowMessage("Ayee, hyaaaaa...!")
ShowMessage("Stop it, I'm already coming...!")
ShowMessageFace("sonia_fc1",2,0,2,40)
ShowMessage("\\n<Sonya>")
ShowMessage("...Then I'll bully you even more♪")
PictureDisplay(5,"ev_sonia_hx925_07",0,0,0,0,100,100,255,0)
ShowMessageFace("sonia_fc1",2,0,2,41)
ShowMessage("\\n<Sonya>")
ShowMessage("I'll squeeze your penis all throughout your ejaculation♪")
ShowMessage("Ahaha, you'll get to experience the hellish pleasure of the snakes squeezing you~♪")
ShowMessageFace("",0,0,2,42)
ShowMessage("\\n<Luka>")
ShowMessage("Ah, aaaaaah!!")
ShowMessageFace("",0,0,2,43)
ShowMessage("Semen starts flowing from my urethra.")
ShowMessage("Being squeezed at the end of my ejaculation blocked the remaining semen and now it's being sucked out.")
ShowMessageFace("",0,0,2,44)
ShowMessage("After finishing my ejaculation, my penis continues to be subjected to this tightening hell.")
ShowMessage("Sonya just smiles and continues to play with my penis, showing no mercy...")
PictureDisplay(5,"ev_sonia_hx925_08",0,0,0,0,100,100,255,0)
ShowMessageFace("sonia_fc1",2,0,2,45)
ShowMessage("\\n<Sonya>")
ShowMessage("Hey, how do you feel?")
ShowMessage("Having your penis tormented by snakes as you come...")
ShowMessageFace("",0,0,2,46)
ShowMessage("\\n<Luka>")
ShowMessage("Hauuu...")
ShowMessageFace("",0,0,2,47)
ShowMessage("I moan as my penis is squeezed tightly.")
ShowMessage("However, the pressure I feel on my glans only serves to intensify the pleasure I'm already feeling.")
ShowMessageFace("",0,0,2,48)
ShowMessage("\\n<Luka>")
ShowMessage("This... Stop it already...")
ShowMessageFace("sonia_fc1",2,0,2,49)
ShowMessage("\\n<Sonya>")
ShowMessage("You want the snakes coiled around your penis...")
ShowMessage("You can't escape after you came once.")
ShowMessageFace("sonia_fc1",2,0,2,50)
ShowMessage("\\n<Sonya>")
ShowMessage("Ho~ra, come again~♪")
ShowMessage("I'll roll your penis up and squeeze you really tight...♪")
ShowMessageFace("",0,0,2,51)
ShowMessage("\\n<Luka>")
ShowMessage("Au, aaaaaah...!")
ShowMessageFace("",0,0,2,52)
ShowMessage("The snakes squeeze my penis subjecting my glans to extreme tightness.")
ShowMessage("Every time the snakes squeeze, my glans is stroked and I feel intense pleasure.")
ShowMessageFace("",0,0,2,53)
ShowMessage("My waist trembles like crazy from the overwhelming pleasure.")
ShowMessage("Sonya continues to tighten the snakes giving me no time to even breathe.")
ShowMessageFace("sonia_fc1",2,0,2,54)
ShowMessage("\\n<Sonya>")
ShowMessage("Ahaha, ready to come again?")
ShowMessage("If I tighten the snakes around your penis you won't be able to hold back, will you?")
ShowMessageFace("",0,0,2,55)
ShowMessage("\\n<Luka>")
ShowMessage("Hauu... No, I'm coming again...")
ShowMessageFace("sonia_fc1",2,0,2,56)
ShowMessage("\\n<Sonya>")
ShowMessage("Fufu, what pathetic moans...")
ShowMessage("Well then, shoot it out again...♪")
ShowMessageFace("",0,0,2,57)
ShowMessage("Sonya skillfully handles the snakes, making them squeeze my penis tight.")
ShowMessage("Her hand movement aims to make me ejaculate.")
ShowMessageFace("",0,0,2,58)
ShowMessage("They strangle the neck of my penis and rub my glans all over...")
ShowMessage("The overwhelming pleasure makes me pathetically yield.")
ShowMessageFace("",0,0,2,59)
ShowMessage("\\n<Luka>")
ShowMessage("Hya... Ah, aaaah...!!")
RunCommonEvent(104)
PictureDisplay(5,"ev_sonia_hx925_09",0,0,0,0,100,100,255,0)
RunCommonEvent(105)
ShowMessageFace("",0,0,2,60)
ShowMessage("A large amount of semen shoots out and falls directly under me.")
ShowMessage("The snakes keep squeezing my penis even as I'm coming, making me feel intense pleasure.")
ShowMessageFace("sonia_fc1",2,0,2,61)
ShowMessage("\\n<Sonya>")
ShowMessage("Fufu, you came again...♪")
ShowMessageFace("",0,0,2,62)
ShowMessage("\\n<Luka>")
ShowMessage("Hau... Ah, ugh...")
ShowMessageFace("sonia_fc1",2,0,2,63)
ShowMessage("\\n<Sonya>")
ShowMessage("Yes.. Squeeze, squeeze...")
ShowMessage("I'll keep squeezing you until you finish leaking♪")
ShowMessageFace("",0,0,2,64)
ShowMessage("The serpents squeeze in rhythm with the pulsations of my penis...")
ShowMessage("Like that, my semen is forcefully squeezed out.")
PictureDisplay(5,"ev_sonia_hx925_10",0,0,0,0,100,100,255,0)
ShowMessageFace("",0,0,2,65)
ShowMessage("\\n<Luka>")
ShowMessage("Aaaaah...")
246(2)
ShowMessageFace("",0,0,2,66)
ShowMessage("I'm squeezed until I shot out my last drop...")
ShowMessage("And finally Sonya stops moving the snakes.")
ShowMessageFace("sonia_fc1",2,0,2,67)
ShowMessage("\\n<Sonya>")
ShowMessage("...Yes, we're finished♪")
ShowMessage("Aren't you embarrassed to have your penis wrung out by a snake?")
ShowMessageFace("",0,0,2,68)
ShowMessage("\\n<Luka>")
ShowMessage("Hauuu...")
ShowMessageFace("",0,0,2,69)
ShowMessage("The puddle of semen between my legs makes me feel even more miserable.")
ShowMessage("With the help of the device, I've been wrung out without even being able to resist...")
ShowMessageFace("sonia_fc1",2,0,2,70)
ShowMessage("\\n<Sonya>")
ShowMessage("Next, I'm going to try other sex toys♪")
ShowMessage("Any sex toy will make you leak immediately...")
ShowMessageFace("",0,0,2,71)
ShowMessage("\\n<Luka>")
ShowMessage("........")
ShowMessageFace("",0,0,2,72)
ShowMessage("I was nothing more than an animal to be forcefully wrung...")
ShowMessage("All I can do is immerse myself in the afterglow of the pleasure and humiliation.")
ShowMessageFace("",0,0,2,73)
ShowMessage("Next time, Sonya will try out another Sex Toy...")
ShowMessage("I shake in fear but also in expectation.")
221()
PictureClear(1)
PictureClear(5)
PictureClear(6)
246(2)
ShowMessageFace("",0,0,2,74)
ShowMessage("・・・・・・・・")
RunCommonEvent(3998)
0()
