// EVENT 4991
Name "Silkworm Girl"

PictureDisplay(5,"80_kaiko_st02",0,0,0,0,100,100,0,0)
PictureMove(5,null,0,0,0,0,100,100,255,0,30,true)
ShowMessageFace("kaiko_fc1",1,0,2,1)
ShowMessage("\\n<Silk>")
ShowMessage("You want to taste pleasure, well then...")
ShowMessageFace("",0,0,2,2)
ShowMessage("Silk starts shooting threads from her abdomen.")
241(bytes(0x04,0x08,0x6f,0x3a,0x0d,0x52,0x50,0x47,0x3a,0x3a,0x42,0x47,0x4d,0x08,0x3a,0x0a,0x40,0x6e,0x61,0x6d,0x65,0x49,0x22,0x09,0x65,0x72,0x6f,0x31,0x06,0x3a,0x06,0x45,0x54,0x3a,0x0c,0x40,0x76,0x6f,0x6c,0x75,0x6d,0x65,0x69,0x69,0x3a,0x0b,0x40,0x70,0x69,0x74,0x63,0x68,0x69,0x69))
250(bytes(0x04,0x08,0x6f,0x3a,0x0c,0x52,0x50,0x47,0x3a,0x3a,0x53,0x45,0x08,0x3a,0x0a,0x40,0x6e,0x61,0x6d,0x65,0x49,0x22,0x10,0x6d,0x6f,0x6e,0x5f,0x65,0x72,0x6f,0x5f,0x69,0x74,0x6f,0x06,0x3a,0x06,0x45,0x54,0x3a,0x0b,0x40,0x70,0x69,0x74,0x63,0x68,0x69,0x69,0x3a,0x0c,0x40,0x76,0x6f,0x6c,0x75,0x6d,0x65,0x69,0x69))
ShowMessageFace("",0,0,2,3)
ShowMessage("The sticky white threads shoot over me, covering every inch of my body.")
ShowMessageFace("kaiko_fc1",1,0,2,4)
ShowMessage("\\n<Silk>")
ShowMessage("Hehe... My silk gives pleasure just by contact.")
ShowMessage("Just having it blown over you is unbearable, isn't it?")
ShowMessageFace("",0,0,2,5)
ShowMessage("\\n<Luka>")
ShowMessage("Ah, aaah...")
ShowMessageFace("",0,0,2,6)
ShowMessage("Silk's soft, sticky silk continues to cover more and more of my body.")
ShowMessageFace("",0,0,2,7)
ShowMessage("After only a few seconds, my body is completely covered in it.")
ShowMessageFace("",0,0,2,8)
ShowMessage("\\n<Luka>")
ShowMessage("What is... This...?")
ShowMessageFace("kaiko_fc1",1,0,2,9)
ShowMessage("\\n<Silk>")
ShowMessage("Hehe... Stuck in a cocoon of pleasure, you'll be trapped in heaven...")
245(bytes(0x04,0x08,0x6f,0x3a,0x0d,0x52,0x50,0x47,0x3a,0x3a,0x42,0x47,0x53,0x08,0x3a,0x0a,0x40,0x6e,0x61,0x6d,0x65,0x49,0x22,0x1a,0x6d,0x6f,0x6e,0x5f,0x68,0x73,0x65,0x61,0x6e,0x32,0x31,0x5f,0x74,0x65,0x6e,0x74,0x61,0x63,0x6c,0x65,0x32,0x06,0x3a,0x06,0x45,0x54,0x3a,0x0c,0x40,0x76,0x6f,0x6c,0x75,0x6d,0x65,0x69,0x55,0x3a,0x0b,0x40,0x70,0x69,0x74,0x63,0x68,0x69,0x69))
PictureDisplay(5,"ev_kaiko_h01",0,0,0,0,100,100,255,0)
ShowMessageFace("",0,0,2,10)
ShowMessage("Everything from my neck down is tightly wrapped in a cocoon made of her soft silk.")
ShowMessageFace("",0,0,2,11)
ShowMessage("Even though I should be horrified at being trapped, I'm instead immersed in pleasure.")
ShowMessageFace("",0,0,2,12)
ShowMessage("\\n<Luka>")
ShowMessage("Fwaah... That feels so good...")
ShowMessageFace("kaiko_fc1",1,0,2,13)
ShowMessage("\\n<Silk>")
ShowMessage("Hehe... Have a little patience.")
ShowMessage("Once the cocoon is finished, you can come as much as you want.")
ShowMessageFace("",0,0,2,14)
ShowMessage("\\n<Luka>")
ShowMessage("Unnngh...!")
ShowMessageFace("",0,0,2,15)
ShowMessage("With my penis already rock hard as she was covering me with her silk, it feels like it's stuck in a tiny hole.")
ShowMessageFace("",0,0,2,16)
ShowMessage("Tightly wrapped in her soft thread, the movements just from breathing are giving an almost unbearable pleasure with them.")
ShowMessageFace("",0,0,2,17)
ShowMessage("Quickly overpowered by that ecstasy, I already feel myself giving in to the rising orgasm.")
ShowMessageFace("",0,0,2,18)
ShowMessage("\\n<Luka>")
ShowMessage("Ahh... I'm coming!")
ShowMessageFace("kaiko_fc1",1,0,2,19)
ShowMessage("\\n<Silk>")
ShowMessage("Ah, already? Sheesh...")
RunCommonEvent(104)
PictureDisplay(5,"ev_kaiko_h11",0,0,0,0,100,100,255,0)
RunCommonEvent(105)
ShowMessageFace("",0,0,2,20)
ShowMessage("\\n<Luka>")
ShowMessage("Ahh... I came...")
ShowMessageFace("",0,0,2,21)
ShowMessage("Unable to take it any longer, I come, shooting my semen into the silk cocoon.")
ShowMessageFace("",0,0,2,22)
ShowMessage("With it wrapped so tightly around me, it almost feels more like I just peed in my pants...")
ShowMessage("Looking down, I start to feel humiliated as I see the white stain slowly spreading.")
ShowMessageFace("kaiko_fc1",1,0,2,23)
ShowMessage("\\n<Silk>")
ShowMessage("What a helpless little boy... Having an accident before I even finish.")
ShowMessage("Sheesh... Have a little patience.")
ShowMessageFace("",0,0,2,24)
ShowMessage("Silk sprays more silk over me, covering me with even more sticky silk.")
ShowMessage("Then...")
PictureDisplay(5,"ev_kaiko_h12",0,0,0,0,100,100,255,0)
ShowMessageFace("",0,0,2,25)
ShowMessage("While immersed in ecstasy, I look on in joy and pleasure as the silk finally completely covers my head.")
ShowMessageFace("",0,0,2,26)
ShowMessage("\\n<Luka>")
ShowMessage("Ahhh...")
ShowMessageFace("",0,0,2,27)
ShowMessage("Able to breathe, I can't feel anything but the pleasure any longer.")
ShowMessage("With every part of my body being touched by the silk, every part of my body is having pure pleasure forced into it.")
ShowMessageFace("",0,0,2,28)
ShowMessage("It's like I'm really stuck in a white paradise...")
ShowMessage("I want to stay in here forever...")
ShowMessageFace("",0,0,2,29)
ShowMessage("\\n<Luka>")
ShowMessage("Ahh... That feels good...")
ShowMessageFace("kaiko_fc1",1,0,2,30)
ShowMessage("\\n<Silk>")
ShowMessage("Hehe... So you like my cocoon?")
ShowMessage("But it's a cocoon that sucks its prey dry of semen you know?")
ShowMessageFace("kaiko_fc1",1,0,2,31)
ShowMessage("\\n<Silk>")
ShowMessage("Stuck inside there, your semen will be sucked for your whole life you know?")
ShowMessageFace("",0,0,2,32)
ShowMessage("\\n<Luka>")
ShowMessage("Eh...? Ahhh!")
245(bytes(0x04,0x08,0x6f,0x3a,0x0d,0x52,0x50,0x47,0x3a,0x3a,0x42,0x47,0x53,0x08,0x3a,0x0a,0x40,0x6e,0x61,0x6d,0x65,0x49,0x22,0x1a,0x6d,0x6f,0x6e,0x5f,0x68,0x73,0x65,0x61,0x6e,0x32,0x32,0x5f,0x74,0x65,0x6e,0x74,0x61,0x63,0x6c,0x65,0x33,0x06,0x3a,0x06,0x45,0x54,0x3a,0x0c,0x40,0x76,0x6f,0x6c,0x75,0x6d,0x65,0x69,0x55,0x3a,0x0b,0x40,0x70,0x69,0x74,0x63,0x68,0x69,0x69))
ShowMessageFace("",0,0,2,33)
ShowMessage("Suddenly, the cocoon itself starts to swell back and forth, like a wave motion.")
ShowMessage("Moving in rhythmic waves, it tightens and expands around my body.")
ShowMessageFace("",0,0,2,34)
ShowMessage("It almost feels like I'm stuck in a giant mouth, sucking on my body like it was a piece of candy.")
ShowMessageFace("",0,0,2,35)
ShowMessage("\\n<Luka>")
ShowMessage("Unnngh...!")
ShowMessage("Th...The cocoon is moving!?")
ShowMessageFace("",0,0,2,36)
ShowMessage("I writhe side to side, but there's nothing around me but the white silk.")
ShowMessageFace("",0,0,2,37)
ShowMessage("It feels as if the silk itself is sucking on my entire body, especially on my penis...")
ShowMessageFace("",0,0,2,38)
ShowMessage("Unable to do anything tightly wrapped in her cocoon, I moan in pleasure as it continues to suck on my body.")
ShowMessageFace("kaiko_fc1",1,0,2,39)
ShowMessage("\\n<Silk>")
ShowMessage("Hehe, it started...")
ShowMessage("That's how the cocoon will suck out your semen.")
ShowMessageFace("kaiko_fc1",1,0,2,40)
ShowMessage("\\n<Silk>")
ShowMessage("Once it starts, you aren't able to die any longer.")
ShowMessage("The magic silk keeps you alive and weak as it endlessly sucks the semen from you.")
ShowMessageFace("",0,0,2,41)
ShowMessage("\\n<Luka>")
ShowMessage("Ahhh!")
ShowMessageFace("",0,0,2,42)
ShowMessage("I moan in ecstasy inside the cocoon.")
ShowMessageFace("",0,0,2,43)
ShowMessage("Every writhing movement I make is countered by the silk, taking advantage of the small room I give it to tighten even closer around my body.")
ShowMessageFace("",0,0,2,44)
ShowMessage("\\n<Luka>")
ShowMessage("Ahhh! I'm coming!")
RunCommonEvent(104)
PictureDisplay(5,"ev_kaiko_h13",0,0,0,0,100,100,255,0)
RunCommonEvent(105)
ShowMessageFace("",0,0,2,45)
ShowMessage("I ejaculate inside of the cocoon, spraying my semen out inside.")
ShowMessage("The silk itself starts to slowly absorb the semen, as the sucking movements continue.")
ShowMessageFace("kaiko_fc1",1,0,2,46)
ShowMessage("\\n<Silk>")
ShowMessage("Hehehe, it already sucked some out.")
ShowMessage("But don't think that it will finish anytime soon...")
ShowMessageFace("",0,0,2,47)
ShowMessage("\\n<Luka>")
ShowMessage("Ah! Ahhhh!!")
ShowMessageFace("",0,0,2,48)
ShowMessage("The silk tightens around me again, forcing it even deeper into my skin.")
ShowMessageFace("",0,0,2,49)
ShowMessage("Barely able to even move any longer, the stimulation from the sucking motion made by the cocoon gets even more intense.")
ShowMessage("The stimulation is given not only to my crotch but to my entire body.")
ShowMessageFace("",0,0,2,50)
ShowMessage("I'm just its prey... I'll be stuck in here forever...")
ShowMessage("This pleasure will continue forever, with no release ever granted to me.")
ShowMessageFace("",0,0,2,51)
ShowMessage("\\n<Luka>")
ShowMessage("Ahh! Ahhh!!")
ShowMessageFace("",0,0,2,52)
ShowMessage("I start to cry at the thought of my terrible fate, but it's quickly replaced by a powerful orgasm blowing through me.")
ShowMessageFace("",0,0,2,53)
ShowMessage("\\n<Luka>")
ShowMessage("Ahh... I'm coming!")
ShowMessage("Aaaaaah!!")
RunCommonEvent(104)
PictureDisplay(5,"ev_kaiko_h14",0,0,0,0,100,100,255,0)
RunCommonEvent(105)
ShowMessageFace("kaiko_fc1",1,0,2,54)
ShowMessage("\\n<Silk>")
ShowMessage("Hehe, please come as much as you want...")
ShowMessage("Every time you fill the cocoon with your semen, I can collect it and use it as my nutrients.")
ShowMessageFace("",0,0,2,55)
ShowMessage("\\n<Luka>")
ShowMessage("Ah, aaaaaah!!")
ShowMessageFace("",0,0,2,56)
ShowMessage("As the sweet ecstasy continues to take over more and more of my body, the fear in my mind grows stronger.")
ShowMessage("This is a nightmare...")
ShowMessageFace("",0,0,2,57)
ShowMessage("\\n<Luka>")
ShowMessage("Ah, auuu...")
ShowMessageFace("",0,0,2,58)
ShowMessage("But it's no dream... I have no power to escape...")
ShowMessage("Stuck inside this cocoon, I can't do anything but be squeezed.")
ShowMessageFace("kaiko_fc1",1,0,2,59)
ShowMessage("\\n<Silk>")
ShowMessage("Hehe... How pitiful.")
ShowMessage("The more you struggle, the tighter it gets. The tighter it gets, the better it feels.")
ShowMessageFace("",0,0,2,60)
ShowMessage("\\n<Luka>")
ShowMessage("Ah... Ahhhh!")
ShowMessageFace("",0,0,2,61)
ShowMessage("With the last of my strength, I try to break free.")
ShowMessage("But my powerful struggle is met with an even more powerful squeeze by the cocoon, and I'm instantly forced to an orgasm.")
RunCommonEvent(104)
PictureDisplay(5,"ev_kaiko_h15",0,0,0,0,100,100,255,0)
RunCommonEvent(105)
ShowMessageFace("",0,0,2,62)
ShowMessage("My final desperate act only resulted in a powerful orgasm.")
ShowMessage("Beaten by the cocoon, I give in to despair.")
ShowMessageFace("",0,0,2,63)
ShowMessage("\\n<Luka>")
ShowMessage("Haaa... H...Help me...")
ShowMessageFace("kaiko_fc1",1,0,2,64)
ShowMessage("\\n<Silk>")
ShowMessage("Hehe... There's no escape from inside my cocoon.")
ShowMessage("No matter how you cry or shout, it will just continue to suck out your semen endlessly.")
ShowMessageFace("",0,0,2,65)
ShowMessage("\\n<Luka>")
ShowMessage("Ah...Ahh...")
ShowMessageFace("",0,0,2,66)
ShowMessage("The cocoons rhythmic sucking continues as she talks, forcing me to another orgasm as I moan pathetically.")
RunCommonEvent(104)
RunCommonEvent(105)
ShowMessageFace("",0,0,2,67)
ShowMessage("Like that, I'm easily brought to another ejaculation.")
ShowMessage("But an orgasm inside here is no release...")
ShowMessageFace("kaiko_fc1",1,0,2,68)
ShowMessage("\\n<Silk>")
ShowMessage("Come on... Ejaculate even more...")
ShowMessage("I'm going to wring you in my cocoon all night long... Fufu.")
ShowMessageFace("",0,0,2,69)
ShowMessage("\\n<Luka>")
ShowMessage("Aaaaaah!!")
RunCommonEvent(104)
RunCommonEvent(105)
221()
PictureClear(5)
PictureClear(6)
246(2)
ShowMessageFace("",0,0,2,70)
ShowMessage("I continued to taste this heavenly pleasure inside the cocoon until I was released the next morning...")
ShowMessageFace("",0,0,2,71)
ShowMessage("......")
RunCommonEvent(3998)
0()
