// EVENT 3146
Name "Archangel Ranael"

If(0,25,1)
 JumpToLabel("反省会")
 0()
EndIf()
PictureDisplay(5,"80_ranael_st32",0,0,0,0,100,100,0,0)
PictureMove(5,null,0,0,0,0,100,100,255,0,30,true)
241(bytes(0x04,0x08,0x6f,0x3a,0x0d,0x52,0x50,0x47,0x3a,0x3a,0x42,0x47,0x4d,0x08,0x3a,0x0a,0x40,0x6e,0x61,0x6d,0x65,0x49,0x22,0x09,0x65,0x72,0x6f,0x31,0x06,0x3a,0x06,0x45,0x54,0x3a,0x0c,0x40,0x76,0x6f,0x6c,0x75,0x6d,0x65,0x69,0x69,0x3a,0x0b,0x40,0x70,0x69,0x74,0x63,0x68,0x69,0x69))
ShowMessageFace("",0,0,2,1)
ShowMessage("\\n<Luka>Ahhh...")
ShowMessageFace("ranael_fc1",1,0,2,2)
ShowMessage("\\n<Ranael>You can't resist any longer now.\nI'll let you choose the method of your death...")
PictureDisplay(5,"ev_ranael_h0",0,0,0,0,100,100,255,0)
ShowMessageFace("",0,0,2,3)
ShowMessage("Ranael looks at me with a sadistic smile as she leans over me, sealing off my movement.")
ShowMessageFace("ranael_fc1",1,0,2,4)
ShowMessage("\\n<Ranael>Do you want my snake hair to play with you, squeezing you until your death?\nOr perhaps having my left arm thoroughly draining you of your semen?")
ShowMessageFace("ranael_fc1",1,0,2,5)
ShowMessage("\\n<Ranael>Perhaps being squeezed over and over by my tentacles, and dying a debilitating death?\nThere's always having your penis chewed on by my venus flytrap, and dissolving away with it...")
ShowMessageFace("ranael_fc1",1,0,2,6)
ShowMessage("\\n<Ranael>How do you want to climax?\nChoose your own death... Hahaha!")
ShowMessageFace("",0,0,2,7)
ShowMessage("\\n<Luka>N...no... I don't want anything!")
ShowMessageFace("ranael_fc1",1,0,2,8)
ShowMessage("\\n<Ranael>If you don't choose, I'll just cut off your head now.")
ShowMessageFace("ranael_fc1",1,0,2,9)
ShowMessage("\\n<Ranael>You don't want that, do you...?\nAt the very least, you might as well feel good as a man before you go...")
ShowMessageFace("ranael_fc1",1,0,2,10)
ShowMessage("\\n<Ranael>Now choose...\nHow do you want to die?")
ShowMessageFace("",0,0,2,11)
ShowMessage("\\n<Luka>Urhg...")
ShowMessageFace("",0,0,2,12)
ShowMessage("If I'm going to die anyway...")
ShowChoices(strings("Snake Hair","Left Arm","Tentacles","Venus Flytrap"),0)
IfPlayerPicksChoice(0,"Snake Hair")
 ShowMessageFace("ranael_fc1",1,0,2,13)
 ShowMessage("\\n<Ranael>Ahaha... You want snakes to indulge in your genitals.\nWhat a pathetic way to go.")
 ShowMessageFace("ranael_fc1",1,0,2,14)
 ShowMessage("\\n<Ranael>Very well, I'll let these children play with you until your death.\nEnjoy it all the way to the very end...")
 ShowMessageFace("",0,0,2,15)
 ShowMessage("Ranael's snake hair grows, causing innumerable snakes to approach my body.")
 ShowMessage("They open and close their mouths, searching for their prey.")
 ShowMessageFace("",0,0,2,16)
 ShowMessage("Their prey is my penis...")
 ShowMessage("They're going to indulge and play with it, all to get my semen...")
 ShowMessageFace("",0,0,2,17)
 ShowMessage("\\n<Luka>Ahhh...")
 ShowMessageFace("ranael_fc1",1,0,2,18)
 ShowMessage("\\n<Ranael>They'll give you lots of love...\nUntil you die of course. Hahaha.")
 250(bytes(0x04,0x08,0x6f,0x3a,0x0c,0x52,0x50,0x47,0x3a,0x3a,0x53,0x45,0x08,0x3a,0x0a,0x40,0x6e,0x61,0x6d,0x65,0x49,0x22,0x16,0x6d,0x6f,0x6e,0x5f,0x65,0x72,0x6f,0x5f,0x6d,0x61,0x6b,0x69,0x74,0x75,0x6b,0x69,0x33,0x06,0x3a,0x06,0x45,0x54,0x3a,0x0b,0x40,0x70,0x69,0x74,0x63,0x68,0x69,0x69,0x3a,0x0c,0x40,0x76,0x6f,0x6c,0x75,0x6d,0x65,0x69,0x69))
 245(bytes(0x04,0x08,0x6f,0x3a,0x0d,0x52,0x50,0x47,0x3a,0x3a,0x42,0x47,0x53,0x08,0x3a,0x0a,0x40,0x6e,0x61,0x6d,0x65,0x49,0x22,0x1e,0x6d,0x6f,0x6e,0x5f,0x68,0x73,0x65,0x61,0x6e,0x31,0x31,0x5f,0x69,0x6e,0x6e,0x65,0x72,0x77,0x6f,0x72,0x6b,0x73,0x5f,0x63,0x31,0x06,0x3a,0x06,0x45,0x54,0x3a,0x0c,0x40,0x76,0x6f,0x6c,0x75,0x6d,0x65,0x69,0x55,0x3a,0x0b,0x40,0x70,0x69,0x74,0x63,0x68,0x69,0x69))
 PictureDisplay(5,"ev_ranael_ha1",0,0,0,0,100,100,255,0)
 ShowMessageFace("",0,0,2,19)
 ShowMessage("They quickly find my penis, and all attack it at once.")
 ShowMessage("One of them bites down, the strange sensation of its toothless mouth assaulting me all at once.")
 ShowMessageFace("",0,0,2,20)
 ShowMessage("\\n<Luka>Ah...! Hyaa!")
 ShowMessageFace("",0,0,2,21)
 ShowMessage("One by one, they bite down on different parts of my penis.")
 ShowMessage("A strange sense as the toothless mouths all gently chew at various speeds and intensities.")
 ShowMessageFace("",0,0,2,22)
 ShowMessage("Another snake chews just on the tip of my penis.")
 ShowMessage("All of it together makes my eyes widen in surprise at the sudden powerful pleasure.")
 ShowMessageFace("",0,0,2,23)
 ShowMessage("\\n<Luka>Hyaa... A...Amazing...\nTh...This...")
 ShowMessageFace("ranael_fc1",1,0,2,24)
 ShowMessage("\\n<Ranael>Hahaha... You look so happy.\nDo you love having your penis played with by my snakes that much?")
 ShowMessageFace("ranael_fc1",1,0,2,25)
 ShowMessage("\\n<Ranael>But prepare yourself...\nWhen these children make you come, they also devour your life force itself.")
 ShowMessageFace("ranael_fc1",1,0,2,26)
 ShowMessage("\\n<Ranael>I take pride in the skill they show when squeezing men to death...")
 ShowMessageFace("",0,0,2,27)
 ShowMessage("\\n<Luka>N...no... Hya!")
 ShowMessageFace("",0,0,2,28)
 ShowMessage("The snake chewing on my penis presses down a little harder, making me moan a little.")
 ShowMessageFace("",0,0,2,29)
 ShowMessage("I can't help but shake my waist as I stare at the snakes forcing me to feel this way.")
 ShowMessageFace("",0,0,2,30)
 ShowMessage("My most important part is being treated in such a miserable way...")
 ShowMessageFace("ranael_fc1",1,0,2,31)
 ShowMessage("\\n<Ranael>Aha... Does it feel good having my snakes indulge on you like that?\nWhat a worthless male pig...")
 ShowMessageFace("ranael_fc1",1,0,2,32)
 ShowMessage("\\n<Ranael>You seem to be about ready to leak out...\nWhy don't you just surrender, and let it out?")
 ShowMessageFace("",0,0,2,33)
 ShowMessage("\\n<Luka>Ah... Urhg...")
 ShowMessageFace("",0,0,2,34)
 ShowMessage("They'll absorb my life force if I come...")
 ShowMessage("I don't think I can endure it much longer, but I don't want to die.")
 ShowMessageFace("",0,0,2,35)
 ShowMessage("As I grit my teeth and hold on, Ranael looks down at me and laughs.")
 ShowMessageFace("ranael_fc1",1,0,2,36)
 ShowMessage("\\n<Ranael>Stop holding it in...\nJust come, and feel good until your death...")
 ShowMessageFace("",0,0,2,37)
 ShowMessage("\\n<Luka>Guh... I won't come...")
 ShowMessageFace("ranael_fc1",1,0,2,38)
 ShowMessage("\\n<Ranael>Hahaha... Then I wonder how long you will last?\nIt will be forced out of you eventually anyway.")
 ShowMessageFace("",0,0,2,39)
 ShowMessage("Ranael just laughs at my desperate attempt to hang on.")
 ShowMessage("At the same time, the snake biting on my glans takes my tip in a little deeper into its mouth as it chews on me.")
 ShowMessageFace("",0,0,2,40)
 ShowMessage("The sweet pleasure makes my vision go blindingly white.")
 ShowMessage("My lower body starts to ache... I don't think I can hold on much longer.")
 ShowMessageFace("",0,0,2,41)
 ShowMessage("\\n<Luka>Stop... Stop... Ahh...\nI'm about to...")
 ShowMessageFace("ranael_fc1",1,0,2,42)
 ShowMessage("\\n<Ranael>Haha... Already giving up?\nThat was unbelievably fast...")
 ShowMessageFace("",0,0,2,43)
 ShowMessage("Almost as if spurred on by my pulsing penis, the snakes suddenly start chewing and biting on me even faster.")
 ShowMessageFace("",0,0,2,44)
 ShowMessage("Even though the scene looks horrifying, it feels so good...")
 ShowMessageFace("",0,0,2,45)
 ShowMessage("Despite my best efforts, I feel my body giving over to it.")
 ShowMessageFace("",0,0,2,46)
 ShowMessage("\\n<Luka>Ah...C...Coming... Ahhh!")
 RunCommonEvent(104)
 PictureDisplay(5,"ev_ranael_ha2",0,0,0,0,100,100,255,0)
 RunCommonEvent(105)
 ShowMessageFace("",0,0,2,47)
 ShowMessage("With a few spurts, my semen sprays out, covering the snakes.")
 ShowMessage("Eager to get at it, they swarm my penis, biting and licking everywhere as I come.")
 ShowMessageFace("",0,0,2,48)
 ShowMessage("At the same time, the overpowering weakness of my life energy draining slams into me.")
 ShowMessage("If this happens a couple more times, I'll be dead...")
 ShowMessageFace("",0,0,2,49)
 ShowMessage("\\n<Luka>Ahhh...")
 ShowMessageFace("ranael_fc1",1,0,2,50)
 ShowMessage("\\n<Ranael>Hahaha... You came.\nYou're already finished.")
 ShowMessageFace("ranael_fc1",1,0,2,51)
 ShowMessage("\\n<Ranael>Now then... Please die.")
 245(bytes(0x04,0x08,0x6f,0x3a,0x0d,0x52,0x50,0x47,0x3a,0x3a,0x42,0x47,0x53,0x08,0x3a,0x0a,0x40,0x6e,0x61,0x6d,0x65,0x49,0x22,0x1e,0x6d,0x6f,0x6e,0x5f,0x68,0x73,0x65,0x61,0x6e,0x31,0x32,0x5f,0x69,0x6e,0x6e,0x65,0x72,0x77,0x6f,0x72,0x6b,0x73,0x5f,0x63,0x32,0x06,0x3a,0x06,0x45,0x54,0x3a,0x0c,0x40,0x76,0x6f,0x6c,0x75,0x6d,0x65,0x69,0x55,0x3a,0x0b,0x40,0x70,0x69,0x74,0x63,0x68,0x69,0x69))
 ShowMessageFace("",0,0,2,52)
 ShowMessage("With Ranael's chilling command, the snakes resume their toothless chewing.")
 ShowMessageFace("",0,0,2,53)
 ShowMessage("The snake chewing on my tip bites down even harder than before.")
 ShowMessageFace("",0,0,2,54)
 ShowMessage("My body feebly shakes and twitches as they indulge and feed on me.")
 ShowMessageFace("",0,0,2,56)
 ShowMessage("\\n<Luka>Ahhh...!\nStop!!")
 ShowMessageFace("ranael_fc1",1,0,2,57)
 ShowMessage("\\n<Ranael>Hahaha... There's no mercy for you now.")
 ShowMessageFace("ranael_fc1",1,0,2,58)
 ShowMessage("\\n<Ranael>No matter how much you cry and plead,\nyou won't be saved.")
 ShowMessageFace("ranael_fc1",1,0,2,59)
 ShowMessage("\\n<Ranael>Just continue coming as your life fades away.")
 ShowMessageFace("ranael_fc1",1,0,2,60)
 ShowMessage("\\n<Ranael>A fitting end to a male pig like you.")
 ShowMessageFace("",0,0,2,61)
 ShowMessage("\\n<Luka>No... Coming again...!")
 RunCommonEvent(104)
 PictureDisplay(5,"ev_ranael_ha3",0,0,0,0,100,100,255,0)
 RunCommonEvent(105)
 ShowMessageFace("",0,0,2,62)
 ShowMessage("As the snakes bite and greedily suck on my penis, I come again.")
 ShowMessage("More of my life force drains, leaving me far weaker than I already was.")
 ShowMessageFace("",0,0,2,63)
 ShowMessage("My thoughts get woozy and confused...")
 ShowMessage("Any more than this will be really dangerous.")
 ShowMessageFace("",0,0,2,64)
 ShowMessage("\\n<Luka>Haa... It feels good...")
 ShowMessageFace("ranael_fc1",1,0,2,65)
 ShowMessage("\\n<Ranael>Haha...\nEven though you know it's killing you, you can't stop coming.")
 ShowMessageFace("ranael_fc1",1,0,2,66)
 ShowMessage("\\n<Ranael>What a wretched pig of a man.")
 ShowMessageFace("",0,0,2,67)
 ShowMessage("\\n<Luka>Hyaaa...")
 ShowMessageFace("",0,0,2,68)
 ShowMessage("Before I had noticed it, I was completely a captive of the pleasures these snakes are forcing into me.")
 ShowMessageFace("",0,0,2,69)
 ShowMessage("I want to give them semen, and have them continue lusting after me...")
 ShowMessage("Having my thoughts confused and reversed, I eagerly relax into another climax.")
 ShowMessageFace("",0,0,2,70)
 ShowMessage("\\n<Luka>Ahh...")
 RunCommonEvent(104)
 PictureDisplay(5,"ev_ranael_ha4",0,0,0,0,100,100,255,0)
 RunCommonEvent(105)
 ShowMessageFace("",0,0,2,71)
 ShowMessage("More power fades from me as I come, feeding the snakes desire.")
 ShowMessageFace("ranael_fc1",1,0,2,72)
 ShowMessage("\\n<Ranael>Hahaha... Are you still able to comprehend that you're dying?")
 ShowMessageFace("ranael_fc1",1,0,2,73)
 ShowMessage("\\n<Ranael>Does it feel that good?")
 ShowMessageFace("ranael_fc1",1,0,2,74)
 ShowMessage("\\n<Ranael>Now please die...\nImmersed in pleasure.")
 ShowMessageFace("",0,0,2,75)
 ShowMessage("\\n<Luka>Ah... Hyaa...")
 RunCommonEvent(104)
 RunCommonEvent(105)
 ShowMessageFace("",0,0,2,76)
 ShowMessage("I can't even move a finger any longer.")
 ShowMessageFace("",0,0,2,77)
 ShowMessage("The only thing I can sense is the ruthless pleasure taking hold of my body.")
 RunCommonEvent(104)
 RunCommonEvent(105)
 ShowMessageFace("",0,0,2,78)
 ShowMessage("\\n<Luka>Ahh...")
 ShowMessageFace("",0,0,2,79)
 ShowMessage("With a final spasm of my body, I feel the last of my power being taken by the greedy snakes.")
 RunCommonEvent(104)
 RunCommonEvent(105)
 221()
 PictureClear(5)
 246(2)
 ShowMessageFace("",0,0,2,80)
 ShowMessage("At the very end, I faded into darkness with a smile on my face as I gave myself over to desire.")
 ShowMessageFace("",0,0,2,81)
 ShowMessage("Thus, I welcomed my own cruel fate...")
 ShowMessageFace("",0,0,2,82)
 ShowMessage("..............")
 0()
IfPlayerPicksChoice(1,"Left Arm")
 ShowMessageFace("ranael_fc1",1,0,2,83)
 ShowMessage("\\n<Ranael>Ahaha... So you want this tentacle to suck on you as you die?\nThat's how you wish to meet your end? How pathetic...")
 ShowMessageFace("ranael_fc1",1,0,2,84)
 ShowMessage("\\n<Ranael>Very well, I'll suck on you until you're dry.\nEnjoy it, until you breath your last.")
 ShowMessageFace("",0,0,2,85)
 ShowMessage("Ranael's left arm extends, pressing against my crotch with a tube-shaped end.")
 ShowMessageFace("",0,0,2,86)
 ShowMessage("Its prey is my penis.")
 ShowMessage("Once it sucks me in, it will suck out my semen until I die...")
 ShowMessageFace("",0,0,2,87)
 ShowMessage("\\n<Luka>Ahhh...")
 ShowMessageFace("ranael_fc1",1,0,2,88)
 ShowMessage("\\n<Ranael>I'll suck up all of that semen of yours...\nUntil you shrivel and die!")
 250(bytes(0x04,0x08,0x6f,0x3a,0x0c,0x52,0x50,0x47,0x3a,0x3a,0x53,0x45,0x08,0x3a,0x0a,0x40,0x6e,0x61,0x6d,0x65,0x49,0x22,0x16,0x6d,0x6f,0x6e,0x5f,0x65,0x72,0x6f,0x5f,0x6d,0x61,0x6b,0x69,0x74,0x75,0x6b,0x69,0x33,0x06,0x3a,0x06,0x45,0x54,0x3a,0x0b,0x40,0x70,0x69,0x74,0x63,0x68,0x69,0x69,0x3a,0x0c,0x40,0x76,0x6f,0x6c,0x75,0x6d,0x65,0x69,0x69))
 245(bytes(0x04,0x08,0x6f,0x3a,0x0d,0x52,0x50,0x47,0x3a,0x3a,0x42,0x47,0x53,0x08,0x3a,0x0a,0x40,0x6e,0x61,0x6d,0x65,0x49,0x22,0x17,0x6d,0x6f,0x6e,0x5f,0x68,0x73,0x65,0x61,0x6e,0x31,0x34,0x5f,0x6b,0x79,0x75,0x69,0x6e,0x31,0x06,0x3a,0x06,0x45,0x54,0x3a,0x0c,0x40,0x76,0x6f,0x6c,0x75,0x6d,0x65,0x69,0x55,0x3a,0x0b,0x40,0x70,0x69,0x74,0x63,0x68,0x69,0x69))
 PictureDisplay(5,"ev_ranael_hb1",0,0,0,0,100,100,255,0)
 ShowMessageFace("",0,0,2,89)
 ShowMessage("The tentacle sucks in my penis, and instantly starts sucking on me.")
 ShowMessage("At the same time, another tentacle latches onto my balls, and starts sucking.")
 ShowMessageFace("",0,0,2,90)
 ShowMessage("\\n<Luka>Ah! Hyaa!")
 ShowMessageFace("",0,0,2,91)
 ShowMessage("The sense of being sucked fills my body.")
 ShowMessageFace("",0,0,2,92)
 ShowMessage("As the tentacle sucks on me, the texture of its soft walls rubs against my penis, too.")
 ShowMessageFace("",0,0,2,93)
 ShowMessage("A stimulation to provoke men to come...")
 ShowMessage("I can already feel my body giving itself over to it.")
 ShowMessageFace("",0,0,2,94)
 ShowMessage("\\n<Luka>Hyaa... A...Amazing...")
 ShowMessageFace("ranael_fc1",1,0,2,95)
 ShowMessage("\\n<Ranael>Hahaha... You look so happy.\nIs it so enjoyable having your penis sucked by my tentacle?")
 ShowMessageFace("ranael_fc1",1,0,2,96)
 ShowMessage("\\n<Ranael>But prepare yourself...")
 ShowMessageFace("ranael_fc1",1,0,2,97)
 ShowMessage("\\n<Ranael>This tentacle will suck out your life in addition to your semen.")
 ShowMessageFace("ranael_fc1",1,0,2,98)
 ShowMessage("\\n<Ranael>That's the function of this tentacle...\nSolely to suck men to death.")
 ShowMessageFace("",0,0,2,99)
 ShowMessage("\\n<Luka>N...no... Hyaa!")
 ShowMessageFace("",0,0,2,100)
 ShowMessage("My waist unconsciously jerks upwards as my glans is sucked on.")
 ShowMessageFace("",0,0,2,101)
 ShowMessage("I writhe in agony, unable to take my eyes off the tentacle forcing this pleasure into me.")
 ShowMessageFace("",0,0,2,102)
 ShowMessage("The most important part of a man, treated to such humiliation...")
 ShowMessageFace("ranael_fc1",1,0,2,103)
 ShowMessage("\\n<Ranael>Ahaha... Does it feel good being sucked on by my tentacle?\nIt's quite pathetic to be so happy from this...")
 ShowMessageFace("ranael_fc1",1,0,2,104)
 ShowMessage("\\n<Ranael>Is your precious juice about to be sucked out?")
 ShowMessageFace("ranael_fc1",1,0,2,105)
 ShowMessage("\\n<Ranael>There's no need to endure it...")
 ShowMessageFace("",0,0,2,106)
 ShowMessage("\\n<Luka>Ah... Urhg...")
 ShowMessageFace("",0,0,2,107)
 ShowMessage("If I come, my life itself will go out with my semen.")
 ShowMessage("I don't think I can endure it much longer, but I don't want to die.")
 ShowMessageFace("",0,0,2,108)
 ShowMessage("Ranael laughs as she looks at me, trying my hardest to hold on.")
 ShowMessageFace("ranael_fc1",1,0,2,109)
 ShowMessage("\\n<Ranael>Stop holding it in...\nJust come, and feel good until your death...")
 ShowMessageFace("",0,0,2,110)
 ShowMessage("\\n<Luka>Guh... I won't come...")
 ShowMessageFace("ranael_fc1",1,0,2,111)
 ShowMessage("\\n<Ranael>Hahaha... Then I wonder how long you will last?\nIt will be forced out of you eventually anyway.")
 ShowMessageFace("",0,0,2,112)
 ShowMessage("Ranael just laughs at my desperate attempt to hang on.")
 ShowMessageFace("",0,0,2,113)
 ShowMessage("The slimy sensation of the tentacle sucking on me fills all my thoughts, slowly wearing down my resistance.")
 ShowMessageFace("",0,0,2,114)
 ShowMessage("The sweet pleasure makes my vision go blindingly white.")
 ShowMessage("My lower body starts to ache... I don't think I can hold on much longer.")
 ShowMessageFace("",0,0,2,115)
 ShowMessage("\\n<Luka>Stop... Stop... Ahh...\nI'm about to...")
 ShowMessageFace("ranael_fc1",1,0,2,116)
 ShowMessage("\\n<Ranael>Haha... Already giving up?\nThat was unbelievably fast...")
 ShowMessageFace("",0,0,2,117)
 ShowMessage("The tentacle sucking on my tip suddenly increases in intensity, as if sensing how close I am to climaxing.")
 ShowMessageFace("",0,0,2,118)
 ShowMessage("At the same time, the ones sucking on my balls start to push and pull even quicker.")
 ShowMessageFace("",0,0,2,119)
 ShowMessage("It feels like my soul itself is being sucked out...")
 ShowMessage("Overcome by the sensation of having my everything sucked out, I relax my lower body and give in to it.")
 ShowMessageFace("",0,0,2,120)
 ShowMessage("\\n<Luka>Ahh... Coming... Hyaa!")
 RunCommonEvent(104)
 PictureDisplay(5,"ev_ranael_hb2",0,0,0,0,100,100,255,0)
 RunCommonEvent(105)
 ShowMessageFace("",0,0,2,121)
 ShowMessage("With a twitch, my penis erupts, pouring my semen right into the sucking tentacle's hole.")
 ShowMessage("At the same time, the overpowering weakness of my life energy draining slams into me.")
 ShowMessageFace("",0,0,2,122)
 ShowMessage("If this happens a couple more times, I'll be dead...")
 ShowMessageFace("",0,0,2,123)
 ShowMessage("\\n<Luka>Ahhh...")
 ShowMessageFace("ranael_fc1",1,0,2,124)
 ShowMessage("\\n<Ranael>Hahaha... You came.\nYou're already finished.")
 ShowMessageFace("ranael_fc1",1,0,2,125)
 ShowMessage("\\n<Ranael>Now then... Please die.")
 245(bytes(0x04,0x08,0x6f,0x3a,0x0d,0x52,0x50,0x47,0x3a,0x3a,0x42,0x47,0x53,0x08,0x3a,0x0a,0x40,0x6e,0x61,0x6d,0x65,0x49,0x22,0x17,0x6d,0x6f,0x6e,0x5f,0x68,0x73,0x65,0x61,0x6e,0x31,0x35,0x5f,0x6b,0x79,0x75,0x69,0x6e,0x32,0x06,0x3a,0x06,0x45,0x54,0x3a,0x0c,0x40,0x76,0x6f,0x6c,0x75,0x6d,0x65,0x69,0x55,0x3a,0x0b,0x40,0x70,0x69,0x74,0x63,0x68,0x69,0x69))
 ShowMessageFace("",0,0,2,126)
 ShowMessage("With Ranael's chilling command, the suction drastically increases in intensity.")
 ShowMessageFace("",0,0,2,127)
 ShowMessage("The tentacle shrinks inside, suddenly getting far tighter than before.")
 ShowMessageFace("",0,0,2,128)
 ShowMessage("At the same time, the vacuum like pressure feels like it's almost pulling my whole body inside.")
 ShowMessageFace("",0,0,2,129)
 ShowMessage("\\n<Luka>Ahhh!!\nStop!!")
 ShowMessageFace("ranael_fc1",1,0,2,130)
 ShowMessage("\\n<Ranael>Hahaha... There's no mercy for you now.")
 ShowMessageFace("ranael_fc1",1,0,2,131)
 ShowMessage("\\n<Ranael>No matter how much you cry and plead,\nyou won't be saved.")
 ShowMessageFace("ranael_fc1",1,0,2,132)
 ShowMessage("\\n<Ranael>Just continue coming as your life fades away.")
 ShowMessageFace("ranael_fc1",1,0,2,133)
 ShowMessage("\\n<Ranael>A fitting end to a male pig like you.")
 ShowMessageFace("",0,0,2,134)
 ShowMessage("\\n<Luka>No... I'm coming again...!")
 RunCommonEvent(104)
 PictureDisplay(5,"ev_ranael_hb3",0,0,0,0,100,100,255,0)
 RunCommonEvent(105)
 ShowMessageFace("",0,0,2,135)
 ShowMessage("My body spasms as I come again, erupting right into the sucking tentacle's hole.")
 ShowMessage("More of my life force drains, leaving me far weaker than I already was.")
 ShowMessageFace("",0,0,2,136)
 ShowMessage("My thoughts get woozy and confused...")
 ShowMessage("Any more than this will be really dangerous.")
 ShowMessageFace("",0,0,2,137)
 ShowMessage("\\n<Luka>Haaa... It feels so good...")
 ShowMessageFace("ranael_fc1",1,0,2,138)
 ShowMessage("\\n<Ranael>Haha...\nEven though you know it's killing you, you can't stop coming.")
 ShowMessageFace("ranael_fc1",1,0,2,139)
 ShowMessage("\\n<Ranael>What a wretched pig of a man.")
 ShowMessageFace("",0,0,2,140)
 ShowMessage("\\n<Luka>Hyaaa...")
 ShowMessageFace("",0,0,2,141)
 ShowMessage("The heartless tentacles keep sucking on me, oblivious to my fears.")
 ShowMessageFace("",0,0,2,142)
 ShowMessage("Before I had noticed it, I had surrendered to this ecstasy.")
 ShowMessage("I want to give my semen to this lustful tentacle, and indulge in the pleasure.")
 ShowMessageFace("",0,0,2,143)
 ShowMessage("\\n<Luka>Ahh...")
 RunCommonEvent(104)
 PictureDisplay(5,"ev_ranael_hb4",0,0,0,0,100,100,255,0)
 RunCommonEvent(105)
 ShowMessageFace("",0,0,2,144)
 ShowMessage("Each time I ejaculate, a large portion of my energy fades with it.")
 ShowMessageFace("ranael_fc1",1,0,2,145)
 ShowMessage("\\n<Ranael>Hahaha... Are you still able to comprehend that you're dying?")
 ShowMessageFace("ranael_fc1",1,0,2,146)
 ShowMessage("\\n<Ranael>Does it feel that good?")
 ShowMessageFace("ranael_fc1",1,0,2,147)
 ShowMessage("\\n<Ranael>Now please die... Immersed in pleasure.")
 ShowMessageFace("",0,0,2,148)
 ShowMessage("\\n<Luka>Ah... Hyaa...")
 RunCommonEvent(104)
 RunCommonEvent(105)
 ShowMessageFace("",0,0,2,149)
 ShowMessage("I can't even move a finger any longer.")
 ShowMessageFace("",0,0,2,150)
 ShowMessage("The only thing I can sense is the ruthless pleasure taking hold of my body as the tentacles suck on me.")
 RunCommonEvent(104)
 RunCommonEvent(105)
 ShowMessageFace("",0,0,2,151)
 ShowMessage("\\n<Luka>Ahh...")
 ShowMessageFace("",0,0,2,152)
 ShowMessage("With a final shudder and climax, I reach my end.")
 ShowMessage("Feeling as if my soul itself is being sucked out by these tentacles.")
 RunCommonEvent(104)
 RunCommonEvent(105)
 221()
 PictureClear(5)
 246(2)
 ShowMessageFace("",0,0,2,153)
 ShowMessage("At the very end, I faded into darkness with a smile on my face as I gave myself over to desire.")
 ShowMessageFace("",0,0,2,154)
 ShowMessage("Thus, I welcomed my own cruel fate...")
 ShowMessageFace("",0,0,2,155)
 ShowMessage("..............")
 0()
IfPlayerPicksChoice(2,"Tentacles")
 ShowMessageFace("ranael_fc1",1,0,2,156)
 ShowMessage("\\n<Ranael>Ahaha... You want to meet your end being stroked by these soft tentacles?")
 ShowMessageFace("ranael_fc1",1,0,2,157)
 ShowMessage("\\n<Ranael>What a pitiful way to reach your end...")
 ShowMessageFace("ranael_fc1",1,0,2,158)
 ShowMessage("\\n<Ranael>Very well... I'll squeeze you until you die.\nEnjoy your last moments!")
 ShowMessageFace("",0,0,2,159)
 ShowMessage("Octopus-like tentacles from Ranael's lower body reach out toward my groin.")
 ShowMessage("They look slimy, and have mucus dripping off of them...")
 ShowMessageFace("",0,0,2,160)
 ShowMessage("Their prey is my penis...")
 ShowMessage("They'll wind around my penis, and stroke it until I come...")
 ShowMessageFace("",0,0,2,161)
 ShowMessage("\\n<Luka>Ahhh...")
 ShowMessageFace("ranael_fc1",1,0,2,162)
 ShowMessage("\\n<Ranael>I'll give you lots of love.\n...Until you die. Hahaha.")
 250(bytes(0x04,0x08,0x6f,0x3a,0x0c,0x52,0x50,0x47,0x3a,0x3a,0x53,0x45,0x08,0x3a,0x0a,0x40,0x6e,0x61,0x6d,0x65,0x49,0x22,0x16,0x6d,0x6f,0x6e,0x5f,0x65,0x72,0x6f,0x5f,0x6d,0x61,0x6b,0x69,0x74,0x75,0x6b,0x69,0x32,0x06,0x3a,0x06,0x45,0x54,0x3a,0x0b,0x40,0x70,0x69,0x74,0x63,0x68,0x69,0x69,0x3a,0x0c,0x40,0x76,0x6f,0x6c,0x75,0x6d,0x65,0x69,0x69))
 245(bytes(0x04,0x08,0x6f,0x3a,0x0d,0x52,0x50,0x47,0x3a,0x3a,0x42,0x47,0x53,0x08,0x3a,0x0a,0x40,0x6e,0x61,0x6d,0x65,0x49,0x22,0x1a,0x6d,0x6f,0x6e,0x5f,0x68,0x73,0x65,0x61,0x6e,0x32,0x30,0x5f,0x74,0x65,0x6e,0x74,0x61,0x63,0x6c,0x65,0x31,0x06,0x3a,0x06,0x45,0x54,0x3a,0x0c,0x40,0x76,0x6f,0x6c,0x75,0x6d,0x65,0x69,0x55,0x3a,0x0b,0x40,0x70,0x69,0x74,0x63,0x68,0x69,0x69))
 PictureDisplay(5,"ev_ranael_hc1",0,0,0,0,100,100,255,0)
 ShowMessageFace("",0,0,2,163)
 ShowMessage("The soft, elastic tentacles coil around my penis, slowly enveloping it.")
 ShowMessageFace("",0,0,2,164)
 ShowMessage("\\n<Luka>Ah...! Hyaaa!")
 ShowMessageFace("",0,0,2,165)
 ShowMessage("Her tentacles slowly tighten around my penis, causing me to almost sink into them.")
 ShowMessageFace("",0,0,2,166)
 ShowMessage("The slimy mucus covering the tentacles lubricates my penis, making every movement almost unbearable.")
 ShowMessageFace("",0,0,2,167)
 ShowMessage("The sweet, tight sensations make it feel like I could throw everything away and just drown in the sensations.")
 ShowMessageFace("",0,0,2,168)
 ShowMessage("\\n<Luka>Hyaa... A...Amazing...")
 ShowMessageFace("ranael_fc1",1,0,2,169)
 ShowMessage("\\n<Ranael>Hahaha... You look so happy.\nIs it really that amazing having my tentacles coiled around your penis?")
 ShowMessageFace("ranael_fc1",1,0,2,170)
 ShowMessage("\\n<Ranael>But prepare yourself...\nThis tentacle will also squeeze out your life in addition to your semen.")
 ShowMessageFace("ranael_fc1",1,0,2,171)
 ShowMessage("\\n<Ranael>That's the function of this tentacle...\nSolely to squeeze men to death.")
 ShowMessageFace("",0,0,2,172)
 ShowMessage("\\n<Luka>Ah! Hyaa!")
 ShowMessageFace("",0,0,2,173)
 ShowMessage("The sense of being squeezed fills my body.")
 ShowMessageFace("",0,0,2,174)
 ShowMessage("As the tentacle tightens around me, my penis sinks into its soft, slimy skin.")
 ShowMessageFace("",0,0,2,175)
 ShowMessage("A stimulation to provoke men to come...")
 ShowMessage("I can already feel my body giving itself over to it.")
 ShowMessageFace("ranael_fc1",1,0,2,176)
 ShowMessage("\\n<Ranael>Ahaha... Does it feel good being squeezed by my tentacles?")
 ShowMessageFace("ranael_fc1",1,0,2,177)
 ShowMessage("\\n<Ranael>It's quite pathetic to be so happy from this...")
 ShowMessageFace("ranael_fc1",1,0,2,178)
 ShowMessage("\\n<Ranael>Is your precious juice about to burst out?\nThere's no need to endure it...")
 ShowMessageFace("",0,0,2,179)
 ShowMessage("\\n<Luka>Ah... Urhg...")
 ShowMessageFace("",0,0,2,180)
 ShowMessage("If I come, my life itself will go out with my semen.")
 ShowMessage("I don't think I can endure it much longer, but I don't want to die.")
 ShowMessageFace("",0,0,2,181)
 ShowMessage("Ranael laughs as she looks at me, trying my hardest to hold on.")
 ShowMessageFace("ranael_fc1",1,0,2,182)
 ShowMessage("\\n<Ranael>Stop holding it in...\nJust come, and feel good until your death...")
 ShowMessageFace("",0,0,2,183)
 ShowMessage("\\n<Luka>Guh... I won't come...")
 ShowMessageFace("ranael_fc1",1,0,2,184)
 ShowMessage("\\n<Ranael>Hahaha... Then I wonder how long you will last?\nIt will be forced out of you eventually anyway.")
 ShowMessageFace("",0,0,2,185)
 ShowMessage("Ranael just laughs at my desperate attempt to hang on.")
 ShowMessageFace("",0,0,2,186)
 ShowMessage("The soft sensation of the tentacle coiled around my penis fills all my thoughts, slowly wearing down my resistance.")
 ShowMessageFace("",0,0,2,187)
 ShowMessage("The sweet pleasure makes my vision go blinding white.")
 ShowMessage("My lower body starts to ache... I don't think I can hold on much longer.")
 ShowMessageFace("",0,0,2,188)
 ShowMessage("\\n<Luka>Stop... Stop... Ahh...\nI'm about to...")
 ShowMessageFace("ranael_fc1",1,0,2,189)
 ShowMessage("\\n<Ranael>Haha... Already giving up?\nThat was unbelievably fast...")
 ShowMessageFace("",0,0,2,190)
 ShowMessage("A sucker attaches itself to my glans, and starts to pull on the tip.")
 ShowMessage("At the same time, her coiled tentacle starts to stroke my penis up and down.")
 ShowMessageFace("",0,0,2,191)
 ShowMessage("Two more suckers attach to each of my balls, and start to pull on them.")
 ShowMessage("Overcome by the intense stimulation, I'm pushed over the limit at once.")
 ShowMessageFace("",0,0,2,192)
 ShowMessage("\\n<Luka>Ahh... Coming... Hyaa!")
 RunCommonEvent(104)
 PictureDisplay(5,"ev_ranael_hc2",0,0,0,0,100,100,255,0)
 RunCommonEvent(105)
 ShowMessageFace("",0,0,2,193)
 ShowMessage("My penis pulses, and sprays my semen into the air.")
 ShowMessage("It comes back down, falling on the tentacles that skillfully milked it out.")
 ShowMessageFace("",0,0,2,194)
 ShowMessage("At the same time, the overpowering weakness of my life energy draining slams into me.")
 ShowMessage("If this happens a couple more times, I'll be dead...")
 ShowMessageFace("",0,0,2,195)
 ShowMessage("\\n<Luka>Ahhh...")
 ShowMessageFace("ranael_fc1",1,0,2,196)
 ShowMessage("\\n<Ranael>Hahaha... You came.\nYou're already finished.")
 ShowMessageFace("ranael_fc1",1,0,2,197)
 ShowMessage("\\n<Ranael>Now then... Please die.")
 245(bytes(0x04,0x08,0x6f,0x3a,0x0d,0x52,0x50,0x47,0x3a,0x3a,0x42,0x47,0x53,0x08,0x3a,0x0a,0x40,0x6e,0x61,0x6d,0x65,0x49,0x22,0x1a,0x6d,0x6f,0x6e,0x5f,0x68,0x73,0x65,0x61,0x6e,0x32,0x31,0x5f,0x74,0x65,0x6e,0x74,0x61,0x63,0x6c,0x65,0x32,0x06,0x3a,0x06,0x45,0x54,0x3a,0x0c,0x40,0x76,0x6f,0x6c,0x75,0x6d,0x65,0x69,0x55,0x3a,0x0b,0x40,0x70,0x69,0x74,0x63,0x68,0x69,0x69))
 ShowMessageFace("",0,0,2,198)
 ShowMessage("At Ranael's statement, the tentacles suddenly get far more intense.")
 ShowMessageFace("",0,0,2,199)
 ShowMessage("The tentacle tightens around my penis, and drastically increases its up and down movement.")
 ShowMessageFace("",0,0,2,200)
 ShowMessage("At the same time, the suckers pull even harder on my glans and balls, overpowering me in the ecstasy.")
 ShowMessageFace("",0,0,2,202)
 ShowMessage("\\n<Luka>Ahhh!\nStop!!")
 ShowMessageFace("ranael_fc1",1,0,2,203)
 ShowMessage("\\n<Ranael>Hahaha... There's no mercy for you now.")
 ShowMessageFace("ranael_fc1",1,0,2,204)
 ShowMessage("\\n<Ranael>No matter how much you cry and plead, you won't be saved.")
 ShowMessageFace("ranael_fc1",1,0,2,205)
 ShowMessage("\\n<Ranael>Just continue coming as your life fades away.")
 ShowMessageFace("ranael_fc1",1,0,2,206)
 ShowMessage("\\n<Ranael>A fitting end to a male pig like you.")
 ShowMessageFace("",0,0,2,207)
 ShowMessage("\\n<Luka>No... I'm coming again...!")
 RunCommonEvent(104)
 PictureDisplay(5,"ev_ranael_hc3",0,0,0,0,100,100,255,0)
 RunCommonEvent(105)
 ShowMessageFace("",0,0,2,208)
 ShowMessage("My body spasms as I come again, erupting all over the squeezing tentacles.")
 ShowMessage("More of my life force drains, leaving me far weaker than I already was.")
 ShowMessageFace("",0,0,2,209)
 ShowMessage("My thoughts get woozy and confused...")
 ShowMessage("Any more than this will be really dangerous.")
 ShowMessageFace("",0,0,2,210)
 ShowMessage("\\n<Luka>Haaa... It feels so good...")
 ShowMessageFace("ranael_fc1",1,0,2,211)
 ShowMessage("\\n<Ranael>Haha...\nEven though you know it's killing you, you can't stop coming.")
 ShowMessageFace("ranael_fc1",1,0,2,212)
 ShowMessage("\\n<Ranael>What a wretched pig of a man.")
 ShowMessageFace("",0,0,2,213)
 ShowMessage("\\n<Luka>Hyaaa...")
 ShowMessageFace("",0,0,2,214)
 ShowMessage("The heartless tentacle keeps squeezing me, oblivious to my fears.")
 ShowMessage("Before I had noticed it, I had surrendered to this ecstasy.")
 ShowMessageFace("",0,0,2,215)
 ShowMessage("I want to give my semen to this lustful tentacle, and indulge in the pleasure.")
 ShowMessageFace("",0,0,2,216)
 ShowMessage("\\n<Luka>Ahh...")
 RunCommonEvent(104)
 PictureDisplay(5,"ev_ranael_hc4",0,0,0,0,100,100,255,0)
 RunCommonEvent(105)
 ShowMessageFace("",0,0,2,217)
 ShowMessage("Each time I ejaculate, a large portion of my energy fades with it.")
 ShowMessageFace("ranael_fc1",1,0,2,218)
 ShowMessage("\\n<Ranael>Hahaha... Are you still able to comprehend that you're dying?\nDoes it feel that good?")
 ShowMessageFace("ranael_fc1",1,0,2,219)
 ShowMessage("\\n<Ranael>Now please die...\nImmersed in pleasure.")
 ShowMessageFace("",0,0,2,220)
 ShowMessage("\\n<Luka>Ah... Hyaa...")
 RunCommonEvent(104)
 RunCommonEvent(105)
 ShowMessageFace("",0,0,2,221)
 ShowMessage("I can't even move a finger any longer.")
 ShowMessageFace("",0,0,2,222)
 ShowMessage("The only thing I can sense is the ruthless pleasure taking hold of my body as the tentacle squeezes me dry.")
 RunCommonEvent(104)
 RunCommonEvent(105)
 ShowMessageFace("",0,0,2,223)
 ShowMessage("\\n<Luka>Ahh...")
 ShowMessageFace("",0,0,2,224)
 ShowMessage("With a final shudder and climax, I reach my end.")
 ShowMessage("Feeling as if my soul itself is being squeezed out by these tentacles.")
 RunCommonEvent(104)
 RunCommonEvent(105)
 221()
 PictureClear(5)
 246(2)
 ShowMessageFace("",0,0,2,225)
 ShowMessage("At the very end, I faded into darkness with a smile on my face as I gave myself over to desire.")
 ShowMessageFace("",0,0,2,226)
 ShowMessage("Thus, I welcomed my own cruel fate...")
 ShowMessageFace("",0,0,2,227)
 ShowMessage("..............")
 0()
IfPlayerPicksChoice(3,"Venus Flytrap")
 ShowMessageFace("ranael_fc1",1,0,2,228)
 ShowMessage("\\n<Ranael>Ahaha... You want this venus flytrap to chew on your penis?\nWhat a miserable way to meet your end...")
 ShowMessageFace("ranael_fc1",1,0,2,229)
 ShowMessage("\\n<Ranael>Very well, I'll chew on you plenty with it.")
 ShowMessageFace("ranael_fc1",1,0,2,230)
 ShowMessage("\\n<Ranael>Enjoy it all the way until your death...")
 ShowMessageFace("",0,0,2,231)
 ShowMessage("Her right arm extends toward me, exposing the giant flytrap.")
 ShowMessage("Its mouth opens, showing off the slimy, soft-looking interior.")
 ShowMessageFace("",0,0,2,232)
 ShowMessage("Its prey is my penis...")
 ShowMessage("It will bite down on it, and keep on chewing it until I'm dead.")
 ShowMessageFace("",0,0,2,233)
 ShowMessage("\\n<Luka>Ahhh...")
 ShowMessageFace("ranael_fc1",1,0,2,234)
 ShowMessage("\\n<Ranael>I'll suck up all of that semen of yours...\nUntil you shrivel and die!")
 250(bytes(0x04,0x08,0x6f,0x3a,0x0c,0x52,0x50,0x47,0x3a,0x3a,0x53,0x45,0x08,0x3a,0x0a,0x40,0x6e,0x61,0x6d,0x65,0x49,0x22,0x16,0x6d,0x6f,0x6e,0x5f,0x65,0x72,0x6f,0x5f,0x6d,0x61,0x6b,0x69,0x74,0x75,0x6b,0x69,0x33,0x06,0x3a,0x06,0x45,0x54,0x3a,0x0b,0x40,0x70,0x69,0x74,0x63,0x68,0x69,0x69,0x3a,0x0c,0x40,0x76,0x6f,0x6c,0x75,0x6d,0x65,0x69,0x69))
 245(bytes(0x04,0x08,0x6f,0x3a,0x0d,0x52,0x50,0x47,0x3a,0x3a,0x42,0x47,0x53,0x08,0x3a,0x0a,0x40,0x6e,0x61,0x6d,0x65,0x49,0x22,0x1e,0x6d,0x6f,0x6e,0x5f,0x68,0x73,0x65,0x61,0x6e,0x31,0x31,0x5f,0x69,0x6e,0x6e,0x65,0x72,0x77,0x6f,0x72,0x6b,0x73,0x5f,0x63,0x31,0x06,0x3a,0x06,0x45,0x54,0x3a,0x0c,0x40,0x76,0x6f,0x6c,0x75,0x6d,0x65,0x69,0x55,0x3a,0x0b,0x40,0x70,0x69,0x74,0x63,0x68,0x69,0x69))
 PictureDisplay(5,"ev_ranael_hd1",0,0,0,0,100,100,255,0)
 ShowMessageFace("",0,0,2,235)
 ShowMessage("The venus flytrap opens wide, then clamps down my penis.")
 ShowMessage("The intense tightness takes me by surprise, forcing me to moan.")
 ShowMessageFace("",0,0,2,236)
 ShowMessage("\\n<Luka>Ah...! Ahhh!")
 ShowMessageFace("",0,0,2,237)
 ShowMessage("After closing on me, it starts to slowly chew.")
 ShowMessage("Each biting motion sends sparks of pleasure racing through my body.")
 ShowMessageFace("",0,0,2,238)
 ShowMessage("Countless folds inside of it rub and stroke my penis with each movement it makes.")
 ShowMessageFace("",0,0,2,239)
 ShowMessage("The sweet pleasure makes my mind numb, making me want to indulge in the pleasure.")
 ShowMessageFace("",0,0,2,240)
 ShowMessage("\\n<Luka>Hyaa... A...Amazing...")
 ShowMessageFace("ranael_fc1",1,0,2,241)
 ShowMessage("\\n<Ranael>Hahaha... You look so happy.")
 ShowMessageFace("ranael_fc1",1,0,2,242)
 ShowMessage("\\n<Ranael>Is it really that amazing to have your penis chewed on?")
 ShowMessageFace("ranael_fc1",1,0,2,243)
 ShowMessage("\\n<Ranael>But prepare yourself...\nOnce you come inside this flytrap, your life itself will be taken in addition to your semen.")
 ShowMessageFace("ranael_fc1",1,0,2,244)
 ShowMessage("\\n<Ranael>This flytrap chews men dry, then takes their life...")
 ShowMessageFace("",0,0,2,245)
 ShowMessage("\\n<Luka>N...no... Haa!")
 ShowMessageFace("",0,0,2,246)
 ShowMessage("The sweet biting sensation causes my body to shake in pleasure, cutting my words short.")
 ShowMessageFace("",0,0,2,247)
 ShowMessage("I can't bring myself to take my eyes off the horrifying plant in front of me.")
 ShowMessageFace("",0,0,2,248)
 ShowMessage("A stimulation to provoke men to come...")
 ShowMessage("I can already feel my body giving itself over to it.")
 ShowMessageFace("ranael_fc1",1,0,2,249)
 ShowMessage("\\n<Ranael>Ahaha... Does it feel good being chewed on by my flytrap?")
 ShowMessageFace("ranael_fc1",1,0,2,250)
 ShowMessage("\\n<Ranael>It's quite pathetic to be so happy from this...")
 ShowMessageFace("ranael_fc1",1,0,2,251)
 ShowMessage("\\n<Ranael>Is your precious juice about to burst out?\nThere's no need to endure it...")
 ShowMessageFace("",0,0,2,252)
 ShowMessage("\\n<Luka>Ah... Urhg...")
 ShowMessageFace("",0,0,2,253)
 ShowMessage("If I come, my life itself will go out with my semen.")
 ShowMessage("I don't think I can endure it much longer, but I don't want to die.")
 ShowMessageFace("",0,0,2,254)
 ShowMessage("Ranael laughs as she looks at me, trying my hardest to hold on.")
 ShowMessageFace("ranael_fc1",1,0,2,255)
 ShowMessage("\\n<Ranael>Stop holding it in...\nJust come, and feel good until your death...")
 ShowMessageFace("",0,0,2,256)
 ShowMessage("\\n<Luka>Guh... I won't come...")
 ShowMessageFace("ranael_fc1",1,0,2,257)
 ShowMessage("\\n<Ranael>Hahaha... Then I wonder how long you will last?\nIt will be forced out of you eventually anyway.")
 ShowMessageFace("",0,0,2,258)
 ShowMessage("Ranael just laughs at my desperate attempt to hang on.")
 ShowMessageFace("",0,0,2,259)
 ShowMessage("The flytrap keeps on chewing on my penis, sandwiched in its mouth.")
 ShowMessageFace("",0,0,2,260)
 ShowMessage("The sweet pleasure makes my vision go blinding white.")
 ShowMessage("My lower body starts to ache... I don't think I can hold on much longer.")
 ShowMessageFace("",0,0,2,261)
 ShowMessage("\\n<Luka>Stop... Stop... Ahh...\nI'm about to...")
 ShowMessageFace("ranael_fc1",1,0,2,262)
 ShowMessage("\\n<Ranael>Haha... Already giving up?\nThat was unbelievably fast...")
 ShowMessageFace("",0,0,2,263)
 ShowMessage("The slow and careful biting stimulation causes the folds to rub hard against my penis.")
 ShowMessage("A mad torture of pleasure as it feels just like my penis is being eaten.")
 ShowMessageFace("",0,0,2,264)
 ShowMessage("After only a few more moments, I feel myself going over the edge.")
 ShowMessageFace("",0,0,2,265)
 ShowMessage("\\n<Luka>Ahh... Coming... Hyaaa!")
 RunCommonEvent(104)
 PictureDisplay(5,"ev_ranael_hd2",0,0,0,0,100,100,255,0)
 RunCommonEvent(105)
 ShowMessageFace("",0,0,2,266)
 ShowMessage("My penis pulses, and sprays my semen right into the venus flytrap.")
 ShowMessage("It fills the chewing mouth, providing even more lubrication for it to chew on my penis.")
 ShowMessageFace("",0,0,2,267)
 ShowMessage("At the same time, the overpowering weakness of my life energy draining slams into me.")
 ShowMessage("If this happens a couple more times, I'll be dead...")
 ShowMessageFace("",0,0,2,268)
 ShowMessage("\\n<Luka>Ahhh...")
 ShowMessageFace("ranael_fc1",1,0,2,269)
 ShowMessage("\\n<Ranael>Hahaha... You came.\nYou're already finished.")
 ShowMessageFace("ranael_fc1",1,0,2,270)
 ShowMessage("\\n<Ranael>Now then... Please die.")
 245(bytes(0x04,0x08,0x6f,0x3a,0x0d,0x52,0x50,0x47,0x3a,0x3a,0x42,0x47,0x53,0x08,0x3a,0x0a,0x40,0x6e,0x61,0x6d,0x65,0x49,0x22,0x1e,0x6d,0x6f,0x6e,0x5f,0x68,0x73,0x65,0x61,0x6e,0x31,0x32,0x5f,0x69,0x6e,0x6e,0x65,0x72,0x77,0x6f,0x72,0x6b,0x73,0x5f,0x63,0x32,0x06,0x3a,0x06,0x45,0x54,0x3a,0x0c,0x40,0x76,0x6f,0x6c,0x75,0x6d,0x65,0x69,0x55,0x3a,0x0b,0x40,0x70,0x69,0x74,0x63,0x68,0x69,0x69))
 ShowMessageFace("",0,0,2,271)
 ShowMessage("Right after Ranael's statement, the chewing motions get far more intense.")
 ShowMessageFace("",0,0,2,272)
 ShowMessage("A wet noise rings out with each bite as the pressure and speed get drastically higher.")
 ShowMessageFace("",0,0,2,273)
 ShowMessage("Each chewing noise makes my body shiver, as the intense stimulation makes me moan in ecstasy.")
 ShowMessageFace("",0,0,2,274)
 ShowMessage("\\n<Luka>Ahhhhnnn!\nStop!!")
 ShowMessageFace("ranael_fc1",1,0,2,275)
 ShowMessage("\\n<Ranael>Hahaha... There's no mercy for you now.")
 ShowMessageFace("ranael_fc1",1,0,2,276)
 ShowMessage("\\n<Ranael>No matter how much you cry and plead, you won't be saved.")
 ShowMessageFace("ranael_fc1",1,0,2,277)
 ShowMessage("\\n<Ranael>Just continue coming as your life fades away.")
 ShowMessageFace("ranael_fc1",1,0,2,278)
 ShowMessage("\\n<Ranael>A fitting end to a male pig like you.")
 ShowMessageFace("",0,0,2,279)
 ShowMessage("\\n<Luka>No... I'm coming again...!")
 RunCommonEvent(104)
 PictureDisplay(5,"ev_ranael_hd3",0,0,0,0,100,100,255,0)
 RunCommonEvent(105)
 ShowMessageFace("",0,0,2,280)
 ShowMessage("My body spasms as I come again, filling the venus flytrap with even more semen.")
 ShowMessage("More of my life force drains, leaving me far weaker than I already was.")
 ShowMessageFace("",0,0,2,281)
 ShowMessage("My thoughts get woozy and confused...")
 ShowMessage("Any more than this will be really dangerous.")
 ShowMessageFace("",0,0,2,282)
 ShowMessage("\\n<Luka>Haaa... It feels so good...")
 ShowMessageFace("ranael_fc1",1,0,2,283)
 ShowMessage("\\n<Ranael>Haha...\nEven though you know it's killing you, you can't stop coming.")
 ShowMessageFace("ranael_fc1",1,0,2,284)
 ShowMessage("\\n<Ranael>What a wretched pig of a man.")
 ShowMessageFace("",0,0,2,285)
 ShowMessage("\\n<Luka>Hyaaa...")
 ShowMessageFace("",0,0,2,286)
 ShowMessage("Each time it chews on me, explosions of bliss wrack my body.")
 ShowMessage("Before I had noticed it, I had surrendered to this ecstasy.")
 ShowMessageFace("",0,0,2,287)
 ShowMessage("I want to give my semen to this lustful flytrap, and indulge in the pleasure.")
 ShowMessageFace("",0,0,2,288)
 ShowMessage("\\n<Luka>Ahh...")
 RunCommonEvent(104)
 PictureDisplay(5,"ev_ranael_hd4",0,0,0,0,100,100,255,0)
 RunCommonEvent(105)
 ShowMessageFace("",0,0,2,289)
 ShowMessage("Each time I ejaculate, a large portion of my energy fades with it.")
 ShowMessageFace("ranael_fc1",1,0,2,290)
 ShowMessage("\\n<Ranael>Hahaha... Are you still able to comprehend that you're dying?")
 ShowMessageFace("ranael_fc1",1,0,2,291)
 ShowMessage("\\n<Ranael>Does it feel that good?")
 ShowMessageFace("ranael_fc1",1,0,2,293)
 ShowMessage("\\n<Ranael>Now please die...\nImmersed in pleasure.")
 ShowMessageFace("",0,0,2,294)
 ShowMessage("\\n<Luka>Ah... Hyaa...")
 RunCommonEvent(104)
 RunCommonEvent(105)
 ShowMessageFace("",0,0,2,295)
 ShowMessage("I can't even move a finger any longer.")
 ShowMessageFace("",0,0,2,296)
 ShowMessage("The only thing I can sense is the ruthless pleasure taking hold of my body as the flytrap chews me dry.")
 RunCommonEvent(104)
 RunCommonEvent(105)
 ShowMessageFace("",0,0,2,297)
 ShowMessage("\\n<Luka>Ahhh...")
 ShowMessageFace("",0,0,2,298)
 ShowMessage("With a final shudder and climax, I reach my end.")
 ShowMessage("Feeling as if my soul itself is being chewed up by this venus flytrap...")
 RunCommonEvent(104)
 RunCommonEvent(105)
 221()
 PictureClear(5)
 246(2)
 ShowMessageFace("",0,0,2,299)
 ShowMessage("At the very end, I faded into darkness with a smile on my face as I gave myself over to desire.")
 ShowMessageFace("",0,0,2,300)
 ShowMessage("Thus, I welcomed my own cruel fate...")
 DefineLabel("反省会")
 ShowMessageFace("",0,0,2,301)
 ShowMessage("..............")
 0()
404()
221()
242(1)
Wait(120)
355("memory_interruption")
ShowMessageFace("",0,0,2,302)
ShowMessage("You hear Ilias' voice calling out to you...")
ShowMessage("Receive her evaluation?")
ShowChoices(strings("Receive evaluation","Change difficulty","Reincarnate"),3)
IfPlayerPicksChoice(0,null)
 241(bytes(0x04,0x08,0x6f,0x3a,0x0d,0x52,0x50,0x47,0x3a,0x3a,0x42,0x47,0x4d,0x08,0x3a,0x0a,0x40,0x6e,0x61,0x6d,0x65,0x49,0x22,0x0a,0x69,0x72,0x69,0x61,0x73,0x06,0x3a,0x06,0x45,0x54,0x3a,0x0c,0x40,0x76,0x6f,0x6c,0x75,0x6d,0x65,0x69,0x5f,0x3a,0x0b,0x40,0x70,0x69,0x74,0x63,0x68,0x69,0x6e))
 PictureDisplay(1,"bg001",0,0,0,0,100,100,255,0)
 222()
 PictureDisplay(5,"80_iriasu_st06",0,0,0,0,100,100,0,0)
 PictureMove(5,null,0,0,0,0,100,100,255,0,30,true)
 ShowMessageFace("iriasu_fc1",5,0,2,303)
 ShowMessage("\\n<Ilias>Something's off about this Ranael...\nShe isn't the same as the Ranael I made...")
 PictureDisplay(5,"80_iriasu_st01",0,0,0,0,100,100,255,0)
 ShowMessageFace("iriasu_fc1",0,0,2,304)
 ShowMessage("\\n<Ilias>...sorry, there are a few little things that bother me about her. Let us resume the evaluation.")
 ShowMessageFace("iriasu_fc1",0,0,2,305)
 ShowMessage("\\n<Ilias>You are better off not fighting that Ranael. Avoid encountering her altogether.")
 ShowMessageFace("iriasu_fc1",0,0,2,306)
 ShowMessage("\\n<Ilias>As a proud angel, she hates bare soil. So if you pay attention to where you are walking, you should avoid a confrontation.")
 PictureDisplay(5,"80_iriasu_st05",0,0,0,0,100,100,255,0)
 ShowMessageFace("iriasu_fc1",4,0,2,307)
 ShowMessage("\\n<Ilias>Now go, oh brave Luka.\nBy the way, I cannot get a fix on your location. Where in the world are you?")
 242(1)
 221()
 PictureClear(5)
 PictureClear(1)
 Wait(60)
 0()
IfPlayerPicksChoice(1,null)
 ShowMessageFace("",0,0,2,308)
 ShowMessage("Please choose a difficulty level.")
 RunCommonEvent(110)
 0()
IfPlayerPicksChoice(2,null)
 0()
404()
RunCommonEvent(3000)
0()
