// EVENT 5111
Name "Harpy Knight 1"

PictureDisplay(5,"80_k_hapy_st02",0,0,0,0,100,100,0,0)
PictureMove(5,null,0,0,0,0,100,100,255,0,30,true)
ShowMessageFace("k_hapy_fc1",0,0,2,1)
ShowMessage("\\n<Kris>")
ShowMessage("You want me to play with you...?")
ShowMessageFace("",0,0,2,2)
ShowMessage("\\n<Luka>")
ShowMessage("P-please...")
ShowMessageFace("k_hapy_fc1",1,0,2,3)
ShowMessage("\\n<Kris>")
ShowMessage("Good, then you shall be my pussy's prey!")
ShowMessageFace("",0,0,2,4)
ShowMessage("\\n<Luka>")
ShowMessage("Ah, aaaau!!")
241(bytes(0x04,0x08,0x6f,0x3a,0x0d,0x52,0x50,0x47,0x3a,0x3a,0x42,0x47,0x4d,0x08,0x3a,0x0a,0x40,0x6e,0x61,0x6d,0x65,0x49,0x22,0x09,0x65,0x72,0x6f,0x31,0x06,0x3a,0x06,0x45,0x54,0x3a,0x0c,0x40,0x76,0x6f,0x6c,0x75,0x6d,0x65,0x69,0x69,0x3a,0x0b,0x40,0x70,0x69,0x74,0x63,0x68,0x69,0x69))
PictureDisplay(5,"ev_k_hapy_h1",0,0,0,0,100,100,0,0)
PictureMove(5,null,0,0,0,0,100,100,255,0,30,true)
ShowMessageFace("",0,0,2,5)
ShowMessage("Kris pins me down, holding both my arms and mounts me...")
ShowMessageFace("",0,0,2,6)
ShowMessage("\\n<Luka>")
ShowMessage("Hauuuu...")
ShowMessageFace("k_hapy_fc1",1,0,2,7)
ShowMessage("\\n<Kris>")
ShowMessage("Fufu, are you prepared?")
ShowMessage("I'm going to rape you a lot...")
ShowMessageFace("",0,0,2,8)
ShowMessage("Kris drops her waist...")
245(bytes(0x04,0x08,0x6f,0x3a,0x0d,0x52,0x50,0x47,0x3a,0x3a,0x42,0x47,0x53,0x08,0x3a,0x0a,0x40,0x6e,0x61,0x6d,0x65,0x49,0x22,0x1e,0x6d,0x6f,0x6e,0x5f,0x68,0x73,0x65,0x61,0x6e,0x30,0x34,0x5f,0x69,0x6e,0x6e,0x65,0x72,0x77,0x6f,0x72,0x6b,0x73,0x5f,0x61,0x34,0x06,0x3a,0x06,0x45,0x54,0x3a,0x0c,0x40,0x76,0x6f,0x6c,0x75,0x6d,0x65,0x69,0x55,0x3a,0x0b,0x40,0x70,0x69,0x74,0x63,0x68,0x69,0x69))
ShowMessageFace("",0,0,2,9)
ShowMessage("Her warm vagina swallows my penis!")
ShowMessage("There's nothing I can do but be violated by Kris...")
ShowMessageFace("",0,0,2,10)
ShowMessage("\\n<Luka>")
ShowMessage("Ah... Hauuu!!")
ShowMessageFace("",0,0,2,11)
ShowMessage("The inside of Kris' vagina is filled with soft protrusions. They stimulate my invading penis.")
ShowMessageFace("",0,0,2,12)
ShowMessage("This is why it is said that a harpy's vagina is a masterpiece and most men come in seconds after being inserted in them...")
ShowMessageFace("",0,0,2,13)
ShowMessage("\\n<Luka>")
ShowMessage("Aaaah... T-tight...!")
ShowMessageFace("k_hapy_fc1",1,0,2,14)
ShowMessage("\\n<Kris>")
ShowMessage("Naturally, my legs are also trained as a warrior's...")
ShowMessage("I can tighten my vagina however I wish!")
ShowMessageFace("",0,0,2,15)
ShowMessage("A sudden feeling of oppression comes over my penis as her vagina narrows and I'm squeezed inside it.")
ShowMessageFace("",0,0,2,16)
ShowMessage("On top of the extreme tightness, the soft bumps also cling to my penis...")
ShowMessageFace("",0,0,2,17)
ShowMessage("I'm not sure I can endure such pleasure, even though not even a minute has passed since I've been inserted inside...")
ShowMessageFace("",0,0,2,18)
ShowMessage("\\n<Luka>")
ShowMessage("Aau... Already, coming...!")
ShowMessageFace("k_hapy_fc1",0,0,2,19)
ShowMessage("\\n<Kris>")
ShowMessage("What? But I've only started raping you...")
ShowMessageFace("",0,0,2,20)
ShowMessage("\\n<Luka>")
ShowMessage("No... Ah, aaaaaah...")
RunCommonEvent(104)
PictureDisplay(5,"ev_k_hapy_h2",0,0,0,0,100,100,255,0)
RunCommonEvent(105)
ShowMessageFace("",0,0,2,21)
ShowMessage("My semen gushes out inside the Kris' famous vagina, it make me come instantly...")
ShowMessageFace("",0,0,2,22)
ShowMessage("\\n<Luka>")
ShowMessage("Aauuu...")
ShowMessageFace("k_hapy_fc1",1,0,2,23)
ShowMessage("\\n<Kris>")
ShowMessage("Hahaha, an instant kill!")
ShowMessage("What a pathetic man...!")
ShowMessageFace("k_hapy_fc1",1,0,2,24)
ShowMessage("\\n<Kris>")
ShowMessage("You couldn't even satisfy a normal woman...")
ShowMessage("I've never met a man who moaned and ejaculated as fast as you!")
ShowMessageFace("",0,0,2,25)
ShowMessage("\\n<Luka>")
ShowMessage("U-ugh...")
ShowMessageFace("",0,0,2,26)
ShowMessage("I tremble in shame and humiliation under Kris' body as she brutally disparages me...")
ShowMessageFace("k_hapy_fc1",1,0,2,27)
ShowMessage("\\n<Kris>")
ShowMessage("Let's train that weak thing of yours inside my vagina.")
ShowMessage("Hoora, I'm going to move...!")
ShowMessageFace("",0,0,2,28)
ShowMessage("Kris starts moving her waist up and down. The protrusions attached to her vaginal wall rub hard against my glans.")
ShowMessageFace("",0,0,2,29)
ShowMessage("The intense pleasure of the bumps overrunning my glans makes me tremble uncontrollably...")
ShowMessageFace("",0,0,2,30)
ShowMessage("\\n<Luka>")
ShowMessage("Auuu... Hauuu...!")
ShowMessageFace("k_hapy_fc1",1,0,2,31)
ShowMessage("\\n<Kris>")
ShowMessage("Already feeling it...")
ShowMessage("What the hell is wrong with you? I just moved my hips a little!")
ShowMessageFace("",0,0,2,32)
ShowMessage("\\n<Luka>")
ShowMessage("Th-that feels good... More, slower...")
ShowMessageFace("k_hapy_fc1",1,0,2,33)
ShowMessage("\\n<Kris>")
ShowMessage("Hmph, I don't listen to begging.")
ShowMessage("Now, I'm going to make your loser fluids shoot out!")
ShowMessageFace("",0,0,2,34)
ShowMessage("Kris swings her hips more and more violently, her piston movements driving me into a corner instantly.")
ShowMessageFace("",0,0,2,35)
ShowMessage("Every time she moves up and down, she flexes the muscles on her abdomen, her vagina contracting and squeezing my penis hard.")
ShowMessageFace("",0,0,2,36)
ShowMessage("The piston movement, the tightening and loosening of her vagina... The unbearable pleasure makes my body squirm in agony.")
ShowMessageFace("",0,0,2,37)
ShowMessage("\\n<Luka>")
ShowMessage("Hau... Urgh...!")
ShowMessageFace("k_hapy_fc1",1,0,2,38)
ShowMessage("\\n<Kris>")
ShowMessage("Hey, don't struggle.")
ShowMessage("Even if you squirm in place like that you still won't be able to resist.")
ShowMessageFace("",0,0,2,39)
ShowMessage("\\n<Luka>")
ShowMessage("Ah, ugh...")
ShowMessageFace("",0,0,2,40)
ShowMessage("Kris pins both my arms, stopping me from squirming and continues her violent pistoning...")
ShowMessageFace("",0,0,2,41)
ShowMessage("\\n<Luka>")
ShowMessage("C-coming... Aaaaaah...!!")
ShowMessageFace("",0,0,2,42)
ShowMessage("At last, I'm forced to climax. My waist jumps up as I drown in my helplessness...")
RunCommonEvent(104)
RunCommonEvent(105)
ShowMessageFace("",0,0,2,43)
ShowMessage("My semen gushes out inside her vagina but despite me ejaculating, Kris keeps moving her waist.")
ShowMessageFace("",0,0,2,44)
ShowMessage("\\n<Luka>")
ShowMessage("Hyaaa...! Stop, stop it...!!")
ShowMessageFace("",0,0,2,45)
ShowMessage("Kris looks down at me and laughs sadistically as I shoot my semen attacked by the intense pleasure.")
ShowMessageFace("k_hapy_fc1",1,0,2,46)
ShowMessage("\\n<Kris>")
ShowMessage("Ahahaha, I'll show you no mercy. I'm going to toy with your penis as you writhe there in your miserable defeat!")
ShowMessageFace("",0,0,2,47)
ShowMessage("\\n<Luka>")
ShowMessage("Ah... Aaaaaah...!")
ShowMessageFace("",0,0,2,48)
ShowMessage("I scream from the crazy pleasure as my penis is played with inside her vagina.")
ShowMessageFace("",0,0,2,49)
ShowMessage("The soft bumps cling to my glans from all sides and rub against it. At the same time her flesh wall squeezes my penis tight...")
ShowMessageFace("k_hapy_fc1",1,0,2,50)
ShowMessage("\\n<Kris>")
ShowMessage("Hoora, I'll make you come many times, over and over again...")
ShowMessage("I'll move inside, hora hora hora...!")
ShowMessageFace("",0,0,2,51)
ShowMessage("\\n<Luka>")
ShowMessage("Hya... Ah, aaaaah...!!")
ShowMessageFace("",0,0,2,52)
ShowMessage("Her vagina contracts and starts stroking my penis subjecting me to unbearable pleasure.")
ShowMessageFace("k_hapy_fc1",1,0,2,53)
ShowMessage("\\n<Kris>")
ShowMessage("Finally, if I tighten the back of my vagina like this...")
ShowMessageFace("",0,0,2,54)
ShowMessage("\\n<Luka>")
ShowMessage("Hauuu...!!")
ShowMessageFace("",0,0,2,55)
ShowMessage("My head goes pure white as the deepest part of her vagina tightens and crushes my glans...")
RunCommonEvent(104)
RunCommonEvent(105)
ShowMessageFace("",0,0,2,56)
ShowMessage("\\n<Luka>")
ShowMessage("Hauuu...")
ShowMessageFace("",0,0,2,57)
ShowMessage("A large amount of semen shoots out inside of her vagina. After three consecutive ejaculations, I feel myself getting even weaker...")
246(2)
ShowMessageFace("k_hapy_fc1",1,0,2,58)
ShowMessage("\\n<Kris>")
ShowMessage("Fufu, did you learn your own weakness?")
ShowMessage("I just raped you a little and you instantly shot out your seed.")
ShowMessageFace("",0,0,2,59)
ShowMessage("\\n<Luka>")
ShowMessage("........")
ShowMessageFace("",0,0,2,60)
ShowMessage("I've been forced to ejaculate without being able to resist. Misery fills me as Kris trampled all over my dignity as a man.")
ShowMessageFace("k_hapy_fc1",1,0,2,61)
ShowMessage("\\n<Kris>")
ShowMessage("From now on you belong to me. Every night, you're going to return to me...")
ShowMessageFace("",0,0,2,62)
ShowMessage("I couldn't refuse as I've succumbed both physically and mentally to her. From now on I'm nothing more than Kris' sex slave...")
221()
PictureClear(5)
PictureClear(6)
ShowMessageFace("",0,0,2,63)
ShowMessage("......")
RunCommonEvent(3998)
0()
