﻿// EVENT 2498
Name "誘惑：カサンドラ"

355("$game_troop.lose_event_id = 3498")
ChangeVariable(26,26,0,3,3,1,4)
ChangeVariable(26,26,4,0,10)
ShowMessageFace("cassandra_fc1",0,0,2,1)
ShowMessage("【カサンドラ】")
ShowMessage("困りましたね、ここまで追い込まれるなんて……")
ShowMessageFace("cassandra_fc1",1,0,2,2)
ShowMessage("【カサンドラ】")
ShowMessage("私の粘液ドレスで、抱き締められたくはありませんか？")
ShowMessage("戦いなど忘れ、とろけるような心地に浸れますよ……")
ChangeSwitch(98,98,0)
ChangeSwitch(96,96,0)
ShowChoices(strings("無視する","誘惑に乗る"),1)
IfPlayerPicksChoice(0,"無視する")
 ShowMessageFace("",0,0,2,3)
 ShowMessage("しかしルカは誘惑を振り切った！")
 RunCommonEvent(1999)
 EndEventProcessing()
 0()
IfPlayerPicksChoice(1,"誘惑に乗る")
 0()
404()
ShowMessageFace("cassandra_fc1",1,0,2,4)
ShowMessage("【カサンドラ】")
ShowMessage("それでは、抱いて差し上げましょう……うふふっ。")
ChangeVariable(26,26,3,0,3)
250(bytes(0x04,0x08,0x6f,0x3a,0x0c,0x52,0x50,0x47,0x3a,0x3a,0x53,0x45,0x08,0x3a,0x0a,0x40,0x6e,0x61,0x6d,0x65,0x49,0x22,0x13,0x6d,0x6f,0x6e,0x5f,0x65,0x72,0x6f,0x5f,0x73,0x6c,0x69,0x6d,0x65,0x33,0x06,0x3a,0x06,0x45,0x54,0x3a,0x0b,0x40,0x70,0x69,0x74,0x63,0x68,0x69,0x69,0x3a,0x0c,0x40,0x76,0x6f,0x6c,0x75,0x6d,0x65,0x69,0x69))
355("battler_graphic_hide")
PictureDisplay(5,"ev_cassandra_ha1",0,0,0,0,100,100,255,0)
311(0,1,1,1,26,true)
ShowMessageFace("",0,0,2,5)
ShowMessage("カサンドラはルカの体を包むように抱き締めた！")
ShowMessage("粘液がじゅぶじゅぶと体を包んでくる！\\D")
ShowMessage("ルカは\\V[26]のダメージを受けた！")
ChangeVariable(27,27,0,3,3,1,2)
If(1,27,0,0,0)
 JumpToLabel("射精1")
 0()
EndIf()
ShowMessageFace("cassandra_fc1",1,0,2,6)
ShowMessage("【カサンドラ】")
ShowMessage("生殖器も、粘液でじゅるじゅると刺激しますね。")
ShowMessage("我慢できなくなったら、そのまま精液を放って良いのですよ……")
250(bytes(0x04,0x08,0x6f,0x3a,0x0c,0x52,0x50,0x47,0x3a,0x3a,0x53,0x45,0x08,0x3a,0x0a,0x40,0x6e,0x61,0x6d,0x65,0x49,0x22,0x13,0x6d,0x6f,0x6e,0x5f,0x65,0x72,0x6f,0x5f,0x73,0x6c,0x69,0x6d,0x65,0x31,0x06,0x3a,0x06,0x45,0x54,0x3a,0x0b,0x40,0x70,0x69,0x74,0x63,0x68,0x69,0x69,0x3a,0x0c,0x40,0x76,0x6f,0x6c,0x75,0x6d,0x65,0x69,0x69))
311(0,1,1,1,26,true)
ShowMessageFace("",0,0,2,7)
ShowMessage("カサンドラの粘液が、ペニスを包んだままうねる！")
ShowMessage("にゅるにゅると流動し、絡み付くような刺激が与えられた！\\D")
ShowMessage("ルカは\\V[26]のダメージを受けた！")
ChangeVariable(27,27,0,3,3,1,2)
If(1,27,0,0,0)
 JumpToLabel("射精1")
 0()
EndIf()
ShowMessageFace("cassandra_fc1",1,0,2,8)
ShowMessage("【カサンドラ】")
ShowMessage("うふふっ、気持ちよさそうな顔……")
ShowMessage("粘液のうねりに、身を任せて下さいね。")
250(bytes(0x04,0x08,0x6f,0x3a,0x0c,0x52,0x50,0x47,0x3a,0x3a,0x53,0x45,0x08,0x3a,0x0a,0x40,0x6e,0x61,0x6d,0x65,0x49,0x22,0x13,0x6d,0x6f,0x6e,0x5f,0x65,0x72,0x6f,0x5f,0x73,0x6c,0x69,0x6d,0x65,0x31,0x06,0x3a,0x06,0x45,0x54,0x3a,0x0b,0x40,0x70,0x69,0x74,0x63,0x68,0x69,0x69,0x3a,0x0c,0x40,0x76,0x6f,0x6c,0x75,0x6d,0x65,0x69,0x69))
311(0,1,1,1,26,true)
ShowMessageFace("",0,0,2,9)
ShowMessage("カサンドラの粘液が、ペニスじっくり揉みしだく！")
ShowMessage("亀頭から根元までじゅるじゅると刺激し、甘い快楽を与えてきた！\\D")
ShowMessage("ルカは\\V[26]のダメージを受けた！")
ChangeVariable(27,27,0,3,3,1,2)
If(1,27,0,0,0)
 JumpToLabel("射精1")
 0()
EndIf()
ShowMessageFace("cassandra_fc1",1,0,2,10)
ShowMessage("【カサンドラ】")
ShowMessage("さあ、粘液の中に精子を発射しなさい。")
ShowMessage("養分として取り込んであげますから……")
250(bytes(0x04,0x08,0x6f,0x3a,0x0c,0x52,0x50,0x47,0x3a,0x3a,0x53,0x45,0x08,0x3a,0x0a,0x40,0x6e,0x61,0x6d,0x65,0x49,0x22,0x13,0x6d,0x6f,0x6e,0x5f,0x65,0x72,0x6f,0x5f,0x73,0x6c,0x69,0x6d,0x65,0x31,0x06,0x3a,0x06,0x45,0x54,0x3a,0x0b,0x40,0x70,0x69,0x74,0x63,0x68,0x69,0x69,0x3a,0x0c,0x40,0x76,0x6f,0x6c,0x75,0x6d,0x65,0x69,0x69))
311(0,1,1,1,26,true)
ShowMessageFace("",0,0,2,11)
ShowMessage("カサンドラの粘液が、ペニスをじゅぶじゅぶと揉みしだく！")
ShowMessage("亀頭にスライムが粘り着き、にゅるにゅると這い回った！\\D")
ShowMessage("ルカは\\V[26]のダメージを受けた！")
ChangeVariable(27,27,0,3,3,1,2)
If(1,27,0,0,0)
 JumpToLabel("射精1")
 0()
EndIf()
DefineLabel("射精1")
ShowMessageFace("",0,0,2,12)
ShowMessage("【ルカ】")
ShowMessage("だめ、出ちゃうよぉ……あぁぁぁ……")
RunCommonEvent(104)
PictureDisplay(5,"ev_cassandra_ha2",0,0,0,0,100,100,255,0)
RunCommonEvent(105)
ShowMessageFace("",0,0,2,13)
ShowMessage("カサンドラの粘液にペニスを嫐られながら、イってしまった。")
ShowMessage("スライムの中に、ドクドクと白濁が放出されていく――")
ShowMessageFace("cassandra_fc1",1,0,2,14)
ShowMessage("【カサンドラ】")
ShowMessage("うふふっ、新鮮な子種がいっぱい……")
ShowMessage("みんな、私の餌にしてあげますからね。")
RunCommonEvent(2000)
EndEventProcessing()
0()
