﻿// EVENT 2098
Name "Seduction: Eva"

If(0,25,1)
 EndEventProcessing()
 0()
EndIf()
355("$game_troop.lose_event_id = 3098")
ChangeVariable(26,26,0,3,3,1,4)
ChangeVariable(26,26,4,0,10)
ShowMessageFace("eva_fc1",3,0,2,1)
ShowMessage("\\n<Eva>Fufu... Do you like succubi's asses, I wonder?")
355("battler_graphic_hide")
PictureDisplay(5,"80_eva_st11",0,0,0,0,100,100,255,0)
ShowMessageFace("",0,0,2,2)
ShowMessage("Eva turns around and sticks out her ass toward Luka!")
ChangeSwitch(98,98,0)
ChangeSwitch(96,96,0)
ShowChoices(strings("Ignore her","Give in to temptation"),1)
IfPlayerPicksChoice(0,"Ignore her")
 ShowMessageFace("",0,0,2,3)
 ShowMessage("Luka resists her temptation!")
 ShowMessageFace("eva_fc1",2,0,2,4)
 ShowMessage("\\n<Eva>It's rude for a man to ignore a lady's invitation...")
 PictureClear(5)
 355("battler_graphic_show")
 ShowMessageFace("",0,0,2,5)
 ShowMessage("Eva turns around, and retakes her normal stance!")
 RunCommonEvent(1999)
 EndEventProcessing()
 0()
IfPlayerPicksChoice(1,"誘惑に乗る")
 0()
404()
ShowMessageFace("eva_fc1",1,0,2,6)
ShowMessage("\\n<Eva>Ah, too bad.\nI'll crush you with my ass.")
PictureDisplay(5,"ev_eva_hb1",0,0,0,0,100,100,255,0)
ShowMessageFace("",0,0,2,7)
ShowMessage("In the next instant, Eva rushes forward and presses her ass into Luka's face! Luka has been bound by Eva!")
ShowMessageFace("",0,0,2,8)
ShowMessage("\\n<Luka>Ah, unnngh...!")
ShowMessageFace("eva_fc1",1,0,2,9)
ShowMessage("\\n<Eva>Fufu... Can't move, can you?\nI think I'll just play with you like this.")
ChangeVariable(26,26,3,0,2)
250(bytes(0x04,0x08,0x6f,0x3a,0x0c,0x52,0x50,0x47,0x3a,0x3a,0x53,0x45,0x08,0x3a,0x0a,0x40,0x6e,0x61,0x6d,0x65,0x49,0x22,0x12,0x6d,0x6f,0x6e,0x5f,0x65,0x72,0x6f,0x5f,0x6b,0x6f,0x6b,0x69,0x31,0x06,0x3a,0x06,0x45,0x54,0x3a,0x0b,0x40,0x70,0x69,0x74,0x63,0x68,0x69,0x69,0x3a,0x0c,0x40,0x76,0x6f,0x6c,0x75,0x6d,0x65,0x69,0x69))
311(0,1,1,1,26,true)
ShowMessageFace("",0,0,2,10)
ShowMessage("Eva grabs hold of Luka's penis!\\D")
ShowMessage("Luka takes \\V[26] damage!")
250(bytes(0x04,0x08,0x6f,0x3a,0x0c,0x52,0x50,0x47,0x3a,0x3a,0x53,0x45,0x08,0x3a,0x0a,0x40,0x6e,0x61,0x6d,0x65,0x49,0x22,0x12,0x6d,0x6f,0x6e,0x5f,0x65,0x72,0x6f,0x5f,0x6b,0x6f,0x6b,0x69,0x31,0x06,0x3a,0x06,0x45,0x54,0x3a,0x0b,0x40,0x70,0x69,0x74,0x63,0x68,0x69,0x69,0x3a,0x0c,0x40,0x76,0x6f,0x6c,0x75,0x6d,0x65,0x69,0x69))
311(0,1,1,1,26,true)
ShowMessageFace("",0,0,2,11)
ShowMessage("She strokes him up and down, focusing her skillful assault towards his glans!\\D")
ShowMessage("Luka takes \\V[26] damage!")
ChangeVariable(27,27,0,3,3,1,2)
If(1,27,0,0,0)
 JumpToLabel("射精1")
 0()
EndIf()
ShowMessageFace("",0,0,2,12)
ShowMessage("\\n<Luka>Amazing... That feels so good...")
ShowMessageFace("eva_fc1",1,0,2,13)
ShowMessage("\\n<Eva>Fufu, are you satisfied with just that?\nLet me use an even better technique...")
250(bytes(0x04,0x08,0x6f,0x3a,0x0c,0x52,0x50,0x47,0x3a,0x3a,0x53,0x45,0x08,0x3a,0x0a,0x40,0x6e,0x61,0x6d,0x65,0x49,0x22,0x12,0x6d,0x6f,0x6e,0x5f,0x65,0x72,0x6f,0x5f,0x6b,0x6f,0x6b,0x69,0x31,0x06,0x3a,0x06,0x45,0x54,0x3a,0x0b,0x40,0x70,0x69,0x74,0x63,0x68,0x69,0x69,0x3a,0x0c,0x40,0x76,0x6f,0x6c,0x75,0x6d,0x65,0x69,0x69))
311(0,1,1,1,26,true)
ShowMessageFace("",0,0,2,14)
ShowMessage("Eva uses one hand to stroke Luka's penis, as the other rubs his glans!\\D")
ShowMessage("Luka takes \\V[26] damage!")
250(bytes(0x04,0x08,0x6f,0x3a,0x0c,0x52,0x50,0x47,0x3a,0x3a,0x53,0x45,0x08,0x3a,0x0a,0x40,0x6e,0x61,0x6d,0x65,0x49,0x22,0x12,0x6d,0x6f,0x6e,0x5f,0x65,0x72,0x6f,0x5f,0x6b,0x6f,0x6b,0x69,0x31,0x06,0x3a,0x06,0x45,0x54,0x3a,0x0b,0x40,0x70,0x69,0x74,0x63,0x68,0x69,0x69,0x3a,0x0c,0x40,0x76,0x6f,0x6c,0x75,0x6d,0x65,0x69,0x69))
311(0,1,1,1,26,true)
ShowMessageFace("",0,0,2,15)
ShowMessage("One hand starts to rub under the neck of his penis as the other strokes him faster!\\D")
ShowMessage("Luka takes \\V[26] damage!")
ChangeVariable(27,27,0,3,3,1,2)
If(1,27,0,0,0)
 JumpToLabel("射精1")
 0()
EndIf()
ShowMessageFace("",0,0,2,16)
ShowMessage("\\n<Luka>N-noooo...This is too much... I'm coming...")
ShowMessageFace("eva_fc1",1,0,2,17)
ShowMessage("\\n<Eva>All I did was use a little skill, and you want to surrender right away? All right, come in my hands just like that...")
250(bytes(0x04,0x08,0x6f,0x3a,0x0c,0x52,0x50,0x47,0x3a,0x3a,0x53,0x45,0x08,0x3a,0x0a,0x40,0x6e,0x61,0x6d,0x65,0x49,0x22,0x12,0x6d,0x6f,0x6e,0x5f,0x65,0x72,0x6f,0x5f,0x6b,0x6f,0x6b,0x69,0x31,0x06,0x3a,0x06,0x45,0x54,0x3a,0x0b,0x40,0x70,0x69,0x74,0x63,0x68,0x69,0x69,0x3a,0x0c,0x40,0x76,0x6f,0x6c,0x75,0x6d,0x65,0x69,0x69))
311(0,1,1,1,26,true)
ShowMessageFace("",0,0,2,18)
ShowMessage("Eva squeezes Luka's penis between both hands!\\D")
ShowMessage("Luka takes \\V[26] damage!")
250(bytes(0x04,0x08,0x6f,0x3a,0x0c,0x52,0x50,0x47,0x3a,0x3a,0x53,0x45,0x08,0x3a,0x0a,0x40,0x6e,0x61,0x6d,0x65,0x49,0x22,0x12,0x6d,0x6f,0x6e,0x5f,0x65,0x72,0x6f,0x5f,0x6b,0x6f,0x6b,0x69,0x31,0x06,0x3a,0x06,0x45,0x54,0x3a,0x0b,0x40,0x70,0x69,0x74,0x63,0x68,0x69,0x69,0x3a,0x0c,0x40,0x76,0x6f,0x6c,0x75,0x6d,0x65,0x69,0x69))
311(0,1,1,1,26,true)
ShowMessageFace("",0,0,2,19)
ShowMessage("One soft palm rubs his glans as the other strokes him fast!\\D")
ShowMessage("Luka takes \\V[26] damage!")
ChangeVariable(27,27,0,3,3,1,2)
If(1,27,0,0,0)
 JumpToLabel("射精1")
 0()
EndIf()
DefineLabel("射精1")
ShowMessageFace("",0,0,2,20)
ShowMessage("\\n<Luka>That feels good... Ah, aaah...")
RunCommonEvent(104)
PictureDisplay(5,"ev_eva_hb2",0,0,0,0,100,100,255,0)
RunCommonEvent(105)
ShowMessageFace("",0,0,2,21)
ShowMessage("As Eva's ass presses into my face, I finally come.\nEva's hands are covered with my semen...")
ShowMessageFace("eva_fc1",1,0,2,22)
ShowMessage("\\n<Eva>Fufu, how disappointing for a hero.\nWell, whatever. Against my sexual skills, all men are nothing.")
RunCommonEvent(2000)
EndEventProcessing()
0()
