﻿// EVENT 4962
Name "Kejourou 2"

PictureDisplay(5,"80_kezyorou_st02",0,0,0,0,100,100,0,0)
PictureMove(5,null,0,0,0,0,100,100,255,0,30,true)
ShowMessageFace("kezyorou_fc1",1,0,2,1)
ShowMessage("\\n<Tsubaki>")
ShowMessage("Fufu, you wish to play with me?")
ShowMessageFace("",0,0,2,2)
ShowMessage("\\n<Luka>")
ShowMessage("P-please....")
ShowMessageFace("kezyorou_fc1",1,0,2,3)
ShowMessage("\\n<Tsubaki>")
ShowMessage("Well then, follow me to my room.")
ShowMessage("I shall toy with you a lot...")
ShowMessageFace("",0,0,2,4)
ShowMessage("Afterwards, I was taken into Tsubaki's room...")
221()
PictureDisplay(1,"bg195",0,0,0,0,100,100,255,0)
PictureDisplay(5,"ev_kezyorou_ha1",0,0,0,0,100,100,255,0)
222()
241(bytes(0x04,0x08,0x6f,0x3a,0x0d,0x52,0x50,0x47,0x3a,0x3a,0x42,0x47,0x4d,0x08,0x3a,0x0a,0x40,0x6e,0x61,0x6d,0x65,0x49,0x22,0x09,0x65,0x72,0x6f,0x31,0x06,0x3a,0x06,0x45,0x54,0x3a,0x0c,0x40,0x76,0x6f,0x6c,0x75,0x6d,0x65,0x69,0x69,0x3a,0x0b,0x40,0x70,0x69,0x74,0x63,0x68,0x69,0x69))
ShowMessageFace("",0,0,2,5)
ShowMessage("\\n<Luka>")
ShowMessage("Uh...guh....!")
ShowMessageFace("",0,0,2,6)
ShowMessage("Tsubaki's hair crawls up and coils around my body.")
ShowMessage("It's hoisting my entire body, forcibly lifting me up.")
ShowMessageFace("",0,0,2,7)
ShowMessage("\\n<Luka>")
ShowMessage("H-how rough...!")
ShowMessageFace("",0,0,2,8)
ShowMessage("No matter how much I struggle, her hair's grip is too strong.")
ShowMessage("Without being able to move my arms and legs, my body can only wriggle awkwardly...")
ShowMessageFace("kezyorou_fc1",1,0,2,9)
ShowMessage("\\n<Tsubaki>")
ShowMessage("I feel like letting you taste my honey pot....")
ShowMessageFace("",0,0,2,10)
ShowMessage("\\n<Luka>")
ShowMessage("W-what...?")
ShowMessageFace("",0,0,2,11)
ShowMessage("With her hair, she sits me down on the floor and exposes me.")
ShowMessage("She then turns her back to me...")
ShowMessageFace("kezyorou_fc1",1,0,2,12)
ShowMessage("\\n<Tsubaki>")
ShowMessage("Fufufu... how lucky.")
ShowMessage("It's uncommon for me to mate directly with a man...")
ShowMessageFace("",0,0,2,13)
ShowMessage("\\n<Luka>")
ShowMessage("A... Aaaaa!!")
245(bytes(0x04,0x08,0x6f,0x3a,0x0d,0x52,0x50,0x47,0x3a,0x3a,0x42,0x47,0x53,0x08,0x3a,0x0a,0x40,0x6e,0x61,0x6d,0x65,0x49,0x22,0x1e,0x6d,0x6f,0x6e,0x5f,0x68,0x73,0x65,0x61,0x6e,0x30,0x34,0x5f,0x69,0x6e,0x6e,0x65,0x72,0x77,0x6f,0x72,0x6b,0x73,0x5f,0x61,0x34,0x06,0x3a,0x06,0x45,0x54,0x3a,0x0c,0x40,0x76,0x6f,0x6c,0x75,0x6d,0x65,0x69,0x55,0x3a,0x0b,0x40,0x70,0x69,0x74,0x63,0x68,0x69,0x69))
PictureDisplay(5,"ev_kezyorou_hb1",0,0,0,0,100,100,255,0)
ShowMessageFace("",0,0,2,14)
ShowMessage("At that moment, Tsubaki lowers her waist and immediately rapes me!")
ShowMessage("My manhood is swallowed by her warm and tender honey pot...")
ShowMessageFace("",0,0,2,15)
ShowMessage("\\n<Luka>")
ShowMessage("Auuuu....!")
ShowMessageFace("",0,0,2,16)
ShowMessage("Deep inside, Tsubaki's walls squeeze me.")
ShowMessage("The insertion alone drives me to the edge...")
PictureDisplay(5,"ev_kezyorou_hb2",0,0,0,0,100,100,255,0)
ShowMessageFace("kezyorou_fc1",1,0,2,17)
ShowMessage("\\n<Tsubaki>")
ShowMessage("Fufu, it must feel good...")
ShowMessage("However, I shall make you feel even better.")
ShowMessageFace("kezyorou_fc1",1,0,2,18)
ShowMessage("\\n<Tsubaki>")
ShowMessage("I take pride in my abilities in bed...")
ShowMessage("No man has been able to last long against me.")
ShowMessageFace("",0,0,2,19)
ShowMessage("Tsubaki gradually moves up and down.")
ShowMessage("Giving me a slippery masturbation.")
ShowMessageFace("",0,0,2,20)
ShowMessage("I end up thrusting my hips with how good it feels.")
ShowMessage("At this rate, I'll climax right away...")
ShowMessageFace("",0,0,2,21)
ShowMessage("\\n<Luka>")
ShowMessage("Uh.... Guh....")
ShowMessageFace("",0,0,2,22)
ShowMessage("I use my willpower on my hips to try stopping my climax.")
ShowMessage("Coming this quickly would be humiliating...")
ShowMessageFace("kezyorou_fc1",1,0,2,23)
ShowMessage("\\n<Tsubaki>")
ShowMessage("Oh? Trying to resist are you...?")
ShowMessage("Fufu, you should know that it is futile....")
ShowMessageFace("",0,0,2,24)
ShowMessage("Sadly, my efforts are broken down.")
ShowMessage("She gradually tightens, constricting my penis.")
ShowMessageFace("",0,0,2,25)
ShowMessage("\\n<Luka>")
ShowMessage("Ah.... Hauuu!!")
ShowMessageFace("kezyorou_fc1",1,0,2,26)
ShowMessage("\\n<Tsubaki>")
ShowMessage("Hoora, can you resist this...?")
ShowMessage("Impossible isn't it? Fufu...")
ShowMessageFace("",0,0,2,27)
ShowMessage("Tsubaki seductively shakes her hips, teasing my desperate resistance.")
ShowMessage("Her undulating insides give me intense pleasure...")
ShowMessageFace("",0,0,2,28)
ShowMessage("\\n<Luka>")
ShowMessage("H-how... Hauuuu....")
ShowMessageFace("kezyorou_fc1",1,0,2,29)
ShowMessage("\\n<Tsubaki>")
ShowMessage("It's ok, pump your seed into my warm pussy....")
ShowMessageFace("",0,0,2,30)
ShowMessage("The tender flesh gripping my penis soaks it in warm fluids.")
ShowMessage("My hips shake uncontrollably, craving the release of a climax.")
ShowMessageFace("",0,0,2,31)
ShowMessage("If she moves any more than this, I'll end up coming.")
ShowMessage("I'll pitifully submit to her honey pot...")
ShowMessageFace("kezyorou_fc1",1,0,2,32)
ShowMessage("\\n<Tsubaki>")
ShowMessage("Now, if I tighten a little more...")
ShowMessage("Hoora, can't resist any longer?")
ShowMessageFace("",0,0,2,33)
ShowMessage("\\n<Luka>")
ShowMessage("Faa... Haaa....")
ShowMessageFace("",0,0,2,34)
ShowMessage("Her honeypot wrings the climax out of my penis...")
ShowMessage("That stimulation turns out to be the finishing blow.")
ShowMessageFace("",0,0,2,35)
ShowMessage("My hips shiver and holding back becomes impossible.")
ShowMessage("I end up giving myself over to the pleasure...")
RunCommonEvent(104)
PictureDisplay(5,"ev_kezyorou_hb3",0,0,0,0,100,100,255,0)
RunCommonEvent(105)
ShowMessageFace("",0,0,2,36)
ShowMessage("\\n<Luka>")
ShowMessage("Ah...aaahh....")
ShowMessageFace("",0,0,2,37)
ShowMessage("As Tsubaki rapes me, I finally reach my limit.")
ShowMessage("I pump my semen into her bewitching vagina...")
ShowMessageFace("kezyorou_fc1",1,0,2,38)
ShowMessage("\\n<Tsubaki>")
ShowMessage("Ahahaha, you let it all out inside me.")
ShowMessage("Trying to get me pregnant are you, boy...?")
ShowMessageFace("",0,0,2,39)
ShowMessage("\\n<Luka>")
ShowMessage("Auuuu....")
ShowMessageFace("",0,0,2,40)
ShowMessage("After shooting out my semen, I feel exhausted.")
ShowMessage("Her honey pot seems to have pampered my penis a bit too much...")
ShowMessageFace("kezyorou_fc1",1,0,2,41)
ShowMessage("\\n<Tsubaki>")
ShowMessage("However, I am yet to be satisfied.")
ShowMessage("You are not completely worn out with just this much are you...?")
ShowMessageFace("kezyorou_fc1",1,0,2,42)
ShowMessage("\\n<Tsubaki>")
ShowMessage("Hoora, let us begin the second round.")
ShowMessage("Make a good effort to please me...!")
ShowMessageFace("",0,0,2,43)
ShowMessage("\\n<Luka>")
ShowMessage("N-no... Aaaaah!!")
PictureDisplay(5,"ev_kezyorou_hb4",0,0,0,0,100,100,255,0)
ShowMessageFace("",0,0,2,44)
ShowMessage("Tsubaki gently wriggles her waist, stroking my penis with her insides.")
ShowMessage("Her playful movements send me renewed stimulation...")
ShowMessageFace("",0,0,2,45)
ShowMessage("\\n<Luka>")
ShowMessage("Hyaaaaa...!")
ShowMessageFace("",0,0,2,46)
ShowMessage("I let out a pathetic scream caused by this one-sided torture.")
ShowMessage("Being completely bound, I writhe in inescapable pleasure.")
ShowMessageFace("kezyorou_fc1",1,0,2,47)
ShowMessage("\\n<Tsubaki>")
ShowMessage("Hoora, are you happy being violated this way?")
ShowMessage("Am I tight enough for you...?")
ShowMessageFace("",0,0,2,48)
ShowMessage("Tsubaki gently moves her waist as she tightens her vagina.")
ShowMessage("My penis is pleasured by the motion she puts me through.")
ShowMessageFace("",0,0,2,49)
ShowMessage("\\n<Luka>")
ShowMessage("Aaaahhh....! I'm coming again....!")
ShowMessageFace("kezyorou_fc1",1,0,2,50)
ShowMessage("\\n<Tsubaki>")
ShowMessage("Aha... how pitiable you are, boy.")
ShowMessage("This marks the second time you're surrendering, right...?")
ShowMessageFace("kezyorou_fc1",1,0,2,51)
ShowMessage("\\n<Tsubaki>")
ShowMessage("Now, come for me!")
ShowMessageFace("",0,0,2,52)
ShowMessage("Grinding against me, Tsubaki rotates her waist.")
ShowMessage("She keeps going, despite my surrender...")
ShowMessageFace("",0,0,2,53)
ShowMessage("\\n<Luka>")
ShowMessage("Coming...! A-Aaahh...!")
RunCommonEvent(104)
PictureDisplay(5,"ev_kezyorou_hb5",0,0,0,0,100,100,255,0)
RunCommonEvent(105)
ShowMessageFace("",0,0,2,54)
ShowMessage("And I give in to Tsubaki's technique.")
ShowMessage("My sperm filling up her warm insides...")
ShowMessageFace("kezyorou_fc1",1,0,2,55)
ShowMessage("\\n<Tsubaki>")
ShowMessage("Fufu... your semen is truly delicious.")
ShowMessage("I might be getting addicted to it...")
ShowMessageFace("kezyorou_fc1",1,0,2,56)
ShowMessage("\\n<Tsubaki>")
ShowMessage("Hoora, give me more and more.")
ShowMessage("This move should do the trick, I believe...?")
ShowMessageFace("",0,0,2,57)
ShowMessage("\\n<Luka>")
ShowMessage("A-auu...! That's enough already...!")
ShowMessageFace("",0,0,2,58)
ShowMessage("Tsubaki livens up and resumes her piston-like movements.")
ShowMessage("Her vagina tightens around my tired penis...")
ShowMessageFace("kezyorou_fc1",1,0,2,59)
ShowMessage("\\n<Tsubaki>")
ShowMessage("What do you mean \"that's enough\"?")
ShowMessage("Your dick is still wide awake....")
ShowMessageFace("kezyorou_fc1",1,0,2,60)
ShowMessage("\\n<Tsubaki>")
ShowMessage("Sora, sora, sora....")
ShowMessage("I'll make you come till your last drop...!")
ShowMessageFace("",0,0,2,61)
ShowMessage("Tsubaki brings me deeper inside her and continues to tighten her insides...")
ShowMessage("Furthermore, she moves back and forth, gently grinding against me.")
ShowMessageFace("",0,0,2,62)
ShowMessage("I twitch in pleasure, her moves can instantly drive a man into a corner.")
ShowMessage("My penis pulsates as I am instantly pushed to my limit...")
ShowMessageFace("",0,0,2,63)
ShowMessage("\\n<Luka>")
ShowMessage("Let me go already... I'm gonna come again....")
ShowMessageFace("kezyorou_fc1",1,0,2,64)
ShowMessage("\\n<Tsubaki>")
ShowMessage("Aha, already at your endurance's limit, yes?")
ShowMessage("Well then, my tight pussy will deal the finishing blow...!")
ShowMessageFace("",0,0,2,65)
ShowMessage("Tsubaki applies strength to squeeze me with her insides.")
ShowMessage("My penis receives a pressure massage inside of her...")
ShowMessageFace("",0,0,2,66)
ShowMessage("\\n<Luka>")
ShowMessage("Ahi...! Aaahh...!")
RunCommonEvent(104)
PictureDisplay(5,"ev_kezyorou_hb6",0,0,0,0,100,100,255,0)
RunCommonEvent(105)
246(2)
ShowMessageFace("",0,0,2,67)
ShowMessage("This maddening tightness guides me once again to ejaculating.")
ShowMessage("I end up pouring my seed inside Tsubaki for the third time...")
ShowMessageFace("",0,0,2,68)
ShowMessage("\\n<Luka>")
ShowMessage("Hauuu....")
ShowMessageFace("kezyorou_fc1",1,0,2,69)
ShowMessage("\\n<Tsubaki>")
ShowMessage("Fufu... you're leaking out plenty, boy.")
ShowMessage("As I expected, my stomach is full...")
ShowMessageFace("",0,0,2,70)
ShowMessage("Tsubaki laughs, satisfied on top of me.")
ShowMessage("Thus, a large amount of my semen was squeezed out...")
221()
PictureClear(5)
PictureClear(6)
ShowMessageFace("",0,0,2,71)
ShowMessage("・・・・・・・・")
RunCommonEvent(3998)
0()
