﻿// EVENT 1154
Name "Talk: Fusuma"

If(1,20,0,1,0)
 JumpToLabel("情報")
 0()
EndIf()
If(1,20,0,2,0)
 JumpToLabel("質問")
 0()
EndIf()
If(1,20,0,3,0)
 JumpToLabel("要求")
 0()
EndIf()
If(1,20,0,4,0)
 JumpToLabel("贈与")
 0()
EndIf()
DefineLabel("情報")
ChangeVariable(13,13,0,2,1,100)
If(1,13,0,10,2)
 ShowMessageFace("husuma_fc1",0,0,2,1)
 ShowMessage("\\n<Fusuma>*swaying slowly*")
 EndEventProcessing()
 0()
EndIf()
If(1,13,0,20,2)
 ShowMessageFace("husuma_fc1",0,0,2,2)
 ShowMessage("\\n<Fusuma>The Ittan-Momen are my friends.")
 EndEventProcessing()
 0()
EndIf()
If(1,13,0,30,2)
 ShowMessageFace("husuma_fc1",0,0,2,3)
 ShowMessage("\\n<Fusuma>*fluttering* Walking in the sky...♪")
 EndEventProcessing()
 0()
EndIf()
If(1,13,0,40,2)
 ShowMessageFace("husuma_fc1",0,0,2,4)
 ShowMessage("\\n<Fusuma>I will melt you...♪")
 EndEventProcessing()
 0()
EndIf()
If(1,13,0,50,2)
 ShowMessageFace("husuma_fc1",0,0,2,5)
 ShowMessage("\\n<Fusuma>A dissolving liquid seeps out from my body.\nI wind around my prey, and melt them in the ooze...♪")
 EndEventProcessing()
 0()
EndIf()
If(1,13,0,60,2)
 ShowMessageFace("husuma_fc1",0,0,2,6)
 ShowMessage("\\n<Fusuma>Do you know what Fusuma were to begin with?\nIn Yamatai, they're also doors that slide open and shut...")
 EndEventProcessing()
 0()
EndIf()
If(1,13,0,70,2)
 ShowMessageFace("husuma_fc1",0,0,2,7)
 ShowMessage("\\n<Fusuma>I'm a carnivorous youkai!\nI'm going to eat humans!")
 EndEventProcessing()
 0()
EndIf()
If(1,13,0,80,2)
 ShowMessageFace("husuma_fc1",0,0,2,8)
 ShowMessage("\\n<Fusuma>I'm a bad youkai!")
 EndEventProcessing()
 0()
EndIf()
If(1,13,0,90,2)
 ShowMessageFace("husuma_fc1",0,0,2,9)
 ShowMessage("\\n<Fusuma>I like the scent of the tides...")
 EndEventProcessing()
 0()
EndIf()
If(1,13,0,100,2)
 ShowMessageFace("husuma_fc1",0,0,2,10)
 ShowMessage("\\n<Fusuma>I rarely ever catch humans to feast upon.\nI usually catch fish and eat them.")
 EndEventProcessing()
 0()
EndIf()
DefineLabel("質問")
ChangeVariable(13,13,0,2,1,50)
If(1,13,0,10,2)
 ShowMessageFace("husuma_fc1",0,0,2,11)
 ShowMessage("\\n<Fusuma>Did you know that I wrap my prey around my body and melt them...?")
 ShowChoices(strings("I'm scared!","I want to be melted!","I want to melt you!"),0)
 IfPlayerPicksChoice(0,"こわい！")
  ShowMessageFace("husuma_fc1",1,0,2,12)
  ShowMessage("\\n<Fusuma>Ahaha, it's scaaary!")
  355("change_friend(10)")
  0()
 IfPlayerPicksChoice(1,"溶かされたい！")
  ShowMessageFace("husuma_fc1",1,0,2,13)
  ShowMessage("\\n<Fusuma>Ehehe, I'll melt youuu!")
  355("change_friend(10)")
  0()
 IfPlayerPicksChoice(2,"溶かしたい！")
  ShowMessageFace("husuma_fc1",2,0,2,14)
  ShowMessage("\\n<Fusuma>You're kind of a scary person...")
  355("change_friend(-5)")
  0()
 404()
 EndEventProcessing()
 0()
EndIf()
If(1,13,0,20,2)
 ShowMessageFace("husuma_fc1",0,0,2,15)
 ShowMessage("\\n<Fusuma>Do you know why I have the name Fusuma...?")
 ShowChoices(strings("Your body is like a sliding door","You used to be a sliding door in the past","I don't know"),0)
 IfPlayerPicksChoice(0,"体が襖っぽいから")
  ShowMessageFace("husuma_fc1",0,0,2,16)
  ShowMessage("\\n<Fusuma>Well, I guess I'm kind of like that...?")
  0()
 IfPlayerPicksChoice(1,"昔は本物の襖だったから")
  ShowMessageFace("husuma_fc1",2,0,2,17)
  ShowMessage("\\n<Fusuma>No, I'm not a household object...")
  355("change_friend(-5)")
  0()
 IfPlayerPicksChoice(2,"知らない")
  ShowMessageFace("husuma_fc1",0,0,2,18)
  ShowMessage("\\n<Fusuma>Yeah, I don't know either...")
  0()
 404()
 EndEventProcessing()
 0()
EndIf()
If(1,13,0,30,2)
 ShowMessageFace("husuma_fc1",0,0,2,19)
 ShowMessage("\\n<Fusuma>Do you know which youkai I'm friends with?")
 ShowChoices(strings("Nurikabe","Ittan-Momen","Nurarihyon"),0)
 IfPlayerPicksChoice(0,"ぬりかべ")
  ShowMessageFace("husuma_fc1",0,0,2,20)
  ShowMessage("\\n<Fusuma>We're different... But I guess we have something in common?")
  0()
 IfPlayerPicksChoice(1,"一反木綿")
  ShowMessageFace("husuma_fc1",0,0,2,21)
  ShowMessage("\\n<Fusuma>Yes, I'm friends with the Ittan-Momen.\nUnlike those girls, I'm a carnivore...♪")
  355("change_friend(10)")
  0()
 IfPlayerPicksChoice(2,"ぬらりひょん")
  ShowMessageFace("husuma_fc1",0,0,2,22)
  ShowMessage("\\n<Fusuma>Not at all!")
  355("change_friend(-5)")
  0()
 404()
 EndEventProcessing()
 0()
EndIf()
If(1,13,0,40,2)
 ShowMessageFace("husuma_fc1",0,0,2,23)
 ShowMessage("\\n<Fusuma>Do I have to eat vegetables after all...?")
 ShowChoices(strings("It's no good","You don't have to","Think of me as a vegetable"),0)
 IfPlayerPicksChoice(0,"ダメ")
  ShowMessageFace("husuma_fc1",2,0,2,24)
  ShowMessage("\\n<Fusuma>No way...")
  0()
 IfPlayerPicksChoice(1,"その必要はない")
  ShowMessageFace("husuma_fc1",0,0,2,25)
  ShowMessage("\\n<Fusuma>That's right!")
  355("change_friend(5)")
  0()
 IfPlayerPicksChoice(2,"僕を野菜だと思って")
  ShowMessageFace("husuma_fc1",1,0,2,26)
  ShowMessage("\\n<Fusuma>So in other words, I can eat them! ♪")
  355("change_friend(10)")
  0()
 404()
 EndEventProcessing()
 0()
EndIf()
If(1,13,0,50,2)
 ShowMessageFace("husuma_fc1",0,0,2,27)
 ShowMessage("\\n<Fusuma>Do you know why I'm out at sea?")
 ShowChoices(strings("Because you like the sea","Because you were a mermaid in a previous life","Because it's easier to attack prey"),0)
 IfPlayerPicksChoice(0,"海が好きだから")
  ShowMessageFace("husuma_fc1",0,0,2,28)
  ShowMessage("\\n<Fusuma>Weeell, I'm not so fond of it anymore...\nOf course, it's not that I dislike it.")
  0()
 IfPlayerPicksChoice(1,"前世は人魚だから")
  ShowMessageFace("husuma_fc1",0,0,2,29)
  ShowMessage("\\n<Fusuma>No, I think I was something different...\n...Probably.")
  0()
 IfPlayerPicksChoice(2,"獲物を襲いやすいから")
  ShowMessageFace("husuma_fc1",0,0,2,30)
  ShowMessage("\\n<Fusuma>Great answer! ♪\nI can move quite freely just by riding the sea breeze.")
  355("change_friend(10)")
  0()
 404()
 EndEventProcessing()
 0()
EndIf()
DefineLabel("要求")
ChangeVariable(13,13,0,2,1,30)
If(1,13,0,10,2)
 If(8,329)
  ShowMessageFace("husuma_fc1",0,0,2,31)
  ShowMessage("\\n<Fusuma>I want to eat meat...")
  ChangeVariable(24,24,0,3,0,329,0)
  ShowMessageFace("",0,0,2,32)
  ShowMessage("Do you want to give some \\ii[329]? (Have:\\V[24])")
  ShowChoices(strings("Yes","No"),2)
  IfPlayerPicksChoice(0,"Yes")
   ShowMessageFace("husuma_fc1",0,0,2,33)
   ShowMessage("\\n<Fusuma>Wooow! ♪")
   ChangeInventory_Item(329,1,0,1)
   355("change_friend(20)")
   EndEventProcessing()
   0()
  IfPlayerPicksChoice(1,"No")
   ShowMessageFace("husuma_fc1",2,0,2,34)
   ShowMessage("\\n<Fusuma>Awful...")
   EndEventProcessing()
   0()
  404()
  0()
 Else()
  ChangeVariable(13,13,0,0,20)
  0()
 EndIf()
 0()
EndIf()
If(1,13,0,20,2)
 If(8,14)
  ShowMessageFace("husuma_fc1",0,0,2,35)
  ShowMessage("\\n<Fusuma>The sea breeze blew into my eyes... Don't you have eye drops?")
  ChangeVariable(24,24,0,3,0,14,0)
  ShowMessageFace("",0,0,2,36)
  ShowMessage("Do you want to give some \\ii[14]? (Have:\\V[24])")
  ShowChoices(strings("Yes","No"),2)
  IfPlayerPicksChoice(0,"Yes")
   ShowMessageFace("husuma_fc1",0,0,2,37)
   ShowMessage("\\n<Fusuma>Wooow! ♪")
   ChangeInventory_Item(14,1,0,1)
   355("change_friend(30)")
   EndEventProcessing()
   0()
  IfPlayerPicksChoice(1,"No")
   ShowMessageFace("husuma_fc1",2,0,2,38)
   ShowMessage("\\n<Fusuma>Awful...")
   EndEventProcessing()
   0()
  404()
  0()
 Else()
  ChangeVariable(13,13,0,0,30)
  0()
 EndIf()
 0()
EndIf()
If(1,13,0,30,2)
 ShowMessageFace("husuma_fc1",0,0,2,39)
 ShowMessage("\\n<Fusuma>I want money...")
 If(7,1545,0)
  ChangeVariable(24,24,0,3,7,2,0)
  ShowMessageFace("",0,0,2,40)
  ShowMessage("Do you want to give 1545G? (Remaining:\\V[24])")
  ShowChoices(strings("Yes","No"),2)
  IfPlayerPicksChoice(0,"Yes")
   ShowMessageFace("husuma_fc1",0,0,2,41)
   ShowMessage("\\n<Fusuma>Wooow! ♪")
   125(1,0,1545)
   355("change_friend(25)")
   EndEventProcessing()
   0()
  IfPlayerPicksChoice(1,"No")
   ShowMessageFace("husuma_fc1",2,0,2,42)
   ShowMessage("\\n<Fusuma>Awful...")
   EndEventProcessing()
   0()
  404()
  0()
 Else()
  ShowMessageFace("husuma_fc1",2,0,2,43)
  ShowMessage("\\n<Fusuma>...You're poorer than I am...")
  EndEventProcessing()
  0()
 EndIf()
 0()
EndIf()
DefineLabel("贈与")
ChangeVariable(13,13,0,2,1,30)
If(1,25,0,1,0)
 ChangeVariable(13,13,0,0,30)
 ChangeVariable(25,25,0,0,0)
 0()
EndIf()
If(1,25,0,2,0)
 ChangeVariable(13,13,0,2,1,20)
 ChangeVariable(25,25,0,0,0)
 0()
EndIf()
If(1,13,0,10,2)
 ShowMessageFace("husuma_fc1",0,0,2,44)
 ShowMessage("\\n<Fusuma>I'll give this to you, because I'm likely to burn myself if I hold onto it...")
 250(bytes(0x04,0x08,0x6f,0x3a,0x0c,0x52,0x50,0x47,0x3a,0x3a,0x53,0x45,0x08,0x3a,0x0a,0x40,0x6e,0x61,0x6d,0x65,0x49,0x22,0x0a,0x49,0x74,0x65,0x6d,0x31,0x06,0x3a,0x06,0x45,0x54,0x3a,0x0b,0x40,0x70,0x69,0x74,0x63,0x68,0x69,0x69,0x3a,0x0c,0x40,0x76,0x6f,0x6c,0x75,0x6d,0x65,0x69,0x55))
 ChangeInventory_Item(52,0,0,1)
 ShowMessageFace("",0,0,2,45)
 ShowMessage("The Fusuma gave you a \\ii[52]!")
 EndEventProcessing()
 0()
EndIf()
If(1,13,0,20,2)
 ShowMessageFace("husuma_fc1",0,0,2,46)
 ShowMessage("\\n<Fusuma>I'll give you this! It's not leftovers...")
 250(bytes(0x04,0x08,0x6f,0x3a,0x0c,0x52,0x50,0x47,0x3a,0x3a,0x53,0x45,0x08,0x3a,0x0a,0x40,0x6e,0x61,0x6d,0x65,0x49,0x22,0x0a,0x49,0x74,0x65,0x6d,0x31,0x06,0x3a,0x06,0x45,0x54,0x3a,0x0b,0x40,0x70,0x69,0x74,0x63,0x68,0x69,0x69,0x3a,0x0c,0x40,0x76,0x6f,0x6c,0x75,0x6d,0x65,0x69,0x55))
 ChangeInventory_Item(432,0,0,1)
 ShowMessageFace("",0,0,2,47)
 ShowMessage("The Fusuma gave you some \\ii[432]!")
 EndEventProcessing()
 0()
EndIf()
If(1,13,0,30,2)
 ShowMessageFace("husuma_fc1",0,0,2,48)
 ShowMessage("\\n<Fusuma>You want money, don't you...?")
 250(bytes(0x04,0x08,0x6f,0x3a,0x0c,0x52,0x50,0x47,0x3a,0x3a,0x53,0x45,0x08,0x3a,0x0a,0x40,0x6e,0x61,0x6d,0x65,0x49,0x22,0x0a,0x49,0x74,0x65,0x6d,0x31,0x06,0x3a,0x06,0x45,0x54,0x3a,0x0b,0x40,0x70,0x69,0x74,0x63,0x68,0x69,0x69,0x3a,0x0c,0x40,0x76,0x6f,0x6c,0x75,0x6d,0x65,0x69,0x55))
 125(0,0,2575)
 ShowMessageFace("",0,0,2,49)
 ShowMessage("The Fusuma gave you 2575G!")
 EndEventProcessing()
 0()
EndIf()
0()
