﻿


EVENT   1
 PAGE   1
  0()



EVENT   2
 PAGE   1
  0()



EVENT   3
 PAGE   1
  0()



EVENT   4
 PAGE   1
  0()



EVENT   5
 PAGE   1
  0()



EVENT   6
 PAGE   1
  0()



EVENT   7
 PAGE   1
  0()



EVENT   8
 PAGE   1
  0()



EVENT   9
 PAGE   1
  0()



EVENT   10
 PAGE   1
  0()



EVENT   11
 PAGE   1
  0()



EVENT   12
 PAGE   1
  0()



EVENT   13
 PAGE   1
  0()



EVENT   14
 PAGE   1
  281(0)
  250(bytes(0x04,0x08,0x6f,0x3a,0x0c,0x52,0x50,0x47,0x3a,0x3a,0x53,0x45,0x08,0x3a,0x0a,0x40,0x6e,0x61,0x6d,0x65,0x49,0x22,0x09,0x4d,0x6f,0x76,0x65,0x06,0x3a,0x06,0x45,0x54,0x3a,0x0b,0x40,0x70,0x69,0x74,0x63,0x68,0x69,0x69,0x3a,0x0c,0x40,0x76,0x6f,0x6c,0x75,0x6d,0x65,0x69,0x55))
  TeleportPlayer(0,77,40,3,0,0)
  0()



EVENT   18
 PAGE   1
  281(0)
  250(bytes(0x04,0x08,0x6f,0x3a,0x0c,0x52,0x50,0x47,0x3a,0x3a,0x53,0x45,0x08,0x3a,0x0a,0x40,0x6e,0x61,0x6d,0x65,0x49,0x22,0x09,0x4d,0x6f,0x76,0x65,0x06,0x3a,0x06,0x45,0x54,0x3a,0x0b,0x40,0x70,0x69,0x74,0x63,0x68,0x69,0x69,0x3a,0x0c,0x40,0x76,0x6f,0x6c,0x75,0x6d,0x65,0x69,0x55))
  TeleportPlayer(0,83,11,11,0,0)
  0()



EVENT   19
 PAGE   1
  250(bytes(0x04,0x08,0x6f,0x3a,0x0c,0x52,0x50,0x47,0x3a,0x3a,0x53,0x45,0x08,0x3a,0x0a,0x40,0x6e,0x61,0x6d,0x65,0x49,0x22,0x0a,0x4f,0x70,0x65,0x6e,0x31,0x06,0x3a,0x06,0x45,0x54,0x3a,0x0b,0x40,0x70,0x69,0x74,0x63,0x68,0x69,0x69,0x3a,0x0c,0x40,0x76,0x6f,0x6c,0x75,0x6d,0x65,0x69,0x55))
  205(0,bytes(0x04,0x08,0x6f,0x3a,0x13,0x52,0x50,0x47,0x3a,0x3a,0x4d,0x6f,0x76,0x65,0x52,0x6f,0x75,0x74,0x65,0x09,0x3a,0x0c,0x40,0x72,0x65,0x70,0x65,0x61,0x74,0x46,0x3a,0x0f,0x40,0x73,0x6b,0x69,0x70,0x70,0x61,0x62,0x6c,0x65,0x46,0x3a,0x0a,0x40,0x77,0x61,0x69,0x74,0x54,0x3a,0x0a,0x40,0x6c,0x69,0x73,0x74,0x5b,0x0c,0x6f,0x3a,0x15,0x52,0x50,0x47,0x3a,0x3a,0x4d,0x6f,0x76,0x65,0x43,0x6f,0x6d,0x6d,0x61,0x6e,0x64,0x07,0x3a,0x0a,0x40,0x63,0x6f,0x64,0x65,0x69,0x16,0x3a,0x10,0x40,0x70,0x61,0x72,0x61,0x6d,0x65,0x74,0x65,0x72,0x73,0x5b,0x00,0x6f,0x3b,0x0a,0x07,0x3b,0x0b,0x69,0x14,0x3b,0x0c,0x5b,0x06,0x69,0x08,0x6f,0x3b,0x0a,0x07,0x3b,0x0b,0x69,0x17,0x3b,0x0c,0x5b,0x00,0x6f,0x3b,0x0a,0x07,0x3b,0x0b,0x69,0x14,0x3b,0x0c,0x5b,0x06,0x69,0x08,0x6f,0x3b,0x0a,0x07,0x3b,0x0b,0x69,0x18,0x3b,0x0c,0x5b,0x00,0x6f,0x3b,0x0a,0x07,0x3b,0x0b,0x69,0x2a,0x3b,0x0c,0x5b,0x00,0x6f,0x3b,0x0a,0x07,0x3b,0x0b,0x69,0x00,0x3b,0x0c,0x5b,0x00))
  205(-1,bytes(0x04,0x08,0x6f,0x3a,0x13,0x52,0x50,0x47,0x3a,0x3a,0x4d,0x6f,0x76,0x65,0x52,0x6f,0x75,0x74,0x65,0x09,0x3a,0x0c,0x40,0x72,0x65,0x70,0x65,0x61,0x74,0x46,0x3a,0x0f,0x40,0x73,0x6b,0x69,0x70,0x70,0x61,0x62,0x6c,0x65,0x54,0x3a,0x0a,0x40,0x77,0x61,0x69,0x74,0x54,0x3a,0x0a,0x40,0x6c,0x69,0x73,0x74,0x5b,0x07,0x6f,0x3a,0x15,0x52,0x50,0x47,0x3a,0x3a,0x4d,0x6f,0x76,0x65,0x43,0x6f,0x6d,0x6d,0x61,0x6e,0x64,0x07,0x3a,0x0a,0x40,0x63,0x6f,0x64,0x65,0x69,0x11,0x3a,0x10,0x40,0x70,0x61,0x72,0x61,0x6d,0x65,0x74,0x65,0x72,0x73,0x5b,0x00,0x6f,0x3b,0x0a,0x07,0x3b,0x0b,0x69,0x00,0x3b,0x0c,0x5b,0x00))
  281(0)
  250(bytes(0x04,0x08,0x6f,0x3a,0x0c,0x52,0x50,0x47,0x3a,0x3a,0x53,0x45,0x08,0x3a,0x0a,0x40,0x6e,0x61,0x6d,0x65,0x49,0x22,0x09,0x4d,0x6f,0x76,0x65,0x06,0x3a,0x06,0x45,0x54,0x3a,0x0b,0x40,0x70,0x69,0x74,0x63,0x68,0x69,0x69,0x3a,0x0c,0x40,0x76,0x6f,0x6c,0x75,0x6d,0x65,0x69,0x55))
  TeleportPlayer(0,90,10,28,0,0)
  0()



EVENT   21
 PAGE   1
  281(0)
  250(bytes(0x04,0x08,0x6f,0x3a,0x0c,0x52,0x50,0x47,0x3a,0x3a,0x53,0x45,0x08,0x3a,0x0a,0x40,0x6e,0x61,0x6d,0x65,0x49,0x22,0x09,0x4d,0x6f,0x76,0x65,0x06,0x3a,0x06,0x45,0x54,0x3a,0x0b,0x40,0x70,0x69,0x74,0x63,0x68,0x69,0x69,0x3a,0x0c,0x40,0x76,0x6f,0x6c,0x75,0x6d,0x65,0x69,0x55))
  TeleportPlayer(0,82,19,41,0,0)
  0()



EVENT   20
 PAGE   1
  250(bytes(0x04,0x08,0x6f,0x3a,0x0c,0x52,0x50,0x47,0x3a,0x3a,0x53,0x45,0x08,0x3a,0x0a,0x40,0x6e,0x61,0x6d,0x65,0x49,0x22,0x0a,0x4f,0x70,0x65,0x6e,0x31,0x06,0x3a,0x06,0x45,0x54,0x3a,0x0b,0x40,0x70,0x69,0x74,0x63,0x68,0x69,0x69,0x3a,0x0c,0x40,0x76,0x6f,0x6c,0x75,0x6d,0x65,0x69,0x55))
  205(0,bytes(0x04,0x08,0x6f,0x3a,0x13,0x52,0x50,0x47,0x3a,0x3a,0x4d,0x6f,0x76,0x65,0x52,0x6f,0x75,0x74,0x65,0x09,0x3a,0x0c,0x40,0x72,0x65,0x70,0x65,0x61,0x74,0x46,0x3a,0x0f,0x40,0x73,0x6b,0x69,0x70,0x70,0x61,0x62,0x6c,0x65,0x46,0x3a,0x0a,0x40,0x77,0x61,0x69,0x74,0x54,0x3a,0x0a,0x40,0x6c,0x69,0x73,0x74,0x5b,0x0c,0x6f,0x3a,0x15,0x52,0x50,0x47,0x3a,0x3a,0x4d,0x6f,0x76,0x65,0x43,0x6f,0x6d,0x6d,0x61,0x6e,0x64,0x07,0x3a,0x0a,0x40,0x63,0x6f,0x64,0x65,0x69,0x16,0x3a,0x10,0x40,0x70,0x61,0x72,0x61,0x6d,0x65,0x74,0x65,0x72,0x73,0x5b,0x00,0x6f,0x3b,0x0a,0x07,0x3b,0x0b,0x69,0x14,0x3b,0x0c,0x5b,0x06,0x69,0x08,0x6f,0x3b,0x0a,0x07,0x3b,0x0b,0x69,0x17,0x3b,0x0c,0x5b,0x00,0x6f,0x3b,0x0a,0x07,0x3b,0x0b,0x69,0x14,0x3b,0x0c,0x5b,0x06,0x69,0x08,0x6f,0x3b,0x0a,0x07,0x3b,0x0b,0x69,0x18,0x3b,0x0c,0x5b,0x00,0x6f,0x3b,0x0a,0x07,0x3b,0x0b,0x69,0x2a,0x3b,0x0c,0x5b,0x00,0x6f,0x3b,0x0a,0x07,0x3b,0x0b,0x69,0x00,0x3b,0x0c,0x5b,0x00))
  205(-1,bytes(0x04,0x08,0x6f,0x3a,0x13,0x52,0x50,0x47,0x3a,0x3a,0x4d,0x6f,0x76,0x65,0x52,0x6f,0x75,0x74,0x65,0x09,0x3a,0x0c,0x40,0x72,0x65,0x70,0x65,0x61,0x74,0x46,0x3a,0x0f,0x40,0x73,0x6b,0x69,0x70,0x70,0x61,0x62,0x6c,0x65,0x54,0x3a,0x0a,0x40,0x77,0x61,0x69,0x74,0x54,0x3a,0x0a,0x40,0x6c,0x69,0x73,0x74,0x5b,0x07,0x6f,0x3a,0x15,0x52,0x50,0x47,0x3a,0x3a,0x4d,0x6f,0x76,0x65,0x43,0x6f,0x6d,0x6d,0x61,0x6e,0x64,0x07,0x3a,0x0a,0x40,0x63,0x6f,0x64,0x65,0x69,0x11,0x3a,0x10,0x40,0x70,0x61,0x72,0x61,0x6d,0x65,0x74,0x65,0x72,0x73,0x5b,0x00,0x6f,0x3b,0x0a,0x07,0x3b,0x0b,0x69,0x00,0x3b,0x0c,0x5b,0x00))
  281(0)
  250(bytes(0x04,0x08,0x6f,0x3a,0x0c,0x52,0x50,0x47,0x3a,0x3a,0x53,0x45,0x08,0x3a,0x0a,0x40,0x6e,0x61,0x6d,0x65,0x49,0x22,0x09,0x4d,0x6f,0x76,0x65,0x06,0x3a,0x06,0x45,0x54,0x3a,0x0b,0x40,0x70,0x69,0x74,0x63,0x68,0x69,0x69,0x3a,0x0c,0x40,0x76,0x6f,0x6c,0x75,0x6d,0x65,0x69,0x55))
  TeleportPlayer(0,89,26,21,0,0)
  0()



EVENT   24
 PAGE   1
  RunCommonEvent(565)
  0()
 PAGE   2
  // condition: variable 1099 >= 2
  0()
 PAGE   3
  // condition: variable 1099 >= 3
  RunCommonEvent(565)
  0()



EVENT   26
 PAGE   1
  // condition: variable 1099 >= 4
  RunCommonEvent(564)
  0()



EVENT   28
 PAGE   1
  // condition: variable 1099 >= 4
  RunCommonEvent(564)
  0()



EVENT   29
 PAGE   1
  // condition: variable 1099 >= 4
  RunCommonEvent(564)
  0()



EVENT   30
 PAGE   1
  ShowMessageFace("People3",5,0,2,1)
  ShowMessage("【メイド】")
  ShowMessage("現在、中庭では除草剤を散布しております。")
  ShowMessage("本日中の立ち入りはご遠慮願います。")
  205(-1,bytes(0x04,0x08,0x6f,0x3a,0x13,0x52,0x50,0x47,0x3a,0x3a,0x4d,0x6f,0x76,0x65,0x52,0x6f,0x75,0x74,0x65,0x09,0x3a,0x0c,0x40,0x72,0x65,0x70,0x65,0x61,0x74,0x46,0x3a,0x0f,0x40,0x73,0x6b,0x69,0x70,0x70,0x61,0x62,0x6c,0x65,0x46,0x3a,0x0a,0x40,0x77,0x61,0x69,0x74,0x54,0x3a,0x0a,0x40,0x6c,0x69,0x73,0x74,0x5b,0x07,0x6f,0x3a,0x15,0x52,0x50,0x47,0x3a,0x3a,0x4d,0x6f,0x76,0x65,0x43,0x6f,0x6d,0x6d,0x61,0x6e,0x64,0x07,0x3a,0x0a,0x40,0x63,0x6f,0x64,0x65,0x69,0x09,0x3a,0x10,0x40,0x70,0x61,0x72,0x61,0x6d,0x65,0x74,0x65,0x72,0x73,0x5b,0x00,0x6f,0x3b,0x0a,0x07,0x3b,0x0b,0x69,0x00,0x3b,0x0c,0x5b,0x00))
  0()



EVENT   31
 PAGE   1
  ShowMessageFace("People3",5,0,2,1)
  ShowMessage("【メイド】")
  ShowMessage("現在、中庭では除草剤を散布しております。")
  ShowMessage("本日中の立ち入りはご遠慮願います。")
  205(-1,bytes(0x04,0x08,0x6f,0x3a,0x13,0x52,0x50,0x47,0x3a,0x3a,0x4d,0x6f,0x76,0x65,0x52,0x6f,0x75,0x74,0x65,0x09,0x3a,0x0c,0x40,0x72,0x65,0x70,0x65,0x61,0x74,0x46,0x3a,0x0f,0x40,0x73,0x6b,0x69,0x70,0x70,0x61,0x62,0x6c,0x65,0x46,0x3a,0x0a,0x40,0x77,0x61,0x69,0x74,0x54,0x3a,0x0a,0x40,0x6c,0x69,0x73,0x74,0x5b,0x07,0x6f,0x3a,0x15,0x52,0x50,0x47,0x3a,0x3a,0x4d,0x6f,0x76,0x65,0x43,0x6f,0x6d,0x6d,0x61,0x6e,0x64,0x07,0x3a,0x0a,0x40,0x63,0x6f,0x64,0x65,0x69,0x09,0x3a,0x10,0x40,0x70,0x61,0x72,0x61,0x6d,0x65,0x74,0x65,0x72,0x73,0x5b,0x00,0x6f,0x3b,0x0a,0x07,0x3b,0x0b,0x69,0x00,0x3b,0x0c,0x5b,0x00))
  0()



EVENT   32
 PAGE   1
  // condition: variable 1099 >= 2
  RunCommonEvent(553)
  0()
 PAGE   2
  // condition: variable 1099 >= 3
  0()



EVENT   33
 PAGE   1
  // condition: variable 1099 >= 2
  RunCommonEvent(554)
  0()
 PAGE   2
  // condition: variable 1099 >= 3
  0()



EVENT   34
 PAGE   1
  // condition: variable 1099 >= 3
  RunCommonEvent(563)
  0()
 PAGE   2
  // condition: variable 1099 >= 4
  0()



EVENT   35
 PAGE   1
  // condition: variable 1099 >= 2
  ShowMessageFace("youki_fc1",0,0,2,1)
  ShowMessage("【くれは】")
  ShowMessage("うまい！　うまい！")
  If(0,2338,0)
   EndEventProcessing()
   0()
  EndIf()
  DefineLabel("メイン")
  355("ex_choice_add(\"一緒に食事する（時間経過）\",1,")
  655("\"v[1098] >= 5\",0)")
  655("ex_choice_add(\"異変について相談する\",2,")
  655("\"s[2341]\",0)")
  655("ex_choice_add(\"後悔していることについて聞く\",3,")
  655("\"s[2342]\",0)")
  655("ex_choice_add(\"時を繰り返す道具について聞く\",4,")
  655("\"s[2343]\",0)")
  655("ex_choice_add(\"ピザを注文したか聞く\",5,")
  655("\"s[2345]\",0)")
  355("ex_choice_add(\"謎のマキナについて聞く\",6,")
  655("\"s[2365]\",0)")
  655("ex_choice_add(\"作戦に必要な品について聞く\",7,")
  655("\"s[2364]\",0)")
  655("ex_choice_add(\"お茶会に誘う\",8,")
  655("\"s[2378]\",0)")
  655("ex_choice_add(\"立ち去る\",10)")
  355("ex_choice_show(0,11,[0,0])")
  If(1,9,0,1,0)
   TeleportPlayer(0,78,38,17,6,0)
   ShowMessageFace("youki_fc1",0,0,2,2)
   ShowMessage("【くれは】")
   ShowMessage("うまい！　うまい！")
   ShowMessageFace("ruka_fc1",0,0,2,3)
   ShowMessage("【ルカ】")
   ShowMessage("うまい！　うまい！")
   If(1,1099,0,3,1)
    ShowMessageFace("kooni_fc1",1,0,2,4)
    ShowMessage("【雫】")
    ShowMessage("うまい！　うまい！")
    0()
   EndIf()
   If(1,1099,0,3,0)
    ShowMessageFace("amira_fc1",0,0,2,5)
    ShowMessage("【アミラ】")
    ShowMessage("鬼がそのセリフ言っていいの？")
    ShowMessage("狩られる側じゃない……？")
    0()
   EndIf()
   ShowMessageFace(binary"",0,0,2,6)
   ShowMessage("豪快に食べる人がいると、自分も食が進むものだ。")
   ShowMessage("くれはと一緒に、たらふく食べた――")
   If(1,1099,0,4,0)
    RunCommonEvent(5832)
    EndEventProcessing()
    0()
   EndIf()
   RunCommonEvent(540)
   EndEventProcessing()
   0()
  EndIf()
  If(1,9,0,2,0)
   ShowMessageFace("",0,0,2,7)
   ShowMessage("ルカは、異変について相談した……")
   ShowMessageFace("youki_fc1",0,0,2,8)
   ShowMessage("【くれは】")
   ShowMessage("なんで俺に頼ろうとするんだ！")
   ShowMessage("もっと賢い奴がたくさんいるだろ！")
   ShowMessageFace("",0,0,2,9)
   ShowMessage("くれはは頼れそうにない……")
   JumpToLabel("メイン")
   0()
  EndIf()
  If(1,9,0,3,0)
   ShowMessageFace("youki_fc1",0,0,2,10)
   ShowMessage("【くれは】")
   ShowMessage("後悔なんてないぜ！　毎日健康、毎日マッスル！")
   ShowMessageFace("",0,0,2,11)
   ShowMessage("有益な情報は得られなかった……")
   JumpToLabel("メイン")
   0()
  EndIf()
  If(1,9,0,4,0)
   ShowMessageFace("youki_fc1",0,0,2,12)
   ShowMessage("【くれは】")
   ShowMessage("さあ？　知らねぇな……")
   ShowMessageFace("",0,0,2,13)
   ShowMessage("有益な情報は得られなかった……")
   JumpToLabel("メイン")
   0()
  EndIf()
  If(1,9,0,5,0)
   ShowMessageFace("youki_fc1",0,0,2,14)
   ShowMessage("【くれは】")
   ShowMessage("俺じゃねぇな。")
   ShowMessage("欲しいものは、自分で取りに行く主義だぜ！")
   ShowMessageFace("",0,0,2,15)
   ShowMessage("ピザを頼んだのはくれはではないようだ……")
   JumpToLabel("メイン")
   0()
  EndIf()
  If(1,9,0,6,0)
   ShowMessageFace("youki_fc1",0,0,2,16)
   ShowMessage("【くれは】")
   ShowMessage("機械のことを聞くなよ！")
   ShowMessageFace("",0,0,2,17)
   ShowMessage("有益な情報は得られなかった……")
   JumpToLabel("メイン")
   0()
  EndIf()
  If(1,9,0,7,0)
   ShowMessageFace("youki_fc1",0,0,2,18)
   ShowMessage("【くれは】")
   ShowMessage("筋肉で何とかならないのか……？")
   ShowMessageFace("",0,0,2,19)
   ShowMessage("有益なアイテムは得られなかった……")
   JumpToLabel("メイン")
   0()
  EndIf()
  If(1,9,0,8,0)
   ShowMessageFace("youki_fc1",2,0,2,20)
   ShowMessage("【くれは】")
   ShowMessage("いくら俺が鬼でも、こればっかりはな……")
   ShowMessage("命がいくつあっても足りないぜ。")
   ShowMessageFace("",0,0,2,21)
   ShowMessage("くれははお茶会の誘いを断った……")
   JumpToLabel("メイン")
   0()
  EndIf()
  EndEventProcessing()
  0()
 PAGE   2
  // condition: variable 1099 >= 4
  0()



EVENT   36
 PAGE   1
  // condition: variable 1099 >= 2
  RunCommonEvent(575)
  0()
 PAGE   2
  // condition: variable 1099 >= 3
  RunCommonEvent(576)
  0()
 PAGE   3
  // condition: switch 2402 is ON
  // condition: variable 1099 >= 3
  RunCommonEvent(575)
  0()
 PAGE   4
  // condition: variable 1099 >= 4
  RunCommonEvent(579)
  0()
 PAGE   5
  // condition: switch 2403 is ON
  0()



EVENT   37
 PAGE   1
  // condition: variable 1099 >= 3
  RunCommonEvent(576)
  0()
 PAGE   2
  // condition: variable 1099 >= 4
  0()
 PAGE   3
  // condition: switch 2402 is ON
  0()



EVENT   38
 PAGE   1
  // condition: variable 1099 >= 2
  ShowMessageFace("aradia_fc1",0,0,2,1)
  ShowMessage("【アラディア】")
  ShowMessage("今日は私が食事当番なのです。")
  ShowMessage("あなたも一緒に、料理などいかがですか？")
  If(0,2338,0)
   ShowMessageFace("",0,0,2,2)
   ShowMessage("今は、荷物を運んでいる最中だ。")
   ShowMessage("大聖堂に向かうことを優先しよう。")
   EndEventProcessing()
   0()
  EndIf()
  DefineLabel("メイン")
  355("ex_choice_add(\"一緒に料理する（時間経過）\",1,")
  655("\"v[1098] >= 5\",0)")
  655("ex_choice_add(\"異変について相談する\",2,")
  655("\"s[2341]\",0)")
  655("ex_choice_add(\"後悔していることについて聞く\",3,")
  655("\"s[2342]\",0)")
  655("ex_choice_add(\"時を繰り返す道具について聞く\",4,")
  655("\"s[2343]\",0)")
  655("ex_choice_add(\"ピザを注文したか聞く\",5,")
  655("\"s[2345]\",0)")
  355("ex_choice_add(\"謎のマキナについて聞く\",6,")
  655("\"s[2365]\",0)")
  655("ex_choice_add(\"作戦に必要な品について聞く\",7,")
  655("\"s[2364]\",0)")
  655("ex_choice_add(\"お茶会に誘う\",8,")
  655("\"s[2378]\",0)")
  655("ex_choice_add(\"立ち去る\",10)")
  355("ex_choice_show(0,11,[0,0])")
  If(1,9,0,1,0)
   221()
   205(0,bytes(0x04,0x08,0x6f,0x3a,0x13,0x52,0x50,0x47,0x3a,0x3a,0x4d,0x6f,0x76,0x65,0x52,0x6f,0x75,0x74,0x65,0x09,0x3a,0x0c,0x40,0x72,0x65,0x70,0x65,0x61,0x74,0x46,0x3a,0x0f,0x40,0x73,0x6b,0x69,0x70,0x70,0x61,0x62,0x6c,0x65,0x46,0x3a,0x0a,0x40,0x77,0x61,0x69,0x74,0x54,0x3a,0x0a,0x40,0x6c,0x69,0x73,0x74,0x5b,0x07,0x6f,0x3a,0x15,0x52,0x50,0x47,0x3a,0x3a,0x4d,0x6f,0x76,0x65,0x43,0x6f,0x6d,0x6d,0x61,0x6e,0x64,0x07,0x3a,0x0a,0x40,0x63,0x6f,0x64,0x65,0x69,0x18,0x3a,0x10,0x40,0x70,0x61,0x72,0x61,0x6d,0x65,0x74,0x65,0x72,0x73,0x5b,0x00,0x6f,0x3b,0x0a,0x07,0x3b,0x0b,0x69,0x00,0x3b,0x0c,0x5b,0x00))
   TeleportPlayer(0,78,48,30,8,0)
   222()
   ShowMessageFace("aradia_fc1",0,0,2,3)
   ShowMessage("【アラディア】")
   ShowMessage("あなたの料理の腕は、大したものですね。")
   ShowMessage("やはり、お母様も料理が得意だったのでしょうか？")
   ShowMessageFace("ruka_fc1",0,0,2,4)
   ShowMessage("【ルカ】")
   ShowMessage("母さんの料理は……その、当たり外れがあったよ。")
   ShowMessage("しかもたいてい外れだった。")
   ShowMessageFace("ruka_fc1",0,0,2,5)
   ShowMessage("【ルカ】")
   ShowMessage("だから、僕が料理を勉強して……")
   ShowMessage("ほら、家が宿屋だから……潰れちゃうし……")
   ShowMessageFace("aradia_fc1",0,0,2,6)
   ShowMessage("【アラディア】")
   ShowMessage("辛いことを聞いてしまいましたね……")
   ShowMessageFace("",0,0,2,7)
   ShowMessage("アラディアと料理をして過ごした……")
   If(1,1099,0,4,0)
    RunCommonEvent(5795)
    EndEventProcessing()
    0()
   EndIf()
   RunCommonEvent(540)
   EndEventProcessing()
   0()
  EndIf()
  If(1,9,0,2,0)
   ShowMessageFace("",0,0,2,8)
   ShowMessage("ルカは、異変について相談した……")
   ShowMessageFace("aradia_fc1",0,0,2,9)
   ShowMessage("【アラディア】")
   ShowMessage("それは、力になれそうにないですね……")
   ShowMessage("乳房が必要な用件があれば、呼んで下さい。")
   ShowMessageFace("",0,0,2,10)
   ShowMessage("アラディアは頼れそうにない……")
   JumpToLabel("メイン")
   0()
  EndIf()
  If(1,9,0,3,0)
   ShowMessageFace("aradia_fc1",0,0,2,11)
   ShowMessage("【アラディア】")
   ShowMessage("後悔ですか、特にありませんね……")
   ShowMessage("魔女の修行ばかりで、起伏のない人生ですから。")
   ShowMessageFace("",0,0,2,12)
   ShowMessage("有益な情報は得られなかった……")
   JumpToLabel("メイン")
   0()
  EndIf()
  If(1,9,0,4,0)
   ShowMessageFace("aradia_fc1",0,0,2,13)
   ShowMessage("【アラディア】")
   ShowMessage("魔女としては一流のつもりですが、初耳の品ですね。")
   ShowMessage("存在するとすれば、普通の魔術アイテムではないでしょう。")
   ShowMessageFace("",0,0,2,14)
   ShowMessage("有益な情報は得られなかった……")
   JumpToLabel("メイン")
   0()
  EndIf()
  If(1,9,0,5,0)
   ShowMessageFace("aradia_fc1",0,0,2,15)
   ShowMessage("【アラディア】")
   ShowMessage("それは、私以外をあたって下さい。")
   ShowMessage("この城には、食い意地の張った者達がたくさんいますから。")
   ShowMessageFace("",0,0,2,16)
   ShowMessage("ピザを頼んだのはアラディアではないようだ……")
   JumpToLabel("メイン")
   0()
  EndIf()
  If(1,9,0,6,0)
   ShowMessageFace("aradia_fc1",0,0,2,17)
   ShowMessage("【アラディア】")
   ShowMessage("魔宝具ならまだしも、マキナとは……")
   ShowMessage("私には分かりませんね。")
   ShowMessageFace("",0,0,2,18)
   ShowMessage("有益な情報は得られなかった……")
   JumpToLabel("メイン")
   0()
  EndIf()
  If(1,9,0,7,0)
   ShowMessageFace("aradia_fc1",0,0,2,19)
   ShowMessage("【アラディア】")
   ShowMessage("あれほどの相手となると……")
   ShowMessage("足止め出来るような品は、持ち合わせていませんね。")
   ShowMessageFace("",0,0,2,20)
   ShowMessage("有益なアイテムは得られなかった……")
   JumpToLabel("メイン")
   0()
  EndIf()
  If(1,9,0,8,0)
   ShowMessageFace("aradia_fc1",0,0,2,21)
   ShowMessage("【アラディア】")
   ShowMessage("それは、御免被ります。")
   ShowMessage("私も命は惜しいので……")
   ShowMessageFace("",0,0,2,22)
   ShowMessage("アラディアはお茶会の誘いを断った……")
   JumpToLabel("メイン")
   0()
  EndIf()
  EndEventProcessing()
  0()



EVENT   39
 PAGE   1
  ShowMessageFace("sylph_fc1",0,0,2,1)
  ShowMessage("【シルフ】")
  ShowMessage("あっ、ルカ！")
  ShowMessage("ヒマなら、一緒に遊ぶ？")
  ShowMessageFace("gnome_fc1",0,0,2,2)
  ShowMessage("【ノーム】")
  ShowMessage("……………………")
  If(1,1098,0,3,0)
   ShowMessageFace("",0,0,2,3)
   ShowMessage("今は先に、ピザを届けに行こう。")
   ShowMessage("ステージで練習しているはずだ。")
   EndEventProcessing()
   0()
  EndIf()
  If(1,1098,0,4,0)
   ShowMessageFace("",0,0,2,4)
   ShowMessage("今は先に、一階の食堂に昼ごはんを食べに行こう。")
   EndEventProcessing()
   0()
  EndIf()
  If(1,1098,0,7,0)
   ShowMessageFace("",0,0,2,5)
   ShowMessage("今は先に、ピザを届けに行こう。")
   ShowMessage("ステージで練習しているはずだ。")
   EndEventProcessing()
   0()
  EndIf()
  DefineLabel("メイン")
  355("ex_choice_add(\"一緒に遊ぶ（時間経過）\",1,")
  655("\"v[1098] >= 5\",0)")
  655("ex_choice_add(\"異変について相談する\",2,")
  655("\"s[2341]\",0)")
  655("ex_choice_add(\"後悔していることについて聞く\",3,")
  655("\"s[2342]\",0)")
  655("ex_choice_add(\"時を繰り返す道具について聞く\",4,")
  655("\"s[2343]\",0)")
  655("ex_choice_add(\"ピザを注文したか聞く\",5,")
  655("\"s[2345]\",0)")
  355("ex_choice_add(\"謎のマキナについて聞く\",6,")
  655("\"s[2365]\",0)")
  655("ex_choice_add(\"作戦に必要な品について聞く\",7,")
  655("\"s[2364]\",0)")
  655("ex_choice_add(\"お茶会に誘う\",8,")
  655("\"s[2378]\",0)")
  655("ex_choice_add(\"立ち去る\",10)")
  355("ex_choice_show(0,11,[0,0])")
  If(1,9,0,1,0)
   ShowMessageFace("sylph_fc1",0,0,2,6)
   ShowMessage("【シルフ】")
   ShowMessage("それじゃあ、何して遊ぶ？")
   ShowMessage("台風を呼んじゃおうか！")
   ShowMessageFace("gnome_fc1",0,0,2,7)
   ShowMessage("【ノーム】")
   ShowMessage("……………………")
   ShowMessageFace("sylph_fc1",0,0,2,8)
   ShowMessage("【シルフ】")
   ShowMessage("ノームちゃん、地震を起こすの？")
   ShowMessage("人のいるところはダメだよ。")
   ShowMessageFace("ruka_fc1",0,0,2,9)
   ShowMessage("【ルカ】")
   ShowMessage("精霊の遊びにはついていけないな……")
   ShowMessageFace("",0,0,2,10)
   ShowMessage("シルフ、ノームと遊んで時間を過ごした……")
   RunCommonEvent(540)
   EndEventProcessing()
   0()
  EndIf()
  If(1,9,0,2,0)
   ShowMessageFace("",0,0,2,11)
   ShowMessage("ルカは、異変について相談した……")
   ShowMessageFace("sylph_fc1",7,0,2,12)
   ShowMessage("【シルフ】")
   ShowMessage("……………………")
   ShowMessageFace("",0,0,2,13)
   ShowMessage("まったく理解できていない顔をしている。")
   ShowMessage("シルフは頼れそうにない……")
   JumpToLabel("メイン")
   0()
  EndIf()
  If(1,9,0,3,0)
   ShowMessageFace("sylph_fc1",0,0,2,14)
   ShowMessage("【シルフ】")
   ShowMessage("後悔？　ないよ～！")
   ShowMessageFace("",0,0,2,15)
   ShowMessage("有益な情報は得られなかった……")
   JumpToLabel("メイン")
   0()
  EndIf()
  If(1,9,0,4,0)
   ShowMessageFace("sylph_fc1",1,0,2,16)
   ShowMessage("【シルフ】")
   ShowMessage("うーん、聞いたことないなぁ。")
   ShowMessageFace("",0,0,2,17)
   ShowMessage("有益な情報は得られなかった……")
   JumpToLabel("メイン")
   0()
  EndIf()
  If(1,9,0,5,0)
   ShowMessageFace("sylph_fc1",0,0,2,18)
   ShowMessage("【シルフ】")
   ShowMessage("ピザ？　あたし、知らないよ？")
   ShowMessageFace("",0,0,2,19)
   ShowMessage("ピザを頼んだのはシルフではないようだ……")
   JumpToLabel("メイン")
   0()
  EndIf()
  If(1,9,0,6,0)
   ShowMessageFace("sylph_fc1",1,0,2,20)
   ShowMessage("【シルフ】")
   ShowMessage("これ、メカニックかまぼこ。")
   ShowMessageFace("",0,0,2,21)
   ShowMessage("有益な情報は得られなかった……")
   JumpToLabel("メイン")
   0()
  EndIf()
  If(1,9,0,7,0)
   ShowMessageFace("sylph_fc1",1,0,2,22)
   ShowMessage("【シルフ】")
   ShowMessage("う～ん……役立つアイテムはないかなぁ。")
   ShowMessageFace("",0,0,2,23)
   ShowMessage("有益なアイテムは得られなかった……")
   JumpToLabel("メイン")
   0()
  EndIf()
  If(1,9,0,8,0)
   ShowMessageFace("sylph_fc1",4,0,2,24)
   ShowMessage("【シルフ】")
   ShowMessage("イヤー！！")
   ShowMessageFace("",0,0,2,25)
   ShowMessage("シルフはお茶会の誘いを断った……")
   JumpToLabel("メイン")
   0()
  EndIf()
  EndEventProcessing()
  0()
 PAGE   2
  // condition: variable 1099 >= 2
  0()



EVENT   40
 PAGE   1
  ShowMessageFace("gnome_fc1",0,0,2,1)
  ShowMessage("【ノーム】")
  ShowMessage("……………………")
  ShowMessageFace("sylph_fc1",0,0,2,2)
  ShowMessage("【シルフ】")
  ShowMessage("あっ、ルカ！")
  ShowMessage("ヒマなら、一緒に遊ぶ？")
  If(1,1098,0,3,0)
   ShowMessageFace("",0,0,2,3)
   ShowMessage("今は先に、ピザを届けに行こう。")
   ShowMessage("ステージで練習しているはずだ。")
   EndEventProcessing()
   0()
  EndIf()
  If(1,1098,0,4,0)
   ShowMessageFace("",0,0,2,4)
   ShowMessage("今は先に、一階の食堂に昼ごはんを食べに行こう。")
   EndEventProcessing()
   0()
  EndIf()
  If(1,1098,0,7,0)
   ShowMessageFace("",0,0,2,5)
   ShowMessage("今は先に、ピザを届けに行こう。")
   ShowMessage("ステージで練習しているはずだ。")
   EndEventProcessing()
   0()
  EndIf()
  DefineLabel("メイン")
  355("ex_choice_add(\"一緒に遊ぶ（時間経過）\",1,")
  655("\"v[1098] >= 5\",0)")
  655("ex_choice_add(\"異変について相談する\",2,")
  655("\"s[2341]\",0)")
  655("ex_choice_add(\"後悔していることについて聞く\",3,")
  655("\"s[2342]\",0)")
  655("ex_choice_add(\"時を繰り返す道具について聞く\",4,")
  655("\"s[2343]\",0)")
  655("ex_choice_add(\"ピザを注文したか聞く\",5,")
  655("\"s[2345]\",0)")
  355("ex_choice_add(\"謎のマキナについて聞く\",6,")
  655("\"s[2365]\",0)")
  655("ex_choice_add(\"作戦に必要な品について聞く\",7,")
  655("\"s[2364]\",0)")
  655("ex_choice_add(\"お茶会に誘う\",8,")
  655("\"s[2378]\",0)")
  655("ex_choice_add(\"立ち去る\",10)")
  355("ex_choice_show(0,11,[0,0])")
  If(1,9,0,1,0)
   ShowMessageFace("sylph_fc1",0,0,2,6)
   ShowMessage("【シルフ】")
   ShowMessage("それじゃあ、何して遊ぶ？")
   ShowMessage("台風を呼んじゃおうか！")
   ShowMessageFace("gnome_fc1",0,0,2,7)
   ShowMessage("【ノーム】")
   ShowMessage("……………………")
   ShowMessageFace("sylph_fc1",0,0,2,8)
   ShowMessage("【シルフ】")
   ShowMessage("ノームちゃん、地震を起こすの？")
   ShowMessage("人のいるところはダメだよ。")
   ShowMessageFace("ruka_fc1",0,0,2,9)
   ShowMessage("【ルカ】")
   ShowMessage("精霊の遊びにはついていけないな……")
   ShowMessageFace("",0,0,2,10)
   ShowMessage("シルフ、ノームと遊んで時間を過ごした……")
   RunCommonEvent(540)
   EndEventProcessing()
   0()
  EndIf()
  If(1,9,0,2,0)
   ShowMessageFace("",0,0,2,11)
   ShowMessage("ルカは、異変について相談した……")
   ShowMessageFace("gnome_fc1",1,0,2,12)
   ShowMessage("【ノーム】")
   ShowMessage("……………………")
   ShowMessageFace("sylph_fc1",0,0,2,13)
   ShowMessage("【シルフ】")
   ShowMessage("力にはなれない、って。")
   ShowMessageFace("",0,0,2,14)
   ShowMessage("ノームは頼れそうにない……")
   JumpToLabel("メイン")
   0()
  EndIf()
  If(1,9,0,3,0)
   ShowMessageFace("gnome_fc1",0,0,2,15)
   ShowMessage("【ノーム】")
   ShowMessage("……………………")
   ShowMessageFace("sylph_fc1",0,0,2,16)
   ShowMessage("【シルフ】")
   ShowMessage("後悔はないとは言えないけど……")
   ShowMessage("繰り返すようなことじゃない、ってさ。")
   ShowMessageFace("",0,0,2,17)
   ShowMessage("有益な情報は得られなかった……")
   JumpToLabel("メイン")
   0()
  EndIf()
  If(1,9,0,4,0)
   ShowMessageFace("gnome_fc1",0,0,2,18)
   ShowMessage("【ノーム】")
   ShowMessage("……………………")
   ShowMessageFace("sylph_fc1",0,0,2,19)
   ShowMessage("【シルフ】")
   ShowMessage("聞いたこともない、って。")
   ShowMessageFace("",0,0,2,20)
   ShowMessage("有益な情報は得られなかった……")
   JumpToLabel("メイン")
   0()
  EndIf()
  If(1,9,0,5,0)
   ShowMessageFace("gnome_fc1",0,0,2,21)
   ShowMessage("【ノーム】")
   ShowMessage("……………………")
   ShowMessageFace("sylph_fc1",0,0,2,22)
   ShowMessage("【シルフ】")
   ShowMessage("今すぐピザが食べたい、って。")
   ShowMessageFace("gnome_fc1",0,0,2,23)
   ShowMessage("【ノーム】")
   ShowMessage("……………………")
   250(bytes(0x04,0x08,0x6f,0x3a,0x0c,0x52,0x50,0x47,0x3a,0x3a,0x53,0x45,0x08,0x3a,0x0a,0x40,0x6e,0x61,0x6d,0x65,0x49,0x22,0x0f,0x6d,0x6f,0x6e,0x5f,0x64,0x61,0x6d,0x61,0x67,0x65,0x06,0x3a,0x06,0x45,0x54,0x3a,0x0b,0x40,0x70,0x69,0x74,0x63,0x68,0x69,0x69,0x3a,0x0c,0x40,0x76,0x6f,0x6c,0x75,0x6d,0x65,0x69,0x69))
   ShowMessageFace("sylph_fc1",4,0,2,24)
   ShowMessage("【シルフ】")
   ShowMessage("ぎゃん！")
   ShowMessageFace("sylph_fc1",4,0,2,25)
   ShowMessage("【シルフ】")
   ShowMessage("……今のはウソ。")
   ShowMessage("心当たりはないってさ。")
   ShowMessageFace("",0,0,2,26)
   ShowMessage("ピザを頼んだのはノームではないようだ……")
   JumpToLabel("メイン")
   0()
  EndIf()
  If(1,9,0,6,0)
   ShowMessageFace("gnome_fc1",0,0,2,27)
   ShowMessage("【ノーム】")
   ShowMessage("……………………")
   ShowMessageFace("sylph_fc1",0,0,2,28)
   ShowMessage("【シルフ】")
   ShowMessage("分からない、って。")
   ShowMessageFace("",0,0,2,29)
   ShowMessage("有益な情報は得られなかった……")
   JumpToLabel("メイン")
   0()
  EndIf()
  If(1,9,0,7,0)
   ShowMessageFace("gnome_fc1",0,0,2,30)
   ShowMessage("【ノーム】")
   ShowMessage("……………………")
   ShowMessageFace("sylph_fc1",0,0,2,31)
   ShowMessage("【シルフ】")
   ShowMessage("相手が悪い、役立つアイテムはない……だって。")
   ShowMessageFace("",0,0,2,32)
   ShowMessage("有益なアイテムは得られなかった……")
   JumpToLabel("メイン")
   0()
  EndIf()
  If(1,9,0,8,0)
   ShowMessageFace("gnome_fc1",1,0,2,33)
   ShowMessage("【ノーム】")
   ShowMessage("……………………")
   ShowMessageFace("sylph_fc1",4,0,2,34)
   ShowMessage("【シルフ】")
   ShowMessage("私達、ハインリヒと一緒に黒のアリスと戦ったんだよ？")
   ShowMessage("だから、絶対ムリ。")
   ShowMessageFace("",0,0,2,35)
   ShowMessage("ノームはお茶会の誘いを断った……")
   JumpToLabel("メイン")
   0()
  EndIf()
  EndEventProcessing()
  0()
 PAGE   2
  // condition: variable 1099 >= 2
  0()



EVENT   41
 PAGE   1
  ShowMessageFace("eva_fc1",0,0,2,1)
  ShowMessage("【エヴァ】")
  ShowMessage("ごそごそ……")
  ShowSpeechBalloon(0,1,false)
  205(0,bytes(0x04,0x08,0x6f,0x3a,0x13,0x52,0x50,0x47,0x3a,0x3a,0x4d,0x6f,0x76,0x65,0x52,0x6f,0x75,0x74,0x65,0x09,0x3a,0x0c,0x40,0x72,0x65,0x70,0x65,0x61,0x74,0x46,0x3a,0x0f,0x40,0x73,0x6b,0x69,0x70,0x70,0x61,0x62,0x6c,0x65,0x46,0x3a,0x0a,0x40,0x77,0x61,0x69,0x74,0x54,0x3a,0x0a,0x40,0x6c,0x69,0x73,0x74,0x5b,0x08,0x6f,0x3a,0x15,0x52,0x50,0x47,0x3a,0x3a,0x4d,0x6f,0x76,0x65,0x43,0x6f,0x6d,0x6d,0x61,0x6e,0x64,0x07,0x3a,0x0a,0x40,0x63,0x6f,0x64,0x65,0x69,0x29,0x3a,0x10,0x40,0x70,0x61,0x72,0x61,0x6d,0x65,0x74,0x65,0x72,0x73,0x5b,0x00,0x6f,0x3b,0x0a,0x07,0x3b,0x0b,0x69,0x16,0x3b,0x0c,0x5b,0x00,0x6f,0x3b,0x0a,0x07,0x3b,0x0b,0x69,0x00,0x3b,0x0c,0x5b,0x00))
  ShowMessageFace("eva_fc1",2,0,2,2)
  ShowMessage("【エヴァ】")
  ShowMessage("これは、食糧庫を整理していたの。")
  ShowMessage("悪さをしていたわけじゃないわ！")
  ShowMessageFace("ruka_fc1",0,0,2,3)
  ShowMessage("【ルカ】")
  ShowMessage("あやしい……")
  If(1,1098,0,3,0)
   ShowMessageFace("",0,0,2,4)
   ShowMessage("今は先に、ピザを届けに行こう。")
   ShowMessage("ステージで練習しているはずだ。")
   EndEventProcessing()
   0()
  EndIf()
  If(1,1098,0,4,0)
   ShowMessageFace("",0,0,2,5)
   ShowMessage("今は先に、一階の食堂に昼ごはんを食べに行こう。")
   EndEventProcessing()
   0()
  EndIf()
  If(1,1098,0,7,0)
   ShowMessageFace("",0,0,2,6)
   ShowMessage("今は先に、ピザを届けに行こう。")
   ShowMessage("ステージで練習しているはずだ。")
   EndEventProcessing()
   0()
  EndIf()
  DefineLabel("メイン")
  355("ex_choice_add(\"エヴァを見張る（時間経過）\",1,")
  655("\"v[1098] >= 5\",0)")
  655("ex_choice_add(\"異変について相談する\",2,")
  655("\"s[2341]\",0)")
  655("ex_choice_add(\"後悔していることについて聞く\",3,")
  655("\"s[2342]\",0)")
  655("ex_choice_add(\"時を繰り返す道具について聞く\",4,")
  655("\"s[2343]\",0)")
  655("ex_choice_add(\"ピザを注文したか聞く\",5,")
  655("\"s[2345]\",0)")
  355("ex_choice_add(\"謎のマキナについて聞く\",6,")
  655("\"s[2365]\",0)")
  655("ex_choice_add(\"作戦に必要な品について聞く\",7,")
  655("\"s[2364]\",0)")
  655("ex_choice_add(\"お茶会に誘う\",8,")
  655("\"s[2378]\",0)")
  655("ex_choice_add(\"立ち去る\",10)")
  355("ex_choice_show(0,11,[0,0])")
  If(1,9,0,1,0)
   221()
   205(0,bytes(0x04,0x08,0x6f,0x3a,0x13,0x52,0x50,0x47,0x3a,0x3a,0x4d,0x6f,0x76,0x65,0x52,0x6f,0x75,0x74,0x65,0x09,0x3a,0x0c,0x40,0x72,0x65,0x70,0x65,0x61,0x74,0x46,0x3a,0x0f,0x40,0x73,0x6b,0x69,0x70,0x70,0x61,0x62,0x6c,0x65,0x46,0x3a,0x0a,0x40,0x77,0x61,0x69,0x74,0x54,0x3a,0x0a,0x40,0x6c,0x69,0x73,0x74,0x5b,0x08,0x6f,0x3a,0x15,0x52,0x50,0x47,0x3a,0x3a,0x4d,0x6f,0x76,0x65,0x43,0x6f,0x6d,0x6d,0x61,0x6e,0x64,0x07,0x3a,0x0a,0x40,0x63,0x6f,0x64,0x65,0x69,0x29,0x3a,0x10,0x40,0x70,0x61,0x72,0x61,0x6d,0x65,0x74,0x65,0x72,0x73,0x5b,0x00,0x6f,0x3b,0x0a,0x07,0x3b,0x0b,0x69,0x17,0x3b,0x0c,0x5b,0x00,0x6f,0x3b,0x0a,0x07,0x3b,0x0b,0x69,0x00,0x3b,0x0c,0x5b,0x00))
   TeleportPlayer(0,78,45,34,6,0)
   222()
   ShowMessageFace("ruka_fc1",0,0,2,7)
   ShowMessage("【ルカ】")
   ShowMessage("悪さしないよう、見張ってるから……")
   205(0,bytes(0x04,0x08,0x6f,0x3a,0x13,0x52,0x50,0x47,0x3a,0x3a,0x4d,0x6f,0x76,0x65,0x52,0x6f,0x75,0x74,0x65,0x09,0x3a,0x0c,0x40,0x72,0x65,0x70,0x65,0x61,0x74,0x46,0x3a,0x0f,0x40,0x73,0x6b,0x69,0x70,0x70,0x61,0x62,0x6c,0x65,0x46,0x3a,0x0a,0x40,0x77,0x61,0x69,0x74,0x54,0x3a,0x0a,0x40,0x6c,0x69,0x73,0x74,0x5b,0x08,0x6f,0x3a,0x15,0x52,0x50,0x47,0x3a,0x3a,0x4d,0x6f,0x76,0x65,0x43,0x6f,0x6d,0x6d,0x61,0x6e,0x64,0x07,0x3a,0x0a,0x40,0x63,0x6f,0x64,0x65,0x69,0x16,0x3a,0x10,0x40,0x70,0x61,0x72,0x61,0x6d,0x65,0x74,0x65,0x72,0x73,0x5b,0x00,0x6f,0x3b,0x0a,0x07,0x3b,0x0b,0x69,0x28,0x3b,0x0c,0x5b,0x00,0x6f,0x3b,0x0a,0x07,0x3b,0x0b,0x69,0x00,0x3b,0x0c,0x5b,0x00))
   ShowMessageFace("eva_fc1",0,0,2,8)
   ShowMessage("【エヴァ】")
   ShowMessage("そんなこと言って、おっぱい見てるんじゃないの……？")
   ShowMessageFace("ruka_fc1",0,0,2,9)
   ShowMessage("【ルカ】")
   ShowMessage("み、見てないよ……！")
   ShowMessageFace("eva_fc1",1,0,2,10)
   ShowMessage("【エヴァ】")
   ShowMessage("ほ～ら、ほ～ら♪")
   ShowMessage("ちょっとぐらいなら、触ってもいいのよ。")
   ShowMessageFace("ruka_fc1",0,0,2,11)
   ShowMessage("【ルカ】")
   ShowMessage("う、うぅぅっ……！")
   ShowMessageFace("",0,0,2,12)
   ShowMessage("見張るつもりが、手玉に取られてしまった……")
   ShowMessage("くやしい……")
   RunCommonEvent(540)
   EndEventProcessing()
   0()
  EndIf()
  If(1,9,0,2,0)
   ShowMessageFace("",0,0,2,13)
   ShowMessage("ルカは、異変について相談した……")
   ShowMessageFace("eva_fc1",0,0,2,14)
   ShowMessage("【エヴァ】")
   ShowMessage("なるほど、私に任せなさい！")
   ShowMessage("ド～ンと解決、間違いなしよ！")
   ShowMessageFace("ruka_fc1",0,0,2,15)
   ShowMessage("【ルカ】")
   ShowMessage("これはダメだな……")
   ShowMessageFace("",0,0,2,16)
   ShowMessage("エヴァは頼れそうにない……")
   JumpToLabel("メイン")
   0()
  EndIf()
  If(1,9,0,3,0)
   ShowMessageFace("eva_fc1",0,0,2,17)
   ShowMessage("【エヴァ】")
   ShowMessage("後悔なんてあると思う？")
   ShowMessage("私はいつも、前だけを見て生きてるのよ！")
   ShowMessageFace("",0,0,2,18)
   ShowMessage("有益な情報は得られなかった……")
   JumpToLabel("メイン")
   0()
  EndIf()
  If(1,9,0,4,0)
   ShowMessageFace("eva_fc1",0,0,2,19)
   ShowMessage("【エヴァ】")
   ShowMessage("そんなのあったら、高く売れそう……")
   ShowMessage("見付けたら、私にちょうだいよ。")
   ShowMessageFace("",0,0,2,20)
   ShowMessage("有益な情報は得られなかった……")
   JumpToLabel("メイン")
   0()
  EndIf()
  If(1,9,0,5,0)
   ShowMessageFace("eva_fc1",0,0,2,21)
   ShowMessage("【エヴァ】")
   ShowMessage("ピザなんて、知らな――")
   ShowMessageFace("eva_fc1",0,0,2,22)
   ShowMessage("【エヴァ】")
   ShowMessage("うん、私！　ピザを頼んだの、私だから！")
   ShowMessage("そのピザは私のもの！")
   ShowMessageFace("ruka_fc1",0,0,2,23)
   ShowMessage("【ルカ】")
   ShowMessage("嘘を吐くな。")
   ShowMessageFace("",0,0,2,24)
   ShowMessage("ピザを頼んだのはエヴァではないようだ……")
   JumpToLabel("メイン")
   0()
  EndIf()
  If(1,9,0,6,0)
   ShowMessageFace("eva_fc1",0,0,2,25)
   ShowMessage("【エヴァ】")
   ShowMessage("ああそれ、知ってる知ってる！")
   ShowMessage("田舎の畑でよく採れるやつよ！")
   ShowMessageFace("ruka_fc1",0,0,2,26)
   ShowMessage("【ルカ】")
   ShowMessage("知らないんだったら、無理しなくていいよ……")
   ShowMessageFace("",0,0,2,27)
   ShowMessage("有益な情報は得られなかった……")
   JumpToLabel("メイン")
   0()
  EndIf()
  If(1,9,0,7,0)
   If(1,1107,0,2,2)
    ShowMessageFace("eva_fc1",2,0,2,28)
    ShowMessage("【エヴァ】")
    ShowMessage("色々と便利な道具は持ってるつもりだけど……")
    ShowMessage("勇者の役に立つようなアイテムはないんじゃない？")
    ShowMessageFace("",0,0,2,29)
    ShowMessage("有益なアイテムは得られなかった……")
    JumpToLabel("メイン")
    0()
   EndIf()
   If(1,1107,0,3,0)
    ChangeVariable(1107,1107,0,0,4)
    ShowMessageFace("eva_fc1",0,0,2,30)
    ShowMessage("【エヴァ】")
    ShowMessage("「魔断の手袋」……？")
    ShowMessage("うん、持ってるわよ。")
    ShowMessageFace("ruka_fc1",0,0,2,31)
    ShowMessage("【ルカ】")
    ShowMessage("えっ……！？")
    ShowMessageFace("eva_fc1",0,0,2,32)
    ShowMessage("【エヴァ】")
    ShowMessage("だって、色々便利だもの。")
    ShowMessage("あれ、とっても役に立つのよね～♪")
    ShowMessageFace("ruka_fc1",0,0,2,33)
    ShowMessage("【ルカ】")
    ShowMessage("それ、ちょっと貸してくれないかな？")
    ShowMessageFace("eva_fc1",2,0,2,34)
    ShowMessage("【エヴァ】")
    ShowMessage("う～ん、タダで貸すってのもなぁ……")
    ShowMessage("代わりに、精液一回飲ませてもらうのはどう？")
    ShowMessageFace("ruka_fc1",0,0,2,35)
    ShowMessage("【ルカ】")
    ShowMessage("せ、精液を……！？")
    ShowMessageFace("eva_fc1",0,0,2,36)
    ShowMessage("【エヴァ】")
    ShowMessage("愛用の品を、貸してあげようってんだから……")
    ShowMessage("それくらい、してもらわないと困るよね？")
    ShowMessageFace("ruka_fc1",0,0,2,37)
    ShowMessage("【ルカ】")
    ShowMessage("う～ん、それは……")
    ShowMessageFace("eva_fc1",0,0,2,38)
    ShowMessage("【エヴァ】")
    ShowMessage("ねぇ、いいじゃない……")
    ShowMessage("お口で一回射精するだけなんだから。")
    ShowMessageFace("eva_fc1",0,0,2,39)
    ShowMessage("【エヴァ】")
    ShowMessage("タダで気持ち良い思いができて、")
    ShowMessage("そっちもラッキーでしょ？")
    ShowMessageFace("ruka_fc1",0,0,2,40)
    ShowMessage("【ルカ】")
    ShowMessage("……………………")
    ShowMessageFace("",0,0,2,41)
    ShowMessage("さて、どうしようか――")
    ShowChoices(strings("取引に乗る","取引を断る"),2)
    IfPlayerPicksChoice(0,null)
     RunCommonEvent(5792)
     241(bytes(0x04,0x08,0x6f,0x3a,0x0d,0x52,0x50,0x47,0x3a,0x3a,0x42,0x47,0x4d,0x08,0x3a,0x0a,0x40,0x6e,0x61,0x6d,0x65,0x49,0x22,0x0c,0x63,0x61,0x73,0x74,0x6c,0x65,0x36,0x06,0x3a,0x06,0x45,0x54,0x3a,0x0c,0x40,0x76,0x6f,0x6c,0x75,0x6d,0x65,0x69,0x69,0x3a,0x0b,0x40,0x70,0x69,0x74,0x63,0x68,0x69,0x69))
     ShowMessageFace("eva_fc1",0,0,2,42)
     ShowMessage("【エヴァ】")
     ShowMessage("それじゃあ、「魔断の手袋」を貸してあげる。")
     ShowMessage("ちゃんと返してよね。")
     250(bytes(0x04,0x08,0x6f,0x3a,0x0c,0x52,0x50,0x47,0x3a,0x3a,0x53,0x45,0x08,0x3a,0x0a,0x40,0x6e,0x61,0x6d,0x65,0x49,0x22,0x0a,0x49,0x74,0x65,0x6d,0x31,0x06,0x3a,0x06,0x45,0x54,0x3a,0x0b,0x40,0x70,0x69,0x74,0x63,0x68,0x69,0x69,0x3a,0x0c,0x40,0x76,0x6f,0x6c,0x75,0x6d,0x65,0x69,0x55))
     ShowMessageFace("",0,0,2,43)
     ShowMessage("魔断の手袋を手に入れた！")
     ShowMessageFace("",0,0,2,44)
     ShowMessage("【ルカ】")
     ShowMessage("これがあれば、ドアノブのトラップは回避できるな。")
     ShowMessageFace("",0,0,2,45)
     ShowMessage("これで、作戦の成功に一歩近付いた。")
     ShowMessage("さらに準備を整え、あの家に赴こう――")
     ChangeVariable(1107,1107,0,0,5)
     ChangeSwitch(2368,2368,0)
     ChangeSwitch(2398,2398,0)
     EndEventProcessing()
     0()
    IfPlayerPicksChoice(1,null)
     ShowMessageFace("eva_fc1",2,0,2,46)
     ShowMessage("【エヴァ】")
     ShowMessage("ケチ！　それじゃ貸さないからね。")
     EndEventProcessing()
     0()
    404()
    EndEventProcessing()
    0()
   EndIf()
   If(1,1107,0,4,0)
    ShowMessageFace("eva_fc1",0,0,2,47)
    ShowMessage("【エヴァ】")
    ShowMessage("やっぱり、取引したくなった？")
    ShowMessage("精液一回と引き替えに、「魔断の手袋」を貸してあげる。")
    ShowMessageFace("eva_fc1",0,0,2,48)
    ShowMessage("【エヴァ】")
    ShowMessage("タダで気持ち良い思いができて、")
    ShowMessage("そっちもラッキーでしょ？")
    ShowMessageFace("ruka_fc1",0,0,2,49)
    ShowMessage("【ルカ】")
    ShowMessage("……………………")
    ShowMessageFace("",0,0,2,50)
    ShowMessage("さて、どうしようか――")
    ShowChoices(strings("取引に乗る","取引を断る"),2)
    IfPlayerPicksChoice(0,null)
     RunCommonEvent(5792)
     241(bytes(0x04,0x08,0x6f,0x3a,0x0d,0x52,0x50,0x47,0x3a,0x3a,0x42,0x47,0x4d,0x08,0x3a,0x0a,0x40,0x6e,0x61,0x6d,0x65,0x49,0x22,0x0c,0x63,0x61,0x73,0x74,0x6c,0x65,0x36,0x06,0x3a,0x06,0x45,0x54,0x3a,0x0c,0x40,0x76,0x6f,0x6c,0x75,0x6d,0x65,0x69,0x69,0x3a,0x0b,0x40,0x70,0x69,0x74,0x63,0x68,0x69,0x69))
     ShowMessageFace("eva_fc1",0,0,2,51)
     ShowMessage("【エヴァ】")
     ShowMessage("それじゃあ、「魔断の手袋」を貸してあげる。")
     ShowMessage("ちゃんと返してよね。")
     250(bytes(0x04,0x08,0x6f,0x3a,0x0c,0x52,0x50,0x47,0x3a,0x3a,0x53,0x45,0x08,0x3a,0x0a,0x40,0x6e,0x61,0x6d,0x65,0x49,0x22,0x0a,0x49,0x74,0x65,0x6d,0x31,0x06,0x3a,0x06,0x45,0x54,0x3a,0x0b,0x40,0x70,0x69,0x74,0x63,0x68,0x69,0x69,0x3a,0x0c,0x40,0x76,0x6f,0x6c,0x75,0x6d,0x65,0x69,0x55))
     ShowMessageFace("",0,0,2,52)
     ShowMessage("魔断の手袋を手に入れた！")
     ShowMessageFace("",0,0,2,53)
     ShowMessage("【ルカ】")
     ShowMessage("これがあれば、ドアノブのトラップは回避できるな。")
     ShowMessageFace("",0,0,2,54)
     ShowMessage("これで、作戦の成功に一歩近付いた。")
     ShowMessage("さらに準備を整え、あの家に赴こう――")
     ChangeVariable(1107,1107,0,0,5)
     ChangeSwitch(2368,2368,0)
     ChangeSwitch(2398,2398,0)
     EndEventProcessing()
     0()
    IfPlayerPicksChoice(1,null)
     ShowMessageFace("eva_fc1",2,0,2,55)
     ShowMessage("【エヴァ】")
     ShowMessage("ケチ！　それじゃ貸さないからね。")
     EndEventProcessing()
     0()
    404()
    EndEventProcessing()
    0()
   EndIf()
   If(1,1107,0,5,0)
    ShowMessageFace("eva_fc1",1,0,2,56)
    ShowMessage("【エヴァ】")
    ShowMessage("こんな取引なら、いつでも大歓迎♪")
    ShowMessage("またしゃぶってほしかったら、言ってね……♪")
    EndEventProcessing()
    0()
   EndIf()
   If(1,1107,0,6,0)
    ShowMessageFace("eva_fc1",2,0,2,57)
    ShowMessage("【エヴァ】")
    ShowMessage("えっ？　もういらないって……？")
    ShowMessage("なんだぁ……残念。")
    JumpToLabel("メイン")
    0()
   EndIf()
   0()
  EndIf()
  If(1,9,0,8,0)
   ShowMessageFace("eva_fc1",2,0,2,58)
   ShowMessage("【エヴァ】")
   ShowMessage("く、黒のアリス……！？")
   ShowMessage("そんなヤバそうな所に、私を送り込まないでよ……")
   ShowMessageFace("",0,0,2,59)
   ShowMessage("エヴァはお茶会の誘いを断った……")
   JumpToLabel("メイン")
   0()
  EndIf()
  205(0,bytes(0x04,0x08,0x6f,0x3a,0x13,0x52,0x50,0x47,0x3a,0x3a,0x4d,0x6f,0x76,0x65,0x52,0x6f,0x75,0x74,0x65,0x09,0x3a,0x0c,0x40,0x72,0x65,0x70,0x65,0x61,0x74,0x46,0x3a,0x0f,0x40,0x73,0x6b,0x69,0x70,0x70,0x61,0x62,0x6c,0x65,0x46,0x3a,0x0a,0x40,0x77,0x61,0x69,0x74,0x54,0x3a,0x0a,0x40,0x6c,0x69,0x73,0x74,0x5b,0x08,0x6f,0x3a,0x15,0x52,0x50,0x47,0x3a,0x3a,0x4d,0x6f,0x76,0x65,0x43,0x6f,0x6d,0x6d,0x61,0x6e,0x64,0x07,0x3a,0x0a,0x40,0x63,0x6f,0x64,0x65,0x69,0x17,0x3a,0x10,0x40,0x70,0x61,0x72,0x61,0x6d,0x65,0x74,0x65,0x72,0x73,0x5b,0x00,0x6f,0x3b,0x0a,0x07,0x3b,0x0b,0x69,0x28,0x3b,0x0c,0x5b,0x00,0x6f,0x3b,0x0a,0x07,0x3b,0x0b,0x69,0x00,0x3b,0x0c,0x5b,0x00))
  EndEventProcessing()
  0()
 PAGE   2
  // condition: variable 1099 >= 4
  0()



EVENT   42
 PAGE   1
  ShowMessageFace("candy_fc1",1,0,2,1)
  ShowMessage("【キャンディ】")
  ShowMessage("うふふふふふ～♪")
  ShowMessage("むしゃむしゃ、むしゃ……")
  ShowMessageFace("ruka_fc1",0,0,2,2)
  ShowMessage("【ルカ】")
  ShowMessage("相変わらず、美味しそうに食べてるなぁ……")
  ShowMessage("ちょっと楽しすぎるくらいだ。")
  If(1,1098,0,3,0)
   EndEventProcessing()
   0()
  EndIf()
  If(1,1098,0,7,0)
   EndEventProcessing()
   0()
  EndIf()
  DefineLabel("メイン")
  355("ex_choice_add(\"一緒に食事する（時間経過）\",1)")
  655("ex_choice_add(\"異変について相談する\",2,")
  655("\"s[2341]\",0)")
  655("ex_choice_add(\"後悔していることについて聞く\",3,")
  655("\"s[2342]\",0)")
  655("ex_choice_add(\"時を繰り返す道具について聞く\",4,")
  655("\"s[2343]\",0)")
  655("ex_choice_add(\"ピザを注文したか聞く\",5,")
  655("\"s[2345]\",0)")
  355("ex_choice_add(\"謎のマキナについて聞く\",6,")
  655("\"s[2365]\",0)")
  655("ex_choice_add(\"作戦に必要な品について聞く\",7,")
  655("\"s[2364]\",0)")
  655("ex_choice_add(\"お茶会に誘う\",8,")
  655("\"s[2378]\",0)")
  655("ex_choice_add(\"立ち去る\",10)")
  355("ex_choice_show(0,11,[0,0])")
  If(1,9,0,1,0)
   221()
   205(0,bytes(0x04,0x08,0x6f,0x3a,0x13,0x52,0x50,0x47,0x3a,0x3a,0x4d,0x6f,0x76,0x65,0x52,0x6f,0x75,0x74,0x65,0x09,0x3a,0x0c,0x40,0x72,0x65,0x70,0x65,0x61,0x74,0x46,0x3a,0x0f,0x40,0x73,0x6b,0x69,0x70,0x70,0x61,0x62,0x6c,0x65,0x46,0x3a,0x0a,0x40,0x77,0x61,0x69,0x74,0x54,0x3a,0x0a,0x40,0x6c,0x69,0x73,0x74,0x5b,0x07,0x6f,0x3a,0x15,0x52,0x50,0x47,0x3a,0x3a,0x4d,0x6f,0x76,0x65,0x43,0x6f,0x6d,0x6d,0x61,0x6e,0x64,0x07,0x3a,0x0a,0x40,0x63,0x6f,0x64,0x65,0x69,0x18,0x3a,0x10,0x40,0x70,0x61,0x72,0x61,0x6d,0x65,0x74,0x65,0x72,0x73,0x5b,0x00,0x6f,0x3b,0x0a,0x07,0x3b,0x0b,0x69,0x00,0x3b,0x0c,0x5b,0x00))
   TeleportPlayer(0,78,46,11,2,2)
   222()
   ShowMessageFace("candy_fc1",1,0,2,3)
   ShowMessage("【キャンディ】")
   ShowMessage("うふふふふふ～♪")
   ShowMessage("むしゃむしゃ、むしゃ……")
   ShowMessageFace("ruka_fc1",0,0,2,4)
   ShowMessage("【ルカ】")
   ShowMessage("いつも美味しそうに食べてるね――")
   ShowMessage("ねぇ、ちょっと……聞いてる？")
   ShowMessageFace("candy_fc1",1,0,2,5)
   ShowMessage("【キャンディ】")
   ShowMessage("これ、おいしい……もぐもぐもぐ。")
   ShowMessageFace("ruka_fc1",0,0,2,6)
   ShowMessage("【ルカ】")
   ShowMessage("わぁっ！　それは僕の手だよ！！")
   ShowMessageFace("",0,0,2,7)
   ShowMessage("キャンディと一緒に食事をした……")
   If(1,1098,0,4,0)
    ShowMessageFace("ruka_fc1",0,0,2,8)
    ShowMessage("【ルカ】")
    ShowMessage("そう言えば……キャンディ、ピザの宅配を頼んでない？")
    ShowMessageFace("candy_fc1",1,0,2,9)
    ShowMessage("【キャンディ】")
    ShowMessage("ピザ……食べたいなぁ……")
    ShowMessage("うふ、うふふふふ……")
    ShowMessageFace("ruka_fc1",0,0,2,10)
    ShowMessage("【ルカ】")
    ShowMessage("……………………")
    ShowMessageFace("",0,0,2,11)
    ShowMessage("話をちゃんと聞いていないみたいだが――")
    ShowMessage("どうやら、キャンディではなさそうだ。")
    221()
    Wait(60)
    ChangeSwitch(2345,2345,0)
    ChangeVariable(1098,1098,0,0,5)
    ChangeVariable(1099,1099,0,0,2)
    222()
    ShowMessageFace("",0,1,1,12)
    ShowMessage("現在時刻　ＰＭ２：００")
    ShowMessageFace("ruka_fc1",0,0,2,13)
    ShowMessage("【ルカ】")
    ShowMessage("お祭りに出発するのは、午後五時だったね。")
    ShowMessage("それまで、適当に城内で時間を潰すか……")
    ShowMessageFace("",0,0,2,14)
    ShowMessage("そう言えば、ピザを注文した人が誰かも気になる。")
    ShowMessage("五時まで、自由に時間を潰すとしよう――")
    EndEventProcessing()
    0()
   EndIf()
   RunCommonEvent(540)
   EndEventProcessing()
   0()
  EndIf()
  If(1,9,0,2,0)
   ShowMessageFace("",0,0,2,15)
   ShowMessage("ルカは、異変について相談した……")
   ShowMessageFace("candy_fc1",0,0,2,16)
   ShowMessage("【キャンディ】")
   ShowMessage("難しいお話は、よく分かりません……")
   ShowMessage("……頭を使うと、なんだかおなかがへりました。")
   ShowMessageFace("",0,0,2,17)
   ShowMessage("キャンディは頼れそうにない……")
   JumpToLabel("メイン")
   0()
  EndIf()
  If(1,9,0,3,0)
   ShowMessageFace("candy_fc1",3,0,2,18)
   ShowMessage("【キャンディ】")
   ShowMessage("後悔なんて、ないですよ。")
   ShowMessage("おなかいっぱいになれば、幸せです……")
   ShowMessageFace("",0,0,2,19)
   ShowMessage("有益な情報は得られなかった……")
   JumpToLabel("メイン")
   0()
  EndIf()
  If(1,9,0,4,0)
   ShowMessageFace("candy_fc1",0,0,2,20)
   ShowMessage("【キャンディ】")
   ShowMessage("食べられないモノには、興味はないですね……")
   ShowMessageFace("",0,0,2,21)
   ShowMessage("有益な情報は得られなかった……")
   JumpToLabel("メイン")
   0()
  EndIf()
  If(1,9,0,5,0)
   ShowMessageFace("candy_fc1",1,0,2,22)
   ShowMessage("【キャンディ】")
   ShowMessage("ピザ……食べたいなぁ……")
   ShowMessage("うふ、うふふふふ……")
   ShowMessageFace("",0,0,2,23)
   ShowMessage("ピザを頼んだのはキャンディではないようだ……")
   JumpToLabel("メイン")
   0()
  EndIf()
  If(1,9,0,6,0)
   ShowMessageFace("candy_fc1",0,0,2,24)
   ShowMessage("【キャンディ】")
   ShowMessage("おいしくなさそうです……")
   ShowMessageFace("",0,0,2,25)
   ShowMessage("有益な情報は得られなかった……")
   JumpToLabel("メイン")
   0()
  EndIf()
  If(1,9,0,7,0)
   ShowMessageFace("candy_fc1",3,0,2,26)
   ShowMessage("【キャンディ】")
   ShowMessage("お菓子しか持ってません……")
   ShowMessage("そして、あげません。")
   ShowMessageFace("",0,0,2,27)
   ShowMessage("有益なアイテムは得られなかった……")
   JumpToLabel("メイン")
   0()
  EndIf()
  If(1,9,0,8,0)
   If(1,1113,0,8,5)
    If(1,1114,0,8,5)
     ShowMessageFace("candy_fc1",1,0,2,28)
     ShowMessage("【キャンディ】")
     ShowMessage("お茶会……おいしいお菓子が、いっぱい……")
     ShowMessage("うふふふふ……")
     If(1,1116,0,2,0)
      ChangeVariable(1116,1116,0,0,3)
      ChangeVariable(1115,1115,0,0,8)
      ChangeSwitch(2378,2378,1)
      0()
     EndIf()
     If(1,1116,0,1,0)
      ChangeVariable(1116,1116,0,0,2)
      ChangeVariable(1114,1114,0,0,8)
      0()
     EndIf()
     If(1,1116,0,0,0)
      ChangeVariable(1116,1116,0,0,1)
      ChangeVariable(1113,1113,0,0,8)
      0()
     EndIf()
     249(bytes(0x04,0x08,0x6f,0x3a,0x0c,0x52,0x50,0x47,0x3a,0x3a,0x4d,0x45,0x08,0x3a,0x0a,0x40,0x6e,0x61,0x6d,0x65,0x49,0x22,0x10,0x6d,0x6f,0x6e,0x5f,0x66,0x61,0x6e,0x66,0x61,0x6c,0x65,0x06,0x3a,0x06,0x45,0x54,0x3a,0x0b,0x40,0x70,0x69,0x74,0x63,0x68,0x69,0x69,0x3a,0x0c,0x40,0x76,0x6f,0x6c,0x75,0x6d,0x65,0x69,0x69))
     ShowMessageFace("",0,0,2,29)
     ShowMessage("キャンディはお茶会の誘いに乗った！")
     If(1,1116,0,1,0)
      ShowMessageFace("",0,0,2,30)
      ShowMessage("黒のアリスのお茶会に招待したのは、これで一人。")
      ShowMessage("あと二人、参加者を集めよう！")
      0()
     EndIf()
     If(1,1116,0,2,0)
      ShowMessageFace("",0,0,2,31)
      ShowMessage("黒のアリスのお茶会に招待したのは、これで二人。")
      ShowMessage("あと一人、参加者を集めよう！")
      0()
     EndIf()
     If(1,1116,0,3,0)
      ShowMessageFace("",0,0,2,32)
      ShowMessage("黒のアリスのお茶会に招待したのは、これで三人。")
      ShowMessage("四時になったら、黒のアリスの部屋に行こう！")
      0()
     EndIf()
     JumpToLabel("メイン")
     0()
    EndIf()
    0()
   EndIf()
   ShowMessageFace("",0,0,2,33)
   ShowMessage("すでにお茶会に招待している……")
   JumpToLabel("メイン")
   0()
  EndIf()
  EndEventProcessing()
  0()
 PAGE   2
  // condition: variable 1099 >= 2
  0()



EVENT   44
 PAGE   1
  // condition: variable 1099 >= 2
  ShowMessageFace("nobissa_fc1",0,0,2,1)
  ShowMessage("【ノビッサ】")
  ShowMessage("……………………")
  DefineLabel("メイン")
  355("ex_choice_add(\"一緒に食事する（時間経過）\",1,")
  655("\"v[1098] >= 5\",0)")
  655("ex_choice_add(\"異変について相談する\",2,")
  655("\"s[2341]\",0)")
  655("ex_choice_add(\"後悔していることについて聞く\",3,")
  655("\"s[2342]\",0)")
  655("ex_choice_add(\"時を繰り返す道具について聞く\",4,")
  655("\"s[2343]\",0)")
  655("ex_choice_add(\"ピザを注文したか聞く\",5,")
  655("\"s[2345]\",0)")
  355("ex_choice_add(\"謎のマキナについて聞く\",6,")
  655("\"s[2365]\",0)")
  655("ex_choice_add(\"作戦に必要な品について聞く\",7,")
  655("\"s[2364]\",0)")
  655("ex_choice_add(\"お茶会に誘う\",8,")
  655("\"s[2378]\",0)")
  655("ex_choice_add(\"立ち去る\",10)")
  355("ex_choice_show(0,11,[0,0])")
  If(1,9,0,1,0)
   221()
   205(0,bytes(0x04,0x08,0x6f,0x3a,0x13,0x52,0x50,0x47,0x3a,0x3a,0x4d,0x6f,0x76,0x65,0x52,0x6f,0x75,0x74,0x65,0x09,0x3a,0x0c,0x40,0x72,0x65,0x70,0x65,0x61,0x74,0x46,0x3a,0x0f,0x40,0x73,0x6b,0x69,0x70,0x70,0x61,0x62,0x6c,0x65,0x46,0x3a,0x0a,0x40,0x77,0x61,0x69,0x74,0x54,0x3a,0x0a,0x40,0x6c,0x69,0x73,0x74,0x5b,0x07,0x6f,0x3a,0x15,0x52,0x50,0x47,0x3a,0x3a,0x4d,0x6f,0x76,0x65,0x43,0x6f,0x6d,0x6d,0x61,0x6e,0x64,0x07,0x3a,0x0a,0x40,0x63,0x6f,0x64,0x65,0x69,0x18,0x3a,0x10,0x40,0x70,0x61,0x72,0x61,0x6d,0x65,0x74,0x65,0x72,0x73,0x5b,0x00,0x6f,0x3b,0x0a,0x07,0x3b,0x0b,0x69,0x00,0x3b,0x0c,0x5b,0x00))
   TeleportPlayer(0,78,46,19,2,2)
   222()
   ShowMessageFace("nobissa_fc1",0,0,2,2)
   ShowMessage("【ノビッサ】")
   ShowMessage("……………………")
   ShowMessageFace("lars_fc01",0,0,2,3)
   ShowMessage("【ラルス】")
   ShowMessage("……………………")
   ShowMessageFace("lawrat_fc1",0,0,2,4)
   ShowMessage("【ロウラット】")
   ShowMessage("……………………")
   ShowMessageFace("ruka_fc1",0,0,2,5)
   ShowMessage("【ルカ】")
   ShowMessage("……………………")
   ShowMessageFace("",0,0,2,6)
   ShowMessage("ノビッサ達と一緒に食事をした……")
   RunCommonEvent(540)
   EndEventProcessing()
   0()
  EndIf()
  If(1,9,0,2,0)
   ShowMessageFace("",0,0,2,7)
   ShowMessage("ルカは、異変について相談した……")
   ShowMessageFace("nobissa_fc1",0,0,2,8)
   ShowMessage("【ノビッサ】")
   ShowMessage("……………………")
   ShowMessageFace("",0,0,2,9)
   ShowMessage("静かに首を左右に振った。")
   ShowMessage("ノビッサは頼れそうにない……")
   JumpToLabel("メイン")
   0()
  EndIf()
  If(1,9,0,3,0)
   ShowMessageFace("nobissa_fc1",0,0,2,10)
   ShowMessage("【ノビッサ】")
   ShowMessage("……………………")
   ShowMessageFace("",0,0,2,11)
   ShowMessage("元の世界で、色々な経験をしてきたのだろうが……")
   ShowMessage("この世界の時を戻すような後悔の念はないようだ。")
   JumpToLabel("メイン")
   0()
  EndIf()
  If(1,9,0,4,0)
   ShowMessageFace("nobissa_fc1",0,0,2,12)
   ShowMessage("【ノビッサ】")
   ShowMessage("……………………")
   ShowMessageFace("",0,0,2,13)
   ShowMessage("有益な情報は得られなかった……")
   JumpToLabel("メイン")
   0()
  EndIf()
  If(1,9,0,5,0)
   ShowMessageFace("nobissa_fc1",0,0,2,14)
   ShowMessage("【ノビッサ】")
   ShowMessage("……………………")
   ShowMessageFace("",0,0,2,15)
   ShowMessage("ピザを頼んだのはノビッサではないようだ……")
   JumpToLabel("メイン")
   0()
  EndIf()
  If(1,9,0,6,0)
   ShowMessageFace("nobissa_fc1",0,0,2,16)
   ShowMessage("【ノビッサ】")
   ShowMessage("……………………")
   ShowMessageFace("",0,0,2,17)
   ShowMessage("有益な情報は得られなかった……")
   JumpToLabel("メイン")
   0()
  EndIf()
  If(1,9,0,7,0)
   ShowMessageFace("nobissa_fc1",0,0,2,18)
   ShowMessage("【ノビッサ】")
   ShowMessage("……………………")
   ShowMessageFace("",0,0,2,19)
   ShowMessage("有益なアイテムは得られなかった……")
   JumpToLabel("メイン")
   0()
  EndIf()
  If(1,9,0,8,0)
   ShowMessageFace("nobissa_fc1",0,0,2,20)
   ShowMessage("【ノビッサ】")
   ShowMessage("……………………")
   ShowMessageFace("",0,0,2,21)
   ShowMessage("ノビッサはお茶会の誘いを断った……")
   JumpToLabel("メイン")
   0()
  EndIf()
  EndEventProcessing()
  0()
 PAGE   2
  // condition: variable 1099 >= 3
  0()



EVENT   45
 PAGE   1
  // condition: variable 1099 >= 2
  ShowMessageFace("lawrat_fc1",0,0,2,1)
  ShowMessage("【ロウラット】")
  ShowMessage("……………………")
  DefineLabel("メイン")
  355("ex_choice_add(\"一緒に食事する（時間経過）\",1,")
  655("\"v[1098] >= 5\",0)")
  655("ex_choice_add(\"異変について相談する\",2,")
  655("\"s[2341]\",0)")
  655("ex_choice_add(\"後悔していることについて聞く\",3,")
  655("\"s[2342]\",0)")
  655("ex_choice_add(\"時を繰り返す道具について聞く\",4,")
  655("\"s[2343]\",0)")
  655("ex_choice_add(\"ピザを注文したか聞く\",5,")
  655("\"s[2345]\",0)")
  355("ex_choice_add(\"謎のマキナについて聞く\",6,")
  655("\"s[2365]\",0)")
  655("ex_choice_add(\"作戦に必要な品について聞く\",7,")
  655("\"s[2364]\",0)")
  655("ex_choice_add(\"お茶会に誘う\",8,")
  655("\"s[2378]\",0)")
  655("ex_choice_add(\"立ち去る\",10)")
  355("ex_choice_show(0,11,[0,0])")
  If(1,9,0,1,0)
   221()
   205(0,bytes(0x04,0x08,0x6f,0x3a,0x13,0x52,0x50,0x47,0x3a,0x3a,0x4d,0x6f,0x76,0x65,0x52,0x6f,0x75,0x74,0x65,0x09,0x3a,0x0c,0x40,0x72,0x65,0x70,0x65,0x61,0x74,0x46,0x3a,0x0f,0x40,0x73,0x6b,0x69,0x70,0x70,0x61,0x62,0x6c,0x65,0x46,0x3a,0x0a,0x40,0x77,0x61,0x69,0x74,0x54,0x3a,0x0a,0x40,0x6c,0x69,0x73,0x74,0x5b,0x07,0x6f,0x3a,0x15,0x52,0x50,0x47,0x3a,0x3a,0x4d,0x6f,0x76,0x65,0x43,0x6f,0x6d,0x6d,0x61,0x6e,0x64,0x07,0x3a,0x0a,0x40,0x63,0x6f,0x64,0x65,0x69,0x18,0x3a,0x10,0x40,0x70,0x61,0x72,0x61,0x6d,0x65,0x74,0x65,0x72,0x73,0x5b,0x00,0x6f,0x3b,0x0a,0x07,0x3b,0x0b,0x69,0x00,0x3b,0x0c,0x5b,0x00))
   TeleportPlayer(0,78,46,19,2,2)
   222()
   ShowMessageFace("lawrat_fc1",0,0,2,2)
   ShowMessage("【ロウラット】")
   ShowMessage("……………………")
   ShowMessageFace("lars_fc01",0,0,2,3)
   ShowMessage("【ラルス】")
   ShowMessage("……………………")
   ShowMessageFace("nobissa_fc1",0,0,2,4)
   ShowMessage("【ノビッサ】")
   ShowMessage("……………………")
   ShowMessageFace("ruka_fc1",0,0,2,5)
   ShowMessage("【ルカ】")
   ShowMessage("……………………")
   ShowMessageFace("",0,0,2,6)
   ShowMessage("ロウラット達と一緒に食事をした……")
   RunCommonEvent(540)
   EndEventProcessing()
   0()
  EndIf()
  If(1,9,0,2,0)
   ShowMessageFace("",0,0,2,7)
   ShowMessage("ルカは、異変について相談した……")
   ShowMessageFace("lawrat_fc1",0,0,2,8)
   ShowMessage("【ロウラット】")
   ShowMessage("……………………")
   ShowMessageFace("",0,0,2,9)
   ShowMessage("申し訳なさそうな表情だ。")
   ShowMessage("ロウラットは頼れそうにない……")
   JumpToLabel("メイン")
   0()
  EndIf()
  If(1,9,0,3,0)
   ShowMessageFace("lawrat_fc1",0,0,2,10)
   ShowMessage("【ロウラット】")
   ShowMessage("……………………")
   ShowMessageFace("",0,0,2,11)
   ShowMessage("元の世界で、色々な経験をしてきたのだろうが……")
   ShowMessage("この世界の時を戻すような後悔の念はないようだ。")
   JumpToLabel("メイン")
   0()
  EndIf()
  If(1,9,0,4,0)
   ShowMessageFace("lawrat_fc1",0,0,2,12)
   ShowMessage("【ロウラット】")
   ShowMessage("……………………")
   ShowMessageFace("",0,0,2,13)
   ShowMessage("有益な情報は得られなかった……")
   JumpToLabel("メイン")
   0()
  EndIf()
  If(1,9,0,5,0)
   ShowMessageFace("lawrat_fc1",0,0,2,14)
   ShowMessage("【ロウラット】")
   ShowMessage("……………………")
   ShowMessageFace("",0,0,2,15)
   ShowMessage("ピザを頼んだのはロウラットではないようだ……")
   JumpToLabel("メイン")
   0()
  EndIf()
  If(1,9,0,6,0)
   ShowMessageFace("lawrat_fc1",0,0,2,16)
   ShowMessage("【ロウラット】")
   ShowMessage("……………………")
   ShowMessageFace("",0,0,2,17)
   ShowMessage("有益な情報は得られなかった……")
   JumpToLabel("メイン")
   0()
  EndIf()
  If(1,9,0,7,0)
   ShowMessageFace("lawrat_fc1",0,0,2,18)
   ShowMessage("【ロウラット】")
   ShowMessage("……………………")
   ShowMessageFace("",0,0,2,19)
   ShowMessage("有益なアイテムは得られなかった……")
   JumpToLabel("メイン")
   0()
  EndIf()
  If(1,9,0,8,0)
   ShowMessageFace("lawrat_fc1",0,0,2,20)
   ShowMessage("【ロウラット】")
   ShowMessage("……………………")
   ShowMessageFace("",0,0,2,21)
   ShowMessage("ロウラットはお茶会の誘いを断った……")
   JumpToLabel("メイン")
   0()
  EndIf()
  EndEventProcessing()
  0()
 PAGE   2
  // condition: variable 1099 >= 3
  0()



EVENT   46
 PAGE   1
  // condition: variable 1099 >= 2
  ShowMessageFace("lars_fc01",0,0,2,1)
  ShowMessage("【ラルス】")
  ShowMessage("……………………")
  DefineLabel("メイン")
  355("ex_choice_add(\"一緒に食事する（時間経過）\",1,")
  655("\"v[1098] >= 5\",0)")
  655("ex_choice_add(\"異変について相談する\",2,")
  655("\"s[2341]\",0)")
  655("ex_choice_add(\"後悔していることについて聞く\",3,")
  655("\"s[2342]\",0)")
  655("ex_choice_add(\"時を繰り返す道具について聞く\",4,")
  655("\"s[2343]\",0)")
  655("ex_choice_add(\"ピザを注文したか聞く\",5,")
  655("\"s[2345]\",0)")
  355("ex_choice_add(\"謎のマキナについて聞く\",6,")
  655("\"s[2365]\",0)")
  655("ex_choice_add(\"作戦に必要な品について聞く\",7,")
  655("\"s[2364]\",0)")
  655("ex_choice_add(\"お茶会に誘う\",8,")
  655("\"s[2378]\",0)")
  655("ex_choice_add(\"立ち去る\",10)")
  355("ex_choice_show(0,11,[0,0])")
  If(1,9,0,1,0)
   221()
   205(0,bytes(0x04,0x08,0x6f,0x3a,0x13,0x52,0x50,0x47,0x3a,0x3a,0x4d,0x6f,0x76,0x65,0x52,0x6f,0x75,0x74,0x65,0x09,0x3a,0x0c,0x40,0x72,0x65,0x70,0x65,0x61,0x74,0x46,0x3a,0x0f,0x40,0x73,0x6b,0x69,0x70,0x70,0x61,0x62,0x6c,0x65,0x46,0x3a,0x0a,0x40,0x77,0x61,0x69,0x74,0x54,0x3a,0x0a,0x40,0x6c,0x69,0x73,0x74,0x5b,0x07,0x6f,0x3a,0x15,0x52,0x50,0x47,0x3a,0x3a,0x4d,0x6f,0x76,0x65,0x43,0x6f,0x6d,0x6d,0x61,0x6e,0x64,0x07,0x3a,0x0a,0x40,0x63,0x6f,0x64,0x65,0x69,0x18,0x3a,0x10,0x40,0x70,0x61,0x72,0x61,0x6d,0x65,0x74,0x65,0x72,0x73,0x5b,0x00,0x6f,0x3b,0x0a,0x07,0x3b,0x0b,0x69,0x00,0x3b,0x0c,0x5b,0x00))
   TeleportPlayer(0,78,46,19,2,2)
   222()
   ShowMessageFace("lars_fc01",0,0,2,2)
   ShowMessage("【ラルス】")
   ShowMessage("……………………")
   ShowMessageFace("lawrat_fc1",0,0,2,3)
   ShowMessage("【ロウラット】")
   ShowMessage("……………………")
   ShowMessageFace("nobissa_fc1",0,0,2,4)
   ShowMessage("【ノビッサ】")
   ShowMessage("……………………")
   ShowMessageFace("ruka_fc1",0,0,2,5)
   ShowMessage("【ルカ】")
   ShowMessage("……………………")
   ShowMessageFace("",0,0,2,6)
   ShowMessage("ラルス達と一緒に食事をした……")
   RunCommonEvent(540)
   EndEventProcessing()
   0()
  EndIf()
  If(1,9,0,2,0)
   ShowMessageFace("",0,0,2,7)
   ShowMessage("ルカは、異変について相談した……")
   ShowMessageFace("lars_fc01",0,0,2,8)
   ShowMessage("【ラルス】")
   ShowMessage("……………………")
   ShowMessageFace("",0,0,2,9)
   ShowMessage("ラルスは目で語った。")
   ShowMessage("この異変では力になれないと……")
   JumpToLabel("メイン")
   0()
  EndIf()
  If(1,9,0,3,0)
   ShowMessageFace("lars_fc01",0,0,2,10)
   ShowMessage("【ラルス】")
   ShowMessage("……………………")
   ShowMessageFace("",0,0,2,11)
   ShowMessage("元の世界で、色々な経験をしてきたのだろうが……")
   ShowMessage("この世界の時を戻すような後悔の念はないようだ。")
   JumpToLabel("メイン")
   0()
  EndIf()
  If(1,9,0,4,0)
   ShowMessageFace("lars_fc01",0,0,2,12)
   ShowMessage("【ラルス】")
   ShowMessage("……………………")
   ShowMessageFace("",0,0,2,13)
   ShowMessage("心当たりはないようだ……")
   JumpToLabel("メイン")
   0()
  EndIf()
  If(1,9,0,5,0)
   ShowMessageFace("lars_fc01",0,0,2,14)
   ShowMessage("【ラルス】")
   ShowMessage("……………………")
   ShowMessageFace("",0,0,2,15)
   ShowMessage("ピザを頼んだのはラルスではないようだ……")
   JumpToLabel("メイン")
   0()
  EndIf()
  If(1,9,0,6,0)
   ShowMessageFace("lars_fc01",0,0,2,16)
   ShowMessage("【ラルス】")
   ShowMessage("……………………")
   ShowMessageFace("",0,0,2,17)
   ShowMessage("有益な情報は得られなかった……")
   JumpToLabel("メイン")
   0()
  EndIf()
  If(1,9,0,7,0)
   ShowMessageFace("lars_fc01",0,0,2,18)
   ShowMessage("【ラルス】")
   ShowMessage("……………………")
   ShowMessageFace("",0,0,2,19)
   ShowMessage("有益なアイテムは得られなかった……")
   JumpToLabel("メイン")
   0()
  EndIf()
  If(1,9,0,8,0)
   ShowMessageFace("lars_fc01",0,0,2,20)
   ShowMessage("【ラルス】")
   ShowMessage("……………………")
   ShowMessageFace("",0,0,2,21)
   ShowMessage("ラルスはお茶会の誘いを断った……")
   JumpToLabel("メイン")
   0()
  EndIf()
  EndEventProcessing()
  0()
 PAGE   2
  // condition: variable 1099 >= 3
  0()



EVENT   47
 PAGE   1
  // condition: variable 1099 >= 4
  ShowMessageFace("kobura_fc1",1,0,2,1)
  ShowMessage("【ライラ】")
  ShowMessage("あら……せっかくだし、一緒に食べない？")
  If(0,2338,0)
   ShowMessageFace("",0,0,2,2)
   ShowMessage("今は、荷物を運んでいる最中だ。")
   ShowMessage("大聖堂に向かうことを優先しよう。")
   EndEventProcessing()
   0()
  EndIf()
  DefineLabel("メイン")
  355("ex_choice_add(\"一緒に食事する（時間経過）\",1,")
  655("\"v[1098] >= 5\",0)")
  655("ex_choice_add(\"異変について相談する\",2,")
  655("\"s[2341]\",0)")
  655("ex_choice_add(\"後悔していることについて聞く\",3,")
  655("\"s[2342]\",0)")
  655("ex_choice_add(\"時を繰り返す道具について聞く\",4,")
  655("\"s[2343]\",0)")
  655("ex_choice_add(\"ピザを注文したか聞く\",5,")
  655("\"s[2345]\",0)")
  355("ex_choice_add(\"謎のマキナについて聞く\",6,")
  655("\"s[2365]\",0)")
  655("ex_choice_add(\"作戦に必要な品について聞く\",7,")
  655("\"s[2364]\",0)")
  655("ex_choice_add(\"お茶会に誘う\",8,")
  655("\"s[2378]\",0)")
  655("ex_choice_add(\"立ち去る\",10)")
  355("ex_choice_show(0,11,[0,0])")
  If(1,9,0,1,0)
   221()
   205(0,bytes(0x04,0x08,0x6f,0x3a,0x13,0x52,0x50,0x47,0x3a,0x3a,0x4d,0x6f,0x76,0x65,0x52,0x6f,0x75,0x74,0x65,0x09,0x3a,0x0c,0x40,0x72,0x65,0x70,0x65,0x61,0x74,0x46,0x3a,0x0f,0x40,0x73,0x6b,0x69,0x70,0x70,0x61,0x62,0x6c,0x65,0x46,0x3a,0x0a,0x40,0x77,0x61,0x69,0x74,0x54,0x3a,0x0a,0x40,0x6c,0x69,0x73,0x74,0x5b,0x07,0x6f,0x3a,0x15,0x52,0x50,0x47,0x3a,0x3a,0x4d,0x6f,0x76,0x65,0x43,0x6f,0x6d,0x6d,0x61,0x6e,0x64,0x07,0x3a,0x0a,0x40,0x63,0x6f,0x64,0x65,0x69,0x15,0x3a,0x10,0x40,0x70,0x61,0x72,0x61,0x6d,0x65,0x74,0x65,0x72,0x73,0x5b,0x00,0x6f,0x3b,0x0a,0x07,0x3b,0x0b,0x69,0x00,0x3b,0x0c,0x5b,0x00))
   TeleportPlayer(0,78,44,18,8,2)
   222()
   ShowMessageFace("kobura_fc1",1,0,2,3)
   ShowMessage("【ライラ】")
   ShowMessage("今は、肉料理で満足しているけど……")
   ShowMessage("昔は、ピラミッドに忍び込んだ冒険者を食べた事もあったわ。")
   ShowMessageFace("kobura_fc1",1,0,2,4)
   ShowMessage("【ライラ】")
   ShowMessage("向こうだって、盗掘者だもの。")
   ShowMessage("危険を覚悟で来てるんだから、食べられても文句はないはず。")
   ShowMessageFace("ruka_fc1",0,0,2,5)
   ShowMessage("【ルカ】")
   ShowMessage("今は、もうしないよね……？")
   ShowMessageFace("kobura_fc1",1,0,2,6)
   ShowMessage("【ライラ】")
   ShowMessage("もちろん、今はしないわよ。")
   ShowMessage("でも今も思い出すわ、丸呑みにした人間の味を……")
   ShowMessageFace("kobura_fc1",1,0,2,7)
   ShowMessage("【ライラ】")
   ShowMessage("胃の中で、弱々しくもがきながら溶けていき……")
   ShowMessage("美味な肉の風味が、味覚を満たしていくの……")
   ShowMessageFace("ruka_fc1",0,0,2,8)
   ShowMessage("【ルカ】")
   ShowMessage("……………………")
   ShowMessageFace("",0,0,2,9)
   ShowMessage("ライラと一緒に食事をした……")
   If(1,1099,0,4,0)
    RunCommonEvent(5811)
    EndEventProcessing()
    0()
   EndIf()
   RunCommonEvent(540)
   EndEventProcessing()
   0()
  EndIf()
  If(1,9,0,2,0)
   ShowMessageFace("",0,0,2,10)
   ShowMessage("ルカは、異変について相談した……")
   ShowMessageFace("kobura_fc1",0,0,2,11)
   ShowMessage("【ライラ】")
   ShowMessage("何それ、おかしな話ね……")
   ShowMessage("寝ぼけてるってことはないの？")
   ShowMessageFace("",0,0,2,12)
   ShowMessage("ライラは頼れそうにない……")
   JumpToLabel("メイン")
   0()
  EndIf()
  If(1,9,0,3,0)
   ShowMessageFace("kobura_fc1",0,0,2,13)
   ShowMessage("【ライラ】")
   ShowMessage("後悔するほど、起伏のある人生じゃないわね……")
   ShowMessage("かえって寂しくなってきたわ。")
   ShowMessageFace("",0,0,2,14)
   ShowMessage("有益な情報は得られなかった……")
   JumpToLabel("メイン")
   0()
  EndIf()
  If(1,9,0,4,0)
   ShowMessageFace("kobura_fc1",0,0,2,15)
   ShowMessage("【ライラ】")
   ShowMessage("世の中には、変なアイテムもあるのね。")
   ShowMessage("スフィンクス様なら知っているかも……")
   ShowMessageFace("",0,0,2,16)
   ShowMessage("有益な情報は得られなかった……")
   JumpToLabel("メイン")
   0()
  EndIf()
  If(1,9,0,5,0)
   ShowMessageFace("kobura_fc1",0,0,2,17)
   ShowMessage("【ライラ】")
   ShowMessage("注文ひとつで、獲物が来てくれればいいのにね……")
   ShowMessage("ともかく、私じゃないわよ。")
   ShowMessageFace("",0,0,2,18)
   ShowMessage("ピザを頼んだのはライラではないようだ……")
   JumpToLabel("メイン")
   0()
  EndIf()
  If(1,9,0,6,0)
   ShowMessageFace("kobura_fc1",0,0,2,19)
   ShowMessage("【ライラ】")
   ShowMessage("ずっとピラミッドにいたのよ。")
   ShowMessage("最先端の機械技術なんて縁遠いわ……")
   ShowMessageFace("",0,0,2,20)
   ShowMessage("有益な情報は得られなかった……")
   JumpToLabel("メイン")
   0()
  EndIf()
  If(1,9,0,7,0)
   ShowMessageFace("kobura_fc1",0,0,2,21)
   ShowMessage("【ライラ】")
   ShowMessage("うっかり噛んじゃった相手への毒消しくらいしか")
   ShowMessage("持ってないわね……")
   ShowMessageFace("",0,0,2,22)
   ShowMessage("有益なアイテムは得られなかった……")
   JumpToLabel("メイン")
   0()
  EndIf()
  If(1,9,0,8,0)
   ShowMessageFace("kobura_fc1",2,0,2,23)
   ShowMessage("【ライラ】")
   ShowMessage("暴虐の魔王のお茶会に、私を！？")
   ShowMessage("こ、殺すつもりなの……！？")
   ShowMessageFace("",0,0,2,24)
   ShowMessage("ライラはお茶会の誘いを断った……")
   JumpToLabel("メイン")
   0()
  EndIf()
  EndEventProcessing()
  0()



EVENT   25
 PAGE   1
  // condition: variable 1099 >= 4
  ShowMessageFace("kamakiri_fc1",0,0,2,1)
  ShowMessage("【マティス】")
  ShowMessage("ギギ……ムシャムシャ……")
  ShowMessageFace("",0,0,2,2)
  ShowMessage("マティスは生焼けのステーキを貪っている……")
  If(0,2338,0)
   EndEventProcessing()
   0()
  EndIf()
  DefineLabel("メイン")
  355("ex_choice_add(\"一緒に食事する（時間経過）\",1,")
  655("\"v[1098] >= 5\",0)")
  655("ex_choice_add(\"異変について相談する\",2,")
  655("\"s[2341]\",0)")
  655("ex_choice_add(\"後悔していることについて聞く\",3,")
  655("\"s[2342]\",0)")
  655("ex_choice_add(\"時を繰り返す道具について聞く\",4,")
  655("\"s[2343]\",0)")
  655("ex_choice_add(\"ピザを注文したか聞く\",5,")
  655("\"s[2345]\",0)")
  355("ex_choice_add(\"謎のマキナについて聞く\",6,")
  655("\"s[2365]\",0)")
  655("ex_choice_add(\"作戦に必要な品について聞く\",7,")
  655("\"s[2364]\",0)")
  655("ex_choice_add(\"お茶会に誘う\",8,")
  655("\"s[2378]\",0)")
  655("ex_choice_add(\"立ち去る\",10)")
  355("ex_choice_show(0,11,[0,0])")
  If(1,9,0,1,0)
   221()
   205(0,bytes(0x04,0x08,0x6f,0x3a,0x13,0x52,0x50,0x47,0x3a,0x3a,0x4d,0x6f,0x76,0x65,0x52,0x6f,0x75,0x74,0x65,0x09,0x3a,0x0c,0x40,0x72,0x65,0x70,0x65,0x61,0x74,0x46,0x3a,0x0f,0x40,0x73,0x6b,0x69,0x70,0x70,0x61,0x62,0x6c,0x65,0x46,0x3a,0x0a,0x40,0x77,0x61,0x69,0x74,0x54,0x3a,0x0a,0x40,0x6c,0x69,0x73,0x74,0x5b,0x07,0x6f,0x3a,0x15,0x52,0x50,0x47,0x3a,0x3a,0x4d,0x6f,0x76,0x65,0x43,0x6f,0x6d,0x6d,0x61,0x6e,0x64,0x07,0x3a,0x0a,0x40,0x63,0x6f,0x64,0x65,0x69,0x15,0x3a,0x10,0x40,0x70,0x61,0x72,0x61,0x6d,0x65,0x74,0x65,0x72,0x73,0x5b,0x00,0x6f,0x3b,0x0a,0x07,0x3b,0x0b,0x69,0x00,0x3b,0x0c,0x5b,0x00))
   TeleportPlayer(0,78,48,18,8,2)
   222()
   ShowMessageFace("kamakiri_fc1",0,0,2,3)
   ShowMessage("【マティス】")
   ShowMessage("ギギ……肉、食べたい……")
   ShowMessage("おいしい……肉……")
   ShowMessageFace("ruka_fc1",0,0,2,4)
   ShowMessage("【ルカ】")
   ShowMessage("肉って……今、食べてるじゃないか。")
   ShowMessageFace("kamakiri_fc1",1,0,2,5)
   ShowMessage("【マティス】")
   ShowMessage("おいしい……肉……")
   ShowMessageFace("",0,0,2,6)
   ShowMessage("マティスは、ルカをじっと見ている……")
   ShowMessageFace("ruka_fc1",0,0,2,7)
   ShowMessage("【ルカ】")
   ShowMessage("……………………")
   ShowMessageFace("",0,0,2,8)
   ShowMessage("マティスと一緒に食事をした……")
   If(1,1099,0,4,0)
    RunCommonEvent(5810)
    EndEventProcessing()
    0()
   EndIf()
   RunCommonEvent(540)
   EndEventProcessing()
   0()
  EndIf()
  If(1,9,0,2,0)
   ShowMessageFace("",0,0,2,9)
   ShowMessage("ルカは、異変について相談した……")
   ShowMessageFace("kamakiri_fc1",0,0,2,10)
   ShowMessage("【マティス】")
   ShowMessage("ギギ……難しいこと、無理……")
   ShowMessageFace("",0,0,2,11)
   ShowMessage("マティスは頼れそうにない……")
   JumpToLabel("メイン")
   0()
  EndIf()
  If(1,9,0,3,0)
   ShowMessageFace("kamakiri_fc1",0,0,2,12)
   ShowMessage("【マティス】")
   ShowMessage("後悔、ない……")
   ShowMessage("毎日、寝て食べて生きてる……")
   ShowMessageFace("",0,0,2,13)
   ShowMessage("有益な情報は得られなかった……")
   JumpToLabel("メイン")
   0()
  EndIf()
  If(1,9,0,4,0)
   ShowMessageFace("kamakiri_fc1",0,0,2,14)
   ShowMessage("【マティス】")
   ShowMessage("ギギ……知らない……")
   ShowMessageFace("",0,0,2,15)
   ShowMessage("有益な情報は得られなかった……")
   JumpToLabel("メイン")
   0()
  EndIf()
  If(1,9,0,5,0)
   ShowMessageFace("kamakiri_fc1",0,0,2,16)
   ShowMessage("【マティス】")
   ShowMessage("ギギ……ピザ、頼まない……")
   ShowMessageFace("",0,0,2,17)
   ShowMessage("ピザを頼んだのはマティスではないようだ……")
   JumpToLabel("メイン")
   0()
  EndIf()
  If(1,9,0,6,0)
   ShowMessageFace("kamakiri_fc1",0,0,2,18)
   ShowMessage("【マティス】")
   ShowMessage("機械……知らない……")
   ShowMessageFace("",0,0,2,19)
   ShowMessage("有益な情報は得られなかった……")
   JumpToLabel("メイン")
   0()
  EndIf()
  If(1,9,0,7,0)
   ShowMessageFace("kamakiri_fc1",0,0,2,20)
   ShowMessage("【マティス】")
   ShowMessage("何も……持ってない……")
   ShowMessageFace("",0,0,2,21)
   ShowMessage("有益なアイテムは得られなかった……")
   JumpToLabel("メイン")
   0()
  EndIf()
  If(1,9,0,8,0)
   ShowMessageFace("kamakiri_fc1",2,0,2,22)
   ShowMessage("【マティス】")
   ShowMessage("黒のアリス……！？")
   ShowMessage("ギギ……体が……動かない……")
   ShowMessageFace("",0,0,2,23)
   ShowMessage("マティスはお茶会の誘いを断った……")
   JumpToLabel("メイン")
   0()
  EndIf()
  EndEventProcessing()
  0()



EVENT   48
 PAGE   1
  // condition: variable 1099 >= 3
  ShowMessageFace("tatunoko_k_fc1",0,0,2,1)
  ShowMessage("【たつこ】")
  ShowMessage("おなかが減っているのではないですか？")
  ShowMessage("一緒にごはんを食べるのです！")
  DefineLabel("メイン")
  355("ex_choice_add(\"一緒に食事する（時間経過）\",1,")
  655("\"v[1098] >= 5\",0)")
  655("ex_choice_add(\"異変について相談する\",2,")
  655("\"s[2341]\",0)")
  655("ex_choice_add(\"後悔していることについて聞く\",3,")
  655("\"s[2342]\",0)")
  655("ex_choice_add(\"時を繰り返す道具について聞く\",4,")
  655("\"s[2343]\",0)")
  655("ex_choice_add(\"ピザを注文したか聞く\",5,")
  655("\"s[2345]\",0)")
  355("ex_choice_add(\"謎のマキナについて聞く\",6,")
  655("\"s[2365]\",0)")
  655("ex_choice_add(\"作戦に必要な品について聞く\",7,")
  655("\"s[2364]\",0)")
  655("ex_choice_add(\"お茶会に誘う\",8,")
  655("\"s[2378]\",0)")
  655("ex_choice_add(\"立ち去る\",10)")
  355("ex_choice_show(0,11,[0,0])")
  If(1,9,0,1,0)
   221()
   205(0,bytes(0x04,0x08,0x6f,0x3a,0x13,0x52,0x50,0x47,0x3a,0x3a,0x4d,0x6f,0x76,0x65,0x52,0x6f,0x75,0x74,0x65,0x09,0x3a,0x0c,0x40,0x72,0x65,0x70,0x65,0x61,0x74,0x46,0x3a,0x0f,0x40,0x73,0x6b,0x69,0x70,0x70,0x61,0x62,0x6c,0x65,0x46,0x3a,0x0a,0x40,0x77,0x61,0x69,0x74,0x54,0x3a,0x0a,0x40,0x6c,0x69,0x73,0x74,0x5b,0x07,0x6f,0x3a,0x15,0x52,0x50,0x47,0x3a,0x3a,0x4d,0x6f,0x76,0x65,0x43,0x6f,0x6d,0x6d,0x61,0x6e,0x64,0x07,0x3a,0x0a,0x40,0x63,0x6f,0x64,0x65,0x69,0x16,0x3a,0x10,0x40,0x70,0x61,0x72,0x61,0x6d,0x65,0x74,0x65,0x72,0x73,0x5b,0x00,0x6f,0x3b,0x0a,0x07,0x3b,0x0b,0x69,0x00,0x3b,0x0c,0x5b,0x00))
   TeleportPlayer(0,78,38,12,6,2)
   222()
   ShowMessageFace("tatunoko_k_fc1",1,0,2,2)
   ShowMessage("【たつこ】")
   ShowMessage("おいしいです！")
   ShowMessage("ここのごはんは、とってもおいしいのです！")
   ShowMessageFace("ruka_fc1",0,0,2,3)
   ShowMessage("【ルカ】")
   ShowMessage("確か、海軍食堂のご飯は不味いんだったっけ……")
   ShowMessageFace("tatunoko_k_fc1",2,0,2,4)
   ShowMessage("【たつこ】")
   ShowMessage("イヤなことを思い出させるものではないです。")
   ShowMessage("ごはんがまずくなるのです……")
   ShowMessageFace("ruka_fc1",0,0,2,5)
   ShowMessage("【ルカ】")
   ShowMessage("そこまでひどいのか……")
   ShowMessageFace("",0,0,2,6)
   ShowMessage("たつこと一緒に食事をした……")
   RunCommonEvent(540)
   EndEventProcessing()
   0()
  EndIf()
  If(1,9,0,2,0)
   ShowMessageFace("",0,0,2,7)
   ShowMessage("ルカは、異変について相談した……")
   ShowMessageFace("tatunoko_k_fc1",2,0,2,8)
   ShowMessage("【たつこ】")
   ShowMessage("したっぱ海兵が、役に立てると思うのですか……？")
   ShowMessage("そんな大それた話は、海軍大将に持って行くのです。")
   ShowMessageFace("",0,0,2,9)
   ShowMessage("たつこは頼れそうにない……")
   JumpToLabel("メイン")
   0()
  EndIf()
  If(1,9,0,3,0)
   ShowMessageFace("tatunoko_k_fc1",0,0,2,10)
   ShowMessage("【たつこ】")
   ShowMessage("失敗したり、怒られたりしたことはあるのですが……")
   ShowMessage("何度も繰り返して体験したくはないのです。")
   ShowMessageFace("",0,0,2,11)
   ShowMessage("有益な情報は得られなかった……")
   JumpToLabel("メイン")
   0()
  EndIf()
  If(1,9,0,4,0)
   ShowMessageFace("tatunoko_k_fc1",0,0,2,12)
   ShowMessage("【たつこ】")
   ShowMessage("そんな道具、あたしが知るはずがないのです……")
   ShowMessageFace("tatunoko_k_fc1",2,0,2,13)
   ShowMessage("【たつこ】")
   ShowMessage("あれ？　どこかで聞いた気が……")
   ShowMessage("確か、海軍の盗難品目録か何かで……")
   ShowMessageFace("",0,0,2,14)
   ShowMessage("海軍の盗難品目録に、該当のアイテムがあった……？")
   ShowMessage("海軍のことなら、海軍大将に聞いてみようか。")
   JumpToLabel("メイン")
   0()
  EndIf()
  If(1,9,0,5,0)
   ShowMessageFace("tatunoko_k_fc1",1,0,2,15)
   ShowMessage("【たつこ】")
   ShowMessage("宅配ピザは、どこでも来てくれるのですよ！")
   ShowMessage("以前、サバサ沿岸の軍艦にまで届いたことがあるのです！")
   ShowMessageFace("tatunoko_k_fc1",0,0,2,16)
   ShowMessage("【たつこ】")
   ShowMessage("……でも、注文したのはあたしではないのです。")
   ShowMessageFace("",0,0,2,17)
   ShowMessage("ピザを頼んだのはたつこではないようだ……")
   JumpToLabel("メイン")
   0()
  EndIf()
  If(1,9,0,6,0)
   ShowMessageFace("tatunoko_k_fc1",2,0,2,18)
   ShowMessage("【たつこ】")
   ShowMessage("どうでもいいけど……")
   ShowMessage("これからの仕事は、マキナに奪われていく気がするのです。")
   ShowMessageFace("",0,0,2,19)
   ShowMessage("有益な情報は得られなかった……")
   JumpToLabel("メイン")
   0()
  EndIf()
  If(1,9,0,7,0)
   ShowMessageFace("tatunoko_k_fc1",0,0,2,20)
   ShowMessage("【たつこ】")
   ShowMessage("おやつのスルメはどうですか！？")
   ShowMessageFace("ruka_fc1",0,0,2,21)
   ShowMessage("【ルカ】")
   ShowMessage("ちょっと役に立たないかな……")
   ShowMessage("おいしいけど。")
   ShowMessageFace("",0,0,2,22)
   ShowMessage("有益なアイテムは得られなかった……")
   JumpToLabel("メイン")
   0()
  EndIf()
  If(1,9,0,8,0)
   ShowMessageFace("tatunoko_k_fc1",2,0,2,23)
   ShowMessage("【たつこ】")
   ShowMessage("おなかがいたいので休みます。")
   ShowMessageFace("",0,0,2,24)
   ShowMessage("たつこはお茶会の誘いを断った……")
   JumpToLabel("メイン")
   0()
  EndIf()
  EndEventProcessing()
  0()
 PAGE   2
  // condition: variable 1099 >= 4
  0()



EVENT   49
 PAGE   1
  ShowMessageFace("mino_fc1",0,0,2,1)
  ShowMessage("【ミナ】")
  ShowMessage("おう、ルカ！")
  ShowMessage("一緒に肉でも食わないか！？")
  If(1,1098,0,3,0)
   ShowMessageFace("",0,0,2,2)
   ShowMessage("今は先に、ピザを届けに行こう。")
   ShowMessage("ステージで練習しているはずだ。")
   EndEventProcessing()
   0()
  EndIf()
  If(1,1098,0,7,0)
   ShowMessageFace("",0,0,2,3)
   ShowMessage("今は先に、ピザを届けに行こう。")
   ShowMessage("ステージで練習しているはずだ。")
   EndEventProcessing()
   0()
  EndIf()
  DefineLabel("メイン")
  355("ex_choice_add(\"一緒に食事する（時間経過）\",1)")
  655("ex_choice_add(\"異変について相談する\",2,")
  655("\"s[2341]\",0)")
  655("ex_choice_add(\"後悔していることについて聞く\",3,")
  655("\"s[2342]\",0)")
  655("ex_choice_add(\"時を繰り返す道具について聞く\",4,")
  655("\"s[2343]\",0)")
  655("ex_choice_add(\"ピザを注文したか聞く\",5,")
  655("\"s[2345]\",0)")
  355("ex_choice_add(\"謎のマキナについて聞く\",6,")
  655("\"s[2365]\",0)")
  655("ex_choice_add(\"作戦に必要な品について聞く\",7,")
  655("\"s[2364]\",0)")
  655("ex_choice_add(\"お茶会に誘う\",8,")
  655("\"s[2378]\",0)")
  655("ex_choice_add(\"立ち去る\",10)")
  355("ex_choice_show(0,11,[0,0])")
  If(1,9,0,1,0)
   221()
   205(0,bytes(0x04,0x08,0x6f,0x3a,0x13,0x52,0x50,0x47,0x3a,0x3a,0x4d,0x6f,0x76,0x65,0x52,0x6f,0x75,0x74,0x65,0x09,0x3a,0x0c,0x40,0x72,0x65,0x70,0x65,0x61,0x74,0x46,0x3a,0x0f,0x40,0x73,0x6b,0x69,0x70,0x70,0x61,0x62,0x6c,0x65,0x46,0x3a,0x0a,0x40,0x77,0x61,0x69,0x74,0x54,0x3a,0x0a,0x40,0x6c,0x69,0x73,0x74,0x5b,0x07,0x6f,0x3a,0x15,0x52,0x50,0x47,0x3a,0x3a,0x4d,0x6f,0x76,0x65,0x43,0x6f,0x6d,0x6d,0x61,0x6e,0x64,0x07,0x3a,0x0a,0x40,0x63,0x6f,0x64,0x65,0x69,0x16,0x3a,0x10,0x40,0x70,0x61,0x72,0x61,0x6d,0x65,0x74,0x65,0x72,0x73,0x5b,0x00,0x6f,0x3b,0x0a,0x07,0x3b,0x0b,0x69,0x00,0x3b,0x0c,0x5b,0x00))
   TeleportPlayer(0,78,38,10,6,2)
   222()
   ShowMessageFace("mino_fc1",0,0,2,4)
   ShowMessage("【ミナ】")
   ShowMessage("ルカ、お前は細いのにパワーがあるよな。")
   ShowMessage("いっぱい肉を食ってるのか？")
   ShowMessageFace("ruka_fc1",0,0,2,5)
   ShowMessage("【ルカ】")
   ShowMessage("う～ん、普通じゃないかな……")
   ShowMessageFace("mino_fc1",2,0,2,6)
   ShowMessage("【ミナ】")
   ShowMessage("普通なのに、そんなパワーが得られるなんて……")
   ShowMessage("お前、どういう体をしてるんだ？")
   ShowMessageFace("",0,0,2,7)
   ShowMessage("ミナと一緒に食事をした……")
   If(1,1098,0,4,0)
    ShowMessageFace("ruka_fc1",0,0,2,8)
    ShowMessage("【ルカ】")
    ShowMessage("そう言えば……ミナ、ピザの宅配を頼んでない？")
    ShowMessageFace("mino_fc1",0,0,2,9)
    ShowMessage("【ミナ】")
    ShowMessage("ピザ……？　知らんなぁ。")
    ShowMessage("そもそも、ここに配達出来る事さえ初耳だぜ。")
    ShowMessageFace("mino_fc1",0,0,2,10)
    ShowMessage("【ミナ】")
    ShowMessage("よし、さっそく注文しよう！")
    ShowMessage("焼肉ピザ10枚、届けてもらうぞ！！")
    ShowMessageFace("ruka_fc1",0,0,2,11)
    ShowMessage("【ルカ】")
    ShowMessage("……………………")
    221()
    Wait(60)
    ChangeSwitch(2345,2345,0)
    ChangeVariable(1098,1098,0,0,5)
    ChangeVariable(1099,1099,0,0,2)
    TeleportPlayer(0,78,39,13,2,2)
    222()
    ShowMessageFace("",0,1,1,12)
    ShowMessage("現在時刻　ＰＭ２：００")
    ShowMessageFace("ruka_fc1",0,0,2,13)
    ShowMessage("【ルカ】")
    ShowMessage("お祭りに出発するのは、午後五時だったね。")
    ShowMessage("それまで、適当に城内で時間を潰すか……")
    ShowMessageFace("",0,0,2,14)
    ShowMessage("そう言えば、ピザを注文した人が誰かも気になる。")
    ShowMessage("五時まで、自由に時間を潰すとしよう――")
    EndEventProcessing()
    0()
   EndIf()
   221()
   TeleportPlayer(0,78,39,13,2,2)
   RunCommonEvent(540)
   EndEventProcessing()
   0()
  EndIf()
  If(1,9,0,2,0)
   ShowMessageFace("",0,0,2,15)
   ShowMessage("ルカは、異変について相談した……")
   ShowMessageFace("mino_fc1",0,0,2,16)
   ShowMessage("【ミナ】")
   ShowMessage("なんだかよく分からないけど……")
   ShowMessage("肉が足りてないんじゃないのか？")
   ShowMessageFace("",0,0,2,17)
   ShowMessage("ミナは頼れそうにない……")
   JumpToLabel("メイン")
   0()
  EndIf()
  If(1,9,0,3,0)
   ShowMessageFace("mino_fc1",0,0,2,18)
   ShowMessage("【ミナ】")
   ShowMessage("後悔？　あるわけないだろ！！")
   ShowMessageFace("",0,0,2,19)
   ShowMessage("有益な情報は得られなかった……")
   JumpToLabel("メイン")
   0()
  EndIf()
  If(1,9,0,4,0)
   ShowMessageFace("mino_fc1",0,0,2,20)
   ShowMessage("【ミナ】")
   ShowMessage("そんなアイテム、あたしが知るわけないだろ！")
   ShowMessageFace("",0,0,2,21)
   ShowMessage("有益な情報は得られなかった……")
   JumpToLabel("メイン")
   0()
  EndIf()
  If(1,9,0,5,0)
   ShowMessageFace("mino_fc1",0,0,2,22)
   ShowMessage("【ミナ】")
   ShowMessage("配達なんてあるのか、面白いな！")
   ShowMessage("牛丼も頼めるのか！？")
   ShowMessageFace("",0,0,2,23)
   ShowMessage("ピザを頼んだのはミナではないようだ……")
   JumpToLabel("メイン")
   0()
  EndIf()
  If(1,9,0,6,0)
   ShowMessageFace("mino_fc1",0,0,2,24)
   ShowMessage("【ミナ】")
   ShowMessage("マキナの事なんて、わからねーぜ！！")
   ShowMessageFace("",0,0,2,25)
   ShowMessage("有益な情報は得られなかった……")
   JumpToLabel("メイン")
   0()
  EndIf()
  If(1,9,0,7,0)
   ShowMessageFace("mino_fc1",0,0,2,26)
   ShowMessage("【ミナ】")
   ShowMessage("アイテムに頼るな！")
   ShowMessage("肉を食べて、筋肉をつけるんだ！")
   ShowMessageFace("",0,0,2,27)
   ShowMessage("有益なアイテムは得られなかった……")
   JumpToLabel("メイン")
   0()
  EndIf()
  If(1,9,0,8,0)
   ShowMessageFace("mino_fc1",2,0,2,28)
   ShowMessage("【ミナ】")
   ShowMessage("おおっ！？　黒のアリスのお茶会！？")
   ShowMessage("流石の俺もお断りだぜ！")
   ShowMessageFace("",0,0,2,29)
   ShowMessage("ミナはお茶会の誘いを断った……")
   JumpToLabel("メイン")
   0()
  EndIf()
  EndEventProcessing()
  0()
 PAGE   2
  // condition: variable 1099 >= 2
  0()



EVENT   50
 PAGE   1
  // condition: variable 1099 >= 3
  ShowMessageFace("suzume_fc1",0,0,2,1)
  ShowMessage("【ちゅん】")
  ShowMessage("ちびちび、ちびちび……")
  ShowMessage("あっ、一緒にごはんを食べませんか？")
  DefineLabel("メイン")
  355("ex_choice_add(\"一緒に食事する（時間経過）\",1,")
  655("\"v[1098] >= 5\",0)")
  655("ex_choice_add(\"異変について相談する\",2,")
  655("\"s[2341]\",0)")
  655("ex_choice_add(\"後悔していることについて聞く\",3,")
  655("\"s[2342]\",0)")
  655("ex_choice_add(\"時を繰り返す道具について聞く\",4,")
  655("\"s[2343]\",0)")
  655("ex_choice_add(\"ピザを注文したか聞く\",5,")
  655("\"s[2345]\",0)")
  355("ex_choice_add(\"謎のマキナについて聞く\",6,")
  655("\"s[2365]\",0)")
  655("ex_choice_add(\"作戦に必要な品について聞く\",7,")
  655("\"s[2364]\",0)")
  655("ex_choice_add(\"お茶会に誘う\",8,")
  655("\"s[2378]\",0)")
  655("ex_choice_add(\"立ち去る\",10)")
  355("ex_choice_show(0,11,[0,0])")
  If(1,9,0,1,0)
   221()
   205(0,bytes(0x04,0x08,0x6f,0x3a,0x13,0x52,0x50,0x47,0x3a,0x3a,0x4d,0x6f,0x76,0x65,0x52,0x6f,0x75,0x74,0x65,0x09,0x3a,0x0c,0x40,0x72,0x65,0x70,0x65,0x61,0x74,0x46,0x3a,0x0f,0x40,0x73,0x6b,0x69,0x70,0x70,0x61,0x62,0x6c,0x65,0x46,0x3a,0x0a,0x40,0x77,0x61,0x69,0x74,0x54,0x3a,0x0a,0x40,0x6c,0x69,0x73,0x74,0x5b,0x07,0x6f,0x3a,0x15,0x52,0x50,0x47,0x3a,0x3a,0x4d,0x6f,0x76,0x65,0x43,0x6f,0x6d,0x6d,0x61,0x6e,0x64,0x07,0x3a,0x0a,0x40,0x63,0x6f,0x64,0x65,0x69,0x15,0x3a,0x10,0x40,0x70,0x61,0x72,0x61,0x6d,0x65,0x74,0x65,0x72,0x73,0x5b,0x00,0x6f,0x3b,0x0a,0x07,0x3b,0x0b,0x69,0x00,0x3b,0x0c,0x5b,0x00))
   TeleportPlayer(0,78,44,14,8,2)
   222()
   ShowMessageFace("suzume_fc1",0,0,2,2)
   ShowMessage("【ちゅん】")
   ShowMessage("ちびちび、ちびちび……")
   ShowMessageFace("ruka_fc1",0,0,2,3)
   ShowMessage("【ルカ】")
   ShowMessage("ずいぶん、小口で食べるんだね。")
   ShowMessageFace("suzume_fc1",0,0,2,4)
   ShowMessage("【ちゅん】")
   ShowMessage("スズメですから、少食なんです……")
   ShowMessage("……そう思われていた方が都合が良いので。")
   ShowMessageFace("ruka_fc1",0,0,2,5)
   ShowMessage("【ルカ】")
   ShowMessage("……えっ？")
   ShowMessageFace("",0,0,2,6)
   ShowMessage("ちゅんと一緒に食事をした……")
   RunCommonEvent(540)
   EndEventProcessing()
   0()
  EndIf()
  If(1,9,0,2,0)
   ShowMessageFace("",0,0,2,7)
   ShowMessage("ルカは、異変について相談した……")
   ShowMessageFace("suzume_fc1",0,0,2,8)
   ShowMessage("【ちゅん】")
   ShowMessage("同じ一日を繰り返しているなんて……")
   ShowMessage("夢を見ているのなら、起こしてあげましょうか？")
   ShowMessageFace("",0,0,2,9)
   ShowMessage("ちゅんは頼れそうにない……")
   JumpToLabel("メイン")
   0()
  EndIf()
  If(1,9,0,3,0)
   ShowMessageFace("suzume_fc1",1,0,2,10)
   ShowMessage("【ちゅん】")
   ShowMessage("おかげさまで、毎日健全に生きています。")
   ShowMessage("後悔するような事は、何もないですよ！")
   ShowMessageFace("",0,0,2,11)
   ShowMessage("有益な情報は得られなかった……")
   JumpToLabel("メイン")
   0()
  EndIf()
  If(1,9,0,4,0)
   ShowMessageFace("suzume_fc1",0,0,2,12)
   ShowMessage("【ちゅん】")
   ShowMessage("そんなアイテムがあれば、悪用し放題……")
   ShowMessage("……なんて、考えてはいませんよ。")
   ShowMessageFace("",0,0,2,13)
   ShowMessage("有益な情報は得られなかった……")
   JumpToLabel("メイン")
   0()
  EndIf()
  If(1,9,0,5,0)
   ShowMessageFace("suzume_fc1",0,0,2,14)
   ShowMessage("【ちゅん】")
   ShowMessage("ピザですか？　あたしではないです……")
   ShowMessageFace("",0,0,2,15)
   ShowMessage("ピザを頼んだのはちゅんではないようだ……")
   JumpToLabel("メイン")
   0()
  EndIf()
  If(1,9,0,6,0)
   ShowMessageFace("suzume_fc1",0,0,2,16)
   ShowMessage("【ちゅん】")
   ShowMessage("きらきら光ってキレイですね……")
   ShowMessage("こういうの、集めたくなります。")
   ShowMessageFace("",0,0,2,17)
   ShowMessage("有益な情報は得られなかった……")
   JumpToLabel("メイン")
   0()
  EndIf()
  If(1,9,0,7,0)
   ShowMessageFace("suzume_fc1",2,0,2,18)
   ShowMessage("【ちゅん】")
   ShowMessage("そんなに良いアイテムは持ってません。")
   ShowMessage("怪我をした時の薬草くらいしか……")
   ShowMessageFace("suzume_fc1",0,0,2,19)
   ShowMessage("【ちゅん】")
   ShowMessage("そうだ、植物族の方ならどうでしょうか？")
   ShowMessage("便利な薬を頂けるかもしれませんよ！")
   ShowMessageFace("",0,0,2,20)
   ShowMessage("有益なアイテムは得られなかった……")
   JumpToLabel("メイン")
   0()
  EndIf()
  If(1,9,0,8,0)
   ShowMessageFace("suzume_fc1",3,0,2,21)
   ShowMessage("【ちゅん】")
   ShowMessage("ひゃぁっ！？　黒のアリスって、あの暴虐の魔王！？")
   ShowMessage("無理です、死んじゃいますよ！")
   ShowMessageFace("",0,0,2,22)
   ShowMessage("ちゅんはお茶会の誘いを断った……")
   JumpToLabel("メイン")
   0()
  EndIf()
  EndEventProcessing()
  0()
 PAGE   2
  // condition: variable 1099 >= 4
  0()



EVENT   43
 PAGE   1
  // condition: variable 1099 >= 3
  RunCommonEvent(551)
  0()
 PAGE   2
  // condition: variable 1099 >= 4
  0()
 PAGE   3
  // condition: switch 2367 is ON
  0()



EVENT   51
 PAGE   1
  // condition: variable 1099 >= 4
  ShowMessageFace("renccubus_fc1",1,0,2,1)
  ShowMessage("【ニーナ】")
  ShowMessage("あっ、ルカさん。")
  ShowMessage("牛のお乳を搾っているんですけど、手伝ってくれませんか？")
  ShowMessageFace("d_succubus_fc1",0,0,2,2)
  ShowMessage("【ナターシャ】")
  ShowMessage("私も、乳搾りのやり方を教わっているんです。")
  ShowMessage("一緒にやりましょうよ。")
  If(0,2338,0)
   ShowMessageFace("",0,0,2,3)
   ShowMessage("今は、荷物を運んでいる最中だ。")
   ShowMessage("大聖堂に向かうことを優先しよう。")
   EndEventProcessing()
   0()
  EndIf()
  DefineLabel("メイン")
  355("ex_choice_add(\"乳搾りを手伝う（時間経過）\",1,")
  655("\"v[1098] >= 5\",0)")
  655("ex_choice_add(\"異変について相談する\",2,")
  655("\"s[2341]\",0)")
  655("ex_choice_add(\"後悔していることについて聞く\",3,")
  655("\"s[2342]\",0)")
  655("ex_choice_add(\"時を繰り返す道具について聞く\",4,")
  655("\"s[2343]\",0)")
  655("ex_choice_add(\"ピザを注文したか聞く\",5,")
  655("\"s[2345]\",0)")
  355("ex_choice_add(\"謎のマキナについて聞く\",6,")
  655("\"s[2365]\",0)")
  655("ex_choice_add(\"作戦に必要な品について聞く\",7,")
  655("\"s[2364]\",0)")
  655("ex_choice_add(\"お茶会に誘う\",8,")
  655("\"s[2378]\",0)")
  655("ex_choice_add(\"立ち去る\",10)")
  355("ex_choice_show(0,11,[0,0])")
  If(1,9,0,1,0)
   221()
   205(51,bytes(0x04,0x08,0x6f,0x3a,0x13,0x52,0x50,0x47,0x3a,0x3a,0x4d,0x6f,0x76,0x65,0x52,0x6f,0x75,0x74,0x65,0x09,0x3a,0x0c,0x40,0x72,0x65,0x70,0x65,0x61,0x74,0x46,0x3a,0x0f,0x40,0x73,0x6b,0x69,0x70,0x70,0x61,0x62,0x6c,0x65,0x46,0x3a,0x0a,0x40,0x77,0x61,0x69,0x74,0x54,0x3a,0x0a,0x40,0x6c,0x69,0x73,0x74,0x5b,0x07,0x6f,0x3a,0x15,0x52,0x50,0x47,0x3a,0x3a,0x4d,0x6f,0x76,0x65,0x43,0x6f,0x6d,0x6d,0x61,0x6e,0x64,0x07,0x3a,0x0a,0x40,0x63,0x6f,0x64,0x65,0x69,0x17,0x3a,0x10,0x40,0x70,0x61,0x72,0x61,0x6d,0x65,0x74,0x65,0x72,0x73,0x5b,0x00,0x6f,0x3b,0x0a,0x07,0x3b,0x0b,0x69,0x00,0x3b,0x0c,0x5b,0x00))
   205(52,bytes(0x04,0x08,0x6f,0x3a,0x13,0x52,0x50,0x47,0x3a,0x3a,0x4d,0x6f,0x76,0x65,0x52,0x6f,0x75,0x74,0x65,0x09,0x3a,0x0c,0x40,0x72,0x65,0x70,0x65,0x61,0x74,0x46,0x3a,0x0f,0x40,0x73,0x6b,0x69,0x70,0x70,0x61,0x62,0x6c,0x65,0x46,0x3a,0x0a,0x40,0x77,0x61,0x69,0x74,0x54,0x3a,0x0a,0x40,0x6c,0x69,0x73,0x74,0x5b,0x07,0x6f,0x3a,0x15,0x52,0x50,0x47,0x3a,0x3a,0x4d,0x6f,0x76,0x65,0x43,0x6f,0x6d,0x6d,0x61,0x6e,0x64,0x07,0x3a,0x0a,0x40,0x63,0x6f,0x64,0x65,0x69,0x16,0x3a,0x10,0x40,0x70,0x61,0x72,0x61,0x6d,0x65,0x74,0x65,0x72,0x73,0x5b,0x00,0x6f,0x3b,0x0a,0x07,0x3b,0x0b,0x69,0x00,0x3b,0x0c,0x5b,0x00))
   TeleportPlayer(0,78,18,16,2,2)
   222()
   ShowMessageFace("ruka_fc1",0,0,2,4)
   ShowMessage("【ルカ】")
   ShowMessage("これは……意外と難しいんだね。")
   ShowMessageFace("renccubus_fc1",1,0,2,5)
   ShowMessage("【ニーナ】")
   ShowMessage("でも、お上手ですよ。")
   ShowMessage("ナターシャちゃんは……ちょっと練習が必要ですね。")
   ShowMessageFace("d_succubus_fc1",0,0,2,6)
   ShowMessage("【ナターシャ】")
   ShowMessage("こんなに難しいなんて……")
   ShowMessage("もっと特訓しないといと。")
   ShowMessageFace("",0,0,2,7)
   ShowMessage("ニーナ、ナターシャと乳搾りをして過ごした……")
   If(1,1099,0,4,0)
    RunCommonEvent(5825)
    EndEventProcessing()
    0()
   EndIf()
   RunCommonEvent(540)
   EndEventProcessing()
   0()
  EndIf()
  If(1,9,0,2,0)
   ShowMessageFace("",0,0,2,8)
   ShowMessage("ルカは、異変について相談した……")
   ShowMessageFace("renccubus_fc1",4,0,2,9)
   ShowMessage("【ニーナ】")
   ShowMessage("それは……私に相談すること自体、間違ってるんじゃ……")
   ShowMessage("もっと頼りになる人がいますよね？")
   ShowMessageFace("",0,0,2,10)
   ShowMessage("ニーナは頼れそうにない……")
   JumpToLabel("メイン")
   0()
  EndIf()
  If(1,9,0,3,0)
   ShowMessageFace("renccubus_fc1",1,0,2,11)
   ShowMessage("【ニーナ】")
   ShowMessage("特に……後悔はありませんね。")
   ShowMessage("サキュバスになったのも、むしろ幸運でしたし。")
   ShowMessageFace("",0,0,2,12)
   ShowMessage("有益な情報は得られなかった……")
   JumpToLabel("メイン")
   0()
  EndIf()
  If(1,9,0,4,0)
   ShowMessageFace("renccubus_fc1",1,0,2,13)
   ShowMessage("【ニーナ】")
   ShowMessage("そんな不思議な品、世の中にはあるんですね。")
   ShowMessage("私には心当たりはありません。")
   ShowMessageFace("",0,0,2,14)
   ShowMessage("有益な情報は得られなかった……")
   JumpToLabel("メイン")
   0()
  EndIf()
  If(1,9,0,5,0)
   ShowMessageFace("renccubus_fc1",1,0,2,15)
   ShowMessage("【ニーナ】")
   ShowMessage("ここにもピザを届けてくれるなんて、知りませんでした。")
   ShowMessage("妹が喜びそう……")
   ShowMessageFace("",0,0,2,16)
   ShowMessage("ピザを頼んだのはニーナではないようだ……")
   JumpToLabel("メイン")
   0()
  EndIf()
  If(1,9,0,6,0)
   ShowMessageFace("renccubus_fc1",1,0,2,17)
   ShowMessage("【ニーナ】")
   ShowMessage("すみません……ちょっと分からないです。")
   ShowMessageFace("",0,0,2,18)
   ShowMessage("有益な情報は得られなかった……")
   JumpToLabel("メイン")
   0()
  EndIf()
  If(1,9,0,7,0)
   ShowMessageFace("renccubus_fc1",1,0,2,19)
   ShowMessage("【ニーナ】")
   ShowMessage("ミルクくらいしか持ってないですね……")
   ShowMessageFace("",0,0,2,20)
   ShowMessage("有益なアイテムは得られなかった……")
   JumpToLabel("メイン")
   0()
  EndIf()
  If(1,9,0,8,0)
   ShowMessageFace("renccubus_fc1",4,0,2,21)
   ShowMessage("【ニーナ】")
   ShowMessage("黒のアリスって、あの伝説の！？")
   ShowMessage("絶対にイヤですよ……")
   ShowMessageFace("",0,0,2,22)
   ShowMessage("ニーナはお茶会の誘いを断った……")
   JumpToLabel("メイン")
   0()
  EndIf()
  EndEventProcessing()
  0()



EVENT   53
 PAGE   1
  // condition: variable 1099 >= 4
  ShowMessageFace("",0,0,2,1)
  ShowMessage("【牛】")
  ShowMessage("……………………")
  0()



EVENT   54
 PAGE   1
  // condition: variable 1099 >= 3
  RunCommonEvent(555)
  0()
 PAGE   2
  // condition: variable 1099 >= 4
  0()



EVENT   55
 PAGE   1
  // condition: variable 1099 >= 3
  RunCommonEvent(553)
  0()
 PAGE   2
  // condition: variable 1099 >= 4
  0()



EVENT   56
 PAGE   1
  // condition: variable 1099 >= 3
  RunCommonEvent(554)
  0()
 PAGE   2
  // condition: variable 1099 >= 4
  0()



EVENT   52
 PAGE   1
  // condition: variable 1099 >= 4
  RunCommonEvent(559)
  0()



EVENT   57
 PAGE   1
  // condition: variable 1099 >= 3
  RunCommonEvent(560)
  0()
 PAGE   2
  // condition: variable 1099 >= 4
  0()
 PAGE   3
  // condition: switch 2377 is ON
  0()



EVENT   58
 PAGE   1
  // condition: variable 1099 >= 3
  RunCommonEvent(552)
  0()
 PAGE   2
  // condition: variable 1099 >= 4
  0()
 PAGE   3
  // condition: switch 2367 is ON
  0()



EVENT   17
 PAGE   1
  281(0)
  250(bytes(0x04,0x08,0x6f,0x3a,0x0c,0x52,0x50,0x47,0x3a,0x3a,0x53,0x45,0x08,0x3a,0x0a,0x40,0x6e,0x61,0x6d,0x65,0x49,0x22,0x09,0x4d,0x6f,0x76,0x65,0x06,0x3a,0x06,0x45,0x54,0x3a,0x0b,0x40,0x70,0x69,0x74,0x63,0x68,0x69,0x69,0x3a,0x0c,0x40,0x76,0x6f,0x6c,0x75,0x6d,0x65,0x69,0x55))
  TeleportPlayer(0,83,12,11,0,0)
  0()



EVENT   15
 PAGE   1
  281(0)
  250(bytes(0x04,0x08,0x6f,0x3a,0x0c,0x52,0x50,0x47,0x3a,0x3a,0x53,0x45,0x08,0x3a,0x0a,0x40,0x6e,0x61,0x6d,0x65,0x49,0x22,0x09,0x4d,0x6f,0x76,0x65,0x06,0x3a,0x06,0x45,0x54,0x3a,0x0b,0x40,0x70,0x69,0x74,0x63,0x68,0x69,0x69,0x3a,0x0c,0x40,0x76,0x6f,0x6c,0x75,0x6d,0x65,0x69,0x55))
  TeleportPlayer(0,77,40,3,0,0)
  0()



EVENT   16
 PAGE   1
  281(0)
  250(bytes(0x04,0x08,0x6f,0x3a,0x0c,0x52,0x50,0x47,0x3a,0x3a,0x53,0x45,0x08,0x3a,0x0a,0x40,0x6e,0x61,0x6d,0x65,0x49,0x22,0x09,0x4d,0x6f,0x76,0x65,0x06,0x3a,0x06,0x45,0x54,0x3a,0x0b,0x40,0x70,0x69,0x74,0x63,0x68,0x69,0x69,0x3a,0x0c,0x40,0x76,0x6f,0x6c,0x75,0x6d,0x65,0x69,0x55))
  TeleportPlayer(0,77,40,3,0,0)
  0()



EVENT   22
 PAGE   1
  281(0)
  250(bytes(0x04,0x08,0x6f,0x3a,0x0c,0x52,0x50,0x47,0x3a,0x3a,0x53,0x45,0x08,0x3a,0x0a,0x40,0x6e,0x61,0x6d,0x65,0x49,0x22,0x09,0x4d,0x6f,0x76,0x65,0x06,0x3a,0x06,0x45,0x54,0x3a,0x0b,0x40,0x70,0x69,0x74,0x63,0x68,0x69,0x69,0x3a,0x0c,0x40,0x76,0x6f,0x6c,0x75,0x6d,0x65,0x69,0x55))
  TeleportPlayer(0,82,19,41,0,0)
  0()



EVENT   23
 PAGE   1
  281(0)
  250(bytes(0x04,0x08,0x6f,0x3a,0x0c,0x52,0x50,0x47,0x3a,0x3a,0x53,0x45,0x08,0x3a,0x0a,0x40,0x6e,0x61,0x6d,0x65,0x49,0x22,0x09,0x4d,0x6f,0x76,0x65,0x06,0x3a,0x06,0x45,0x54,0x3a,0x0b,0x40,0x70,0x69,0x74,0x63,0x68,0x69,0x69,0x3a,0x0c,0x40,0x76,0x6f,0x6c,0x75,0x6d,0x65,0x69,0x55))
  TeleportPlayer(0,82,19,41,0,0)
  0()



EVENT   27
 PAGE   1
  ShowMessageFace("People3",5,0,2,1)
  ShowMessage("【メイド】")
  ShowMessage("現在、中庭では除草剤を散布しております。")
  ShowMessage("本日中の立ち入りはご遠慮願います。")
  0()



EVENT   59
 PAGE   1
  // condition: variable 1099 >= 4
  RunCommonEvent(579)
  0()
 PAGE   2
  // condition: switch 2403 is ON
  0()
