


EVENT   1
 PAGE   1
  ChangeSwitch(31,31,1)
  If(2,"A",1)
   ChangeSelfSwitch("A",0)
   ShowMessageFace("ruka_fc1",0,0,2,1)
   ShowMessage("\\n<Luka>A tower? In a place like this...?")
   If(0,4,0)
    ShowMessageFace("alice_fc5",2,0,2,2)
    ShowMessage("\\n<Alice>The entrance is wide open... All right, let's investigate what's inside.")
    0()
   EndIf()
   If(0,5,0)
    ShowMessageFace("iriasu_fc4",7,0,2,3)
    ShowMessage("\\n<Ilias>The entrance appears to be open... Let's cautiously explore inside.")
    0()
   EndIf()
   0()
  EndIf()
  ChangeSwitch(278,278,0)
  ChangeSwitch(100,100,0)
  281(0)
  250(bytes(0x04,0x08,0x6f,0x3a,0x0c,0x52,0x50,0x47,0x3a,0x3a,0x53,0x45,0x08,0x3a,0x0a,0x40,0x6e,0x61,0x6d,0x65,0x49,0x22,0x09,0x4d,0x6f,0x76,0x65,0x06,0x3a,0x06,0x45,0x54,0x3a,0x0b,0x40,0x70,0x69,0x74,0x63,0x68,0x69,0x69,0x3a,0x0c,0x40,0x76,0x6f,0x6c,0x75,0x6d,0x65,0x69,0x55))
  TeleportPlayer(0,167,37,68,8,0)
  0()



EVENT   2
 PAGE   1
  281(0)
  250(bytes(0x04,0x08,0x6f,0x3a,0x0c,0x52,0x50,0x47,0x3a,0x3a,0x53,0x45,0x08,0x3a,0x0a,0x40,0x6e,0x61,0x6d,0x65,0x49,0x22,0x09,0x4d,0x6f,0x76,0x65,0x06,0x3a,0x06,0x45,0x54,0x3a,0x0b,0x40,0x70,0x69,0x74,0x63,0x68,0x69,0x69,0x3a,0x0c,0x40,0x76,0x6f,0x6c,0x75,0x6d,0x65,0x69,0x55))
  TeleportPlayer(0,422,16,1,2,0)
  0()



EVENT   3
 PAGE   1
  ChangeSelfSwitch("A",0)
  If(0,6,0)
   ShowMessageFace("sonia_fc3",7,0,2,1)
   ShowMessage("\\n<Sonya>What... is this? What's happening?")
   0()
  Else()
   ShowMessageFace("ruka_fc1",0,0,2,2)
   ShowMessage("\\n<Luka>What on earth is this...?")
   0()
  EndIf()
  If(0,4,0)
   ShowMessageFace("alice_fc6",0,0,2,3)
   ShowMessage("\\n<Alice>What is this place?! Has this world been eroded by some kind of darkness?")
   ShowMessageFace("alice_fc6",0,0,2,4)
   ShowMessage("\\n<Alice>Everything is pitch black as far as I can see... Is the only thing that's left in this world this island?")
   0()
  EndIf()
  If(0,5,0)
   ShowMessageFace("iriasu_fc4",5,0,2,5)
   ShowMessage("\\n<Ilias>You've got to be kidding! This world was swallowed by nothingness?!")
   ShowMessageFace("iriasu_fc4",5,0,2,6)
   ShowMessage("\\n<Ilias>Nothingness as far as I can see... The only thing left in this world is this island...")
   0()
  EndIf()
  If(4,129,0)
   ShowMessageFace("brunhild_fc1",0,0,2,7)
   ShowMessage("\\n<Hild>Search impossible... No response from outside perimeter of this island...")
   0()
  EndIf()
  If(0,6,0)
   ShowMessageFace("sonia_fc3",7,0,2,8)
   ShowMessage("\\n<Sonya>That's a joke, right? Everything other than this place was swallowed by this black thing...?")
   0()
  Else()
   ShowMessageFace("ruka_fc1",0,0,2,9)
   ShowMessage("\\n<Luka>No way... Everything other than this place was swallowed by this blackness?")
   0()
  EndIf()
  ShowMessageFace("ruka_fc1",0,0,2,10)
  ShowMessage("\\n<Luka>Then this world's humans are...?! Can it be that they're...")
  If(4,41,0)
   ShowMessageFace("stein_fc2",2,0,2,11)
   ShowMessage("\\n<Promestein>This isn't an environment organisms can survive in... Even if any could, only microbes would remain.")
   0()
  EndIf()
  If(4,79,0)
   ShowMessageFace("nuruko_fc1",0,0,2,12)
   ShowMessage("\\n<Nuruko>Kyu...")
   0()
  EndIf()
  If(0,4,0)
   ShowMessageFace("alice_fc5",2,0,2,13)
   ShowMessage("\\n<Alice>Let's investigate cautiously. Even if there are no towns, there might be some buildings.")
   0()
  EndIf()
  If(0,5,0)
   ShowMessageFace("iriasu_fc4",2,0,2,14)
   ShowMessage("\\n<Ilias>Let's explore while remaining vigilant. Even if there are no towns, we might find some kind of structures.")
   0()
  EndIf()
  ShowMessageFace("ruka_fc1",0,0,2,15)
  ShowMessage("\\n<Luka>It would be nice if there were a place to rest...")
  Wait(15)
  250(bytes(0x04,0x08,0x6f,0x3a,0x0c,0x52,0x50,0x47,0x3a,0x3a,0x53,0x45,0x08,0x3a,0x0a,0x40,0x6e,0x61,0x6d,0x65,0x49,0x22,0x0d,0x6d,0x6f,0x6e,0x5f,0x62,0x6f,0x6d,0x31,0x06,0x3a,0x06,0x45,0x54,0x3a,0x0b,0x40,0x70,0x69,0x74,0x63,0x68,0x69,0x69,0x3a,0x0c,0x40,0x76,0x6f,0x6c,0x75,0x6d,0x65,0x69,0x69))
  225(7,7,120,true)
  Wait(120)
  241(bytes(0x04,0x08,0x6f,0x3a,0x0d,0x52,0x50,0x47,0x3a,0x3a,0x42,0x47,0x4d,0x08,0x3a,0x0a,0x40,0x6e,0x61,0x6d,0x65,0x49,0x22,0x0a,0x6b,0x69,0x6b,0x69,0x32,0x06,0x3a,0x06,0x45,0x54,0x3a,0x0c,0x40,0x76,0x6f,0x6c,0x75,0x6d,0x65,0x69,0x69,0x3a,0x0b,0x40,0x70,0x69,0x74,0x63,0x68,0x69,0x69))
  If(0,6,0)
   ShowMessageFace("sonia_fc3",7,0,2,16)
   ShowMessage("\\n<Sonya>Whoa... What was that?! That was far too strong for an earthquake, wasn't it?!")
   0()
  Else()
   ShowMessageFace("ruka_fc1",0,0,2,17)
   ShowMessage("\\n<Luka>Was that an earthquake?")
   0()
  EndIf()
  If(4,41,0)
   ShowMessageFace("stein_fc2",2,0,2,18)
   ShowMessage("\\n<Promestein>It didn't feel like a normal earthquake... I couldn't feel a preliminary tremor. Rather, the P-waves and S-waves hit the surface simultaneously.")
   0()
  EndIf()
  ShowMessageFace("gnome_fc1",0,0,2,19)
  ShowMessage("\\n<Gnome>......")
  ShowMessageFace("sylph_fc1",4,0,2,20)
  ShowMessage("\\n<Sylph>'I can't feel the power of the earth. It wasn't an earthquake...' she says.")
  ShowMessageFace("sylph_fc1",4,0,2,21)
  ShowMessage("\\n<Sylph>Also, I can't feel the power of the wind either... Did both the wind and earth die in this world?")
  If(0,4,0)
   ShowMessageFace("alice_fc5",2,0,2,22)
   ShowMessage("\\n<Alice>What an abnormal world... I sense apoptosis around here as well, by the way.")
   ShowMessageFace("alice_fc5",2,0,2,23)
   ShowMessage("\\n<Alice>Let's be as careful as possible while we explore...")
   0()
  EndIf()
  If(0,5,0)
   ShowMessageFace("iriasu_fc4",2,0,2,24)
   ShowMessage("\\n<Ilias>This world is filled with abnormalities... I sense apoptosis around here as well, by the way.")
   ShowMessageFace("iriasu_fc4",2,0,2,25)
   ShowMessage("\\n<Ilias>Let's investigate while being as careful as we can...")
   0()
  EndIf()
  0()
 PAGE   2
  // condition: self-switch A is ON
  0()
