﻿
DisplayName "アリストロメリアの部屋"



EVENT   2
 PAGE   1
  0()



EVENT   11
 PAGE   1
  0()



EVENT   1
 PAGE   1
  0()



EVENT   3
 PAGE   1
  // condition: variable 1113 >= 1
  0()
 PAGE   2
  // condition: variable 1113 >= 2
  0()
 PAGE   3
  // condition: variable 1113 >= 3
  0()
 PAGE   4
  // condition: variable 1113 >= 4
  0()
 PAGE   5
  // condition: variable 1113 >= 5
  0()
 PAGE   6
  // condition: variable 1113 >= 6
  0()
 PAGE   7
  // condition: variable 1113 >= 7
  0()
 PAGE   8
  // condition: variable 1113 >= 8
  0()
 PAGE   9
  // condition: variable 1113 >= 9
  0()
 PAGE   10
  // condition: variable 1113 >= 10
  0()
 PAGE   11
  // condition: variable 1113 >= 11
  0()
 PAGE   12
  // condition: variable 1113 >= 12
  0()
 PAGE   13
  // condition: variable 1113 >= 13
  0()
 PAGE   14
  // condition: variable 1113 >= 14
  0()
 PAGE   15
  // condition: variable 1113 >= 15
  0()



EVENT   4
 PAGE   1
  // condition: variable 1114 >= 1
  0()
 PAGE   2
  // condition: variable 1114 >= 2
  0()
 PAGE   3
  // condition: variable 1114 >= 3
  0()
 PAGE   4
  // condition: variable 1114 >= 4
  0()
 PAGE   5
  // condition: variable 1114 >= 5
  0()
 PAGE   6
  // condition: variable 1114 >= 6
  0()
 PAGE   7
  // condition: variable 1114 >= 7
  0()
 PAGE   8
  // condition: variable 1114 >= 8
  0()
 PAGE   9
  // condition: variable 1114 >= 9
  0()
 PAGE   10
  // condition: variable 1114 >= 10
  0()
 PAGE   11
  // condition: variable 1114 >= 11
  0()
 PAGE   12
  // condition: variable 1114 >= 12
  0()
 PAGE   13
  // condition: variable 1114 >= 13
  0()
 PAGE   14
  // condition: variable 1114 >= 14
  0()
 PAGE   15
  // condition: variable 1114 >= 15
  0()



EVENT   5
 PAGE   1
  // condition: variable 1115 >= 1
  0()
 PAGE   2
  // condition: variable 1115 >= 2
  0()
 PAGE   3
  // condition: variable 1115 >= 3
  0()
 PAGE   4
  // condition: variable 1115 >= 4
  0()
 PAGE   5
  // condition: variable 1115 >= 5
  0()
 PAGE   6
  // condition: variable 1115 >= 6
  0()
 PAGE   7
  // condition: variable 1115 >= 7
  0()
 PAGE   8
  // condition: variable 1115 >= 8
  0()
 PAGE   9
  // condition: variable 1115 >= 9
  0()
 PAGE   10
  // condition: variable 1115 >= 10
  0()
 PAGE   11
  // condition: variable 1115 >= 11
  0()
 PAGE   12
  // condition: variable 1115 >= 12
  0()
 PAGE   13
  // condition: variable 1115 >= 13
  0()
 PAGE   14
  // condition: variable 1115 >= 14
  0()
 PAGE   15
  // condition: variable 1115 >= 15
  0()



EVENT   6
 PAGE   1
  241(bytes(0x04,0x08,0x6f,0x3a,0x0d,0x52,0x50,0x47,0x3a,0x3a,0x42,0x47,0x4d,0x08,0x3a,0x0a,0x40,0x6e,0x61,0x6d,0x65,0x49,0x22,0x11,0x73,0x63,0x65,0x6e,0x65,0x5f,0x64,0x61,0x6e,0x63,0x65,0x32,0x06,0x3a,0x06,0x45,0x54,0x3a,0x0c,0x40,0x76,0x6f,0x6c,0x75,0x6d,0x65,0x69,0x69,0x3a,0x0b,0x40,0x70,0x69,0x74,0x63,0x68,0x69,0x69))
  ShowMessageFace("",0,0,2,1)
  ShowMessage("アリストロメリアのお茶会が始まった……")
  If(1,1113,0,1,0)
   ShowMessageFace("eden_fc1",1,0,2,2)
   ShowMessage("【エデン】")
   ShowMessage("黒のアリス……")
   250(bytes(0x04,0x08,0x6f,0x3a,0x0c,0x52,0x50,0x47,0x3a,0x3a,0x53,0x45,0x08,0x3a,0x0a,0x40,0x6e,0x61,0x6d,0x65,0x49,0x22,0x0a,0x44,0x6f,0x77,0x6e,0x31,0x06,0x3a,0x06,0x45,0x54,0x3a,0x0b,0x40,0x70,0x69,0x74,0x63,0x68,0x69,0x69,0x3a,0x0c,0x40,0x76,0x6f,0x6c,0x75,0x6d,0x65,0x69,0x69))
   ChangeVariable(1117,1117,1,0,0)
   ShowMessageFace("alicetromeria_fc1",4,0,2,3)
   ShowMessage("【アリストロメリア】")
   ShowMessage("エデン……")
   0()
  EndIf()
  If(1,1113,0,2,0)
   ShowMessageFace("arumaeruma_fc2",0,0,2,4)
   ShowMessage("【アルマエルマ】")
   ShowMessage("お招きに与ったアルマエルマよ。")
   ShowMessage("魔王軍四天王と、あとクィーンサキュバスもやっているわ。")
   250(bytes(0x04,0x08,0x6f,0x3a,0x0c,0x52,0x50,0x47,0x3a,0x3a,0x53,0x45,0x08,0x3a,0x0a,0x40,0x6e,0x61,0x6d,0x65,0x49,0x22,0x08,0x55,0x70,0x31,0x06,0x3a,0x06,0x45,0x54,0x3a,0x0b,0x40,0x70,0x69,0x74,0x63,0x68,0x69,0x69,0x3a,0x0c,0x40,0x76,0x6f,0x6c,0x75,0x6d,0x65,0x69,0x69))
   ChangeVariable(1117,1117,1,0,20)
   ShowMessageFace("alicetromeria_fc1",0,0,2,5)
   ShowMessage("【アリストロメリア】")
   ShowMessage("ようこそ、私のお茶会に。")
   ShowMessage("その顔、何か聞きたい事でもおありでは？")
   ShowMessageFace("arumaeruma_fc2",0,0,2,6)
   ShowMessage("【アルマエルマ】")
   ShowMessage("あなたは、魔王という立場でもずいぶん自由なのね……")
   ShowMessage("魔王らしさとは何かとか、考えたことはある？")
   ShowMessageFace("alicetromeria_fc1",0,0,2,7)
   ShowMessage("【アリストロメリア】")
   ShowMessage("魔王とは、枷ではありませんわ。")
   ShowMessage("私は何にも縛られたりはしません。")
   ShowMessageFace("alicetromeria_fc1",0,0,2,8)
   ShowMessage("【アリストロメリア】")
   ShowMessage("あなたは、四天王で最も自由という噂を聞きましたが……")
   ShowMessage("誰よりも不自由に見えますわね。")
   ShowMessageFace("arumaeruma_fc2",3,0,2,9)
   ShowMessage("【アルマエルマ】")
   ShowMessage("……………………")
   0()
  EndIf()
  If(1,1113,0,3,0)
   ShowMessageFace("chrom_fc2",1,0,2,10)
   ShowMessage("【クロム】")
   ShowMessage("こたびはお招きに感謝いたします。")
   ShowMessage("儂はクロム・アルテイスト、どうぞお見知り置きを。")
   250(bytes(0x04,0x08,0x6f,0x3a,0x0c,0x52,0x50,0x47,0x3a,0x3a,0x53,0x45,0x08,0x3a,0x0a,0x40,0x6e,0x61,0x6d,0x65,0x49,0x22,0x08,0x55,0x70,0x31,0x06,0x3a,0x06,0x45,0x54,0x3a,0x0b,0x40,0x70,0x69,0x74,0x63,0x68,0x69,0x69,0x3a,0x0c,0x40,0x76,0x6f,0x6c,0x75,0x6d,0x65,0x69,0x69))
   ChangeVariable(1117,1117,1,0,20)
   ShowMessageFace("alicetromeria_fc1",0,0,2,11)
   ShowMessage("【アリストロメリア】")
   ShowMessage("まあ、アルテイスト家の末裔ですのね。")
   ShowMessage("後で、魔芸でも披露してもらいたいですわ……")
   0()
  EndIf()
  If(1,1113,0,4,0)
   ShowMessageFace("youko_fc1",0,0,2,12)
   ShowMessage("【きつね】")
   ShowMessage("おまねき、ありがとうございました……")
   ShowMessage("わぁ、おいしそうなお菓子や果物がいっぱい～♪")
   250(bytes(0x04,0x08,0x6f,0x3a,0x0c,0x52,0x50,0x47,0x3a,0x3a,0x53,0x45,0x08,0x3a,0x0a,0x40,0x6e,0x61,0x6d,0x65,0x49,0x22,0x08,0x55,0x70,0x31,0x06,0x3a,0x06,0x45,0x54,0x3a,0x0b,0x40,0x70,0x69,0x74,0x63,0x68,0x69,0x69,0x3a,0x0c,0x40,0x76,0x6f,0x6c,0x75,0x6d,0x65,0x69,0x69))
   ChangeVariable(1117,1117,1,0,20)
   ShowMessageFace("alicetromeria_fc1",0,0,2,13)
   ShowMessage("【アリストロメリア】")
   ShowMessage("あら、可愛らしいキツネさん。")
   ShowMessage("おあげも用意しておけば良かったかしら……？")
   0()
  EndIf()
  If(1,1113,0,5,0)
   ShowMessageFace("cupid_fc1",0,0,2,14)
   ShowMessage("【キューピー】")
   ShowMessage("わっ、おっきなケーキ！")
   ShowMessage("おいしそう～♪")
   250(bytes(0x04,0x08,0x6f,0x3a,0x0c,0x52,0x50,0x47,0x3a,0x3a,0x53,0x45,0x08,0x3a,0x0a,0x40,0x6e,0x61,0x6d,0x65,0x49,0x22,0x0a,0x44,0x6f,0x77,0x6e,0x31,0x06,0x3a,0x06,0x45,0x54,0x3a,0x0b,0x40,0x70,0x69,0x74,0x63,0x68,0x69,0x69,0x3a,0x0c,0x40,0x76,0x6f,0x6c,0x75,0x6d,0x65,0x69,0x69))
   ChangeVariable(1117,1117,1,0,0)
   ShowMessageFace("alicetromeria_fc1",4,0,2,15)
   ShowMessage("【アリストロメリア】")
   ShowMessage("あらあら、お菓子の甘さに釣られて天使まで……")
   ShowMessage("命が惜しくないのかしら？")
   0()
  EndIf()
  If(1,1113,0,6,0)
   ShowMessageFace("shirokuma_fc1",0,0,2,16)
   ShowMessage("【クヌート】")
   ShowMessage("お部屋もぬくぬく……")
   ShowMessage("果物も、いっぱい……♪")
   250(bytes(0x04,0x08,0x6f,0x3a,0x0c,0x52,0x50,0x47,0x3a,0x3a,0x53,0x45,0x08,0x3a,0x0a,0x40,0x6e,0x61,0x6d,0x65,0x49,0x22,0x08,0x55,0x70,0x33,0x06,0x3a,0x06,0x45,0x54,0x3a,0x0b,0x40,0x70,0x69,0x74,0x63,0x68,0x69,0x69,0x3a,0x0c,0x40,0x76,0x6f,0x6c,0x75,0x6d,0x65,0x69,0x55))
   ChangeVariable(1117,1117,1,0,40)
   ShowMessageFace("alicetromeria_fc1",0,0,2,17)
   ShowMessage("【アリストロメリア】")
   ShowMessage("あら、シロクマさんまで……")
   ShowMessage("私、クマちゃんが大好きですのよ♪")
   0()
  EndIf()
  If(1,1113,0,7,0)
   ShowMessageFace("heinrich_fc1",7,0,2,18)
   ShowMessage("【ハインリヒ】")
   ShowMessage("来たよ、アリストロメリア。")
   250(bytes(0x04,0x08,0x6f,0x3a,0x0c,0x52,0x50,0x47,0x3a,0x3a,0x53,0x45,0x08,0x3a,0x0a,0x40,0x6e,0x61,0x6d,0x65,0x49,0x22,0x08,0x55,0x70,0x33,0x06,0x3a,0x06,0x45,0x54,0x3a,0x0b,0x40,0x70,0x69,0x74,0x63,0x68,0x69,0x69,0x3a,0x0c,0x40,0x76,0x6f,0x6c,0x75,0x6d,0x65,0x69,0x55))
   ChangeVariable(1117,1117,1,0,60)
   ShowMessageFace("alicetromeria_fc1",0,0,2,19)
   ShowMessage("【アリストロメリア】")
   ShowMessage("あら、ハインリヒ。")
   ShowMessage("来て下さったのですね、嬉しいですわ。")
   0()
  EndIf()
  If(1,1113,0,8,0)
   ShowMessageFace("candy_fc1",1,0,2,20)
   ShowMessage("【キャンディ】")
   ShowMessage("おいしそうな食べ物がいっぱい……")
   ShowMessage("むしゃむしゃむしゃ……")
   250(bytes(0x04,0x08,0x6f,0x3a,0x0c,0x52,0x50,0x47,0x3a,0x3a,0x53,0x45,0x08,0x3a,0x0a,0x40,0x6e,0x61,0x6d,0x65,0x49,0x22,0x0a,0x44,0x6f,0x77,0x6e,0x31,0x06,0x3a,0x06,0x45,0x54,0x3a,0x0b,0x40,0x70,0x69,0x74,0x63,0x68,0x69,0x69,0x3a,0x0c,0x40,0x76,0x6f,0x6c,0x75,0x6d,0x65,0x69,0x69))
   ChangeVariable(1117,1117,1,0,0)
   ShowMessageFace("alicetromeria_fc1",0,0,2,21)
   ShowMessage("【アリストロメリア】")
   ShowMessage("あら、もう召し上がっているの？")
   ShowMessage("少々、お行儀が悪いですわね……")
   0()
  EndIf()
  If(1,1113,0,9,0)
   ShowMessageFace("nekomata_fc1",2,0,2,22)
   ShowMessage("【たま】")
   ShowMessage("うにゃ～♪")
   250(bytes(0x04,0x08,0x6f,0x3a,0x0c,0x52,0x50,0x47,0x3a,0x3a,0x53,0x45,0x08,0x3a,0x0a,0x40,0x6e,0x61,0x6d,0x65,0x49,0x22,0x08,0x55,0x70,0x33,0x06,0x3a,0x06,0x45,0x54,0x3a,0x0b,0x40,0x70,0x69,0x74,0x63,0x68,0x69,0x69,0x3a,0x0c,0x40,0x76,0x6f,0x6c,0x75,0x6d,0x65,0x69,0x69))
   ChangeVariable(1117,1117,1,0,40)
   ShowMessageFace("alicetromeria_fc1",0,0,2,23)
   ShowMessage("【アリストロメリア】")
   ShowMessage("あら、ネコちゃんもお呼ばれして来たのですか……？")
   ShowMessage("うふふっ、なんて可愛らしい♪")
   0()
  EndIf()
  If(1,1113,0,10,0)
   ShowMessageFace("nyumaou_fc1",0,0,2,24)
   ShowMessage("【牛魔王】")
   ShowMessage("お初、お目に掛かります。")
   ShowMessage("クィーンビーストを志す牛魔王と申します。")
   250(bytes(0x04,0x08,0x6f,0x3a,0x0c,0x52,0x50,0x47,0x3a,0x3a,0x53,0x45,0x08,0x3a,0x0a,0x40,0x6e,0x61,0x6d,0x65,0x49,0x22,0x08,0x55,0x70,0x31,0x06,0x3a,0x06,0x45,0x54,0x3a,0x0b,0x40,0x70,0x69,0x74,0x63,0x68,0x69,0x69,0x3a,0x0c,0x40,0x76,0x6f,0x6c,0x75,0x6d,0x65,0x69,0x69))
   ChangeVariable(1117,1117,1,0,20)
   ShowMessageFace("alicetromeria_fc1",0,0,2,25)
   ShowMessage("【アリストロメリア】")
   ShowMessage("あらあら、大きな体……")
   ShowMessage("もっと大きなケーキを用意した方が良かったですね。")
   0()
  EndIf()
  If(1,1113,0,11,0)
   ShowMessageFace("alice_fc5",0,0,2,26)
   ShowMessage("【アリス】")
   ShowMessage("現魔王として、お招きに与った。")
   ShowMessage("御存知だろうが、十六代魔王アリスフィーズだ。")
   250(bytes(0x04,0x08,0x6f,0x3a,0x0c,0x52,0x50,0x47,0x3a,0x3a,0x53,0x45,0x08,0x3a,0x0a,0x40,0x6e,0x61,0x6d,0x65,0x49,0x22,0x08,0x55,0x70,0x31,0x06,0x3a,0x06,0x45,0x54,0x3a,0x0b,0x40,0x70,0x69,0x74,0x63,0x68,0x69,0x69,0x3a,0x0c,0x40,0x76,0x6f,0x6c,0x75,0x6d,0x65,0x69,0x69))
   ChangeVariable(1117,1117,1,0,20)
   ShowMessageFace("alicetromeria_fc1",0,0,2,27)
   ShowMessage("【アリストロメリア】")
   ShowMessage("魔王同士、こうしてお茶を飲み交わすとは……")
   ShowMessage("珍しいことも、あるものですわね。")
   0()
  EndIf()
  If(1,1113,0,12,0)
   ShowMessageFace("mefist_fc1",0,0,2,28)
   ShowMessage("【メフィスト】")
   ShowMessage("ずいぶん久しいですね、陛下……")
   ShowMessage("このメフィスト、お招きに与り参上いたしました。")
   250(bytes(0x04,0x08,0x6f,0x3a,0x0c,0x52,0x50,0x47,0x3a,0x3a,0x53,0x45,0x08,0x3a,0x0a,0x40,0x6e,0x61,0x6d,0x65,0x49,0x22,0x08,0x55,0x70,0x31,0x06,0x3a,0x06,0x45,0x54,0x3a,0x0b,0x40,0x70,0x69,0x74,0x63,0x68,0x69,0x69,0x3a,0x0c,0x40,0x76,0x6f,0x6c,0x75,0x6d,0x65,0x69,0x69))
   ChangeVariable(1117,1117,1,0,20)
   ShowMessageFace("alicetromeria_fc1",0,0,2,29)
   ShowMessage("【アリストロメリア】")
   ShowMessage("あら、メフィストではないですか。")
   ShowMessage("現在まで、うまく世を渡り歩いてきたと見えます。")
   0()
  EndIf()
  If(1,1113,0,13,0)
   ShowMessageFace("stein_fc2",0,0,2,30)
   ShowMessage("【プロメスティン】")
   ShowMessage("……どうも、ご招待ありがとうございます。")
   ShowMessage("あんまり、こういう席は好きではないんですが……")
   250(bytes(0x04,0x08,0x6f,0x3a,0x0c,0x52,0x50,0x47,0x3a,0x3a,0x53,0x45,0x08,0x3a,0x0a,0x40,0x6e,0x61,0x6d,0x65,0x49,0x22,0x08,0x55,0x70,0x31,0x06,0x3a,0x06,0x45,0x54,0x3a,0x0b,0x40,0x70,0x69,0x74,0x63,0x68,0x69,0x69,0x3a,0x0c,0x40,0x76,0x6f,0x6c,0x75,0x6d,0x65,0x69,0x69))
   ChangeVariable(1117,1117,1,0,20)
   ShowMessageFace("alicetromeria_fc1",1,0,2,31)
   ShowMessage("【アリストロメリア】")
   ShowMessage("あなたとは、仲良く出来そうですわね……")
   0()
  EndIf()
  If(1,1113,0,14,0)
   ShowMessageFace("queenvampire_fc1",0,0,2,32)
   ShowMessage("【ファティマ】")
   ShowMessage("初めまして、偉大なる八代魔王陛下。")
   ShowMessage("現世のヴァンパイアを束ねる女王、ファティマと申します。")
   250(bytes(0x04,0x08,0x6f,0x3a,0x0c,0x52,0x50,0x47,0x3a,0x3a,0x53,0x45,0x08,0x3a,0x0a,0x40,0x6e,0x61,0x6d,0x65,0x49,0x22,0x08,0x55,0x70,0x31,0x06,0x3a,0x06,0x45,0x54,0x3a,0x0b,0x40,0x70,0x69,0x74,0x63,0x68,0x69,0x69,0x3a,0x0c,0x40,0x76,0x6f,0x6c,0x75,0x6d,0x65,0x69,0x69))
   ChangeVariable(1117,1117,1,0,20)
   ShowMessageFace("alicetromeria_fc1",0,0,2,33)
   ShowMessage("【アリストロメリア】")
   ShowMessage("あなたが、現代のクィーンヴァンパイアですか……")
   ShowMessage("野望に燃えた、良い眼をしていますね。")
   0()
  EndIf()
  If(1,1113,0,15,0)
   ShowMessageFace("cassandra_fc1",1,0,2,34)
   ShowMessage("【カサンドラ】")
   ShowMessage("敬愛する陛下、ネーレイド家のカサンドラと申します。")
   ShowMessage("お招きに与り、光栄の至りです……")
   250(bytes(0x04,0x08,0x6f,0x3a,0x0c,0x52,0x50,0x47,0x3a,0x3a,0x53,0x45,0x08,0x3a,0x0a,0x40,0x6e,0x61,0x6d,0x65,0x49,0x22,0x08,0x55,0x70,0x31,0x06,0x3a,0x06,0x45,0x54,0x3a,0x0b,0x40,0x70,0x69,0x74,0x63,0x68,0x69,0x69,0x3a,0x0c,0x40,0x76,0x6f,0x6c,0x75,0x6d,0x65,0x69,0x69))
   ChangeVariable(1117,1117,1,0,20)
   ShowMessageFace("alicetromeria_fc1",0,0,2,35)
   ShowMessage("【アリストロメリア】")
   ShowMessage("その匂い……どうやら私の近縁のようですね。")
   ShowMessage("血の近しいよしみ、仲良くいたしましょう。")
   0()
  EndIf()
  If(1,1114,0,1,0)
   ShowMessageFace("eden_fc1",1,0,2,36)
   ShowMessage("【エデン】")
   ShowMessage("黒のアリス……")
   250(bytes(0x04,0x08,0x6f,0x3a,0x0c,0x52,0x50,0x47,0x3a,0x3a,0x53,0x45,0x08,0x3a,0x0a,0x40,0x6e,0x61,0x6d,0x65,0x49,0x22,0x0a,0x44,0x6f,0x77,0x6e,0x31,0x06,0x3a,0x06,0x45,0x54,0x3a,0x0b,0x40,0x70,0x69,0x74,0x63,0x68,0x69,0x69,0x3a,0x0c,0x40,0x76,0x6f,0x6c,0x75,0x6d,0x65,0x69,0x69))
   ChangeVariable(1117,1117,1,0,0)
   ShowMessageFace("alicetromeria_fc1",4,0,2,37)
   ShowMessage("【アリストロメリア】")
   ShowMessage("エデン……")
   0()
  EndIf()
  If(1,1114,0,2,0)
   ShowMessageFace("arumaeruma_fc2",0,0,2,38)
   ShowMessage("【アルマエルマ】")
   ShowMessage("お招きに与ったアルマエルマよ。")
   ShowMessage("魔王軍四天王と、あとクィーンサキュバスもやっているわ。")
   250(bytes(0x04,0x08,0x6f,0x3a,0x0c,0x52,0x50,0x47,0x3a,0x3a,0x53,0x45,0x08,0x3a,0x0a,0x40,0x6e,0x61,0x6d,0x65,0x49,0x22,0x08,0x55,0x70,0x31,0x06,0x3a,0x06,0x45,0x54,0x3a,0x0b,0x40,0x70,0x69,0x74,0x63,0x68,0x69,0x69,0x3a,0x0c,0x40,0x76,0x6f,0x6c,0x75,0x6d,0x65,0x69,0x69))
   ChangeVariable(1117,1117,1,0,20)
   ShowMessageFace("alicetromeria_fc1",0,0,2,39)
   ShowMessage("【アリストロメリア】")
   ShowMessage("ようこそ、私のお茶会に。")
   ShowMessage("その顔、何か聞きたい事でもおありでは？")
   ShowMessageFace("arumaeruma_fc2",0,0,2,40)
   ShowMessage("【アルマエルマ】")
   ShowMessage("あなたは、魔王という立場でもずいぶん自由なのね……")
   ShowMessage("魔王らしさとは何かとか、考えたことはある？")
   ShowMessageFace("alicetromeria_fc1",0,0,2,41)
   ShowMessage("【アリストロメリア】")
   ShowMessage("魔王とは、枷ではありませんわ。")
   ShowMessage("私は何にも縛られたりはしません。")
   ShowMessageFace("alicetromeria_fc1",0,0,2,42)
   ShowMessage("【アリストロメリア】")
   ShowMessage("あなたは、四天王で最も自由という噂を聞きましたが……")
   ShowMessage("誰よりも不自由に見えますわね。")
   ShowMessageFace("arumaeruma_fc2",3,0,2,43)
   ShowMessage("【アルマエルマ】")
   ShowMessage("……………………")
   0()
  EndIf()
  If(1,1114,0,3,0)
   ShowMessageFace("chrom_fc2",1,0,2,44)
   ShowMessage("【クロム】")
   ShowMessage("こたびはお招きに感謝いたします。")
   ShowMessage("儂はクロム・アルテイスト、どうぞお見知り置きを。")
   250(bytes(0x04,0x08,0x6f,0x3a,0x0c,0x52,0x50,0x47,0x3a,0x3a,0x53,0x45,0x08,0x3a,0x0a,0x40,0x6e,0x61,0x6d,0x65,0x49,0x22,0x08,0x55,0x70,0x31,0x06,0x3a,0x06,0x45,0x54,0x3a,0x0b,0x40,0x70,0x69,0x74,0x63,0x68,0x69,0x69,0x3a,0x0c,0x40,0x76,0x6f,0x6c,0x75,0x6d,0x65,0x69,0x69))
   ChangeVariable(1117,1117,1,0,20)
   ShowMessageFace("alicetromeria_fc1",0,0,2,45)
   ShowMessage("【アリストロメリア】")
   ShowMessage("まあ、アルテイスト家の末裔ですのね。")
   ShowMessage("後で、魔芸でも披露してもらいたいですわ……")
   0()
  EndIf()
  If(1,1114,0,4,0)
   ShowMessageFace("youko_fc1",0,0,2,46)
   ShowMessage("【きつね】")
   ShowMessage("おまねき、ありがとうございました……")
   ShowMessage("わぁ、おいしそうなお菓子や果物がいっぱい～♪")
   250(bytes(0x04,0x08,0x6f,0x3a,0x0c,0x52,0x50,0x47,0x3a,0x3a,0x53,0x45,0x08,0x3a,0x0a,0x40,0x6e,0x61,0x6d,0x65,0x49,0x22,0x08,0x55,0x70,0x31,0x06,0x3a,0x06,0x45,0x54,0x3a,0x0b,0x40,0x70,0x69,0x74,0x63,0x68,0x69,0x69,0x3a,0x0c,0x40,0x76,0x6f,0x6c,0x75,0x6d,0x65,0x69,0x69))
   ChangeVariable(1117,1117,1,0,20)
   ShowMessageFace("alicetromeria_fc1",0,0,2,47)
   ShowMessage("【アリストロメリア】")
   ShowMessage("あら、可愛らしいキツネさん。")
   ShowMessage("おあげも用意しておけば良かったかしら……？")
   0()
  EndIf()
  If(1,1114,0,5,0)
   ShowMessageFace("cupid_fc1",0,0,2,48)
   ShowMessage("【キューピー】")
   ShowMessage("わっ、おっきなケーキ！")
   ShowMessage("おいしそう～♪")
   250(bytes(0x04,0x08,0x6f,0x3a,0x0c,0x52,0x50,0x47,0x3a,0x3a,0x53,0x45,0x08,0x3a,0x0a,0x40,0x6e,0x61,0x6d,0x65,0x49,0x22,0x0a,0x44,0x6f,0x77,0x6e,0x31,0x06,0x3a,0x06,0x45,0x54,0x3a,0x0b,0x40,0x70,0x69,0x74,0x63,0x68,0x69,0x69,0x3a,0x0c,0x40,0x76,0x6f,0x6c,0x75,0x6d,0x65,0x69,0x69))
   ChangeVariable(1117,1117,1,0,0)
   ShowMessageFace("alicetromeria_fc1",4,0,2,49)
   ShowMessage("【アリストロメリア】")
   ShowMessage("あらあら、お菓子の甘さに釣られて天使まで……")
   ShowMessage("命が惜しくないのかしら？")
   0()
  EndIf()
  If(1,1114,0,6,0)
   ShowMessageFace("shirokuma_fc1",0,0,2,50)
   ShowMessage("【クヌート】")
   ShowMessage("お部屋もぬくぬく……")
   ShowMessage("果物も、いっぱい……♪")
   250(bytes(0x04,0x08,0x6f,0x3a,0x0c,0x52,0x50,0x47,0x3a,0x3a,0x53,0x45,0x08,0x3a,0x0a,0x40,0x6e,0x61,0x6d,0x65,0x49,0x22,0x08,0x55,0x70,0x33,0x06,0x3a,0x06,0x45,0x54,0x3a,0x0b,0x40,0x70,0x69,0x74,0x63,0x68,0x69,0x69,0x3a,0x0c,0x40,0x76,0x6f,0x6c,0x75,0x6d,0x65,0x69,0x55))
   ChangeVariable(1117,1117,1,0,40)
   ShowMessageFace("alicetromeria_fc1",0,0,2,51)
   ShowMessage("【アリストロメリア】")
   ShowMessage("あら、シロクマさんまで……")
   ShowMessage("私、クマちゃんが大好きですのよ♪")
   0()
  EndIf()
  If(1,1114,0,7,0)
   ShowMessageFace("heinrich_fc1",7,0,2,52)
   ShowMessage("【ハインリヒ】")
   ShowMessage("来たよ、アリストロメリア。")
   250(bytes(0x04,0x08,0x6f,0x3a,0x0c,0x52,0x50,0x47,0x3a,0x3a,0x53,0x45,0x08,0x3a,0x0a,0x40,0x6e,0x61,0x6d,0x65,0x49,0x22,0x08,0x55,0x70,0x33,0x06,0x3a,0x06,0x45,0x54,0x3a,0x0b,0x40,0x70,0x69,0x74,0x63,0x68,0x69,0x69,0x3a,0x0c,0x40,0x76,0x6f,0x6c,0x75,0x6d,0x65,0x69,0x55))
   ChangeVariable(1117,1117,1,0,60)
   ShowMessageFace("alicetromeria_fc1",0,0,2,53)
   ShowMessage("【アリストロメリア】")
   ShowMessage("あら、ハインリヒ。")
   ShowMessage("来て下さったのですね、嬉しいですわ。")
   0()
  EndIf()
  If(1,1114,0,8,0)
   ShowMessageFace("candy_fc1",1,0,2,54)
   ShowMessage("【キャンディ】")
   ShowMessage("おいしそうな食べ物がいっぱい……")
   ShowMessage("むしゃむしゃむしゃ……")
   250(bytes(0x04,0x08,0x6f,0x3a,0x0c,0x52,0x50,0x47,0x3a,0x3a,0x53,0x45,0x08,0x3a,0x0a,0x40,0x6e,0x61,0x6d,0x65,0x49,0x22,0x0a,0x44,0x6f,0x77,0x6e,0x31,0x06,0x3a,0x06,0x45,0x54,0x3a,0x0b,0x40,0x70,0x69,0x74,0x63,0x68,0x69,0x69,0x3a,0x0c,0x40,0x76,0x6f,0x6c,0x75,0x6d,0x65,0x69,0x69))
   ChangeVariable(1117,1117,1,0,0)
   ShowMessageFace("alicetromeria_fc1",0,0,2,55)
   ShowMessage("【アリストロメリア】")
   ShowMessage("あら、もう召し上がっているの？")
   ShowMessage("少々、お行儀が悪いですわね……")
   0()
  EndIf()
  If(1,1114,0,9,0)
   ShowMessageFace("nekomata_fc1",2,0,2,56)
   ShowMessage("【たま】")
   ShowMessage("うにゃ～♪")
   250(bytes(0x04,0x08,0x6f,0x3a,0x0c,0x52,0x50,0x47,0x3a,0x3a,0x53,0x45,0x08,0x3a,0x0a,0x40,0x6e,0x61,0x6d,0x65,0x49,0x22,0x08,0x55,0x70,0x33,0x06,0x3a,0x06,0x45,0x54,0x3a,0x0b,0x40,0x70,0x69,0x74,0x63,0x68,0x69,0x69,0x3a,0x0c,0x40,0x76,0x6f,0x6c,0x75,0x6d,0x65,0x69,0x55))
   ChangeVariable(1117,1117,1,0,40)
   ShowMessageFace("alicetromeria_fc1",0,0,2,57)
   ShowMessage("【アリストロメリア】")
   ShowMessage("あら、ネコちゃんもお呼ばれして来たのですか……？")
   ShowMessage("うふふっ、なんて可愛らしい♪")
   0()
  EndIf()
  If(1,1114,0,10,0)
   ShowMessageFace("nyumaou_fc1",0,0,2,58)
   ShowMessage("【牛魔王】")
   ShowMessage("お初、お目に掛かります。")
   ShowMessage("クィーンビーストを志す牛魔王と申します。")
   250(bytes(0x04,0x08,0x6f,0x3a,0x0c,0x52,0x50,0x47,0x3a,0x3a,0x53,0x45,0x08,0x3a,0x0a,0x40,0x6e,0x61,0x6d,0x65,0x49,0x22,0x08,0x55,0x70,0x31,0x06,0x3a,0x06,0x45,0x54,0x3a,0x0b,0x40,0x70,0x69,0x74,0x63,0x68,0x69,0x69,0x3a,0x0c,0x40,0x76,0x6f,0x6c,0x75,0x6d,0x65,0x69,0x69))
   ChangeVariable(1117,1117,1,0,20)
   ShowMessageFace("alicetromeria_fc1",0,0,2,59)
   ShowMessage("【アリストロメリア】")
   ShowMessage("あらあら、大きな体……")
   ShowMessage("もっと大きなケーキを用意した方が良かったですね。")
   0()
  EndIf()
  If(1,1114,0,11,0)
   ShowMessageFace("alice_fc5",0,0,2,60)
   ShowMessage("【アリス】")
   ShowMessage("現魔王として、お招きに与った。")
   ShowMessage("御存知だろうが、十六代魔王アリスフィーズだ。")
   250(bytes(0x04,0x08,0x6f,0x3a,0x0c,0x52,0x50,0x47,0x3a,0x3a,0x53,0x45,0x08,0x3a,0x0a,0x40,0x6e,0x61,0x6d,0x65,0x49,0x22,0x08,0x55,0x70,0x31,0x06,0x3a,0x06,0x45,0x54,0x3a,0x0b,0x40,0x70,0x69,0x74,0x63,0x68,0x69,0x69,0x3a,0x0c,0x40,0x76,0x6f,0x6c,0x75,0x6d,0x65,0x69,0x69))
   ChangeVariable(1117,1117,1,0,20)
   ShowMessageFace("alicetromeria_fc1",0,0,2,61)
   ShowMessage("【アリストロメリア】")
   ShowMessage("魔王同士、こうしてお茶を飲み交わすとは……")
   ShowMessage("珍しいことも、あるものですわね。")
   0()
  EndIf()
  If(1,1114,0,12,0)
   ShowMessageFace("mefist_fc1",0,0,2,62)
   ShowMessage("【メフィスト】")
   ShowMessage("ずいぶん久しいですね、陛下……")
   ShowMessage("このメフィスト、お招きに与り参上いたしました。")
   250(bytes(0x04,0x08,0x6f,0x3a,0x0c,0x52,0x50,0x47,0x3a,0x3a,0x53,0x45,0x08,0x3a,0x0a,0x40,0x6e,0x61,0x6d,0x65,0x49,0x22,0x08,0x55,0x70,0x31,0x06,0x3a,0x06,0x45,0x54,0x3a,0x0b,0x40,0x70,0x69,0x74,0x63,0x68,0x69,0x69,0x3a,0x0c,0x40,0x76,0x6f,0x6c,0x75,0x6d,0x65,0x69,0x69))
   ChangeVariable(1117,1117,1,0,20)
   ShowMessageFace("alicetromeria_fc1",0,0,2,63)
   ShowMessage("【アリストロメリア】")
   ShowMessage("あら、メフィストではないですか。")
   ShowMessage("現在まで、うまく世を渡り歩いてきたと見えます。")
   0()
  EndIf()
  If(1,1114,0,13,0)
   ShowMessageFace("stein_fc2",0,0,2,64)
   ShowMessage("【プロメスティン】")
   ShowMessage("……どうも、ご招待ありがとうございます。")
   ShowMessage("あんまり、こういう席は好きではないんですが……")
   250(bytes(0x04,0x08,0x6f,0x3a,0x0c,0x52,0x50,0x47,0x3a,0x3a,0x53,0x45,0x08,0x3a,0x0a,0x40,0x6e,0x61,0x6d,0x65,0x49,0x22,0x08,0x55,0x70,0x31,0x06,0x3a,0x06,0x45,0x54,0x3a,0x0b,0x40,0x70,0x69,0x74,0x63,0x68,0x69,0x69,0x3a,0x0c,0x40,0x76,0x6f,0x6c,0x75,0x6d,0x65,0x69,0x69))
   ChangeVariable(1117,1117,1,0,20)
   ShowMessageFace("alicetromeria_fc1",1,0,2,65)
   ShowMessage("【アリストロメリア】")
   ShowMessage("あなたとは、仲良く出来そうですわね……")
   0()
  EndIf()
  If(1,1114,0,14,0)
   ShowMessageFace("queenvampire_fc1",0,0,2,66)
   ShowMessage("【ファティマ】")
   ShowMessage("初めまして、偉大なる八代魔王陛下。")
   ShowMessage("現世のヴァンパイアを束ねる女王、ファティマと申します。")
   250(bytes(0x04,0x08,0x6f,0x3a,0x0c,0x52,0x50,0x47,0x3a,0x3a,0x53,0x45,0x08,0x3a,0x0a,0x40,0x6e,0x61,0x6d,0x65,0x49,0x22,0x08,0x55,0x70,0x31,0x06,0x3a,0x06,0x45,0x54,0x3a,0x0b,0x40,0x70,0x69,0x74,0x63,0x68,0x69,0x69,0x3a,0x0c,0x40,0x76,0x6f,0x6c,0x75,0x6d,0x65,0x69,0x69))
   ChangeVariable(1117,1117,1,0,20)
   ShowMessageFace("alicetromeria_fc1",0,0,2,67)
   ShowMessage("【アリストロメリア】")
   ShowMessage("あなたが、現代のクィーンヴァンパイアですか……")
   ShowMessage("野望に燃えた、良い眼をしていますね。")
   0()
  EndIf()
  If(1,1114,0,15,0)
   ShowMessageFace("cassandra_fc1",1,0,2,68)
   ShowMessage("【カサンドラ】")
   ShowMessage("敬愛する陛下、ネーレイド家のカサンドラと申します。")
   ShowMessage("お招きに与り、光栄の至りです……")
   250(bytes(0x04,0x08,0x6f,0x3a,0x0c,0x52,0x50,0x47,0x3a,0x3a,0x53,0x45,0x08,0x3a,0x0a,0x40,0x6e,0x61,0x6d,0x65,0x49,0x22,0x08,0x55,0x70,0x31,0x06,0x3a,0x06,0x45,0x54,0x3a,0x0b,0x40,0x70,0x69,0x74,0x63,0x68,0x69,0x69,0x3a,0x0c,0x40,0x76,0x6f,0x6c,0x75,0x6d,0x65,0x69,0x69))
   ChangeVariable(1117,1117,1,0,20)
   ShowMessageFace("alicetromeria_fc1",0,0,2,69)
   ShowMessage("【アリストロメリア】")
   ShowMessage("その匂い……どうやら私の近縁のようですね。")
   ShowMessage("血の近しいよしみ、仲良くいたしましょう。")
   0()
  EndIf()
  If(1,1115,0,1,0)
   ShowMessageFace("eden_fc1",1,0,2,70)
   ShowMessage("【エデン】")
   ShowMessage("黒のアリス……")
   250(bytes(0x04,0x08,0x6f,0x3a,0x0c,0x52,0x50,0x47,0x3a,0x3a,0x53,0x45,0x08,0x3a,0x0a,0x40,0x6e,0x61,0x6d,0x65,0x49,0x22,0x0a,0x44,0x6f,0x77,0x6e,0x31,0x06,0x3a,0x06,0x45,0x54,0x3a,0x0b,0x40,0x70,0x69,0x74,0x63,0x68,0x69,0x69,0x3a,0x0c,0x40,0x76,0x6f,0x6c,0x75,0x6d,0x65,0x69,0x69))
   ChangeVariable(1117,1117,1,0,0)
   ShowMessageFace("alicetromeria_fc1",4,0,2,71)
   ShowMessage("【アリストロメリア】")
   ShowMessage("エデン……")
   0()
  EndIf()
  If(1,1115,0,2,0)
   ShowMessageFace("arumaeruma_fc2",0,0,2,72)
   ShowMessage("【アルマエルマ】")
   ShowMessage("お招きに与ったアルマエルマよ。")
   ShowMessage("魔王軍四天王と、あとクィーンサキュバスもやっているわ。")
   250(bytes(0x04,0x08,0x6f,0x3a,0x0c,0x52,0x50,0x47,0x3a,0x3a,0x53,0x45,0x08,0x3a,0x0a,0x40,0x6e,0x61,0x6d,0x65,0x49,0x22,0x08,0x55,0x70,0x31,0x06,0x3a,0x06,0x45,0x54,0x3a,0x0b,0x40,0x70,0x69,0x74,0x63,0x68,0x69,0x69,0x3a,0x0c,0x40,0x76,0x6f,0x6c,0x75,0x6d,0x65,0x69,0x69))
   ChangeVariable(1117,1117,1,0,20)
   ShowMessageFace("alicetromeria_fc1",0,0,2,73)
   ShowMessage("【アリストロメリア】")
   ShowMessage("ようこそ、私のお茶会に。")
   ShowMessage("その顔、何か聞きたい事でもおありでは？")
   ShowMessageFace("arumaeruma_fc2",0,0,2,74)
   ShowMessage("【アルマエルマ】")
   ShowMessage("あなたは、魔王という立場でもずいぶん自由なのね……")
   ShowMessage("魔王らしさとは何かとか、考えたことはある？")
   ShowMessageFace("alicetromeria_fc1",0,0,2,75)
   ShowMessage("【アリストロメリア】")
   ShowMessage("魔王とは、枷ではありませんわ。")
   ShowMessage("私は何にも縛られたりはしません。")
   ShowMessageFace("alicetromeria_fc1",0,0,2,76)
   ShowMessage("【アリストロメリア】")
   ShowMessage("あなたは、四天王で最も自由という噂を聞きましたが……")
   ShowMessage("誰よりも不自由に見えますわね。")
   ShowMessageFace("arumaeruma_fc2",3,0,2,77)
   ShowMessage("【アルマエルマ】")
   ShowMessage("……………………")
   0()
  EndIf()
  If(1,1115,0,3,0)
   ShowMessageFace("chrom_fc2",1,0,2,78)
   ShowMessage("【クロム】")
   ShowMessage("こたびはお招きに感謝いたします。")
   ShowMessage("儂はクロム・アルテイスト、どうぞお見知り置きを。")
   250(bytes(0x04,0x08,0x6f,0x3a,0x0c,0x52,0x50,0x47,0x3a,0x3a,0x53,0x45,0x08,0x3a,0x0a,0x40,0x6e,0x61,0x6d,0x65,0x49,0x22,0x08,0x55,0x70,0x31,0x06,0x3a,0x06,0x45,0x54,0x3a,0x0b,0x40,0x70,0x69,0x74,0x63,0x68,0x69,0x69,0x3a,0x0c,0x40,0x76,0x6f,0x6c,0x75,0x6d,0x65,0x69,0x69))
   ChangeVariable(1117,1117,1,0,20)
   ShowMessageFace("alicetromeria_fc1",0,0,2,79)
   ShowMessage("【アリストロメリア】")
   ShowMessage("まあ、アルテイスト家の末裔ですのね。")
   ShowMessage("後で、魔芸でも披露してもらいたいですわ……")
   0()
  EndIf()
  If(1,1115,0,4,0)
   ShowMessageFace("youko_fc1",0,0,2,80)
   ShowMessage("【きつね】")
   ShowMessage("おまねき、ありがとうございました……")
   ShowMessage("わぁ、おいしそうなお菓子や果物がいっぱい～♪")
   250(bytes(0x04,0x08,0x6f,0x3a,0x0c,0x52,0x50,0x47,0x3a,0x3a,0x53,0x45,0x08,0x3a,0x0a,0x40,0x6e,0x61,0x6d,0x65,0x49,0x22,0x08,0x55,0x70,0x31,0x06,0x3a,0x06,0x45,0x54,0x3a,0x0b,0x40,0x70,0x69,0x74,0x63,0x68,0x69,0x69,0x3a,0x0c,0x40,0x76,0x6f,0x6c,0x75,0x6d,0x65,0x69,0x69))
   ChangeVariable(1117,1117,1,0,20)
   ShowMessageFace("alicetromeria_fc1",0,0,2,81)
   ShowMessage("【アリストロメリア】")
   ShowMessage("あら、可愛らしいキツネさん。")
   ShowMessage("おあげも用意しておけば良かったかしら……？")
   0()
  EndIf()
  If(1,1115,0,5,0)
   ShowMessageFace("cupid_fc1",0,0,2,82)
   ShowMessage("【キューピー】")
   ShowMessage("わっ、おっきなケーキ！")
   ShowMessage("おいしそう～♪")
   250(bytes(0x04,0x08,0x6f,0x3a,0x0c,0x52,0x50,0x47,0x3a,0x3a,0x53,0x45,0x08,0x3a,0x0a,0x40,0x6e,0x61,0x6d,0x65,0x49,0x22,0x0a,0x44,0x6f,0x77,0x6e,0x31,0x06,0x3a,0x06,0x45,0x54,0x3a,0x0b,0x40,0x70,0x69,0x74,0x63,0x68,0x69,0x69,0x3a,0x0c,0x40,0x76,0x6f,0x6c,0x75,0x6d,0x65,0x69,0x69))
   ChangeVariable(1117,1117,1,0,0)
   ShowMessageFace("alicetromeria_fc1",4,0,2,83)
   ShowMessage("【アリストロメリア】")
   ShowMessage("あらあら、お菓子の甘さに釣られて天使まで……")
   ShowMessage("命が惜しくないのかしら？")
   0()
  EndIf()
  If(1,1115,0,6,0)
   ShowMessageFace("shirokuma_fc1",0,0,2,84)
   ShowMessage("【クヌート】")
   ShowMessage("お部屋もぬくぬく……")
   ShowMessage("果物も、いっぱい……♪")
   250(bytes(0x04,0x08,0x6f,0x3a,0x0c,0x52,0x50,0x47,0x3a,0x3a,0x53,0x45,0x08,0x3a,0x0a,0x40,0x6e,0x61,0x6d,0x65,0x49,0x22,0x08,0x55,0x70,0x33,0x06,0x3a,0x06,0x45,0x54,0x3a,0x0b,0x40,0x70,0x69,0x74,0x63,0x68,0x69,0x69,0x3a,0x0c,0x40,0x76,0x6f,0x6c,0x75,0x6d,0x65,0x69,0x55))
   ChangeVariable(1117,1117,1,0,40)
   ShowMessageFace("alicetromeria_fc1",0,0,2,85)
   ShowMessage("【アリストロメリア】")
   ShowMessage("あら、シロクマさんまで……")
   ShowMessage("私、クマちゃんが大好きですのよ♪")
   0()
  EndIf()
  If(1,1115,0,7,0)
   ShowMessageFace("heinrich_fc1",7,0,2,86)
   ShowMessage("【ハインリヒ】")
   ShowMessage("来たよ、アリストロメリア。")
   250(bytes(0x04,0x08,0x6f,0x3a,0x0c,0x52,0x50,0x47,0x3a,0x3a,0x53,0x45,0x08,0x3a,0x0a,0x40,0x6e,0x61,0x6d,0x65,0x49,0x22,0x08,0x55,0x70,0x33,0x06,0x3a,0x06,0x45,0x54,0x3a,0x0b,0x40,0x70,0x69,0x74,0x63,0x68,0x69,0x69,0x3a,0x0c,0x40,0x76,0x6f,0x6c,0x75,0x6d,0x65,0x69,0x55))
   ChangeVariable(1117,1117,1,0,60)
   ShowMessageFace("alicetromeria_fc1",0,0,2,87)
   ShowMessage("【アリストロメリア】")
   ShowMessage("あら、ハインリヒ。")
   ShowMessage("来て下さったのですね、嬉しいですわ。")
   0()
  EndIf()
  If(1,1115,0,8,0)
   ShowMessageFace("candy_fc1",1,0,2,88)
   ShowMessage("【キャンディ】")
   ShowMessage("おいしそうな食べ物がいっぱい……")
   ShowMessage("むしゃむしゃむしゃ……")
   250(bytes(0x04,0x08,0x6f,0x3a,0x0c,0x52,0x50,0x47,0x3a,0x3a,0x53,0x45,0x08,0x3a,0x0a,0x40,0x6e,0x61,0x6d,0x65,0x49,0x22,0x0a,0x44,0x6f,0x77,0x6e,0x31,0x06,0x3a,0x06,0x45,0x54,0x3a,0x0b,0x40,0x70,0x69,0x74,0x63,0x68,0x69,0x69,0x3a,0x0c,0x40,0x76,0x6f,0x6c,0x75,0x6d,0x65,0x69,0x69))
   ChangeVariable(1117,1117,1,0,0)
   ShowMessageFace("alicetromeria_fc1",0,0,2,89)
   ShowMessage("【アリストロメリア】")
   ShowMessage("あら、もう召し上がっているの？")
   ShowMessage("少々、お行儀が悪いですわね……")
   0()
  EndIf()
  If(1,1115,0,9,0)
   ShowMessageFace("nekomata_fc1",2,0,2,90)
   ShowMessage("【たま】")
   ShowMessage("うにゃ～♪")
   250(bytes(0x04,0x08,0x6f,0x3a,0x0c,0x52,0x50,0x47,0x3a,0x3a,0x53,0x45,0x08,0x3a,0x0a,0x40,0x6e,0x61,0x6d,0x65,0x49,0x22,0x08,0x55,0x70,0x33,0x06,0x3a,0x06,0x45,0x54,0x3a,0x0b,0x40,0x70,0x69,0x74,0x63,0x68,0x69,0x69,0x3a,0x0c,0x40,0x76,0x6f,0x6c,0x75,0x6d,0x65,0x69,0x55))
   ChangeVariable(1117,1117,1,0,40)
   ShowMessageFace("alicetromeria_fc1",0,0,2,91)
   ShowMessage("【アリストロメリア】")
   ShowMessage("あら、ネコちゃんもお呼ばれして来たのですか……？")
   ShowMessage("うふふっ、なんて可愛らしい♪")
   0()
  EndIf()
  If(1,1115,0,10,0)
   ShowMessageFace("nyumaou_fc1",0,0,2,92)
   ShowMessage("【牛魔王】")
   ShowMessage("お初、お目に掛かります。")
   ShowMessage("クィーンビーストを志す牛魔王と申します。")
   250(bytes(0x04,0x08,0x6f,0x3a,0x0c,0x52,0x50,0x47,0x3a,0x3a,0x53,0x45,0x08,0x3a,0x0a,0x40,0x6e,0x61,0x6d,0x65,0x49,0x22,0x08,0x55,0x70,0x31,0x06,0x3a,0x06,0x45,0x54,0x3a,0x0b,0x40,0x70,0x69,0x74,0x63,0x68,0x69,0x69,0x3a,0x0c,0x40,0x76,0x6f,0x6c,0x75,0x6d,0x65,0x69,0x69))
   ChangeVariable(1117,1117,1,0,20)
   ShowMessageFace("alicetromeria_fc1",0,0,2,93)
   ShowMessage("【アリストロメリア】")
   ShowMessage("あらあら、大きな体……")
   ShowMessage("もっと大きなケーキを用意した方が良かったですね。")
   0()
  EndIf()
  If(1,1115,0,11,0)
   ShowMessageFace("alice_fc5",0,0,2,94)
   ShowMessage("【アリス】")
   ShowMessage("現魔王として、お招きに与った。")
   ShowMessage("御存知だろうが、十六代魔王アリスフィーズだ。")
   250(bytes(0x04,0x08,0x6f,0x3a,0x0c,0x52,0x50,0x47,0x3a,0x3a,0x53,0x45,0x08,0x3a,0x0a,0x40,0x6e,0x61,0x6d,0x65,0x49,0x22,0x08,0x55,0x70,0x31,0x06,0x3a,0x06,0x45,0x54,0x3a,0x0b,0x40,0x70,0x69,0x74,0x63,0x68,0x69,0x69,0x3a,0x0c,0x40,0x76,0x6f,0x6c,0x75,0x6d,0x65,0x69,0x69))
   ChangeVariable(1117,1117,1,0,20)
   ShowMessageFace("alicetromeria_fc1",0,0,2,95)
   ShowMessage("【アリストロメリア】")
   ShowMessage("魔王同士、こうしてお茶を飲み交わすとは……")
   ShowMessage("珍しいことも、あるものですわね。")
   0()
  EndIf()
  If(1,1115,0,12,0)
   ShowMessageFace("mefist_fc1",0,0,2,96)
   ShowMessage("【メフィスト】")
   ShowMessage("ずいぶん久しいですね、陛下……")
   ShowMessage("このメフィスト、お招きに与り参上いたしました。")
   250(bytes(0x04,0x08,0x6f,0x3a,0x0c,0x52,0x50,0x47,0x3a,0x3a,0x53,0x45,0x08,0x3a,0x0a,0x40,0x6e,0x61,0x6d,0x65,0x49,0x22,0x08,0x55,0x70,0x31,0x06,0x3a,0x06,0x45,0x54,0x3a,0x0b,0x40,0x70,0x69,0x74,0x63,0x68,0x69,0x69,0x3a,0x0c,0x40,0x76,0x6f,0x6c,0x75,0x6d,0x65,0x69,0x69))
   ChangeVariable(1117,1117,1,0,20)
   ShowMessageFace("alicetromeria_fc1",0,0,2,97)
   ShowMessage("【アリストロメリア】")
   ShowMessage("あら、メフィストではないですか。")
   ShowMessage("現在まで、うまく世を渡り歩いてきたと見えます。")
   0()
  EndIf()
  If(1,1115,0,13,0)
   ShowMessageFace("stein_fc2",0,0,2,98)
   ShowMessage("【プロメスティン】")
   ShowMessage("……どうも、ご招待ありがとうございます。")
   ShowMessage("あんまり、こういう席は好きではないんですが……")
   250(bytes(0x04,0x08,0x6f,0x3a,0x0c,0x52,0x50,0x47,0x3a,0x3a,0x53,0x45,0x08,0x3a,0x0a,0x40,0x6e,0x61,0x6d,0x65,0x49,0x22,0x08,0x55,0x70,0x31,0x06,0x3a,0x06,0x45,0x54,0x3a,0x0b,0x40,0x70,0x69,0x74,0x63,0x68,0x69,0x69,0x3a,0x0c,0x40,0x76,0x6f,0x6c,0x75,0x6d,0x65,0x69,0x69))
   ChangeVariable(1117,1117,1,0,20)
   ShowMessageFace("alicetromeria_fc1",1,0,2,99)
   ShowMessage("【アリストロメリア】")
   ShowMessage("あなたとは、仲良く出来そうですわね……")
   0()
  EndIf()
  If(1,1115,0,14,0)
   ShowMessageFace("queenvampire_fc1",0,0,2,100)
   ShowMessage("【ファティマ】")
   ShowMessage("初めまして、偉大なる八代魔王陛下。")
   ShowMessage("現世のヴァンパイアを束ねる女王、ファティマと申します。")
   250(bytes(0x04,0x08,0x6f,0x3a,0x0c,0x52,0x50,0x47,0x3a,0x3a,0x53,0x45,0x08,0x3a,0x0a,0x40,0x6e,0x61,0x6d,0x65,0x49,0x22,0x08,0x55,0x70,0x31,0x06,0x3a,0x06,0x45,0x54,0x3a,0x0b,0x40,0x70,0x69,0x74,0x63,0x68,0x69,0x69,0x3a,0x0c,0x40,0x76,0x6f,0x6c,0x75,0x6d,0x65,0x69,0x69))
   ChangeVariable(1117,1117,1,0,20)
   ShowMessageFace("alicetromeria_fc1",0,0,2,101)
   ShowMessage("【アリストロメリア】")
   ShowMessage("あなたが、現代のクィーンヴァンパイアですか……")
   ShowMessage("野望に燃えた、良い眼をしていますね。")
   0()
  EndIf()
  If(1,1115,0,15,0)
   ShowMessageFace("cassandra_fc1",1,0,2,102)
   ShowMessage("【カサンドラ】")
   ShowMessage("敬愛する陛下、ネーレイド家のカサンドラと申します。")
   ShowMessage("お招きに与り、光栄の至りです……")
   250(bytes(0x04,0x08,0x6f,0x3a,0x0c,0x52,0x50,0x47,0x3a,0x3a,0x53,0x45,0x08,0x3a,0x0a,0x40,0x6e,0x61,0x6d,0x65,0x49,0x22,0x08,0x55,0x70,0x31,0x06,0x3a,0x06,0x45,0x54,0x3a,0x0b,0x40,0x70,0x69,0x74,0x63,0x68,0x69,0x69,0x3a,0x0c,0x40,0x76,0x6f,0x6c,0x75,0x6d,0x65,0x69,0x69))
   ChangeVariable(1117,1117,1,0,20)
   ShowMessageFace("alicetromeria_fc1",0,0,2,103)
   ShowMessage("【アリストロメリア】")
   ShowMessage("その匂い……どうやら私の近縁のようですね。")
   ShowMessage("血の近しいよしみ、仲良くいたしましょう。")
   0()
  EndIf()
  221()
  If(1,1117,0,59,2)
   ShowMessageFace("",0,0,2,104)
   ShowMessage("お茶会は微妙な雰囲気のまま進んだ。")
   ShowMessage("アリストロメリアは不満そうだ……")
   222()
   ShowMessageFace("alicetromeria_fc1",2,0,2,105)
   ShowMessage("【アリストロメリア】")
   ShowMessage("それでは……そろそろお開きとしましょうか。")
   0()
  EndIf()
  If(1,1117,0,60,0)
   ShowMessageFace("",0,0,2,106)
   ShowMessage("お茶会は明るい雰囲気で進んだ……")
   ShowMessage("アリストロメリアは満足そうだ！")
   222()
   ShowMessageFace("alicetromeria_fc1",0,0,2,107)
   ShowMessage("【アリストロメリア】")
   ShowMessage("それでは、そろそろお開きとしましょう。")
   ShowMessage("実に楽しいお茶会でしたわ。")
   0()
  EndIf()
  If(1,1117,0,61,1)
   ShowMessageFace("",0,0,2,108)
   ShowMessage("お茶会は幸せな雰囲気で進んだ……")
   ShowMessage("アリストロメリアは大いに満足している！")
   222()
   ShowMessageFace("alicetromeria_fc1",0,0,2,109)
   ShowMessage("【アリストロメリア】")
   ShowMessage("それでは、そろそろお開きとしましょう。")
   ShowMessage("最高に素晴らしいお茶会でしたわ……♪")
   0()
  EndIf()
  221()
  ShowMessageFace("",0,0,2,110)
  ShowMessage("こうして、アリストロメリアのお茶会は終わった――")
  Wait(60)
  TeleportPlayer(0,77,3,18,6,2)
  222()
  ShowMessageFace("ruka_fc1",0,0,2,111)
  ShowMessage("【ルカ】")
  ShowMessage("さて……リリスとリリムに報告に行くか。")
  ChangeSwitch(2419,2419,0)
  EndEventProcessing()
  0()
