﻿
DisplayName "Fairy's Island Center"



EVENT   1
 PAGE   1
  250(bytes(0x04,0x08,0x6f,0x3a,0x0c,0x52,0x50,0x47,0x3a,0x3a,0x53,0x45,0x08,0x3a,0x0a,0x40,0x6e,0x61,0x6d,0x65,0x49,0x22,0x09,0x4d,0x6f,0x76,0x65,0x06,0x3a,0x06,0x45,0x54,0x3a,0x0b,0x40,0x70,0x69,0x74,0x63,0x68,0x69,0x69,0x3a,0x0c,0x40,0x76,0x6f,0x6c,0x75,0x6d,0x65,0x69,0x55))
  TeleportPlayer(0,416,107,33,0,0)
  0()



EVENT   2
 PAGE   1
  250(bytes(0x04,0x08,0x6f,0x3a,0x0c,0x52,0x50,0x47,0x3a,0x3a,0x53,0x45,0x08,0x3a,0x0a,0x40,0x6e,0x61,0x6d,0x65,0x49,0x22,0x09,0x4d,0x6f,0x76,0x65,0x06,0x3a,0x06,0x45,0x54,0x3a,0x0b,0x40,0x70,0x69,0x74,0x63,0x68,0x69,0x69,0x3a,0x0c,0x40,0x76,0x6f,0x6c,0x75,0x6d,0x65,0x69,0x55))
  TeleportPlayer(0,416,107,33,0,0)
  0()



EVENT   3
 PAGE   1
  250(bytes(0x04,0x08,0x6f,0x3a,0x0c,0x52,0x50,0x47,0x3a,0x3a,0x53,0x45,0x08,0x3a,0x0a,0x40,0x6e,0x61,0x6d,0x65,0x49,0x22,0x09,0x4d,0x6f,0x76,0x65,0x06,0x3a,0x06,0x45,0x54,0x3a,0x0b,0x40,0x70,0x69,0x74,0x63,0x68,0x69,0x69,0x3a,0x0c,0x40,0x76,0x6f,0x6c,0x75,0x6d,0x65,0x69,0x55))
  TeleportPlayer(0,416,107,33,0,0)
  0()



EVENT   4
 PAGE   1
  // condition: switch 31 is ON
  0()



EVENT   5
 PAGE   1
  If(12,"unlock_level < 1")
   ShowMessageFace("",0,0,2,1)
   ShowMessage("The chest is locked...")
   EndEventProcessing()
   0()
  EndIf()
  250(bytes(0x04,0x08,0x6f,0x3a,0x0c,0x52,0x50,0x47,0x3a,0x3a,0x53,0x45,0x08,0x3a,0x0a,0x40,0x6e,0x61,0x6d,0x65,0x49,0x22,0x0a,0x43,0x68,0x65,0x73,0x74,0x06,0x3a,0x06,0x45,0x54,0x3a,0x0b,0x40,0x70,0x69,0x74,0x63,0x68,0x69,0x69,0x3a,0x0c,0x40,0x76,0x6f,0x6c,0x75,0x6d,0x65,0x69,0x55))
  205(0,bytes(0x04,0x08,0x6f,0x3a,0x13,0x52,0x50,0x47,0x3a,0x3a,0x4d,0x6f,0x76,0x65,0x52,0x6f,0x75,0x74,0x65,0x09,0x3a,0x0c,0x40,0x72,0x65,0x70,0x65,0x61,0x74,0x46,0x3a,0x0f,0x40,0x73,0x6b,0x69,0x70,0x70,0x61,0x62,0x6c,0x65,0x46,0x3a,0x0a,0x40,0x77,0x61,0x69,0x74,0x54,0x3a,0x0a,0x40,0x6c,0x69,0x73,0x74,0x5b,0x0b,0x6f,0x3a,0x15,0x52,0x50,0x47,0x3a,0x3a,0x4d,0x6f,0x76,0x65,0x43,0x6f,0x6d,0x6d,0x61,0x6e,0x64,0x07,0x3a,0x0a,0x40,0x63,0x6f,0x64,0x65,0x69,0x29,0x3a,0x10,0x40,0x70,0x61,0x72,0x61,0x6d,0x65,0x74,0x65,0x72,0x73,0x5b,0x00,0x6f,0x3b,0x0a,0x07,0x3b,0x0b,0x69,0x16,0x3b,0x0c,0x5b,0x00,0x6f,0x3b,0x0a,0x07,0x3b,0x0b,0x69,0x14,0x3b,0x0c,0x5b,0x06,0x69,0x08,0x6f,0x3b,0x0a,0x07,0x3b,0x0b,0x69,0x17,0x3b,0x0c,0x5b,0x00,0x6f,0x3b,0x0a,0x07,0x3b,0x0b,0x69,0x14,0x3b,0x0c,0x5b,0x06,0x69,0x08,0x6f,0x3b,0x0a,0x07,0x3b,0x0b,0x69,0x00,0x3b,0x0c,0x5b,0x00))
  ChangeSelfSwitch("A",0)
  ChangeInventoryArmor(157,0,0,1)
  0()
 PAGE   2
  // condition: self-switch A is ON
  0()



EVENT   6
 PAGE   1
  250(bytes(0x04,0x08,0x6f,0x3a,0x0c,0x52,0x50,0x47,0x3a,0x3a,0x53,0x45,0x08,0x3a,0x0a,0x40,0x6e,0x61,0x6d,0x65,0x49,0x22,0x0a,0x43,0x68,0x65,0x73,0x74,0x06,0x3a,0x06,0x45,0x54,0x3a,0x0b,0x40,0x70,0x69,0x74,0x63,0x68,0x69,0x69,0x3a,0x0c,0x40,0x76,0x6f,0x6c,0x75,0x6d,0x65,0x69,0x55))
  205(0,bytes(0x04,0x08,0x6f,0x3a,0x13,0x52,0x50,0x47,0x3a,0x3a,0x4d,0x6f,0x76,0x65,0x52,0x6f,0x75,0x74,0x65,0x09,0x3a,0x0c,0x40,0x72,0x65,0x70,0x65,0x61,0x74,0x46,0x3a,0x0f,0x40,0x73,0x6b,0x69,0x70,0x70,0x61,0x62,0x6c,0x65,0x46,0x3a,0x0a,0x40,0x77,0x61,0x69,0x74,0x54,0x3a,0x0a,0x40,0x6c,0x69,0x73,0x74,0x5b,0x0b,0x6f,0x3a,0x15,0x52,0x50,0x47,0x3a,0x3a,0x4d,0x6f,0x76,0x65,0x43,0x6f,0x6d,0x6d,0x61,0x6e,0x64,0x07,0x3a,0x0a,0x40,0x63,0x6f,0x64,0x65,0x69,0x29,0x3a,0x10,0x40,0x70,0x61,0x72,0x61,0x6d,0x65,0x74,0x65,0x72,0x73,0x5b,0x00,0x6f,0x3b,0x0a,0x07,0x3b,0x0b,0x69,0x16,0x3b,0x0c,0x5b,0x00,0x6f,0x3b,0x0a,0x07,0x3b,0x0b,0x69,0x14,0x3b,0x0c,0x5b,0x06,0x69,0x08,0x6f,0x3b,0x0a,0x07,0x3b,0x0b,0x69,0x17,0x3b,0x0c,0x5b,0x00,0x6f,0x3b,0x0a,0x07,0x3b,0x0b,0x69,0x14,0x3b,0x0c,0x5b,0x06,0x69,0x08,0x6f,0x3b,0x0a,0x07,0x3b,0x0b,0x69,0x00,0x3b,0x0c,0x5b,0x00))
  ChangeSelfSwitch("A",0)
  ChangeInventory_Item(6,0,0,1)
  0()
 PAGE   2
  // condition: self-switch A is ON
  0()



EVENT   7
 PAGE   1
  If(12,"unlock_level < 1")
   ShowMessageFace("",0,0,2,1)
   ShowMessage("The chest is locked...")
   EndEventProcessing()
   0()
  EndIf()
  250(bytes(0x04,0x08,0x6f,0x3a,0x0c,0x52,0x50,0x47,0x3a,0x3a,0x53,0x45,0x08,0x3a,0x0a,0x40,0x6e,0x61,0x6d,0x65,0x49,0x22,0x0a,0x43,0x68,0x65,0x73,0x74,0x06,0x3a,0x06,0x45,0x54,0x3a,0x0b,0x40,0x70,0x69,0x74,0x63,0x68,0x69,0x69,0x3a,0x0c,0x40,0x76,0x6f,0x6c,0x75,0x6d,0x65,0x69,0x55))
  205(0,bytes(0x04,0x08,0x6f,0x3a,0x13,0x52,0x50,0x47,0x3a,0x3a,0x4d,0x6f,0x76,0x65,0x52,0x6f,0x75,0x74,0x65,0x09,0x3a,0x0c,0x40,0x72,0x65,0x70,0x65,0x61,0x74,0x46,0x3a,0x0f,0x40,0x73,0x6b,0x69,0x70,0x70,0x61,0x62,0x6c,0x65,0x46,0x3a,0x0a,0x40,0x77,0x61,0x69,0x74,0x54,0x3a,0x0a,0x40,0x6c,0x69,0x73,0x74,0x5b,0x0b,0x6f,0x3a,0x15,0x52,0x50,0x47,0x3a,0x3a,0x4d,0x6f,0x76,0x65,0x43,0x6f,0x6d,0x6d,0x61,0x6e,0x64,0x07,0x3a,0x0a,0x40,0x63,0x6f,0x64,0x65,0x69,0x29,0x3a,0x10,0x40,0x70,0x61,0x72,0x61,0x6d,0x65,0x74,0x65,0x72,0x73,0x5b,0x00,0x6f,0x3b,0x0a,0x07,0x3b,0x0b,0x69,0x16,0x3b,0x0c,0x5b,0x00,0x6f,0x3b,0x0a,0x07,0x3b,0x0b,0x69,0x14,0x3b,0x0c,0x5b,0x06,0x69,0x08,0x6f,0x3b,0x0a,0x07,0x3b,0x0b,0x69,0x17,0x3b,0x0c,0x5b,0x00,0x6f,0x3b,0x0a,0x07,0x3b,0x0b,0x69,0x14,0x3b,0x0c,0x5b,0x06,0x69,0x08,0x6f,0x3b,0x0a,0x07,0x3b,0x0b,0x69,0x00,0x3b,0x0c,0x5b,0x00))
  ChangeSelfSwitch("A",0)
  ChangeInventoryArmor(1292,0,0,1)
  0()
 PAGE   2
  // condition: self-switch A is ON
  0()



EVENT   8
 PAGE   1
  250(bytes(0x04,0x08,0x6f,0x3a,0x0c,0x52,0x50,0x47,0x3a,0x3a,0x53,0x45,0x08,0x3a,0x0a,0x40,0x6e,0x61,0x6d,0x65,0x49,0x22,0x0a,0x43,0x68,0x65,0x73,0x74,0x06,0x3a,0x06,0x45,0x54,0x3a,0x0b,0x40,0x70,0x69,0x74,0x63,0x68,0x69,0x69,0x3a,0x0c,0x40,0x76,0x6f,0x6c,0x75,0x6d,0x65,0x69,0x55))
  205(0,bytes(0x04,0x08,0x6f,0x3a,0x13,0x52,0x50,0x47,0x3a,0x3a,0x4d,0x6f,0x76,0x65,0x52,0x6f,0x75,0x74,0x65,0x09,0x3a,0x0c,0x40,0x72,0x65,0x70,0x65,0x61,0x74,0x46,0x3a,0x0f,0x40,0x73,0x6b,0x69,0x70,0x70,0x61,0x62,0x6c,0x65,0x46,0x3a,0x0a,0x40,0x77,0x61,0x69,0x74,0x54,0x3a,0x0a,0x40,0x6c,0x69,0x73,0x74,0x5b,0x0b,0x6f,0x3a,0x15,0x52,0x50,0x47,0x3a,0x3a,0x4d,0x6f,0x76,0x65,0x43,0x6f,0x6d,0x6d,0x61,0x6e,0x64,0x07,0x3a,0x0a,0x40,0x63,0x6f,0x64,0x65,0x69,0x29,0x3a,0x10,0x40,0x70,0x61,0x72,0x61,0x6d,0x65,0x74,0x65,0x72,0x73,0x5b,0x00,0x6f,0x3b,0x0a,0x07,0x3b,0x0b,0x69,0x16,0x3b,0x0c,0x5b,0x00,0x6f,0x3b,0x0a,0x07,0x3b,0x0b,0x69,0x14,0x3b,0x0c,0x5b,0x06,0x69,0x08,0x6f,0x3b,0x0a,0x07,0x3b,0x0b,0x69,0x17,0x3b,0x0c,0x5b,0x00,0x6f,0x3b,0x0a,0x07,0x3b,0x0b,0x69,0x14,0x3b,0x0c,0x5b,0x06,0x69,0x08,0x6f,0x3b,0x0a,0x07,0x3b,0x0b,0x69,0x00,0x3b,0x0c,0x5b,0x00))
  ChangeSelfSwitch("A",0)
  ChangeInventoryArmor(1609,0,0,1)
  0()
 PAGE   2
  // condition: self-switch A is ON
  0()



EVENT   9
 PAGE   1
  If(1,1070,0,1,0)
   ShowMessageFace("trickfairy_fc1",0,0,2,1)
   ShowMessage("\\n<Trick Fairy>Want some of my amazing accessories?\nI'm not selling any to huuuumans♪")
   EndEventProcessing()
   0()
  EndIf()
  If(1,1070,0,2,1)
   ShowMessageFace("trickfairy_fc1",0,0,2,2)
   ShowMessage("\\n<Trick Fairy>Want some of my amazing accessories?\nThen I'll sell them to you♪")
   Shop(2,1066,0,0,false)
   605(2,1071,0,0)
   605(2,1076,0,0)
   605(2,1202,0,0)
   605(2,1203,0,0)
   605(2,1204,0,0)
   605(2,1205,0,0)
   605(2,1206,0,0)
   605(2,1207,0,0)
   605(2,1210,0,0)
   605(2,1211,0,0)
   EndEventProcessing()
   0()
  EndIf()
  0()



EVENT   10
 PAGE   1
  If(1,1001,0,30,0)
   If(1,1070,0,1,0)
    241(bytes(0x04,0x08,0x6f,0x3a,0x0d,0x52,0x50,0x47,0x3a,0x3a,0x42,0x47,0x4d,0x08,0x3a,0x0a,0x40,0x6e,0x61,0x6d,0x65,0x49,0x22,0x0a,0x62,0x6f,0x73,0x73,0x30,0x06,0x3a,0x06,0x45,0x54,0x3a,0x0c,0x40,0x76,0x6f,0x6c,0x75,0x6d,0x65,0x69,0x69,0x3a,0x0b,0x40,0x70,0x69,0x74,0x63,0x68,0x69,0x69))
    PictureDisplay(5,"80_queenelf_st01",0,0,0,0,100,100,0,0)
    PictureMove(5,null,0,0,0,0,100,100,255,0,60,true)
    ShowMessageFace("queenelf_fc1",0,0,2,1)
    ShowMessage("\\n<Queen Elf>To think a human would come to a place like this... It appears that polluting\\*\\fi your own\\*\\fi environment isn't enough for you.")
    ShowMessageFace("ruka_fc1",0,0,2,2)
    ShowMessage("\\n<Luka>I've come to stop you.\nTaking over human countries through force won't solve anything!")
    ShowMessageFace("queenelf_fc1",0,0,2,3)
    ShowMessage("\\n<Queen Elf>What are you talking about...?\nThis is a war for survival. All that awaits the losing side is extinction!")
    If(4,45,0)
     ShowMessageFace("alicetromeria_fc1",4,0,2,4)
     ShowMessage("\\n<Alicetroemeria>And that's all right with you?\nAre you sure you won't regret saying that in front of me...?")
     0()
    EndIf()
    If(0,4,0)
     ShowMessageFace("alice_fc5",2,0,2,5)
     ShowMessage("\\n<Alice>Looks like she has no intention of listening...\nLet's take her down, and then we can talk!")
     0()
    EndIf()
    If(0,5,0)
     ShowMessageFace("iriasu_fc4",7,0,2,6)
     ShowMessage("\\n<Ilias>She won't listen to us, will she...\nWe will have to beat some sense into her then!")
     0()
    EndIf()
    ShowMessageFace("queenelf_fc1",0,0,2,7)
    ShowMessage("\\n<Queen Elf>Come, hero! Come at me, and your companions too! Know the ancient fury of the elves and fairies!")
    If(4,316,0)
     ShowMessageFace("queenelf_fc1",0,0,2,8)
     ShowMessage("\\n<Freya>I wish I didn't have to see myself driven insane with hatred...")
     ShowMessageFace("queenelf_fc1",2,0,2,9)
     ShowMessage("\\n<Queen Elf>Another me...?!\nNgh, I won't let myself be swayed!!")
     ShowMessageFace("queenelf_fc1",0,0,2,10)
     ShowMessage("\\n<Freya>Resist the hatred. Regain yourself.\nYou already know that these acts of barbarity are wrong...")
     ShowMessageFace("queenelf_fc1",2,0,2,11)
     ShowMessage("\\n<Queen Elf>That's enough out of you!\nI will not let my heart be perturbed any further!")
     0()
    EndIf()
    PictureClear(5)
    SetBattleBGM(bytes(0x04,0x08,0x6f,0x3a,0x0d,0x52,0x50,0x47,0x3a,0x3a,0x42,0x47,0x4d,0x08,0x3a,0x0a,0x40,0x6e,0x61,0x6d,0x65,0x49,0x22,0x0a,0x62,0x6f,0x73,0x73,0x32,0x06,0x3a,0x06,0x45,0x54,0x3a,0x0c,0x40,0x76,0x6f,0x6c,0x75,0x6d,0x65,0x69,0x69,0x3a,0x0b,0x40,0x70,0x69,0x74,0x63,0x68,0x69,0x69))
    ChangeSwitch(22,22,0)
    Battle(0,785,false,false)
    ChangeSwitch(22,22,1)
    SetBattleBGM(bytes(0x04,0x08,0x6f,0x3a,0x0d,0x52,0x50,0x47,0x3a,0x3a,0x42,0x47,0x4d,0x08,0x3a,0x0a,0x40,0x6e,0x61,0x6d,0x65,0x49,0x22,0x0b,0x62,0x61,0x74,0x74,0x6c,0x65,0x06,0x3a,0x06,0x45,0x54,0x3a,0x0c,0x40,0x76,0x6f,0x6c,0x75,0x6d,0x65,0x69,0x69,0x3a,0x0b,0x40,0x70,0x69,0x74,0x63,0x68,0x69,0x69))
    281(1)
    TeleportPlayer(0,417,51,57,8,0)
    205(0,bytes(0x04,0x08,0x6f,0x3a,0x13,0x52,0x50,0x47,0x3a,0x3a,0x4d,0x6f,0x76,0x65,0x52,0x6f,0x75,0x74,0x65,0x09,0x3a,0x0c,0x40,0x72,0x65,0x70,0x65,0x61,0x74,0x46,0x3a,0x0f,0x40,0x73,0x6b,0x69,0x70,0x70,0x61,0x62,0x6c,0x65,0x46,0x3a,0x0a,0x40,0x77,0x61,0x69,0x74,0x54,0x3a,0x0a,0x40,0x6c,0x69,0x73,0x74,0x5b,0x07,0x6f,0x3a,0x15,0x52,0x50,0x47,0x3a,0x3a,0x4d,0x6f,0x76,0x65,0x43,0x6f,0x6d,0x6d,0x61,0x6e,0x64,0x07,0x3a,0x0a,0x40,0x63,0x6f,0x64,0x65,0x69,0x15,0x3a,0x10,0x40,0x70,0x61,0x72,0x61,0x6d,0x65,0x74,0x65,0x72,0x73,0x5b,0x00,0x6f,0x3b,0x0a,0x07,0x3b,0x0b,0x69,0x00,0x3b,0x0c,0x5b,0x00))
    241(bytes(0x04,0x08,0x6f,0x3a,0x0d,0x52,0x50,0x47,0x3a,0x3a,0x42,0x47,0x4d,0x08,0x3a,0x0a,0x40,0x6e,0x61,0x6d,0x65,0x49,0x22,0x13,0x73,0x63,0x65,0x6e,0x65,0x5f,0x6f,0x64,0x61,0x79,0x61,0x6b,0x61,0x32,0x06,0x3a,0x06,0x45,0x54,0x3a,0x0c,0x40,0x76,0x6f,0x6c,0x75,0x6d,0x65,0x69,0x69,0x3a,0x0b,0x40,0x70,0x69,0x74,0x63,0x68,0x69,0x69))
    PictureDisplay(5,"80_queenelf_st03",0,0,0,0,100,100,0,0)
    PictureMove(5,null,0,0,0,0,100,100,255,0,30,true)
    355("gain_medal(53)")
    If(4,12,0)
     ShowMessageFace("sylph_fc1",4,0,2,12)
     ShowMessage("\\n<Sylph>We won, but...\nThat fight left a bad taste in my mouth.")
     0()
    EndIf()
    If(4,13,0)
     ShowMessageFace("gnome_fc1",1,0,2,13)
     ShowMessage("\\n<Gnome>.........")
     0()
    EndIf()
    ShowMessageFace("queenelf_fc1",2,0,2,14)
    ShowMessage("\\n<Queen Elf>It can't be... How could I have been overpowered?!\nIs the plight of my people to be crushed here...?")
    ShowMessageFace("ruka_fc1",0,0,2,15)
    ShowMessage("\\n<Luka>I understand your point of view, but let's try resolving our differences through dialogue...")
    If(0,4,0)
     ShowMessageFace("alice_fc5",2,0,2,16)
     ShowMessage("\\n<Alice>I won't say this problem will definitely be solved through dialogue, but you shouldn't have completely ignored that step.")
     ShowMessageFace("alice_fc5",2,0,2,17)
     ShowMessage("\\n<Alice>From the humans' perspective, they don't even understand why are you angry. What kind of idiot starts a war without ANY negotiations?")
     0()
    EndIf()
    If(0,5,0)
     ShowMessageFace("iriasu_fc4",2,0,2,18)
     ShowMessage("\\n<Ilias>I cannot promise that dialogue will solve everything, but you should not skip that step.")
     ShowMessageFace("iriasu_fc4",2,0,2,19)
     ShowMessage("\\n<Ilias>From the humans' perspective, you attacked them for no reason. Attacking the enemy's capital without trying to negotiate first is something only an idiot would do.")
     0()
    EndIf()
    ShowMessageFace("queenelf_fc1",2,0,2,20)
    ShowMessage("\\n<Queen Elf>As if humans would ever listen to us!")
    If(0,4,0)
     ShowMessageFace("alice_fc5",2,0,2,21)
     ShowMessage("\\n<Alice>...How about you try first?")
     ShowMessageFace("alice_fc5",2,0,2,22)
     ShowMessage("\\n<Alice>While you were holed up in your forests letting your hate for humanity fester, humans and monsters in the rest of the world took steps down the road of coexistence.")
     0()
    EndIf()
    If(0,5,0)
     ShowMessageFace("iriasu_fc4",7,0,2,23)
     ShowMessage("\\n<Ilias>You should try it first before you pass judgment.")
     ShowMessageFace("iriasu_fc4",7,0,2,24)
     ShowMessage("\\n<Ilias>While you were holed up in your forests letting your hate for humanity fester, humans and monsters in the rest of the world made great progress towards peaceful coexistence.")
     0()
    EndIf()
    ShowMessageFace("queenelf_fc1",2,0,2,25)
    ShowMessage("\\n<Queen Elf>.........")
    If(0,4,0)
     ShowMessageFace("alice_fc5",2,0,2,26)
     ShowMessage("\\n<Alice>You lost yourself in playing the victim and stopped moving forward. That is your mistake, Queen Elf.")
     0()
    EndIf()
    If(0,5,0)
     ShowMessageFace("iriasu_fc4",7,0,2,27)
     ShowMessage("\\n<Ilias>You made yourself out to be a victim and stopped moving forward. Between you and the humans, who do you think is more barbaric, Queen Elf?")
     0()
    EndIf()
    If(0,6,0)
     ShowMessageFace("sonia_fc2",2,0,2,28)
     ShowMessage("\\n<Sonya>Okay... you don't have to be so hard on her.\nLook, even humans will listen if you appeal to them.")
     0()
    Else()
     ShowMessageFace("ruka_fc1",0,0,2,29)
     ShowMessage("\\n<Luka>Okay... you don't have to be so hard on her.\nLook, even humans will listen if you appeal to them.")
     0()
    EndIf()
    ShowMessageFace("ruka_fc1",0,0,2,30)
    ShowMessage("\\n<Luka>We should be able to set up a conference with the world's leaders and resolve this all peacefully.")
    ShowMessageFace("queenelf_fc1",2,0,2,31)
    ShowMessage("\\n<Queen Elf>But, I...\nIt's my duty to preserve our race's natural habitats.")
    PictureClear(5)
    Wait(60)
    250(bytes(0x04,0x08,0x6f,0x3a,0x0c,0x52,0x50,0x47,0x3a,0x3a,0x53,0x45,0x08,0x3a,0x0a,0x40,0x6e,0x61,0x6d,0x65,0x49,0x22,0x0d,0x6d,0x6f,0x6e,0x5f,0x77,0x61,0x72,0x70,0x06,0x3a,0x06,0x45,0x54,0x3a,0x0b,0x40,0x70,0x69,0x74,0x63,0x68,0x69,0x69,0x3a,0x0c,0x40,0x76,0x6f,0x6c,0x75,0x6d,0x65,0x69,0x55))
    ChangeSwitch(31,31,0)
    241(bytes(0x04,0x08,0x6f,0x3a,0x0d,0x52,0x50,0x47,0x3a,0x3a,0x42,0x47,0x4d,0x08,0x3a,0x0a,0x40,0x6e,0x61,0x6d,0x65,0x49,0x22,0x0a,0x6b,0x69,0x6b,0x69,0x32,0x06,0x3a,0x06,0x45,0x54,0x3a,0x0c,0x40,0x76,0x6f,0x6c,0x75,0x6d,0x65,0x69,0x69,0x3a,0x0b,0x40,0x70,0x69,0x74,0x63,0x68,0x69,0x69))
    ShowMessageFace("walraune_fc1",3,0,2,32)
    ShowMessage("\\n<Walraune>...Oh, so you failed after all.")
    250(bytes(0x04,0x08,0x6f,0x3a,0x0c,0x52,0x50,0x47,0x3a,0x3a,0x53,0x45,0x08,0x3a,0x0a,0x40,0x6e,0x61,0x6d,0x65,0x49,0x22,0x0d,0x6d,0x6f,0x6e,0x5f,0x77,0x61,0x72,0x70,0x06,0x3a,0x06,0x45,0x54,0x3a,0x0b,0x40,0x70,0x69,0x74,0x63,0x68,0x69,0x69,0x3a,0x0c,0x40,0x76,0x6f,0x6c,0x75,0x6d,0x65,0x69,0x55))
    ChangeSwitch(32,32,0)
    ShowMessageFace("dryad_fc1",4,0,2,33)
    ShowMessage("\\n<Dryad>I knew it, elves are good for nothing.\nYou screw up whenever it counts...")
    205(-1,bytes(0x04,0x08,0x6f,0x3a,0x13,0x52,0x50,0x47,0x3a,0x3a,0x4d,0x6f,0x76,0x65,0x52,0x6f,0x75,0x74,0x65,0x09,0x3a,0x0c,0x40,0x72,0x65,0x70,0x65,0x61,0x74,0x46,0x3a,0x0f,0x40,0x73,0x6b,0x69,0x70,0x70,0x61,0x62,0x6c,0x65,0x46,0x3a,0x0a,0x40,0x77,0x61,0x69,0x74,0x54,0x3a,0x0a,0x40,0x6c,0x69,0x73,0x74,0x5b,0x07,0x6f,0x3a,0x15,0x52,0x50,0x47,0x3a,0x3a,0x4d,0x6f,0x76,0x65,0x43,0x6f,0x6d,0x6d,0x61,0x6e,0x64,0x07,0x3a,0x0a,0x40,0x63,0x6f,0x64,0x65,0x69,0x18,0x3a,0x10,0x40,0x70,0x61,0x72,0x61,0x6d,0x65,0x74,0x65,0x72,0x73,0x5b,0x00,0x6f,0x3b,0x0a,0x07,0x3b,0x0b,0x69,0x00,0x3b,0x0c,0x5b,0x00))
    205(0,bytes(0x04,0x08,0x6f,0x3a,0x13,0x52,0x50,0x47,0x3a,0x3a,0x4d,0x6f,0x76,0x65,0x52,0x6f,0x75,0x74,0x65,0x09,0x3a,0x0c,0x40,0x72,0x65,0x70,0x65,0x61,0x74,0x46,0x3a,0x0f,0x40,0x73,0x6b,0x69,0x70,0x70,0x61,0x62,0x6c,0x65,0x46,0x3a,0x0a,0x40,0x77,0x61,0x69,0x74,0x54,0x3a,0x0a,0x40,0x6c,0x69,0x73,0x74,0x5b,0x07,0x6f,0x3a,0x15,0x52,0x50,0x47,0x3a,0x3a,0x4d,0x6f,0x76,0x65,0x43,0x6f,0x6d,0x6d,0x61,0x6e,0x64,0x07,0x3a,0x0a,0x40,0x63,0x6f,0x64,0x65,0x69,0x18,0x3a,0x10,0x40,0x70,0x61,0x72,0x61,0x6d,0x65,0x74,0x65,0x72,0x73,0x5b,0x00,0x6f,0x3b,0x0a,0x07,0x3b,0x0b,0x69,0x00,0x3b,0x0c,0x5b,0x00))
    ShowMessageFace("queenelf_fc1",2,0,2,34)
    ShowMessage("\\n<Queen Elf>Who are you...?!\nAre you Queen Alraune's subordinates?")
    ShowMessageFace("walraune_fc1",3,0,2,35)
    ShowMessage("\\n<Walraune>We fall under Black Alice's command.\nWhich means that you elves serving Alice the 15th are our enemies...")
    ShowMessageFace("queenelf_fc1",2,0,2,36)
    ShowMessage("\\n<Queen Elf>Queen Alraune has joined Black Alice's army?! Impossible! She has always been a lover of peace!")
    ShowMessageFace("dryad_fc1",4,0,2,37)
    ShowMessage("\\n<Dryad>It doesn't matter whether you believe it or not, we now serve Black Alice. By the way, I believe you are all quite worn down from fighting humans, right?")
    ShowMessageFace("walraune_fc1",3,0,2,38)
    ShowMessage("\\n<Walraune>The defenses around Fairy's Island are rather lax. How about we take it for ourselves...?")
    ShowMessageFace("queenelf_fc1",2,0,2,39)
    ShowMessage("\\n<Queen Elf>As if we'd let you do tha...\nNgh, I'm still injured from the fight...")
    ShowMessageFace("walraune_fc1",3,0,2,40)
    ShowMessage("\\n<Walraune>Ahaha, you can barely stand after fighting with that hero! How about we take Queen Elf's life right here while we're at it?")
    205(4,bytes(0x04,0x08,0x6f,0x3a,0x13,0x52,0x50,0x47,0x3a,0x3a,0x4d,0x6f,0x76,0x65,0x52,0x6f,0x75,0x74,0x65,0x09,0x3a,0x0c,0x40,0x72,0x65,0x70,0x65,0x61,0x74,0x46,0x3a,0x0f,0x40,0x73,0x6b,0x69,0x70,0x70,0x61,0x62,0x6c,0x65,0x46,0x3a,0x0a,0x40,0x77,0x61,0x69,0x74,0x54,0x3a,0x0a,0x40,0x6c,0x69,0x73,0x74,0x5b,0x08,0x6f,0x3a,0x15,0x52,0x50,0x47,0x3a,0x3a,0x4d,0x6f,0x76,0x65,0x43,0x6f,0x6d,0x6d,0x61,0x6e,0x64,0x07,0x3a,0x0a,0x40,0x63,0x6f,0x64,0x65,0x69,0x06,0x3a,0x10,0x40,0x70,0x61,0x72,0x61,0x6d,0x65,0x74,0x65,0x72,0x73,0x5b,0x00,0x6f,0x3b,0x0a,0x07,0x3b,0x0b,0x69,0x06,0x3b,0x0c,0x5b,0x00,0x6f,0x3b,0x0a,0x07,0x3b,0x0b,0x69,0x00,0x3b,0x0c,0x5b,0x00))
    ShowMessageFace("ruka_fc1",0,0,2,41)
    ShowMessage("\\n<Luka>We won't let you!\nYou'll have to go through us first!")
    If(0,4,0)
     ShowMessageFace("alice_fc5",2,0,2,42)
     ShowMessage("\\n<Alice>Thanks to your talkativeness, I now have a grasp on the situation. And I suspect that you all have been brainwashed...")
     0()
    EndIf()
    If(0,5,0)
     ShowMessageFace("iriasu_fc4",7,0,2,43)
     ShowMessage("\\n<Ilias>Thanks to your loose tongues, I now understand the situation. Most likely, you have been brainwashed...")
     0()
    EndIf()
    If(4,45,0)
     ShowMessageFace("alicetromeria_fc1",4,0,2,44)
     ShowMessage("\\n<Alicetroemeria>Ufufu, to think that Black Alice is behind this... This is getting interesting... Very interesting...")
     0()
    EndIf()
    ShowMessageFace("walraune_fc1",3,0,2,45)
    ShowMessage("\\n<Walraune>You're worn out after fighting Queen Elf, right? Then there's no better time to crush everyone in our way!")
    If(4,15,0)
     ShowMessageFace("salamander_fc1",2,0,2,46)
     ShowMessage("\\n<Salamander>Try it if you can!\nI'll burn you to cinders!")
     0()
    EndIf()
    ChangeSwitch(81,81,0)
    Battle(0,789,false,false)
    ChangeSwitch(81,81,1)
    241(bytes(0x04,0x08,0x6f,0x3a,0x0d,0x52,0x50,0x47,0x3a,0x3a,0x42,0x47,0x4d,0x08,0x3a,0x0a,0x40,0x6e,0x61,0x6d,0x65,0x49,0x22,0x0a,0x6b,0x69,0x6b,0x69,0x32,0x06,0x3a,0x06,0x45,0x54,0x3a,0x0c,0x40,0x76,0x6f,0x6c,0x75,0x6d,0x65,0x69,0x69,0x3a,0x0b,0x40,0x70,0x69,0x74,0x63,0x68,0x69,0x69))
    ChangeSwitch(31,31,1)
    If(4,15,0)
     ShowMessageFace("salamander_fc1",1,0,2,47)
     ShowMessage("\\n<Salamander>Whoops, did I overcook them...?")
     0()
    EndIf()
    ShowMessageFace("dryad_fc1",6,0,2,48)
    ShowMessage("\\n<Dryad>Looks like you still have some strength remaining in you... I'll leave you for later.")
    ShowMessageFace("queenelf_fc1",2,0,2,49)
    ShowMessage("\\n<Queen Elf>Wait, you!")
    250(bytes(0x04,0x08,0x6f,0x3a,0x0c,0x52,0x50,0x47,0x3a,0x3a,0x53,0x45,0x08,0x3a,0x0a,0x40,0x6e,0x61,0x6d,0x65,0x49,0x22,0x0d,0x6d,0x6f,0x6e,0x5f,0x77,0x61,0x72,0x70,0x06,0x3a,0x06,0x45,0x54,0x3a,0x0b,0x40,0x70,0x69,0x74,0x63,0x68,0x69,0x69,0x3a,0x0c,0x40,0x76,0x6f,0x6c,0x75,0x6d,0x65,0x69,0x55))
    ChangeSwitch(32,32,1)
    ShowMessageFace("",0,0,2,50)
    ShowMessage("The dryad escaped...")
    PictureDisplay(5,"80_queenelf_st03",0,0,0,0,100,100,0,0)
    PictureMove(5,null,0,0,0,0,100,100,255,0,30,true)
    ShowMessageFace("queenelf_fc1",2,0,2,51)
    ShowMessage("\\n<Queen Elf>So Queen Alraune has joined Black Alice's army?\nAnd to think she was waiting for us to take casualties in the war with the humans...")
    205(0,bytes(0x04,0x08,0x6f,0x3a,0x13,0x52,0x50,0x47,0x3a,0x3a,0x4d,0x6f,0x76,0x65,0x52,0x6f,0x75,0x74,0x65,0x09,0x3a,0x0c,0x40,0x72,0x65,0x70,0x65,0x61,0x74,0x46,0x3a,0x0f,0x40,0x73,0x6b,0x69,0x70,0x70,0x61,0x62,0x6c,0x65,0x46,0x3a,0x0a,0x40,0x77,0x61,0x69,0x74,0x54,0x3a,0x0a,0x40,0x6c,0x69,0x73,0x74,0x5b,0x07,0x6f,0x3a,0x15,0x52,0x50,0x47,0x3a,0x3a,0x4d,0x6f,0x76,0x65,0x43,0x6f,0x6d,0x6d,0x61,0x6e,0x64,0x07,0x3a,0x0a,0x40,0x63,0x6f,0x64,0x65,0x69,0x15,0x3a,0x10,0x40,0x70,0x61,0x72,0x61,0x6d,0x65,0x74,0x65,0x72,0x73,0x5b,0x00,0x6f,0x3b,0x0a,0x07,0x3b,0x0b,0x69,0x00,0x3b,0x0c,0x5b,0x00))
    If(0,4,0)
     ShowMessageFace("alice_fc5",2,0,2,52)
     ShowMessage("\\n<Alice>Queen Elf, there's one more worrying issue.\nAll of you have been subtly afflicted by mind manipulation.")
     0()
    EndIf()
    If(0,5,0)
     ShowMessageFace("iriasu_fc4",2,0,2,53)
     ShowMessage("\\n<Ilias>Queen Elf, there's one more issue.\nAll of you have been subtly afflicted by mind manipulation.")
     0()
    EndIf()
    ShowMessageFace("queenelf_fc1",2,0,2,54)
    ShowMessage("\\n<Queen Elf>We have...?!")
    ShowMessageFace("queenelf_fc1",2,0,2,55)
    ShowMessage("\\n<Queen Elf>...Indeed, now that you mention it, I can feel a wave of disturbing power. Let's try neutralizing it.")
    PictureClear(5)
    Wait(30)
    212(0,48,true)
    PictureDisplay(5,"80_queenelf_st01",0,0,0,0,100,100,0,0)
    PictureMove(5,null,0,0,0,0,100,100,255,0,30,true)
    ShowMessageFace("queenelf_fc1",0,0,2,56)
    ShowMessage("\\n<Queen Elf>I've surrounded Fairy's Island with a protective aura. With this, the waves of the spell should not affect us.")
    ShowMessageFace("queenelf_fc1",0,0,2,57)
    ShowMessage("\\n<Queen Elf>It certainly did feel like it had been amplifying my hatred. The source of these waves seems to be the World Tree. Isn't that Queen Alraune's home...?")
    If(0,4,0)
     ShowMessageFace("alice_fc5",0,0,2,58)
     ShowMessage("\\n<Alice>Which is why we think that Queen Alraune has also been brainwashed. Either by Black Alice, or her lackeys.")
     0()
    EndIf()
    If(0,5,0)
     ShowMessageFace("iriasu_fc4",7,0,2,59)
     ShowMessage("\\n<Ilias>Which is why we believe that Queen Alraune has also been brainwashed. Either by Black Alice, or her lackeys...")
     0()
    EndIf()
    241(bytes(0x04,0x08,0x6f,0x3a,0x0d,0x52,0x50,0x47,0x3a,0x3a,0x42,0x47,0x4d,0x08,0x3a,0x0a,0x40,0x6e,0x61,0x6d,0x65,0x49,0x22,0x14,0x73,0x63,0x65,0x6e,0x65,0x5f,0x65,0x70,0x69,0x6c,0x6f,0x67,0x75,0x65,0x32,0x06,0x3a,0x06,0x45,0x54,0x3a,0x0c,0x40,0x76,0x6f,0x6c,0x75,0x6d,0x65,0x69,0x69,0x3a,0x0b,0x40,0x70,0x69,0x74,0x63,0x68,0x69,0x69))
    PictureDisplay(5,"80_queenelf_st03",0,0,0,0,100,100,255,0)
    ShowMessageFace("queenelf_fc1",2,0,2,60)
    ShowMessage("\\n<Queen Elf>Having failed to notice the spell, I had allowed it to fan my hatred... In waging war with humans, I've disgraced myself...")
    ShowMessageFace("queenelf_fc1",2,0,2,61)
    ShowMessage("\\n<Queen Elf>I'm not qualified to be the Queen...\nI'm ashamed to stand before you, let alone my kin...")
    If(4,136,0)
     ShowMessageFace("elf_fc1",2,0,2,62)
     ShowMessage("\\n<Claudia>My queen...")
     0()
    EndIf()
    If(0,4,0)
     ShowMessageFace("alice_fc5",2,0,2,63)
     ShowMessage("\\n<Alice>Regardless of your shame, it's you who leads the elves. You have things to do as the queen of your race.")
     0()
    EndIf()
    If(0,5,0)
     ShowMessageFace("iriasu_fc4",7,0,2,64)
     ShowMessage("\\n<Ilias>Regardless of your feelings, it is you who leads the elves. You know what you need to do, right...?")
     0()
    EndIf()
    PictureDisplay(5,"80_queenelf_st01",0,0,0,0,100,100,255,0)
    ShowMessageFace("queenelf_fc1",0,0,2,65)
    ShowMessage("\\n<Queen Elf>Yes...I will notify all of the elves and fairies.\nWe shall withdraw our troops from Grand Noah and acknowledge our error.")
    If(0,6,0)
     ShowMessageFace("sonia_fc2",2,0,2,66)
     ShowMessage("\\n<Sonya>But it's not like everything was resolved...\nWe still need to do something about Queen Alraune.")
     0()
    Else()
     ShowMessageFace("ruka_fc1",0,0,2,67)
     ShowMessage("\\n<Luka>But it's not like everything was resolved...\nWe still need to do something about Queen Alraune.")
     0()
    EndIf()
    If(0,4,0)
     ShowMessageFace("alice_fc5",2,0,2,68)
     ShowMessage("\\n<Alice>Yeah... It's not directly related to the Monster Lord's armies assaulting the four great nations, but we can't just leave it be. Who knows what will happen if they remain under Black Alice's control.")
     0()
    EndIf()
    If(0,5,0)
     ShowMessageFace("iriasu_fc4",7,0,2,69)
     ShowMessage("\\n<Ilias>Yes... It's not directly related to the Monster Lord's armies assaulting the four great nations, but we cannot ignore this. Who knows what kind of evil they will commit under Black Alice's control.")
     0()
    EndIf()
    If(4,45,0)
     ShowMessageFace("alicetromeria_fc1",4,0,2,70)
     ShowMessage("\\n<Alicetroemeria>I wonder what is Black Alice thinking...?\nUfufu, my chest is about to burst from curiosity...")
     0()
    EndIf()
    ShowMessageFace("ruka_fc1",0,0,2,71)
    ShowMessage("\\n<Luka>Well then, let's head to the World Tree.\nIt's northwest of here if I'm not mistaken.")
    ShowMessageFace("queenelf_fc1",0,0,2,72)
    ShowMessage("\\n<Queen Elf>I wish I could help you with this matter, but...\nI've received significant damage from my battle against you.")
    ShowMessageFace("queenelf_fc1",0,0,2,73)
    ShowMessage("\\n<Queen Elf>Consequently, I cannot move...\nHowever, I have told everyone to here to cooperate with you for the time being.")
    ShowMessageFace("queenelf_fc1",0,0,2,74)
    ShowMessage("\\n<Queen Elf>There is a merchant dealing in rare equipment and a skilled blacksmith. You should speak with them before you head for the World Tree.")
    ShowMessageFace("ruka_fc1",0,0,2,75)
    ShowMessage("\\n<Luka>Thank you, that will be a great help.")
    PictureClear(5)
    ChangeVariable(1070,1070,0,0,2)
    ChangeVariable(1074,1074,0,0,1)
    If(0,4,0)
     ShowMessageFace("alice_fc5",0,0,2,76)
     ShowMessage("\\n<Alice>Well then, let's head out to the World Tree.\nWe need to release Queen Alraune from her brainwashing somehow.")
     0()
    EndIf()
    If(0,5,0)
     ShowMessageFace("iriasu_fc4",0,0,2,77)
     ShowMessage("\\n<Ilias>In that case, let's head for the World Tree.\nWe will release Queen Alraune from her brainwashing somehow.")
     0()
    EndIf()
    If(12,"exist_party_persona_id?(391)")
     ShowMessageFace("mefist_fc2",0,0,2,78)
     ShowMessage("\\n<Mephisto>Also...let's not forget to report to the Queen of Grand Noah. It's just my intuition, but I imagine we'll receive something useful as thanks.")
     0()
    Else()
     ShowMessageFace("mefist_fc1",0,0,2,79)
     ShowMessage("\\n<Mephisto>Also...let's not forget to report to the Queen of Grand Noah. It's just my intuition, but I imagine we'll receive something useful as thanks.")
     0()
    EndIf()
    If(4,533,0)
     ShowMessageFace("grandnoa_fc1",0,0,2,80)
     ShowMessage("\\n<Queen of Grand Noah>I'm a mysterious Medal Queen...")
     0()
    EndIf()
    ShowMessageFace("ruka_fc1",0,0,2,81)
    ShowMessage("\\n<Luka>We should report to the Queen of Grand Noah first. After that, we can head to our next goal!")
    314(0,0)
    241(bytes(0x04,0x08,0x6f,0x3a,0x0d,0x52,0x50,0x47,0x3a,0x3a,0x42,0x47,0x4d,0x08,0x3a,0x0a,0x40,0x6e,0x61,0x6d,0x65,0x49,0x22,0x19,0x64,0x75,0x6e,0x67,0x65,0x6f,0x6e,0x5f,0x73,0x65,0x69,0x72,0x65,0x69,0x6e,0x6f,0x6d,0x6f,0x72,0x69,0x06,0x3a,0x06,0x45,0x54,0x3a,0x0c,0x40,0x76,0x6f,0x6c,0x75,0x6d,0x65,0x69,0x69,0x3a,0x0b,0x40,0x70,0x69,0x74,0x63,0x68,0x69,0x69))
    EndEventProcessing()
    0()
   EndIf()
   If(1,1070,0,2,1)
    If(1,1074,0,1,0)
     PictureDisplay(5,"80_queenelf_st01",0,0,0,0,100,100,0,0)
     PictureMove(5,null,0,0,0,0,100,100,255,0,30,true)
     ShowMessageFace("queenelf_fc1",0,0,2,82)
     ShowMessage("\\n<Queen Elf>Please, return Queen Alraune to her senses.\nThe home of the plant race is the World Tree, to the northwest from here.")
     ShowMessageFace("queenelf_fc1",0,0,2,83)
     ShowMessage("\\n<Queen Elf>I still can't believe what a blunder I have committed... I vow to quickly heal my wounds and compensate humans for what we've done.")
     PictureClear(5)
     EndEventProcessing()
     0()
    EndIf()
    If(1,1074,0,2,1)
     If(2,"B",1)
      ChangeSelfSwitch("B",0)
      PictureDisplay(5,"80_queenelf_st01",0,0,0,0,100,100,0,0)
      PictureMove(5,null,0,0,0,0,100,100,255,0,30,true)
      ShowMessageFace("queenelf_fc1",0,0,2,84)
      ShowMessage("\\n<Queen Elf>Thanks to you, it looks like Queen Alraune has come back to her senses. Please accept this as a token of my thanks...")
      250(bytes(0x04,0x08,0x6f,0x3a,0x0c,0x52,0x50,0x47,0x3a,0x3a,0x53,0x45,0x08,0x3a,0x0a,0x40,0x6e,0x61,0x6d,0x65,0x49,0x22,0x0a,0x49,0x74,0x65,0x6d,0x31,0x06,0x3a,0x06,0x45,0x54,0x3a,0x0b,0x40,0x70,0x69,0x74,0x63,0x68,0x69,0x69,0x3a,0x0c,0x40,0x76,0x6f,0x6c,0x75,0x6d,0x65,0x69,0x55))
      ChangeInventory_Item(24,0,0,1)
      ChangeInventory_Item(25,0,0,1)
      ChangeInventory_Item(26,0,0,1)
      ChangeInventory_Item(28,0,0,1)
      0()
     EndIf()
     ShowMessageFace("queenelf_fc1",0,0,2,85)
     ShowMessage("\\n<Queen Elf>I still can't believe what a blunder I have committed... I vow to quickly heal my wounds and compensate humans for what we've done.")
     PictureClear(5)
     EndEventProcessing()
     0()
    EndIf()
    0()
   EndIf()
   0()
  EndIf()
  If(1,1001,0,31,1)
   If(1,1081,0,1,0)
    PictureDisplay(5,"80_queenelf_st01",0,0,0,0,100,100,0,0)
    PictureMove(5,null,0,0,0,0,100,100,255,0,30,true)
    ShowMessageFace("queenelf_fc1",0,0,2,86)
    ShowMessage("\\n<Queen Elf>Oh, you are...\nIs there anything I can help you with?")
    ShowMessageFace("ruka_fc1",0,0,2,87)
    ShowMessage("\\n<Luka>Um, we'd like to ask about the Red Orb...")
    ShowMessageFace("",0,0,2,88)
    ShowMessage("Luka explained the circumstances...")
    ShowMessageFace("queenelf_fc1",0,0,2,89)
    ShowMessage("\\n<Queen Elf>I see... but it will be difficult for you to meet the Elf Princess. She's a shut-in who has been raised far too carefully.")
    If(0,6,0)
     ShowMessageFace("sonia_fc3",2,0,2,90)
     ShowMessage("\\n<Sonya>A shut-in?!")
     0()
    Else()
     ShowMessageFace("ruka_fc1",0,0,2,91)
     ShowMessage("\\n<Luka>A shut-in...?")
     0()
    EndIf()
    ShowMessageFace("queenelf_fc1",0,0,2,92)
    ShowMessage("\\n<Queen Elf>Because she's a shut-in, she is very shy and won't meet any strangers. How about I contact her telepathically for you?")
    If(0,4,0)
     ShowMessageFace("alice_fc5",2,0,2,93)
     ShowMessage("\\n<Alice>Oh, do that then.\nConvince her to meet with us somehow.")
     0()
    EndIf()
    If(0,5,0)
     ShowMessageFace("iriasu_fc4",2,0,2,94)
     ShowMessage("\\n<Ilias>Yes, please do so...\nPersuade her to meet with us somehow.")
     0()
    EndIf()
    ShowMessageFace("queenelf_fc1",0,0,2,95)
    ShowMessage("\\n<Queen Elf>Now then, I'll begin telepathically communicating with the Elf Princess. If you'll excuse me...")
    ShowMessageFace("queenelf_fc1",0,0,2,96)
    ShowMessage("\\n<Queen Elf>.........")
    ShowMessageFace("queenelf_fc1",0,0,2,97)
    ShowMessage("\\n<Queen Elf>...Hello? Yes, it's me.\nYes, nothing's changed...oh, no problem...")
    ShowMessageFace("queenelf_fc1",0,0,2,98)
    ShowMessage("\\n<Queen Elf>See, I have guests right now and...\nThey need the Red Orb and would like to meet you...")
    ShowMessageFace("",0,0,2,99)
    ShowMessage("Queen Elf explained the circumstances to the Elf Princess...")
    ShowMessageFace("queenelf_fc1",0,0,2,100)
    ShowMessage("\\n<Queen Elf>Don't be like that, invite them to the village and... You can't? Then how about you go to Yamatai Village instead...?")
    If(1,1055,0,3,2)
     ShowMessageFace("queenelf_fc1",2,0,2,101)
     ShowMessage("\\n<Queen Elf>That's just a reason you came up with to refuse, isn't it...? Wait, ah...!")
     ShowMessageFace("queenelf_fc1",2,0,2,102)
     ShowMessage("\\n<Queen Elf>...She refused, saying that Yamatai Village isn't safe. It appears that some trouble has arisen there.")
     ShowMessageFace("ruka_fc1",0,0,2,103)
     ShowMessage("\\n<Luka>It can't be helped, let's go visit the Snake Shrine...")
     ShowMessageFace("",0,0,2,104)
     ShowMessage("We'll need to subdue the turmoil so that the Elf Princess won't have an excuse to refuse. We have no choice but to go visit the Snake Shrine in Yamatai Village...")
     PictureClear(5)
     EndEventProcessing()
     0()
    EndIf()
    ChangeVariable(1081,1081,0,0,2)
    ShowMessageFace("queenelf_fc1",0,0,2,105)
    ShowMessage("\\n<Queen Elf>You always say stuff like this and shut yourself indoors. If you don't come out soon you'll never get married...")
    241(bytes(0x04,0x08,0x6f,0x3a,0x0d,0x52,0x50,0x47,0x3a,0x3a,0x42,0x47,0x4d,0x08,0x3a,0x0a,0x40,0x6e,0x61,0x6d,0x65,0x49,0x22,0x10,0x73,0x63,0x65,0x6e,0x65,0x5f,0x63,0x6f,0x6d,0x69,0x32,0x06,0x3a,0x06,0x45,0x54,0x3a,0x0c,0x40,0x76,0x6f,0x6c,0x75,0x6d,0x65,0x69,0x69,0x3a,0x0b,0x40,0x70,0x69,0x74,0x63,0x68,0x69,0x69))
    PictureDisplay(5,"80_queenelf_st03",0,0,0,0,100,100,255,0)
    ShowMessageFace("queenelf_fc1",2,0,2,106)
    ShowMessage("\\n<Queen Elf>What...?! Don't call me a hag, this is NOT sexual harassment! I'm saying this because I'm worried about you!!")
    ShowMessageFace("queenelf_fc1",2,0,2,107)
    ShowMessage("\\n<Queen Elf>How long do you plan to live in this dream...? You must accept the reality that a man like that doesn't exist!")
    If(0,6,0)
     ShowMessageFace("sonia_fc2",3,0,2,108)
     ShowMessage("\\n<Sonya>What are they talking about...?")
     0()
    Else()
     ShowMessageFace("ruka_fc1",0,0,2,109)
     ShowMessage("\\n<Luka>What kind of talk are they having...?")
     0()
    EndIf()
    PictureDisplay(5,"80_queenelf_st01",0,0,0,0,100,100,255,0)
    ShowMessageFace("queenelf_fc1",0,0,2,110)
    ShowMessage("\\n<Queen Elf>That's...\nShe insists that she won't meet anyone except for her ideal man.")
    ShowMessageFace("queenelf_fc1",0,0,2,111)
    ShowMessage("\\n<Queen Elf>My point is, a man matching the Elf Princess's ideals doesn't actually exist. Not too tall, a slim built young man with a relaxed atmosphere to him, but who also has a strong heart,")
    ShowMessageFace("queenelf_fc1",0,0,2,112)
    ShowMessage("\\n<Queen Elf>he must be gentle, a super first-class swordsman with a clear will to fight dwelling within his eyes, who would protect her whenever she is in danger, have first-class culinary skills,")
    ShowMessageFace("queenelf_fc1",0,0,2,113)
    ShowMessage("\\n<Queen Elf>and is a late bloomer when it comes to sex...\nAnd he has to be a boy from a noble lineage...\nWhere on earth is she going to find a man like that?!")
    If(0,6,0)
     ShowMessageFace("sonia_fc3",2,0,2,114)
     ShowMessage("\\n<Sonya>Right here!")
     0()
    EndIf()
    If(0,4,0)
     ShowMessageFace("alice_fc5",2,0,2,115)
     ShowMessage("\\n<Alice>Hey, Queen Elf.\nSend her a vision of Luka.")
     0()
    EndIf()
    If(0,5,0)
     ShowMessageFace("iriasu_fc4",2,0,2,116)
     ShowMessage("\\n<Ilias>Queen Elf...\nCan you send a vision of Luka to her...?")
     0()
    EndIf()
    ShowMessageFace("queenelf_fc1",0,0,2,117)
    ShowMessage("\\n<Queen Elf>Luka's image...?\nUnderstood, now don't move...")
    ShowMessageFace("queenelf_fc1",0,0,2,118)
    ShowMessage("\\n<Queen Elf>...I sent a vision of the hero Luka as seen by my eyes to the Elf Princess.")
    ShowMessageFace("queenelf_fc1",0,0,2,119)
    ShowMessage("\\n<Queen Elf>.........")
    ShowMessageFace("queenelf_fc1",0,0,2,120)
    ShowMessage("\\n<Queen Elf>...The Elf Princess says that she will meet you.\nThe meeting place will be Yamatai Village's Snake Shrine.")
    If(0,6,0)
     ShowMessageFace("sonia_fc3",2,0,2,121)
     ShowMessage("\\n<Sonya>That went well, but I'm kinda worried!")
     0()
    Else()
     ShowMessageFace("ruka_fc1",0,0,2,122)
     ShowMessage("\\n<Luka>Huh? She'll meet us?")
     0()
    EndIf()
    If(0,4,0)
     ShowMessageFace("alice_fc5",5,0,2,123)
     ShowMessage("\\n<Alice>Good grief... Yamatai Village's Snake Shrine, was it? Let's go meet that shut-in princess.")
     0()
    EndIf()
    If(0,5,0)
     ShowMessageFace("iriasu_fc4",2,0,2,124)
     ShowMessage("\\n<Ilias>Good grief... Yamatai Village's Snake Shrine, was it? Let's go meet this shut-in princess.")
     0()
    EndIf()
    ShowMessageFace("queenelf_fc1",0,0,2,125)
    ShowMessage("\\n<Queen Elf>I'm happy to help you, even if just a little.\nIf there is anything else you need, please come see me.")
    PictureClear(5)
    241(bytes(0x04,0x08,0x6f,0x3a,0x0d,0x52,0x50,0x47,0x3a,0x3a,0x42,0x47,0x4d,0x08,0x3a,0x0a,0x40,0x6e,0x61,0x6d,0x65,0x49,0x22,0x19,0x64,0x75,0x6e,0x67,0x65,0x6f,0x6e,0x5f,0x73,0x65,0x69,0x72,0x65,0x69,0x6e,0x6f,0x6d,0x6f,0x72,0x69,0x06,0x3a,0x06,0x45,0x54,0x3a,0x0c,0x40,0x76,0x6f,0x6c,0x75,0x6d,0x65,0x69,0x69,0x3a,0x0b,0x40,0x70,0x69,0x74,0x63,0x68,0x69,0x69))
    EndEventProcessing()
    0()
   EndIf()
   If(1,1081,0,2,1)
    PictureDisplay(5,"80_queenelf_st01",0,0,0,0,100,100,0,0)
    PictureMove(5,null,0,0,0,0,100,100,255,0,30,true)
    If(2,"C",0)
     JumpToLabel("スキップ")
     0()
    EndIf()
    ShowMessageFace("queenelf_fc1",0,0,2,126)
    ShowMessage("\\n<Queen Elf>I have rested my body and my wounds have healed at last. Is there anything I can help you with?")
    ShowChoices(strings("Join my party","Nothing"),2)
    IfPlayerPicksChoice(0,null)
     ChangeSelfSwitch("C",0)
     ShowMessageFace("queenelf_fc1",0,0,2,127)
     ShowMessage("\\n<Queen Elf>You want me to join you...?\nI said I would help you, but joining you in your travels is...")
     ShowMessageFace("queenelf_fc1",0,0,2,128)
     ShowMessage("\\n<Queen Elf>If that's the case, how about you show me proof of your strength? Let's see, how about you bring the two trophies from the Colosseum?")
     If(0,4,0)
      ShowMessageFace("alice_fc5",0,0,2,129)
      ShowMessage("\\n<Alice>Queen Elf is secretly a fan of Colosseum fights...\nThat's what I've heard from rumors...")
      PictureDisplay(5,"80_queenelf_st03",0,0,0,0,100,100,255,0)
      ShowMessageFace("queenelf_fc1",2,0,2,130)
      ShowMessage("\\n<Queen Elf>Th-that's just a baseless rumor...\nI have no interest in something as barbaric as the Colosseum...!")
      0()
     EndIf()
     If(0,5,0)
      ShowMessageFace("iriasu_fc4",2,0,2,131)
      ShowMessage("\\n<Ilias>Could it be...that you're secretly a big fan of Colosseum fights?")
      PictureDisplay(5,"80_queenelf_st03",0,0,0,0,100,100,255,0)
      ShowMessageFace("queenelf_fc1",2,0,2,132)
      ShowMessage("\\n<Queen Elf>Y-you've got the wrong idea...\nI have no interest in something as barbaric as the Colosseum...!")
      0()
     EndIf()
     PictureDisplay(5,"80_queenelf_st01",0,0,0,0,100,100,255,0)
     ShowMessageFace("queenelf_fc1",0,0,2,133)
     ShowMessage("\\n<Queen Elf>In any case, bring me two trophies...\nThe Silver Trophy and Gold Trophy.")
     DefineLabel("スキップ")
     ShowMessageFace("queenelf_fc1",0,0,2,134)
     ShowMessage("\\n<Queen Elf>The Silver Trophy can be acquired through the various Racial Matches. Regardless of the race you pick, you will earn it along with the first title you get.")
     ShowMessageFace("queenelf_fc1",0,0,2,135)
     ShowMessage("\\n<Queen Elf>The Gold Trophy is an award from the Survival Match. You can obtain this trophy after winning 10 consecutive battles.")
     If(0,6,0)
      ShowMessageFace("sonia_fc1",2,0,2,136)
      ShowMessage("\\n<Sonya>So well-informed...")
      0()
     Else()
      ShowMessageFace("ruka_fc1",0,0,2,137)
      ShowMessage("\\n<Luka>So well-informed...")
      0()
     EndIf()
     ShowMessageFace("queenelf_fc1",0,0,2,138)
     ShowMessage("\\n<Queen Elf>It's not like I'm particularly fond of it or anything. Please bring the two trophies to me. If you do, I'll acknowledge your strength and join you in your travels.")
     If(8,549)
      If(8,550)
       ShowMessageFace("",0,0,2,139)
       ShowMessage("Luka shows Queen Elf the Silver Trophy!")
       ShowMessageFace("queenelf_fc1",0,0,2,140)
       ShowMessage("\\n<Queen Elf>This shine is truly brilliant, isn't it...\nWhich race did you get the title with? Yoma? Or perhaps dragon?")
       ShowMessageFace("",0,0,2,141)
       ShowMessage("Luka shows Queen Elf the Gold Trophy!")
       ShowMessageFace("queenelf_fc1",0,0,2,142)
       ShowMessage("\\n<Queen Elf>Ohhh, truly wonderful...\nThis is the first time in 276 years that a new fighter has achieved this spectacular feat...")
       If(0,6,0)
        ShowMessageFace("sonia_fc1",2,0,2,143)
        ShowMessage("\\n<Sonya>Wanna participate in the Colosseum with us...?")
        0()
       Else()
        ShowMessageFace("ruka_fc1",0,0,2,144)
        ShowMessage("\\n<Luka>Want to participate in the Colosseum with us...?")
        0()
       EndIf()
       PictureDisplay(5,"80_queenelf_st03",0,0,0,0,100,100,255,0)
       ShowMessageFace("queenelf_fc1",2,0,2,145)
       ShowMessage("\\n<Queen Elf>...Oh, no no no. I'm not interested in having these trophies. I just wanted to see proof of your strength, that's all.")
       PictureDisplay(5,"80_queenelf_st01",0,0,0,0,100,100,255,0)
       ShowMessageFace("queenelf_fc1",0,0,2,146)
       ShowMessage("\\n<Queen Elf>Very well, you have fulfilled your promise.\nNow I shall fulfill my own, and join you in your travels.")
       PictureClear(5)
       205(0,bytes(0x04,0x08,0x6f,0x3a,0x13,0x52,0x50,0x47,0x3a,0x3a,0x4d,0x6f,0x76,0x65,0x52,0x6f,0x75,0x74,0x65,0x09,0x3a,0x0c,0x40,0x72,0x65,0x70,0x65,0x61,0x74,0x46,0x3a,0x0f,0x40,0x73,0x6b,0x69,0x70,0x70,0x61,0x62,0x6c,0x65,0x46,0x3a,0x0a,0x40,0x77,0x61,0x69,0x74,0x54,0x3a,0x0a,0x40,0x6c,0x69,0x73,0x74,0x5b,0x09,0x6f,0x3a,0x15,0x52,0x50,0x47,0x3a,0x3a,0x4d,0x6f,0x76,0x65,0x43,0x6f,0x6d,0x6d,0x61,0x6e,0x64,0x07,0x3a,0x0a,0x40,0x63,0x6f,0x64,0x65,0x69,0x2a,0x3a,0x10,0x40,0x70,0x61,0x72,0x61,0x6d,0x65,0x74,0x65,0x72,0x73,0x5b,0x00,0x6f,0x3b,0x0a,0x07,0x3b,0x0b,0x69,0x0f,0x3b,0x0c,0x5b,0x00,0x6f,0x3b,0x0a,0x07,0x3b,0x0b,0x69,0x2c,0x3b,0x0c,0x5b,0x00,0x6f,0x3b,0x0a,0x07,0x3b,0x0b,0x69,0x00,0x3b,0x0c,0x5b,0x00))
       ChangeSelfSwitch("A",0)
       355("add_actor_ex(316)")
       249(bytes(0x04,0x08,0x6f,0x3a,0x0c,0x52,0x50,0x47,0x3a,0x3a,0x4d,0x45,0x08,0x3a,0x0a,0x40,0x6e,0x61,0x6d,0x65,0x49,0x22,0x0c,0x66,0x61,0x6e,0x66,0x61,0x6c,0x65,0x06,0x3a,0x06,0x45,0x54,0x3a,0x0b,0x40,0x70,0x69,0x74,0x63,0x68,0x69,0x69,0x3a,0x0c,0x40,0x76,0x6f,0x6c,0x75,0x6d,0x65,0x69,0x69))
       ShowMessageFace("",0,0,2,147)
       ShowMessage("Freya has joined the party!")
       Wait(60)
       ShowMessageFace("queenelf_fc1",0,0,2,148)
       ShowMessage("\\n<Freya>...It would be a good idea to visit the Colosseum for future study. To see the barbarism of humanity with my own eyes, of course.")
       If(0,4,0)
        ShowMessageFace("alice_fc5",3,0,2,149)
        ShowMessage("\\n<Alice>You... I knew it...")
        0()
       EndIf()
       If(0,5,0)
        ShowMessageFace("iriasu_fc4",2,0,2,150)
        ShowMessage("\\n<Ilias>You should just be honest...")
        0()
       EndIf()
       0()
      EndIf()
      0()
     EndIf()
     PictureClear(5)
     EndEventProcessing()
     0()
    IfPlayerPicksChoice(1,null)
     ShowMessageFace("queenelf_fc1",0,0,2,151)
     ShowMessage("\\n<Queen Elf>I see...\nPlease tell me if you need anything.")
     PictureClear(5)
     EndEventProcessing()
     0()
    404()
    0()
   EndIf()
   0()
  EndIf()
  0()
 PAGE   2
  // condition: self-switch A is ON
  0()



EVENT   11
 PAGE   1
  If(1,1070,0,1,0)
   ShowMessageFace("elf_fc1",0,0,2,1)
   ShowMessage("\\n<Elf>Want to hear something interesting?\nOh never mind, I'm not telling a human...")
   EndEventProcessing()
   0()
  EndIf()
  If(1,1070,0,2,1)
   ShowMessageFace("elf_fc1",0,0,2,2)
   ShowMessage("\\n<Elf>Want to hear something interesting?\nThe item required for changing to advanced Dancer and Minstrel jobs is managed by the queen of plants.")
   ShowMessageFace("elf_fc1",0,0,2,3)
   ShowMessage("\\n<Elf>Still, I wonder how Queen Alraune obtained it...\nShe doesn't seem like the type to do business with humans.")
   355("actor_label_jump")
   EndEventProcessing()
   DefineLabel("322")
   ShowMessageFace("queenalraune_fc1",4,0,2,4)
   ShowMessage("\\n<Alrauna>Fufufu... A lot happened when I was young.")
   EndEventProcessing()
   0()
  EndIf()
  0()



EVENT   12
 PAGE   1
  If(1,1070,0,1,0)
   ShowMessageFace("elf_fc1",0,0,2,1)
   ShowMessage("\\n<Elf>Don't talk to me...")
   EndEventProcessing()
   0()
  EndIf()
  If(1,1070,0,2,1)
   ShowMessageFace("elf_fc1",0,0,2,2)
   ShowMessage("\\n<Elf>Ever heard of the Elf Village?\nIt's a hidden elf dwelling near Yamatai Village.")
   ShowMessageFace("elf_fc1",0,0,2,3)
   ShowMessage("\\n<Elf>The village's leader, the Elf Princess, apparently keeps in touch with Queen Elf. With that said, the two don't transgress on each other's policies.")
   355("actor_label_jump")
   EndEventProcessing()
   DefineLabel("219")
   ShowMessageFace("kunoitielf_fc1",0,0,2,4)
   ShowMessage("\\n<Kasumi>It's against our code to speak of the village...")
   EndEventProcessing()
   DefineLabel("220")
   ShowMessageFace("samuraielf_fc1",0,0,2,5)
   ShowMessage("\\n<Gekka>Well, that's how it is...")
   EndEventProcessing()
   0()
  EndIf()
  0()



EVENT   13
 PAGE   1
  If(1,1070,0,1,0)
   ShowMessageFace("elf_fc2",0,0,2,1)
   ShowMessage("\\n<Elf Blacksmith>I'm the elven race's best blacksmith...\nDo you really think I will work for a human?")
   EndEventProcessing()
   0()
  EndIf()
  If(1,1070,0,2,1)
   ShowMessageFace("elf_fc2",0,0,2,2)
   ShowMessage("\\n<Elf Blacksmith>I'm the elven race's best blacksmith.\nNow, what do you need?")
   ShowChoices(strings("Synthesis","Make Rainbow equipment","Talk"),5)
   IfPlayerPicksChoice(0,null)
    355("call_synthesize(19)")
    EndEventProcessing()
    0()
   IfPlayerPicksChoice(1,null)
    If(8,157)
     Shop(1,26,0,0,false)
     605(1,74,0,0)
     605(1,161,0,0)
     605(1,226,0,0)
     605(1,252,0,0)
     605(1,276,0,0)
     605(1,316,0,0)
     605(1,350,0,0)
     605(1,386,0,0)
     605(1,427,0,0)
     605(1,459,0,0)
     605(1,494,0,0)
     605(1,534,0,0)
     605(1,573,0,0)
     605(1,609,0,0)
     605(1,644,0,0)
     605(1,685,0,0)
     605(1,715,0,0)
     605(1,743,0,0)
     605(1,766,0,0)
     605(1,787,0,0)
     605(1,811,0,0)
     605(1,835,0,0)
     605(1,860,0,0)
     605(2,46,0,0)
     605(2,90,0,0)
     605(2,117,0,0)
     605(2,219,0,0)
     605(2,251,0,0)
     605(2,314,0,0)
     605(0,106,0,0)
     0()
    Else()
     ShowMessageFace("elf_fc2",0,0,2,3)
     ShowMessage("\\n<Elf Blacksmith>Not even I can make items out of nothing...\nIf you want rainbow equipment, bring me a rainbow crystal.")
     ShowMessageFace("elf_fc2",0,0,2,4)
     ShowMessage("\\n<Elf Blacksmith>Where can you gather rainbow crystals?\nThere is a point inside the World Tree where they crystallize.")
     EndEventProcessing()
     0()
    EndIf()
    0()
   IfPlayerPicksChoice(2,null)
    If(8,157)
     If(1,1007,0,5,0)
      If(4,68,0)
       ShowMessageFace("dragonp_fc1",0,0,2,5)
       ShowMessage("\\n<Papi>I want you to teach me how to work with rainbow so I can become the greatest blacksmith in the world! I'm aware it's a secret handed down among the elven race, but there must be some way...")
       ShowMessageFace("elf_fc2",0,0,2,6)
       ShowMessage("\\n<Elf Blacksmith>Sure, I'll instruct you.")
       ShowMessageFace("dragonp_fc1",0,0,2,7)
       ShowMessage("\\n<Papi>Huh, are you sure?!")
       ShowMessageFace("elf_fc2",0,0,2,8)
       ShowMessage("\\n<Elf Blacksmith>I tend to teach people when they ask me to.\nIt's not like anyone will manage to do it anyways...")
       ShowMessageFace("dragonp_fc1",0,0,2,9)
       ShowMessage("\\n<Papi>I'll do my best and try!\nPlease take care of me!")
       221()
       Wait(60)
       250(bytes(0x04,0x08,0x6f,0x3a,0x0c,0x52,0x50,0x47,0x3a,0x3a,0x53,0x45,0x08,0x3a,0x0a,0x40,0x6e,0x61,0x6d,0x65,0x49,0x22,0x0d,0x6d,0x6f,0x6e,0x5f,0x6b,0x61,0x7a,0x69,0x06,0x3a,0x06,0x45,0x54,0x3a,0x0b,0x40,0x70,0x69,0x74,0x63,0x68,0x69,0x69,0x3a,0x0c,0x40,0x76,0x6f,0x6c,0x75,0x6d,0x65,0x69,0x69))
       Wait(60)
       250(bytes(0x04,0x08,0x6f,0x3a,0x0c,0x52,0x50,0x47,0x3a,0x3a,0x53,0x45,0x08,0x3a,0x0a,0x40,0x6e,0x61,0x6d,0x65,0x49,0x22,0x0d,0x6d,0x6f,0x6e,0x5f,0x6b,0x61,0x7a,0x69,0x06,0x3a,0x06,0x45,0x54,0x3a,0x0b,0x40,0x70,0x69,0x74,0x63,0x68,0x69,0x69,0x3a,0x0c,0x40,0x76,0x6f,0x6c,0x75,0x6d,0x65,0x69,0x69))
       Wait(60)
       222()
       ShowMessageFace("dragonp_fc1",6,0,2,10)
       ShowMessage("\\n<Papi>I-it's really difficult...")
       ShowMessageFace("elf_fc2",0,0,2,11)
       ShowMessage("\\n<Elf Blacksmith>You have an exceptional sense for handling metals...I'll admit that. But you still have a ways to go to control the elements.")
       ShowMessageFace("dragonp_fc1",0,0,2,12)
       ShowMessage("\\n<Papi>Ngahh! I won't give up from this!")
       221()
       Wait(60)
       250(bytes(0x04,0x08,0x6f,0x3a,0x0c,0x52,0x50,0x47,0x3a,0x3a,0x53,0x45,0x08,0x3a,0x0a,0x40,0x6e,0x61,0x6d,0x65,0x49,0x22,0x0d,0x6d,0x6f,0x6e,0x5f,0x6b,0x61,0x7a,0x69,0x06,0x3a,0x06,0x45,0x54,0x3a,0x0b,0x40,0x70,0x69,0x74,0x63,0x68,0x69,0x69,0x3a,0x0c,0x40,0x76,0x6f,0x6c,0x75,0x6d,0x65,0x69,0x69))
       Wait(60)
       250(bytes(0x04,0x08,0x6f,0x3a,0x0c,0x52,0x50,0x47,0x3a,0x3a,0x53,0x45,0x08,0x3a,0x0a,0x40,0x6e,0x61,0x6d,0x65,0x49,0x22,0x0d,0x6d,0x6f,0x6e,0x5f,0x6b,0x61,0x7a,0x69,0x06,0x3a,0x06,0x45,0x54,0x3a,0x0b,0x40,0x70,0x69,0x74,0x63,0x68,0x69,0x69,0x3a,0x0c,0x40,0x76,0x6f,0x6c,0x75,0x6d,0x65,0x69,0x69))
       Wait(60)
       222()
       ShowMessageFace("dragonp_fc1",6,0,2,13)
       ShowMessage("\\n<Papi>The elements won't stabilize...\nBalancing them is really difficult...")
       ShowMessageFace("elf_fc2",0,0,2,14)
       ShowMessage("\\n<Elf Blacksmith>Unless you are familiar with nature and can hear its voice, this will be impossible. This is why elves are the only ones who can work with rainbow...")
       ShowMessageFace("dragonp_fc1",6,0,2,15)
       ShowMessage("\\n<Papi>I won't give up yet...\nI will become the world's best blacksmith...!")
       221()
       Wait(60)
       250(bytes(0x04,0x08,0x6f,0x3a,0x0c,0x52,0x50,0x47,0x3a,0x3a,0x53,0x45,0x08,0x3a,0x0a,0x40,0x6e,0x61,0x6d,0x65,0x49,0x22,0x0d,0x6d,0x6f,0x6e,0x5f,0x6b,0x61,0x7a,0x69,0x06,0x3a,0x06,0x45,0x54,0x3a,0x0b,0x40,0x70,0x69,0x74,0x63,0x68,0x69,0x69,0x3a,0x0c,0x40,0x76,0x6f,0x6c,0x75,0x6d,0x65,0x69,0x69))
       Wait(60)
       250(bytes(0x04,0x08,0x6f,0x3a,0x0c,0x52,0x50,0x47,0x3a,0x3a,0x53,0x45,0x08,0x3a,0x0a,0x40,0x6e,0x61,0x6d,0x65,0x49,0x22,0x0d,0x6d,0x6f,0x6e,0x5f,0x6b,0x61,0x7a,0x69,0x06,0x3a,0x06,0x45,0x54,0x3a,0x0b,0x40,0x70,0x69,0x74,0x63,0x68,0x69,0x69,0x3a,0x0c,0x40,0x76,0x6f,0x6c,0x75,0x6d,0x65,0x69,0x69))
       Wait(60)
       222()
       ShowMessageFace("dragonp_fc1",4,0,2,16)
       ShowMessage("\\n<Papi>I just can't get used to the wind and water elements... They shift out of alignment and it doesn't become a perfect prism...")
       ShowMessageFace("elf_fc2",0,0,2,17)
       ShowMessage("\\n<Elf Blacksmith>You certainly are improving.\nWhen it comes to smithing skill, you are undoubtedly on the same level as me...")
       ShowMessageFace("elf_fc2",0,0,2,18)
       ShowMessage("\\n<Elf Blacksmith>But, you are still inexperienced when it comes to sensing nature. At this rate, you won't be up to the task of handling elemental materials...")
       ShowMessageFace("salamander_fc1",0,0,2,19)
       ShowMessage("\\n<Salamander>How about I help you out...?")
       ShowMessageFace("dragonp_fc1",0,0,2,20)
       ShowMessage("\\n<Papi>Salamander! You'll help me?!")
       ShowMessageFace("salamander_fc1",1,0,2,21)
       ShowMessage("\\n<Salamander>Well, let's just say I have a soft spot for little girls trying their hardest. There's no one better at handling elements than the spirits.")
       ShowMessageFace("dragonp_fc1",0,0,2,22)
       ShowMessage("\\n<Papi>Thank you, let's do this together!")
       ShowMessageFace("elf_fc2",1,0,2,23)
       ShowMessage("\\n<Elf Blacksmith>...You have wonderful comrades.\nAll right, let's continue!")
       ShowMessageFace("dragonp_fc1",0,0,2,24)
       ShowMessage("\\n<Papi>Yes! I'll definitely succeed!")
       ShowMessageFace("salamander_fc1",0,0,2,25)
       ShowMessage("\\n<Salamander>Match my timing... Yeah, that's it!")
       221()
       Wait(60)
       250(bytes(0x04,0x08,0x6f,0x3a,0x0c,0x52,0x50,0x47,0x3a,0x3a,0x53,0x45,0x08,0x3a,0x0a,0x40,0x6e,0x61,0x6d,0x65,0x49,0x22,0x0d,0x6d,0x6f,0x6e,0x5f,0x6b,0x61,0x7a,0x69,0x06,0x3a,0x06,0x45,0x54,0x3a,0x0b,0x40,0x70,0x69,0x74,0x63,0x68,0x69,0x69,0x3a,0x0c,0x40,0x76,0x6f,0x6c,0x75,0x6d,0x65,0x69,0x69))
       Wait(60)
       250(bytes(0x04,0x08,0x6f,0x3a,0x0c,0x52,0x50,0x47,0x3a,0x3a,0x53,0x45,0x08,0x3a,0x0a,0x40,0x6e,0x61,0x6d,0x65,0x49,0x22,0x0d,0x6d,0x6f,0x6e,0x5f,0x6b,0x61,0x7a,0x69,0x06,0x3a,0x06,0x45,0x54,0x3a,0x0b,0x40,0x70,0x69,0x74,0x63,0x68,0x69,0x69,0x3a,0x0c,0x40,0x76,0x6f,0x6c,0x75,0x6d,0x65,0x69,0x69))
       Wait(60)
       222()
       ShowMessageFace("dragonp_fc1",0,0,2,26)
       ShowMessage("\\n<Papi>...I finally did it!\nI made it into a perfect prism!")
       ShowMessageFace("salamander_fc1",0,0,2,27)
       ShowMessage("\\n<Salamander>Mmm, your efforts have born fruit.")
       ShowMessageFace("elf_fc2",1,0,2,28)
       ShowMessage("\\n<Elf Blacksmith>Yes...I'm impressed.\nAlthough you had help, you managed to forge rainbow.")
       ShowMessageFace("elf_fc2",1,0,2,29)
       ShowMessage("\\n<Elf Blacksmith>You've managed to grasp the method with this attempt, haven't you? Once you gain some more experience, you should be able to do it all on your own.")
       ShowMessageFace("dragonp_fc1",3,0,2,30)
       ShowMessage("\\n<Papi>It's thanks to everyone's help!\nI'm grateful to my master, the elves and the spirits!")
       249(bytes(0x04,0x08,0x6f,0x3a,0x0c,0x52,0x50,0x47,0x3a,0x3a,0x4d,0x45,0x08,0x3a,0x0a,0x40,0x6e,0x61,0x6d,0x65,0x49,0x22,0x0c,0x66,0x61,0x6e,0x66,0x61,0x6c,0x65,0x06,0x3a,0x06,0x45,0x54,0x3a,0x0b,0x40,0x70,0x69,0x74,0x63,0x68,0x69,0x69,0x3a,0x0c,0x40,0x76,0x6f,0x6c,0x75,0x6d,0x65,0x69,0x69))
       ShowMessageFace("",0,0,2,31)
       ShowMessage("Papi is now able to craft rainbow equipment!")
       ChangeVariable(1007,1007,0,0,6)
       Wait(60)
       355("gain_medal(1513)")
       ShowMessageFace("elf_fc2",0,0,2,32)
       ShowMessage("\\n<Elf Blacksmith>You're just a nameless blacksmith right now...\nBut based on your skill alone, you should be among the five best blacksmiths in the world.")
       ShowMessageFace("elf_fc2",0,0,2,33)
       ShowMessage("\\n<Elf Blacksmith>Of course, the legendary blacksmith Randolph would be the best in the world. I was able to see his skills just once, however... They were godlike.")
       ShowMessageFace("dragonp_fc1",0,0,2,34)
       ShowMessage("\\n<Papi>The legendary blacksmith...I'd love to meet him!\nI'll ask him to teach me!")
       ShowMessageFace("elf_fc2",0,0,2,35)
       ShowMessage("\\n<Elf Blacksmith>I asked him to make me his disciple when I met him, but was turned down. He said he was planning to go into retirement and settle down at some town...")
       ShowMessageFace("elf_fc2",0,0,2,36)
       ShowMessage("\\n<Elf Blacksmith>Call it my blacksmith's intuition...but he probably discarded his hammer already. On the contrary, he might not even be among the living anymore...")
       ShowMessageFace("dragonp_fc1",2,0,2,37)
       ShowMessage("\\n<Papi>So he was surrounded by an atmosphere that makes you think so? He must have felt empty after reaching the very peak of craftsmanship...")
       ShowMessageFace("elf_fc2",0,0,2,38)
       ShowMessage("\\n<Elf Blacksmith>I don't think that was the case...\nRainbow is known as the best material in this world.")
       ShowMessageFace("elf_fc2",0,0,2,39)
       ShowMessage("\\n<Elf Blacksmith>But, the best equipment in this world...such as the legendary equipment enshrined within the Monster Lord's castle, was created through an unknown process.")
       ShowMessageFace("elf_fc2",0,0,2,40)
       ShowMessage("\\n<Elf Blacksmith>That equipment clearly used materials superior to rainbow. But, it's unknown what they're made from...")
       If(0,4,0)
        ShowMessageFace("alice_fc5",2,0,2,41)
        ShowMessage("\\n<Alice>...It's meteorite.")
        ShowMessageFace("elf_fc2",0,0,2,42)
        ShowMessage("\\n<Elf Blacksmith>You know what it is?!\nJust who are you...?")
        ShowMessageFace("alice_fc5",0,0,2,43)
        ShowMessage("\\n<Alice>I'm the Monster Lord. I've been taught knowledge of the legendary age. Meteorite is a metal that is foreign to this planet.")
        ShowMessageFace("alice_fc5",0,0,2,44)
        ShowMessage("\\n<Alice>It's a rare metal contained in small amounts within meteors that come flying from outer space... That's meteorite.")
        ShowMessageFace("alice_fc5",0,0,2,45)
        ShowMessage("\\n<Alice>Naturally, it's impossible to acquire it normally. To this day, the method of refining it has been lost.")
        ShowMessageFace("alice_fc5",0,0,2,46)
        ShowMessage("\\n<Alice>The only remaining meteorite is in equipment made over five hundred years ago... In this age, they're all items treated as legendary weapons.")
        0()
       EndIf()
       If(0,5,0)
        ShowMessageFace("iriasu_fc4",2,0,2,47)
        ShowMessage("\\n<Ilias>...It's meteorite.")
        ShowMessageFace("elf_fc2",0,0,2,48)
        ShowMessage("\\n<Elf Blacksmith>You know what it is?!\nJust who are you...?")
        ShowMessageFace("iriasu_fc4",2,0,2,49)
        ShowMessage("\\n<Ilias>Despite how I look, I am all-knowing.\nMeteorite is a metal which is foreign to this planet.")
        ShowMessageFace("iriasu_fc4",2,0,2,50)
        ShowMessage("\\n<Ilias>It is a rare metal contained in small amounts within meteors that come flying from outer space... That is what meteorite is.")
        ShowMessageFace("iriasu_fc4",2,0,2,51)
        ShowMessage("\\n<Ilias>Of course, it can't be mined on this planet, so it's impossible to obtain it. Furthermore, the method of refining it has been lost in this era.")
        ShowMessageFace("iriasu_fc4",2,0,2,52)
        ShowMessage("\\n<Ilias>The only meteorite remaining is the small amount inside equipment made over five hundred years ago. In the present day, they are all objects treated as legendary weapons.")
        0()
       EndIf()
       ShowMessageFace("elf_fc2",0,0,2,53)
       ShowMessage("\\n<Elf Blacksmith>Zantetsuken, World Chronicle, Gan Jiang and Mo Ye, Apocalypse and Mjolnir, and the Seven Legendary Blades...")
       ShowMessageFace("elf_fc2",0,0,2,54)
       ShowMessage("\\n<Elf Blacksmith>In addition, the hero Heinrich's equipment that is enshrined within the Monster Lord Castle... All of these famous legendary arms were made from meteorite.")
       ShowMessageFace("dragonp_fc1",0,0,2,55)
       ShowMessage("\\n<Papi>I'm getting all excited!\nIf I'm able to work with that meteorite stuff...!")
       ShowMessageFace("elf_fc2",0,0,2,56)
       ShowMessage("\\n<Elf Blacksmith>If it were the legendary blacksmith Randolph...perhaps... He might be able to bring that lost technique back to this world again...")
       If(0,4,0)
        ShowMessageFace("alice_fc5",3,0,2,57)
        ShowMessage("\\n<Alice>However, his whereabouts are unknown...")
        0()
       EndIf()
       If(0,5,0)
        ShowMessageFace("iriasu_fc4",2,0,2,58)
        ShowMessage("\\n<Ilias>However, we do not know where to find him...\nNot even I am capable of tracking everyone in the lower world.")
        0()
       EndIf()
       ShowMessageFace("dragonp_fc1",0,0,2,59)
       ShowMessage("\\n<Papi>We might hear some rumors of him on our future travels! Let's not give up hope, and keep moving forward!")
       EndEventProcessing()
       0()
      EndIf()
      0()
     EndIf()
     0()
    EndIf()
    ShowMessageFace("elf_fc2",0,0,2,60)
    ShowMessage("\\n<Elf Blacksmith>Randolph, the legendary blacksmith...\nI met him a few years ago in Gold Port.")
    ShowMessageFace("elf_fc2",0,0,2,61)
    ShowMessage("\\n<Elf Blacksmith>I asked him to make me his disciple, but was turned down. He said he was planning to go into retirement and settle down at some town...")
    EndEventProcessing()
    0()
   IfPlayerCancelsChoice()
    EndEventProcessing()
    0()
   404()
   EndEventProcessing()
   0()
  EndIf()
  0()



EVENT   14
 PAGE   1
  If(1,1070,0,1,0)
   ShowMessageFace("elf_fc1",0,0,2,1)
   ShowMessage("\\n<Elf>Everyone is becoming really violent...\nI know they've all been holding onto some pent-up frustration, but it's still strange.")
   If(4,167,0)
    ShowMessageFace("lusia_fc1",2,0,2,2)
    ShowMessage("\\n<Lucia>I knew it, the magic is strongly affecting them...")
    0()
   EndIf()
   EndEventProcessing()
   0()
  EndIf()
  If(1,1070,0,2,1)
   ShowMessageFace("elf_fc1",0,0,2,3)
   ShowMessage("\\n<Elf>Everyone seems to have returned to their senses.\nTo think we were being slowly corrupted by some strange spell...")
   EndEventProcessing()
   0()
  EndIf()
  0()



EVENT   15
 PAGE   1
  // condition: switch 32 is ON
  0()



EVENT   16
 PAGE   1
  // condition: switch 1313 is ON
  If(1,1070,0,1,0)
   ShowMessageFace("carbuncle_fc1",2,0,2,1)
   ShowMessage("\\n<Carbuncle Girl>Go away, human!")
   EndEventProcessing()
   0()
  EndIf()
  If(1,1070,0,2,1)
   ShowMessageFace("carbuncle_fc1",0,0,2,2)
   ShowMessage("\\n<Carbuncle Girl>You can gather rainbow crystals inside the World Tree. Apparently, high concentrations of mana accumulate in the World Tree's dew and then form into crystals.")
   EndEventProcessing()
   0()
  EndIf()
  0()
 PAGE   2
  // condition: party contains actor #313
  0()



EVENT   17
 PAGE   1
  If(1,1001,0,30,0)
   If(1,1070,0,1,0)
    PictureDisplay(5,"80_queenfairy_st03",0,0,0,0,100,100,0,0)
    PictureMove(5,null,0,0,0,0,100,100,255,0,30,true)
    ShowMessageFace("queenfairy_fc1",2,0,2,1)
    ShowMessage("\\n<Queen Fairy>Khh, my body!\nDamn you humans, even here you...")
    355("actor_label_jump")
    PictureClear(5)
    EndEventProcessing()
    DefineLabel("97")
    ShowMessageFace("fairy_fc1",2,0,2,2)
    ShowMessage("\\n<Fell>My queen...")
    PictureClear(5)
    EndEventProcessing()
    0()
   EndIf()
   If(1,1070,0,2,1)
    PictureDisplay(5,"80_queenfairy_st03",0,0,0,0,100,100,0,0)
    PictureMove(5,null,0,0,0,0,100,100,255,0,30,true)
    ShowMessageFace("queenfairy_fc1",2,0,2,3)
    ShowMessage("\\n<Queen Fairy>I burn with shame at how pitiful I am.\nI'm going to focus on treating my wounds so that I can compensate you for what I have done...")
    PictureClear(5)
    EndEventProcessing()
    0()
   EndIf()
   0()
  EndIf()
  If(1,1001,0,31,1)
   PictureDisplay(5,"80_queenfairy_st01",0,0,0,0,100,100,0,0)
   PictureMove(5,null,0,0,0,0,100,100,255,0,30,true)
   If(2,"A",0)
    JumpToLabel("スキップ")
    0()
   EndIf()
   ShowMessageFace("queenfairy_fc1",0,0,2,4)
   ShowMessage("\\n<Queen Fairy>My body has finally recovered and I'm back to my normal self. Now, is there anything you need of me...?")
   ShowChoices(strings("Join the party","No"),2)
   IfPlayerPicksChoice(0,null)
    ShowMessageFace("queenfairy_fc1",0,0,2,5)
    ShowMessage("\\n<Queen Fairy>Very well, I will join you...\n...But first, I would like to ask something of you.")
    DefineLabel("スキップ")
    ShowMessageFace("queenfairy_fc1",0,0,2,6)
    ShowMessage("\\n<Queen Fairy>There is an item called a [Hide & Seek Trophy]...\nA certain fairy wanted to see it.")
    ShowMessageFace("queenfairy_fc1",0,0,2,7)
    ShowMessage("\\n<Queen Fairy>...It's not me of course.")
    ShowMessageFace("queenfairy_fc1",0,0,2,8)
    ShowMessage("\\n<Queen Fairy>Could you find it and bring it to me?\nYou should receive it if you find Amira in multiple places.")
    If(8,560)
     ShowMessageFace("",0,0,2,9)
     ShowMessage("Luka showed the [Hide & Seek Trophy] to Queen Fairy...")
     ShowMessageFace("queenfairy_fc1",0,0,2,10)
     ShowMessage("\\n<Queen Fairy>So this is the Hide & Seek Trophy...\nHer childhood dream is now...")
     ShowMessageFace("queenfairy_fc1",0,0,2,11)
     ShowMessage("\\n<Queen Fairy>...With this, I can accompany you on your travels free of any regrets. Now then, let us go.")
     PictureClear(5)
     205(0,bytes(0x04,0x08,0x6f,0x3a,0x13,0x52,0x50,0x47,0x3a,0x3a,0x4d,0x6f,0x76,0x65,0x52,0x6f,0x75,0x74,0x65,0x09,0x3a,0x0c,0x40,0x72,0x65,0x70,0x65,0x61,0x74,0x46,0x3a,0x0f,0x40,0x73,0x6b,0x69,0x70,0x70,0x61,0x62,0x6c,0x65,0x46,0x3a,0x0a,0x40,0x77,0x61,0x69,0x74,0x54,0x3a,0x0a,0x40,0x6c,0x69,0x73,0x74,0x5b,0x09,0x6f,0x3a,0x15,0x52,0x50,0x47,0x3a,0x3a,0x4d,0x6f,0x76,0x65,0x43,0x6f,0x6d,0x6d,0x61,0x6e,0x64,0x07,0x3a,0x0a,0x40,0x63,0x6f,0x64,0x65,0x69,0x2a,0x3a,0x10,0x40,0x70,0x61,0x72,0x61,0x6d,0x65,0x74,0x65,0x72,0x73,0x5b,0x00,0x6f,0x3b,0x0a,0x07,0x3b,0x0b,0x69,0x0f,0x3b,0x0c,0x5b,0x00,0x6f,0x3b,0x0a,0x07,0x3b,0x0b,0x69,0x2c,0x3b,0x0c,0x5b,0x00,0x6f,0x3b,0x0a,0x07,0x3b,0x0b,0x69,0x00,0x3b,0x0c,0x5b,0x00))
     355("add_actor_ex(315)")
     249(bytes(0x04,0x08,0x6f,0x3a,0x0c,0x52,0x50,0x47,0x3a,0x3a,0x4d,0x45,0x08,0x3a,0x0a,0x40,0x6e,0x61,0x6d,0x65,0x49,0x22,0x0c,0x66,0x61,0x6e,0x66,0x61,0x6c,0x65,0x06,0x3a,0x06,0x45,0x54,0x3a,0x0b,0x40,0x70,0x69,0x74,0x63,0x68,0x69,0x69,0x3a,0x0c,0x40,0x76,0x6f,0x6c,0x75,0x6d,0x65,0x69,0x69))
     ChangeSelfSwitch("A",0)
     ShowMessageFace("",0,0,2,12)
     ShowMessage("Airy has joined the party!")
     Wait(60)
     If(0,6,0)
      ShowMessageFace("sonia_fc1",0,0,2,13)
      ShowMessage("\\n<Sonya>So, who was the fairy that wanted the Hide & Seek trophy?")
      0()
     Else()
      ShowMessageFace("ruka_fc1",0,0,2,14)
      ShowMessage("\\n<Luka>So, who was the fairy that wanted the Hide & Seek trophy?")
      0()
     EndIf()
     ShowMessageFace("queenfairy_fc1",0,0,2,15)
     ShowMessage("\\n<Queen Fairy>I presume you were thinking that it was me who wanted it... but that's incorrect. My best childhood friend, Titania, wanted to see it.")
     ShowMessageFace("queenfairy_fc1",0,0,2,16)
     ShowMessage("\\n<Queen Fairy>Well... It was only back then when I got along with Titania. As we got older, we started opposing each other over many things.")
     ShowMessageFace("queenfairy_fc1",0,0,2,17)
     ShowMessage("\\n<Queen Fairy>On top of that, Titania eventually went missing. Some even claimed that I was behind it since we were competing for the position of queen...")
     ShowMessageFace("ruka_fc1",0,0,2,18)
     ShowMessage("\\n<Luka>That's... a sad story.")
     ShowMessageFace("queenfairy_fc1",0,0,2,19)
     ShowMessage("\\n<Queen Fairy>Titania had certainly caused a lot of trouble amongst our race... But even so, I would never assassinate someone who used to be my friend.")
     ShowMessageFace("queenfairy_fc1",0,0,2,20)
     ShowMessage("\\n<Queen Fairy>I don't know where Titania has gone, or whether she's even still among the living... Whoops, I suppose this conversation has been going on for a little too long.")
     ShowMessageFace("queenfairy_fc1",0,0,2,21)
     ShowMessage("\\n<Queen Fairy>Now, let us depart for our adventurous journey...")
     ShowMessageFace("ruka_fc1",0,0,2,22)
     ShowMessage("\\n<Luka>(Maybe she plans to look for Titania as she travels together with us. I hope she finds her.)")
     EndEventProcessing()
     0()
    Else()
     PictureClear(5)
     EndEventProcessing()
     0()
    EndIf()
    0()
   IfPlayerPicksChoice(1,null)
    ShowMessageFace("queenfairy_fc1",0,0,2,23)
    ShowMessage("\\n<Queen Fairy>If you need something, I will lend you my help.\nAfter all, I have caused you a lot of trouble...")
    PictureClear(5)
    EndEventProcessing()
    0()
   404()
   0()
  EndIf()
  0()
 PAGE   2
  // condition: self-switch A is ON
  0()



EVENT   18
 PAGE   1
  If(1,1070,0,1,0)
   ShowMessageFace("trickfairy_fc1",2,0,2,1)
   ShowMessage("\\n<Trick Fairy>I wonder if the queen is all right...?\nOh! It's the human who hurt the queen!")
   EndEventProcessing()
   0()
  EndIf()
  If(1,1070,0,2,1)
   ShowMessageFace("trickfairy_fc1",2,0,2,2)
   ShowMessage("\\n<Trick Fairy>Oh! It's the human who hurt the queen!\nEven though I've regained my sanity, I still can't forgive you for that!")
   EndEventProcessing()
   0()
  EndIf()
  0()
 PAGE   2
  // condition: variable 1001 >= 31
  0()



EVENT   19
 PAGE   1
  If(1,1070,0,1,0)
   ShowMessageFace("fairy_fc1",2,0,2,1)
   ShowMessage("\\n<Fairy>It's a human... Don't come this way...")
   EndEventProcessing()
   0()
  EndIf()
  If(1,1070,0,2,1)
   ShowMessageFace("fairy_fc1",0,0,2,2)
   ShowMessage("\\n<Fairy>I wonder if the humans hate us now...?")
   EndEventProcessing()
   0()
  EndIf()
  0()



EVENT   20
 PAGE   1
  If(1,1070,0,1,0)
   ShowMessageFace("amazoneself_fc1",0,0,2,1)
   ShowMessage("\\n<Elf Amazoness>Get lost, human!\nMy heart is burning with anger towards you!")
   EndEventProcessing()
   0()
  EndIf()
  If(1,1070,0,2,1)
   ShowMessageFace("amazoneself_fc1",0,0,2,2)
   ShowMessage("\\n<Elf Amazoness>I can't deny I've always felt anger towards humans right from the start... But by having it fanned, I've stained my hands with barbaric acts unbecoming of a warrior.")
   ShowMessageFace("amazoneself_fc1",0,0,2,3)
   ShowMessage("\\n<Elf Amazoness>Because of this incident, the divide between us and humans has only widened. I doubt there is any hope now for peaceful relations...")
   EndEventProcessing()
   0()
  EndIf()
  0()



EVENT   21
 PAGE   1
  If(1,1070,0,1,0)
   ShowMessageFace("elf_fc1",0,0,2,1)
   ShowMessage("\\n<Elf>Human...")
   EndEventProcessing()
   0()
  EndIf()
  If(1,1070,0,2,1)
   ShowMessageFace("elf_fc1",0,0,2,2)
   ShowMessage("\\n<Elf>The majority of the plant race is kind and gentle.\nOnce their brainwashing is removed, I expect they will be friendly towards you.")
   ShowMessageFace("elf_fc1",0,0,2,3)
   ShowMessage("\\n<Elf>Still, what kind of a person would brainwash the alraunes...? Judging by the fact they could even brainwash the queen, they must have been very skilled.")
   355("actor_label_jump")
   EndEventProcessing()
   DefineLabel("322")
   ShowMessageFace("queenalraune_fc1",3,0,2,4)
   ShowMessage("\\n<Alrauna>Aži Dahāka...\nWhat a dreadful monster she is...")
   EndEventProcessing()
   0()
  EndIf()
  0()



EVENT   22
 PAGE   1
  If(1,1070,0,1,0)
   ShowMessageFace("fairys_fc1",2,0,2,1)
   ShowMessage("\\n<Fairy>Don't bully meee!")
   EndEventProcessing()
   0()
  EndIf()
  If(1,1070,0,2,1)
   ShowMessageFace("fairys_fc1",0,0,2,2)
   ShowMessage("\\n<Fairy>The World Tree is...a big, BIG tree.\nThe inside is a dungeon where many flower monsters live.")
   ShowMessageFace("fairys_fc1",0,0,2,3)
   ShowMessage("\\n<Fairy>And, the World Tree's leaves and fruit can be used as medicine. A Monster Lord from long, looong ago had planted it to create medicine.")
   355("actor_label_jump")
   EndEventProcessing()
   DefineLabel("322")
   ShowMessageFace("queenalraune_fc1",3,0,2,4)
   ShowMessage("\\n<Alrauna>The one who planted the World Tree was the second Monster Lord. She did so to suppress a disease which had run rampant back then.")
   ShowMessageFace("queenalraune_fc1",3,0,2,5)
   ShowMessage("\\n<Alrauna>This feat is accredited to the first Monster Lord according to some documents, but... How did such a discrepancy arise?")
   If(4,45,0)
    ShowMessageFace("alicetromeria_fc1",0,0,2,6)
    ShowMessage("\\n<Alicetroemeria>Even in other documents, the first and the second are often mixed up. I believe this is because they were attributed after their deaths...")
    0()
   EndIf()
   EndEventProcessing()
   0()
  EndIf()
  0()



EVENT   23
 PAGE   1
  If(1,1070,0,1,0)
   ShowMessageFace("fairys_fc3",2,0,2,1)
   ShowMessage("\\n<Fairy>Humans are scary!")
   EndEventProcessing()
   0()
  EndIf()
  If(1,1070,0,2,1)
   ShowMessageFace("fairys_fc3",0,0,2,2)
   ShowMessage("\\n<Fairy>The princess of the Elf Village almost never comes out of her mansion... She's what they call a \"shut-in\", right?")
   EndEventProcessing()
   0()
  EndIf()
  0()



EVENT   24
 PAGE   1
  If(1,1070,0,1,0)
   ShowMessageFace("elf_fc1",0,0,2,1)
   ShowMessage("\\n<Elf>I'd love to shoot an arrow through your heart...")
   EndEventProcessing()
   0()
  EndIf()
  If(1,1070,0,2,1)
   ShowMessageFace("elf_fc1",0,0,2,2)
   ShowMessage("\\n<Elf>I'm aiming to take up the advanced hunter job [Holy Archer], but without the \\ii[627] I can't change to that job.")
   ShowMessageFace("elf_fc1",0,0,2,3)
   ShowMessage("\\n<Elf>I would like to ask the Elf Princess to lend it to me, but even an elf like me wouldn't be able to enter her village. Ahh, my dreams have been shattered...")
   EndEventProcessing()
   0()
  EndIf()
  0()



EVENT   25
 PAGE   1
  // condition: variable 1123 >= 2
  0()
 PAGE   2
  // condition: variable 1123 >= 3
  0()



EVENT   26
 PAGE   1
  // condition: variable 1123 >= 2
  0()
 PAGE   2
  // condition: variable 1123 >= 3
  0()



EVENT   27
 PAGE   1
  ShowMessageFace("",0,0,2,1)
  ShowMessage("It's a recovery pot!")
  250(bytes(0x04,0x08,0x6f,0x3a,0x0c,0x52,0x50,0x47,0x3a,0x3a,0x53,0x45,0x08,0x3a,0x0a,0x40,0x6e,0x61,0x6d,0x65,0x49,0x22,0x0a,0x48,0x65,0x61,0x6c,0x37,0x06,0x3a,0x06,0x45,0x54,0x3a,0x0b,0x40,0x70,0x69,0x74,0x63,0x68,0x69,0x69,0x3a,0x0c,0x40,0x76,0x6f,0x6c,0x75,0x6d,0x65,0x69,0x55))
  224(bytes(0x04,0x08,0x75,0x3a,0x0a,0x43,0x6f,0x6c,0x6f,0x72,0x25,0x00,0x00,0x00,0x00,0x00,0xe0,0x6f,0x40,0x00,0x00,0x00,0x00,0x00,0xe0,0x6f,0x40,0x00,0x00,0x00,0x00,0x00,0xe0,0x6f,0x40,0x00,0x00,0x00,0x00,0x00,0xe0,0x6f,0x40),30,true)
  314(0,0)
  ShowMessageFace("",0,0,2,2)
  ShowMessage("The party's HP and MP have been fully restored!")
  0()



EVENT   28
 PAGE   1
  // condition: variable 1123 >= 2
  ShowMessageFace("usagi_fc1",0,0,2,1)
  ShowMessage("\\n<Barbun>Teii!")
  212(29,297,true)
  Wait(60)
  ShowMessageFace("bunnyslime_fc1",0,0,2,2)
  ShowMessage("\\n<Bunni>Yah!")
  212(30,14,true)
  Wait(60)
  ShowMessageFace("bunnyslime_fc1",2,0,2,3)
  ShowMessage("\\n<Bunni>Ughh...")
  205(25,bytes(0x04,0x08,0x6f,0x3a,0x13,0x52,0x50,0x47,0x3a,0x3a,0x4d,0x6f,0x76,0x65,0x52,0x6f,0x75,0x74,0x65,0x09,0x3a,0x0c,0x40,0x72,0x65,0x70,0x65,0x61,0x74,0x46,0x3a,0x0f,0x40,0x73,0x6b,0x69,0x70,0x70,0x61,0x62,0x6c,0x65,0x46,0x3a,0x0a,0x40,0x77,0x61,0x69,0x74,0x54,0x3a,0x0a,0x40,0x6c,0x69,0x73,0x74,0x5b,0x07,0x6f,0x3a,0x15,0x52,0x50,0x47,0x3a,0x3a,0x4d,0x6f,0x76,0x65,0x43,0x6f,0x6d,0x6d,0x61,0x6e,0x64,0x07,0x3a,0x0a,0x40,0x63,0x6f,0x64,0x65,0x69,0x15,0x3a,0x10,0x40,0x70,0x61,0x72,0x61,0x6d,0x65,0x74,0x65,0x72,0x73,0x5b,0x00,0x6f,0x3b,0x0a,0x07,0x3b,0x0b,0x69,0x00,0x3b,0x0c,0x5b,0x00))
  205(26,bytes(0x04,0x08,0x6f,0x3a,0x13,0x52,0x50,0x47,0x3a,0x3a,0x4d,0x6f,0x76,0x65,0x52,0x6f,0x75,0x74,0x65,0x09,0x3a,0x0c,0x40,0x72,0x65,0x70,0x65,0x61,0x74,0x46,0x3a,0x0f,0x40,0x73,0x6b,0x69,0x70,0x70,0x61,0x62,0x6c,0x65,0x46,0x3a,0x0a,0x40,0x77,0x61,0x69,0x74,0x54,0x3a,0x0a,0x40,0x6c,0x69,0x73,0x74,0x5b,0x07,0x6f,0x3a,0x15,0x52,0x50,0x47,0x3a,0x3a,0x4d,0x6f,0x76,0x65,0x43,0x6f,0x6d,0x6d,0x61,0x6e,0x64,0x07,0x3a,0x0a,0x40,0x63,0x6f,0x64,0x65,0x69,0x15,0x3a,0x10,0x40,0x70,0x61,0x72,0x61,0x6d,0x65,0x74,0x65,0x72,0x73,0x5b,0x00,0x6f,0x3b,0x0a,0x07,0x3b,0x0b,0x69,0x00,0x3b,0x0c,0x5b,0x00))
  ShowMessageFace("queenelf_fc1",0,0,2,4)
  ShowMessage("\\n<Freya>Looks like Barbun improved with a little training. As for Bunni...you need to work a little harder.")
  ShowMessageFace("usagi_fc1",0,0,2,5)
  ShowMessage("\\n<Barbun>Thank you very much!")
  250(bytes(0x04,0x08,0x6f,0x3a,0x0c,0x52,0x50,0x47,0x3a,0x3a,0x53,0x45,0x08,0x3a,0x0a,0x40,0x6e,0x61,0x6d,0x65,0x49,0x22,0x0a,0x49,0x74,0x65,0x6d,0x31,0x06,0x3a,0x06,0x45,0x54,0x3a,0x0b,0x40,0x70,0x69,0x74,0x63,0x68,0x69,0x69,0x3a,0x0c,0x40,0x76,0x6f,0x6c,0x75,0x6d,0x65,0x69,0x55))
  ShowMessageFace("",0,0,2,6)
  ShowMessage("Barbun has learned \\I[1345]\\C[1]Multiple Arrow\\C[0]!")
  ShowMessageFace("queenelf_fc1",0,0,2,7)
  ShowMessage("\\n<Freya>At this rate...\nYou should be able to master the secret elven bow skill after about a hundred more years of training.")
  ShowMessageFace("usagi_fc1",2,0,2,8)
  ShowMessage("\\n<Barbun>A hundred years, is it...? That's a long way to go.")
  Wait(30)
  241(bytes(0x04,0x08,0x6f,0x3a,0x0d,0x52,0x50,0x47,0x3a,0x3a,0x42,0x47,0x4d,0x08,0x3a,0x0a,0x40,0x6e,0x61,0x6d,0x65,0x49,0x22,0x0a,0x73,0x74,0x65,0x69,0x6e,0x06,0x3a,0x06,0x45,0x54,0x3a,0x0c,0x40,0x76,0x6f,0x6c,0x75,0x6d,0x65,0x69,0x69,0x3a,0x0b,0x40,0x70,0x69,0x74,0x63,0x68,0x69,0x69))
  ShowMessageFace("",1,0,2,9)
  ShowMessage("\\n<？？？>Fufufufu...\nThere are better ways to master it than continuing down a steady path of training.")
  205(31,bytes(0x04,0x08,0x6f,0x3a,0x13,0x52,0x50,0x47,0x3a,0x3a,0x4d,0x6f,0x76,0x65,0x52,0x6f,0x75,0x74,0x65,0x09,0x3a,0x0c,0x40,0x72,0x65,0x70,0x65,0x61,0x74,0x46,0x3a,0x0f,0x40,0x73,0x6b,0x69,0x70,0x70,0x61,0x62,0x6c,0x65,0x46,0x3a,0x0a,0x40,0x77,0x61,0x69,0x74,0x46,0x3a,0x0a,0x40,0x6c,0x69,0x73,0x74,0x5b,0x0c,0x6f,0x3a,0x15,0x52,0x50,0x47,0x3a,0x3a,0x4d,0x6f,0x76,0x65,0x43,0x6f,0x6d,0x6d,0x61,0x6e,0x64,0x07,0x3a,0x0a,0x40,0x63,0x6f,0x64,0x65,0x69,0x09,0x3a,0x10,0x40,0x70,0x61,0x72,0x61,0x6d,0x65,0x74,0x65,0x72,0x73,0x5b,0x00,0x6f,0x3b,0x0a,0x07,0x3b,0x0b,0x69,0x09,0x3b,0x0c,0x5b,0x00,0x6f,0x3b,0x0a,0x07,0x3b,0x0b,0x69,0x09,0x3b,0x0c,0x5b,0x00,0x6f,0x3b,0x0a,0x07,0x3b,0x0b,0x69,0x09,0x3b,0x0c,0x5b,0x00,0x6f,0x3b,0x0a,0x07,0x3b,0x0b,0x69,0x09,0x3b,0x0c,0x5b,0x00,0x6f,0x3b,0x0a,0x07,0x3b,0x0b,0x69,0x09,0x3b,0x0c,0x5b,0x00,0x6f,0x3b,0x0a,0x07,0x3b,0x0b,0x69,0x00,0x3b,0x0c,0x5b,0x00))
  Wait(120)
  ShowMessageFace("stein_fc2",1,0,2,10)
  ShowMessage("\\n<Promestein>If you want to master an elven bow skill, you just have to become an elf. Once I inject you with this [Forest Extract], you will become one.")
  ShowMessageFace("usagi_fc1",2,0,2,11)
  ShowMessage("\\n<Barbun>Me? An elf...?\nBut what if I become a slut...?")
  ShowMessageFace("queenelf_fc1",0,0,2,12)
  ShowMessage("\\n<Freya>Elves aren't sluts, you're being rude...")
  ShowMessageFace("stein_fc2",1,0,2,13)
  ShowMessage("\\n<Promestein>It's okay, there's no need to be scared.\nNow come, let's make you into an elf!")
  ShowMessageFace("usagi_fc1",0,0,2,14)
  ShowMessage("\\n<Barbun>If I can learn elven bow skills that way...\nFine, I'll take that injection.")
  205(31,bytes(0x04,0x08,0x6f,0x3a,0x13,0x52,0x50,0x47,0x3a,0x3a,0x4d,0x6f,0x76,0x65,0x52,0x6f,0x75,0x74,0x65,0x09,0x3a,0x0c,0x40,0x72,0x65,0x70,0x65,0x61,0x74,0x46,0x3a,0x0f,0x40,0x73,0x6b,0x69,0x70,0x70,0x61,0x62,0x6c,0x65,0x46,0x3a,0x0a,0x40,0x77,0x61,0x69,0x74,0x54,0x3a,0x0a,0x40,0x6c,0x69,0x73,0x74,0x5b,0x07,0x6f,0x3a,0x15,0x52,0x50,0x47,0x3a,0x3a,0x4d,0x6f,0x76,0x65,0x43,0x6f,0x6d,0x6d,0x61,0x6e,0x64,0x07,0x3a,0x0a,0x40,0x63,0x6f,0x64,0x65,0x69,0x09,0x3a,0x10,0x40,0x70,0x61,0x72,0x61,0x6d,0x65,0x74,0x65,0x72,0x73,0x5b,0x00,0x6f,0x3b,0x0a,0x07,0x3b,0x0b,0x69,0x00,0x3b,0x0c,0x5b,0x00))
  ShowMessageFace("stein_fc2",1,0,2,15)
  ShowMessage("\\n<Promestein>Very well, here I go.\nNow, inject...♪")
  ShowMessageFace("",0,0,2,16)
  ShowMessage("Promestein injected Barbun with the Forest Extract!")
  ShowMessageFace("usagi_fc1",2,0,2,17)
  ShowMessage("\\n<Barbun>.........")
  ShowMessageFace("usagi_fc1",0,0,2,18)
  ShowMessage("\\n<Barbun>...I somehow feel that I must protect the forest.")
  250(bytes(0x04,0x08,0x6f,0x3a,0x0c,0x52,0x50,0x47,0x3a,0x3a,0x53,0x45,0x08,0x3a,0x0a,0x40,0x6e,0x61,0x6d,0x65,0x49,0x22,0x11,0x6d,0x6f,0x6e,0x5f,0x66,0x61,0x6e,0x66,0x61,0x6c,0x65,0x32,0x06,0x3a,0x06,0x45,0x54,0x3a,0x0b,0x40,0x70,0x69,0x74,0x63,0x68,0x69,0x69,0x3a,0x0c,0x40,0x76,0x6f,0x6c,0x75,0x6d,0x65,0x69,0x69))
  355("set_class_level(74, 203, 10, false, false)")
  655("set_class_level(74, 204, 10, false, true)")
  ShowMessageFace("",0,0,2,19)
  ShowMessage("Barbun's race has changed to Elf!")
  ShowMessageFace("stein_fc2",1,0,2,20)
  ShowMessage("\\n<Promestein>We did it, the experiment was a success!\nI've perfected a drug that changes beasts into elves!")
  ShowMessageFace("bunnyslime_fc1",0,0,2,21)
  ShowMessage("\\n<Bunni>Yaay, good for you!")
  ShowMessageFace("queenelf_fc1",0,0,2,22)
  ShowMessage("\\n<Freya>Oh my, to think that I would welcome a new sister in such a way. Make sure continue to training so that you do not bring shame upon elven race.")
  ShowMessageFace("usagi_fc1",0,0,2,23)
  ShowMessage("\\n<Barbun>Yes, my queen!")
  ShowMessageFace("usagi_fc1",1,0,2,24)
  ShowMessage("\\n<Barbun>...Ufufu.")
  ShowMessageFace("",0,0,2,25)
  ShowMessage("Barbun has become a little lewd...")
  Wait(60)
  355("gain_medal(2118)")
  221()
  ChangeSwitch(1923,1923,0)
  ChangeVariable(1123,1123,0,0,3)
  Wait(60)
  TeleportPlayer(0,126,15,13,2,2)
  211(1)
  222()
  0()
 PAGE   2
  // condition: variable 1123 >= 3
  0()



EVENT   29
 PAGE   1
  // condition: variable 1123 >= 2
  0()
 PAGE   2
  // condition: variable 1123 >= 3
  0()



EVENT   30
 PAGE   1
  0()



EVENT   31
 PAGE   1
  // condition: variable 1123 >= 2
  0()
 PAGE   2
  // condition: variable 1123 >= 3
  0()
