﻿


EVENT   1
 PAGE   1
  If(1,1063,0,0,0)
   If(0,2181,1)
    205(15,bytes(0x04,0x08,0x6f,0x3a,0x13,0x52,0x50,0x47,0x3a,0x3a,0x4d,0x6f,0x76,0x65,0x52,0x6f,0x75,0x74,0x65,0x09,0x3a,0x0c,0x40,0x72,0x65,0x70,0x65,0x61,0x74,0x46,0x3a,0x0f,0x40,0x73,0x6b,0x69,0x70,0x70,0x61,0x62,0x6c,0x65,0x46,0x3a,0x0a,0x40,0x77,0x61,0x69,0x74,0x54,0x3a,0x0a,0x40,0x6c,0x69,0x73,0x74,0x5b,0x07,0x6f,0x3a,0x15,0x52,0x50,0x47,0x3a,0x3a,0x4d,0x6f,0x76,0x65,0x43,0x6f,0x6d,0x6d,0x61,0x6e,0x64,0x07,0x3a,0x0a,0x40,0x63,0x6f,0x64,0x65,0x69,0x16,0x3a,0x10,0x40,0x70,0x61,0x72,0x61,0x6d,0x65,0x74,0x65,0x72,0x73,0x5b,0x00,0x6f,0x3b,0x0a,0x07,0x3b,0x0b,0x69,0x00,0x3b,0x0c,0x5b,0x00))
    ShowMessageFace("",0,0,2,1)
    ShowMessage("\\n<Shrine Maiden>...who's that? He's really suspicious!")
    205(-1,bytes(0x04,0x08,0x6f,0x3a,0x13,0x52,0x50,0x47,0x3a,0x3a,0x4d,0x6f,0x76,0x65,0x52,0x6f,0x75,0x74,0x65,0x09,0x3a,0x0c,0x40,0x72,0x65,0x70,0x65,0x61,0x74,0x46,0x3a,0x0f,0x40,0x73,0x6b,0x69,0x70,0x70,0x61,0x62,0x6c,0x65,0x46,0x3a,0x0a,0x40,0x77,0x61,0x69,0x74,0x54,0x3a,0x0a,0x40,0x6c,0x69,0x73,0x74,0x5b,0x07,0x6f,0x3a,0x15,0x52,0x50,0x47,0x3a,0x3a,0x4d,0x6f,0x76,0x65,0x43,0x6f,0x6d,0x6d,0x61,0x6e,0x64,0x07,0x3a,0x0a,0x40,0x63,0x6f,0x64,0x65,0x69,0x07,0x3a,0x10,0x40,0x70,0x61,0x72,0x61,0x6d,0x65,0x74,0x65,0x72,0x73,0x5b,0x00,0x6f,0x3b,0x0a,0x07,0x3b,0x0b,0x69,0x00,0x3b,0x0c,0x5b,0x00))
    EndEventProcessing()
    0()
   EndIf()
   0()
  EndIf()
  281(1)
  250(bytes(0x04,0x08,0x6f,0x3a,0x0c,0x52,0x50,0x47,0x3a,0x3a,0x53,0x45,0x08,0x3a,0x0a,0x40,0x6e,0x61,0x6d,0x65,0x49,0x22,0x09,0x4d,0x6f,0x76,0x65,0x06,0x3a,0x06,0x45,0x54,0x3a,0x0b,0x40,0x70,0x69,0x74,0x63,0x68,0x69,0x69,0x3a,0x0c,0x40,0x76,0x6f,0x6c,0x75,0x6d,0x65,0x69,0x55))
  TeleportPlayer(0,509,6,3,6,0)
  0()



EVENT   2
 PAGE   1
  If(1,1063,0,0,0)
   If(0,2181,1)
    205(15,bytes(0x04,0x08,0x6f,0x3a,0x13,0x52,0x50,0x47,0x3a,0x3a,0x4d,0x6f,0x76,0x65,0x52,0x6f,0x75,0x74,0x65,0x09,0x3a,0x0c,0x40,0x72,0x65,0x70,0x65,0x61,0x74,0x46,0x3a,0x0f,0x40,0x73,0x6b,0x69,0x70,0x70,0x61,0x62,0x6c,0x65,0x46,0x3a,0x0a,0x40,0x77,0x61,0x69,0x74,0x54,0x3a,0x0a,0x40,0x6c,0x69,0x73,0x74,0x5b,0x07,0x6f,0x3a,0x15,0x52,0x50,0x47,0x3a,0x3a,0x4d,0x6f,0x76,0x65,0x43,0x6f,0x6d,0x6d,0x61,0x6e,0x64,0x07,0x3a,0x0a,0x40,0x63,0x6f,0x64,0x65,0x69,0x16,0x3a,0x10,0x40,0x70,0x61,0x72,0x61,0x6d,0x65,0x74,0x65,0x72,0x73,0x5b,0x00,0x6f,0x3b,0x0a,0x07,0x3b,0x0b,0x69,0x00,0x3b,0x0c,0x5b,0x00))
    ShowMessageFace("",0,0,2,1)
    ShowMessage("\\n<Shrine Maiden>...who's that? He's really suspicious!")
    205(-1,bytes(0x04,0x08,0x6f,0x3a,0x13,0x52,0x50,0x47,0x3a,0x3a,0x4d,0x6f,0x76,0x65,0x52,0x6f,0x75,0x74,0x65,0x09,0x3a,0x0c,0x40,0x72,0x65,0x70,0x65,0x61,0x74,0x46,0x3a,0x0f,0x40,0x73,0x6b,0x69,0x70,0x70,0x61,0x62,0x6c,0x65,0x46,0x3a,0x0a,0x40,0x77,0x61,0x69,0x74,0x54,0x3a,0x0a,0x40,0x6c,0x69,0x73,0x74,0x5b,0x07,0x6f,0x3a,0x15,0x52,0x50,0x47,0x3a,0x3a,0x4d,0x6f,0x76,0x65,0x43,0x6f,0x6d,0x6d,0x61,0x6e,0x64,0x07,0x3a,0x0a,0x40,0x63,0x6f,0x64,0x65,0x69,0x07,0x3a,0x10,0x40,0x70,0x61,0x72,0x61,0x6d,0x65,0x74,0x65,0x72,0x73,0x5b,0x00,0x6f,0x3b,0x0a,0x07,0x3b,0x0b,0x69,0x00,0x3b,0x0c,0x5b,0x00))
    EndEventProcessing()
    0()
   EndIf()
   0()
  EndIf()
  281(1)
  250(bytes(0x04,0x08,0x6f,0x3a,0x0c,0x52,0x50,0x47,0x3a,0x3a,0x53,0x45,0x08,0x3a,0x0a,0x40,0x6e,0x61,0x6d,0x65,0x49,0x22,0x09,0x4d,0x6f,0x76,0x65,0x06,0x3a,0x06,0x45,0x54,0x3a,0x0b,0x40,0x70,0x69,0x74,0x63,0x68,0x69,0x69,0x3a,0x0c,0x40,0x76,0x6f,0x6c,0x75,0x6d,0x65,0x69,0x55))
  TeleportPlayer(0,509,6,3,6,0)
  0()

EVENT   4
 PAGE   1
  281(1)
  250(bytes(0x04,0x08,0x6f,0x3a,0x0c,0x52,0x50,0x47,0x3a,0x3a,0x53,0x45,0x08,0x3a,0x0a,0x40,0x6e,0x61,0x6d,0x65,0x49,0x22,0x09,0x4d,0x6f,0x76,0x65,0x06,0x3a,0x06,0x45,0x54,0x3a,0x0b,0x40,0x70,0x69,0x74,0x63,0x68,0x69,0x69,0x3a,0x0c,0x40,0x76,0x6f,0x6c,0x75,0x6d,0x65,0x69,0x55))
  TeleportPlayer(0,507,5,1,0,0)
  0()



EVENT   5
 PAGE   1
  ShowMessageFace("youko_fc1",2,0,2,1)
  ShowMessage("\\n<Futon>Oh Tamamo-sama, what on earth has happened with you...?")
  355("actor_label_jump")
  EndEventProcessing()
  DefineLabel("5")
  ShowMessageFace("alice_fc5",6,0,2,2)
  ShowMessage("\\n<Alice>What's with your name!?")
  EndEventProcessing()
  0()
 PAGE   2
  // condition: variable 1063 >= 13
  If(1,1217,0,2,1)
   If(1,1217,0,3,2)
    ShowMessageFace("youko_fc1",0,0,2,1)
    ShowMessage("\\n<Futon>Daji...?\nNope, I haven't seen her.")
    EndEventProcessing()
    0()
   EndIf()
   0()
  EndIf()
  ShowMessageFace("youko_fc1",0,0,2,2)
  ShowMessage("\\n<Futon>Tamamo-sama is all better now♪")
  355("actor_label_jump")
  EndEventProcessing()
  DefineLabel("102")
  ShowMessageFace("youko_fc1",0,0,2,3)
  ShowMessage("\\n<Kitsu>Whoopie!")
  EndEventProcessing()
  DefineLabel("103")
  ShowMessageFace("kamuro_fc1",1,0,2,4)
  ShowMessage("\\n<Kamuro>That's a relief...♪")
  EndEventProcessing()
  0()



EVENT   6
 PAGE   1
  281(1)
  250(bytes(0x04,0x08,0x6f,0x3a,0x0c,0x52,0x50,0x47,0x3a,0x3a,0x53,0x45,0x08,0x3a,0x0a,0x40,0x6e,0x61,0x6d,0x65,0x49,0x22,0x09,0x4d,0x6f,0x76,0x65,0x06,0x3a,0x06,0x45,0x54,0x3a,0x0b,0x40,0x70,0x69,0x74,0x63,0x68,0x69,0x69,0x3a,0x0c,0x40,0x76,0x6f,0x6c,0x75,0x6d,0x65,0x69,0x55))
  TeleportPlayer(0,507,5,1,0,0)
  0()



EVENT   7
 PAGE   1
  281(1)
  250(bytes(0x04,0x08,0x6f,0x3a,0x0c,0x52,0x50,0x47,0x3a,0x3a,0x53,0x45,0x08,0x3a,0x0a,0x40,0x6e,0x61,0x6d,0x65,0x49,0x22,0x09,0x4d,0x6f,0x76,0x65,0x06,0x3a,0x06,0x45,0x54,0x3a,0x0b,0x40,0x70,0x69,0x74,0x63,0x68,0x69,0x69,0x3a,0x0c,0x40,0x76,0x6f,0x6c,0x75,0x6d,0x65,0x69,0x55))
  TeleportPlayer(0,507,6,1,0,0)
  0()



EVENT   8
 PAGE   1
  281(1)
  250(bytes(0x04,0x08,0x6f,0x3a,0x0c,0x52,0x50,0x47,0x3a,0x3a,0x53,0x45,0x08,0x3a,0x0a,0x40,0x6e,0x61,0x6d,0x65,0x49,0x22,0x09,0x4d,0x6f,0x76,0x65,0x06,0x3a,0x06,0x45,0x54,0x3a,0x0b,0x40,0x70,0x69,0x74,0x63,0x68,0x69,0x69,0x3a,0x0c,0x40,0x76,0x6f,0x6c,0x75,0x6d,0x65,0x69,0x55))
  TeleportPlayer(0,507,6,1,0,0)
  0()



EVENT   9
 PAGE   1
  ShowMessageFace("kunoitisanbi_fc1",0,0,2,1)
  ShowMessage("\\n<Three-tailed Kunoichi>We're Tamamo's bodyguards.")
  0()
 PAGE   2
  // condition: variable 1063 >= 13
  ShowMessageFace("",0,0,2,1)
  ShowMessage("\\n<Fox>Kwon!")
  0()



EVENT   10
 PAGE   1
  ShowMessageFace("mononohuyonbi_fc1",0,0,2,1)
  ShowMessage("\\n<Four-tailed Samurai>Hmm... Okay, you can pass.")
  0()
 PAGE   2
  // condition: variable 1063 >= 13
  ShowMessageFace("",0,0,2,1)
  ShowMessage("\\n<Fox>Kwon!")
  0()



EVENT   11
 PAGE   1
  217()
  PictureDisplay(5,"80_nero_st01b",0,0,0,0,100,100,0,0)
  PictureMove(5,null,0,0,0,0,100,100,255,0,30,true)
  ShowMessageFace("nero_fc1",0,0,2,1)
  ShowMessage("\\n<Nero>Oh hi, fancy seeing you here.\nThis coincidental meeting is quite unexpected.")
  If(0,4,0)
   ShowMessageFace("alice_fc5",5,0,2,2)
   ShowMessage("\\n<Alice>Those foxes sure are fond of you...\nDid you do something?")
   0()
  EndIf()
  If(0,5,0)
   ShowMessageFace("iriasu_fc4",2,0,2,3)
   ShowMessage("\\n<Ilias>Those foxes are rather fond of you for some reason... Did you do something?")
   0()
  EndIf()
  ShowMessageFace("nero_fc1",0,0,2,4)
  ShowMessage("\\n<Nero>No... It's probably because of the environment in which I was raised. Anyway, so how's your journey going?")
  ShowMessageFace("nero_fc1",0,0,2,5)
  ShowMessage("\\n<Nero>I can't explain much to you, but I'm sure you've seen many strange things so far.")
  ShowChoices(strings("What do you know?","Who are you?","You're one of the strange things."),0)
  IfPlayerPicksChoice(0,null)
   ShowMessageFace("nero_fc1",0,0,2,6)
   ShowMessage("\\n<Nero>What I know is full of things I shouldn't explain. You're going to have to learn and see with your own eyes.")
   0()
  IfPlayerPicksChoice(1,null)
   ShowMessageFace("nero_fc1",0,0,2,7)
   ShowMessage("\\n<Nero>I am nothing more than a passing traveler.")
   0()
  IfPlayerPicksChoice(2,null)
   ShowMessageFace("nero_fc1",2,0,2,8)
   ShowMessage("\\n<Nero>R-really? I apologize.")
   0()
  404()
  PictureClear(5)
  Wait(60)
  241(bytes(0x04,0x08,0x6f,0x3a,0x0d,0x52,0x50,0x47,0x3a,0x3a,0x42,0x47,0x4d,0x08,0x3a,0x0a,0x40,0x6e,0x61,0x6d,0x65,0x49,0x22,0x10,0x73,0x63,0x65,0x6e,0x65,0x5f,0x63,0x6f,0x6d,0x69,0x31,0x06,0x3a,0x06,0x45,0x54,0x3a,0x0c,0x40,0x76,0x6f,0x6c,0x75,0x6d,0x65,0x69,0x69,0x3a,0x0b,0x40,0x70,0x69,0x74,0x63,0x68,0x69,0x69))
  ChangeSwitch(31,31,0)
  205(17,bytes(0x04,0x08,0x6f,0x3a,0x13,0x52,0x50,0x47,0x3a,0x3a,0x4d,0x6f,0x76,0x65,0x52,0x6f,0x75,0x74,0x65,0x09,0x3a,0x0c,0x40,0x72,0x65,0x70,0x65,0x61,0x74,0x46,0x3a,0x0f,0x40,0x73,0x6b,0x69,0x70,0x70,0x61,0x62,0x6c,0x65,0x46,0x3a,0x0a,0x40,0x77,0x61,0x69,0x74,0x46,0x3a,0x0a,0x40,0x6c,0x69,0x73,0x74,0x5b,0x09,0x6f,0x3a,0x15,0x52,0x50,0x47,0x3a,0x3a,0x4d,0x6f,0x76,0x65,0x43,0x6f,0x6d,0x6d,0x61,0x6e,0x64,0x07,0x3a,0x0a,0x40,0x63,0x6f,0x64,0x65,0x69,0x06,0x3a,0x10,0x40,0x70,0x61,0x72,0x61,0x6d,0x65,0x74,0x65,0x72,0x73,0x5b,0x00,0x6f,0x3b,0x0a,0x07,0x3b,0x0b,0x69,0x06,0x3b,0x0c,0x5b,0x00,0x6f,0x3b,0x0a,0x07,0x3b,0x0b,0x69,0x06,0x3b,0x0c,0x5b,0x00,0x6f,0x3b,0x0a,0x07,0x3b,0x0b,0x69,0x00,0x3b,0x0c,0x5b,0x00))
  205(18,bytes(0x04,0x08,0x6f,0x3a,0x13,0x52,0x50,0x47,0x3a,0x3a,0x4d,0x6f,0x76,0x65,0x52,0x6f,0x75,0x74,0x65,0x09,0x3a,0x0c,0x40,0x72,0x65,0x70,0x65,0x61,0x74,0x46,0x3a,0x0f,0x40,0x73,0x6b,0x69,0x70,0x70,0x61,0x62,0x6c,0x65,0x46,0x3a,0x0a,0x40,0x77,0x61,0x69,0x74,0x54,0x3a,0x0a,0x40,0x6c,0x69,0x73,0x74,0x5b,0x09,0x6f,0x3a,0x15,0x52,0x50,0x47,0x3a,0x3a,0x4d,0x6f,0x76,0x65,0x43,0x6f,0x6d,0x6d,0x61,0x6e,0x64,0x07,0x3a,0x0a,0x40,0x63,0x6f,0x64,0x65,0x69,0x07,0x3a,0x10,0x40,0x70,0x61,0x72,0x61,0x6d,0x65,0x74,0x65,0x72,0x73,0x5b,0x00,0x6f,0x3b,0x0a,0x07,0x3b,0x0b,0x69,0x07,0x3b,0x0c,0x5b,0x00,0x6f,0x3b,0x0a,0x07,0x3b,0x0b,0x69,0x07,0x3b,0x0c,0x5b,0x00,0x6f,0x3b,0x0a,0x07,0x3b,0x0b,0x69,0x00,0x3b,0x0c,0x5b,0x00))
  ShowMessageFace("ruka_fc1",0,0,2,9)
  ShowMessage("\\n<Luka>There sure are a lot of foxes...")
  ShowMessageFace("nero_fc1",0,0,2,10)
  ShowMessage("\\n<Nero>Oh, don't worry about them...")
  If(0,6,0)
   ShowMessageFace("sonia_fc2",2,0,2,11)
   ShowMessage("\\n<Sonya>By the way, the White Rabbit stole your glasses, right? She gave them to us for some reason.")
   0()
  Else()
   ShowMessageFace("ruka_fc1",0,0,2,12)
   ShowMessage("\\n<Luka>By the way, the White Rabbit stole your glasses, right? She gave them to us for some reason.")
   0()
  EndIf()
  ShowMessageFace("nero_fc1",0,0,2,13)
  ShowMessage("\\n<Nero>Indeed, that was an embarrassing defeat for me. I shall not repeat that blunder again.")
  ShowMessageFace("nero_fc1",1,0,2,14)
  ShowMessage("\\n<Nero>The glasses I'm wearing now are my mega glasses. They're 1000 times stronger than the old ones.")
  If(4,41,0)
   ShowMessageFace("stein_fc2",1,0,2,15)
   ShowMessage("\\n<Promestein>If those get stolen, will the next pair be giga glasses?")
   0()
  EndIf()
  ChangeSwitch(32,32,0)
  205(19,bytes(0x04,0x08,0x6f,0x3a,0x13,0x52,0x50,0x47,0x3a,0x3a,0x4d,0x6f,0x76,0x65,0x52,0x6f,0x75,0x74,0x65,0x09,0x3a,0x0c,0x40,0x72,0x65,0x70,0x65,0x61,0x74,0x46,0x3a,0x0f,0x40,0x73,0x6b,0x69,0x70,0x70,0x61,0x62,0x6c,0x65,0x46,0x3a,0x0a,0x40,0x77,0x61,0x69,0x74,0x46,0x3a,0x0a,0x40,0x6c,0x69,0x73,0x74,0x5b,0x09,0x6f,0x3a,0x15,0x52,0x50,0x47,0x3a,0x3a,0x4d,0x6f,0x76,0x65,0x43,0x6f,0x6d,0x6d,0x61,0x6e,0x64,0x07,0x3a,0x0a,0x40,0x63,0x6f,0x64,0x65,0x69,0x06,0x3a,0x10,0x40,0x70,0x61,0x72,0x61,0x6d,0x65,0x74,0x65,0x72,0x73,0x5b,0x00,0x6f,0x3b,0x0a,0x07,0x3b,0x0b,0x69,0x06,0x3b,0x0c,0x5b,0x00,0x6f,0x3b,0x0a,0x07,0x3b,0x0b,0x69,0x06,0x3b,0x0c,0x5b,0x00,0x6f,0x3b,0x0a,0x07,0x3b,0x0b,0x69,0x00,0x3b,0x0c,0x5b,0x00))
  205(20,bytes(0x04,0x08,0x6f,0x3a,0x13,0x52,0x50,0x47,0x3a,0x3a,0x4d,0x6f,0x76,0x65,0x52,0x6f,0x75,0x74,0x65,0x09,0x3a,0x0c,0x40,0x72,0x65,0x70,0x65,0x61,0x74,0x46,0x3a,0x0f,0x40,0x73,0x6b,0x69,0x70,0x70,0x61,0x62,0x6c,0x65,0x46,0x3a,0x0a,0x40,0x77,0x61,0x69,0x74,0x54,0x3a,0x0a,0x40,0x6c,0x69,0x73,0x74,0x5b,0x0a,0x6f,0x3a,0x15,0x52,0x50,0x47,0x3a,0x3a,0x4d,0x6f,0x76,0x65,0x43,0x6f,0x6d,0x6d,0x61,0x6e,0x64,0x07,0x3a,0x0a,0x40,0x63,0x6f,0x64,0x65,0x69,0x09,0x3a,0x10,0x40,0x70,0x61,0x72,0x61,0x6d,0x65,0x74,0x65,0x72,0x73,0x5b,0x00,0x6f,0x3b,0x0a,0x07,0x3b,0x0b,0x69,0x09,0x3b,0x0c,0x5b,0x00,0x6f,0x3b,0x0a,0x07,0x3b,0x0b,0x69,0x09,0x3b,0x0c,0x5b,0x00,0x6f,0x3b,0x0a,0x07,0x3b,0x0b,0x69,0x09,0x3b,0x0c,0x5b,0x00,0x6f,0x3b,0x0a,0x07,0x3b,0x0b,0x69,0x00,0x3b,0x0c,0x5b,0x00))
  If(0,6,0)
   ShowMessageFace("sonia_fc2",2,0,2,16)
   ShowMessage("\\n<Sonya>Here come more foxes...")
   0()
  Else()
   ShowMessageFace("ruka_fc1",0,0,2,17)
   ShowMessage("\\n<Luka>Here come more foxes...")
   0()
  EndIf()
  ShowMessageFace("nero_fc1",0,0,2,18)
  ShowMessage("\\n<Nero>Foxes do have lots of friends. In any case, the things you've seen in other worlds--")
  ChangeSwitch(33,33,0)
  205(16,bytes(0x04,0x08,0x6f,0x3a,0x13,0x52,0x50,0x47,0x3a,0x3a,0x4d,0x6f,0x76,0x65,0x52,0x6f,0x75,0x74,0x65,0x09,0x3a,0x0c,0x40,0x72,0x65,0x70,0x65,0x61,0x74,0x46,0x3a,0x0f,0x40,0x73,0x6b,0x69,0x70,0x70,0x61,0x62,0x6c,0x65,0x46,0x3a,0x0a,0x40,0x77,0x61,0x69,0x74,0x46,0x3a,0x0a,0x40,0x6c,0x69,0x73,0x74,0x5b,0x09,0x6f,0x3a,0x15,0x52,0x50,0x47,0x3a,0x3a,0x4d,0x6f,0x76,0x65,0x43,0x6f,0x6d,0x6d,0x61,0x6e,0x64,0x07,0x3a,0x0a,0x40,0x63,0x6f,0x64,0x65,0x69,0x09,0x3a,0x10,0x40,0x70,0x61,0x72,0x61,0x6d,0x65,0x74,0x65,0x72,0x73,0x5b,0x00,0x6f,0x3b,0x0a,0x07,0x3b,0x0b,0x69,0x09,0x3b,0x0c,0x5b,0x00,0x6f,0x3b,0x0a,0x07,0x3b,0x0b,0x69,0x09,0x3b,0x0c,0x5b,0x00,0x6f,0x3b,0x0a,0x07,0x3b,0x0b,0x69,0x00,0x3b,0x0c,0x5b,0x00))
  205(21,bytes(0x04,0x08,0x6f,0x3a,0x13,0x52,0x50,0x47,0x3a,0x3a,0x4d,0x6f,0x76,0x65,0x52,0x6f,0x75,0x74,0x65,0x09,0x3a,0x0c,0x40,0x72,0x65,0x70,0x65,0x61,0x74,0x46,0x3a,0x0f,0x40,0x73,0x6b,0x69,0x70,0x70,0x61,0x62,0x6c,0x65,0x46,0x3a,0x0a,0x40,0x77,0x61,0x69,0x74,0x54,0x3a,0x0a,0x40,0x6c,0x69,0x73,0x74,0x5b,0x09,0x6f,0x3a,0x15,0x52,0x50,0x47,0x3a,0x3a,0x4d,0x6f,0x76,0x65,0x43,0x6f,0x6d,0x6d,0x61,0x6e,0x64,0x07,0x3a,0x0a,0x40,0x63,0x6f,0x64,0x65,0x69,0x08,0x3a,0x10,0x40,0x70,0x61,0x72,0x61,0x6d,0x65,0x74,0x65,0x72,0x73,0x5b,0x00,0x6f,0x3b,0x0a,0x07,0x3b,0x0b,0x69,0x08,0x3b,0x0c,0x5b,0x00,0x6f,0x3b,0x0a,0x07,0x3b,0x0b,0x69,0x08,0x3b,0x0c,0x5b,0x00,0x6f,0x3b,0x0a,0x07,0x3b,0x0b,0x69,0x00,0x3b,0x0c,0x5b,0x00))
  If(0,4,0)
   ShowMessageFace("alice_fc5",6,0,2,19)
   ShowMessage("\\n<Alice>What the hell is going on!?")
   0()
  EndIf()
  If(0,5,0)
   ShowMessageFace("iriasu_fc4",5,0,2,20)
   ShowMessage("\\n<Ilias>Hey! What is this nonsense!?")
   0()
  EndIf()
  ShowMessageFace("nero_fc1",2,0,2,21)
  ShowMessage("\\n<Nero>Do not concern yourselves...\nWhy I'm so liked by foxes is quite the quandary, though.")
  ShowMessageFace("nero_fc1",2,0,2,22)
  ShowMessage("\\n<Nero>Aaah, fox fur is getting all in my clothes. I can't get them off me...")
  ChangeSwitch(34,34,0)
  205(22,bytes(0x04,0x08,0x6f,0x3a,0x13,0x52,0x50,0x47,0x3a,0x3a,0x4d,0x6f,0x76,0x65,0x52,0x6f,0x75,0x74,0x65,0x09,0x3a,0x0c,0x40,0x72,0x65,0x70,0x65,0x61,0x74,0x46,0x3a,0x0f,0x40,0x73,0x6b,0x69,0x70,0x70,0x61,0x62,0x6c,0x65,0x46,0x3a,0x0a,0x40,0x77,0x61,0x69,0x74,0x46,0x3a,0x0a,0x40,0x6c,0x69,0x73,0x74,0x5b,0x09,0x6f,0x3a,0x15,0x52,0x50,0x47,0x3a,0x3a,0x4d,0x6f,0x76,0x65,0x43,0x6f,0x6d,0x6d,0x61,0x6e,0x64,0x07,0x3a,0x0a,0x40,0x63,0x6f,0x64,0x65,0x69,0x07,0x3a,0x10,0x40,0x70,0x61,0x72,0x61,0x6d,0x65,0x74,0x65,0x72,0x73,0x5b,0x00,0x6f,0x3b,0x0a,0x07,0x3b,0x0b,0x69,0x07,0x3b,0x0c,0x5b,0x00,0x6f,0x3b,0x0a,0x07,0x3b,0x0b,0x69,0x07,0x3b,0x0c,0x5b,0x00,0x6f,0x3b,0x0a,0x07,0x3b,0x0b,0x69,0x00,0x3b,0x0c,0x5b,0x00))
  205(23,bytes(0x04,0x08,0x6f,0x3a,0x13,0x52,0x50,0x47,0x3a,0x3a,0x4d,0x6f,0x76,0x65,0x52,0x6f,0x75,0x74,0x65,0x09,0x3a,0x0c,0x40,0x72,0x65,0x70,0x65,0x61,0x74,0x46,0x3a,0x0f,0x40,0x73,0x6b,0x69,0x70,0x70,0x61,0x62,0x6c,0x65,0x46,0x3a,0x0a,0x40,0x77,0x61,0x69,0x74,0x54,0x3a,0x0a,0x40,0x6c,0x69,0x73,0x74,0x5b,0x09,0x6f,0x3a,0x15,0x52,0x50,0x47,0x3a,0x3a,0x4d,0x6f,0x76,0x65,0x43,0x6f,0x6d,0x6d,0x61,0x6e,0x64,0x07,0x3a,0x0a,0x40,0x63,0x6f,0x64,0x65,0x69,0x08,0x3a,0x10,0x40,0x70,0x61,0x72,0x61,0x6d,0x65,0x74,0x65,0x72,0x73,0x5b,0x00,0x6f,0x3b,0x0a,0x07,0x3b,0x0b,0x69,0x08,0x3b,0x0c,0x5b,0x00,0x6f,0x3b,0x0a,0x07,0x3b,0x0b,0x69,0x08,0x3b,0x0c,0x5b,0x00,0x6f,0x3b,0x0a,0x07,0x3b,0x0b,0x69,0x00,0x3b,0x0c,0x5b,0x00))
  ShowMessageFace("ruka_fc1",0,0,2,23)
  ShowMessage("\\n<Luka>............")
  ShowMessageFace("nero_fc1",2,0,2,24)
  ShowMessage("\\n<Nero>I must apologize. I appear to have selected a poor meeting location.\nGah, stop it! That charm isn't fox food!")
  ChangeSwitch(35,35,0)
  205(24,bytes(0x04,0x08,0x6f,0x3a,0x13,0x52,0x50,0x47,0x3a,0x3a,0x4d,0x6f,0x76,0x65,0x52,0x6f,0x75,0x74,0x65,0x09,0x3a,0x0c,0x40,0x72,0x65,0x70,0x65,0x61,0x74,0x46,0x3a,0x0f,0x40,0x73,0x6b,0x69,0x70,0x70,0x61,0x62,0x6c,0x65,0x46,0x3a,0x0a,0x40,0x77,0x61,0x69,0x74,0x46,0x3a,0x0a,0x40,0x6c,0x69,0x73,0x74,0x5b,0x09,0x6f,0x3a,0x15,0x52,0x50,0x47,0x3a,0x3a,0x4d,0x6f,0x76,0x65,0x43,0x6f,0x6d,0x6d,0x61,0x6e,0x64,0x07,0x3a,0x0a,0x40,0x63,0x6f,0x64,0x65,0x69,0x07,0x3a,0x10,0x40,0x70,0x61,0x72,0x61,0x6d,0x65,0x74,0x65,0x72,0x73,0x5b,0x00,0x6f,0x3b,0x0a,0x07,0x3b,0x0b,0x69,0x07,0x3b,0x0c,0x5b,0x00,0x6f,0x3b,0x0a,0x07,0x3b,0x0b,0x69,0x07,0x3b,0x0c,0x5b,0x00,0x6f,0x3b,0x0a,0x07,0x3b,0x0b,0x69,0x00,0x3b,0x0c,0x5b,0x00))
  205(25,bytes(0x04,0x08,0x6f,0x3a,0x13,0x52,0x50,0x47,0x3a,0x3a,0x4d,0x6f,0x76,0x65,0x52,0x6f,0x75,0x74,0x65,0x09,0x3a,0x0c,0x40,0x72,0x65,0x70,0x65,0x61,0x74,0x46,0x3a,0x0f,0x40,0x73,0x6b,0x69,0x70,0x70,0x61,0x62,0x6c,0x65,0x46,0x3a,0x0a,0x40,0x77,0x61,0x69,0x74,0x54,0x3a,0x0a,0x40,0x6c,0x69,0x73,0x74,0x5b,0x09,0x6f,0x3a,0x15,0x52,0x50,0x47,0x3a,0x3a,0x4d,0x6f,0x76,0x65,0x43,0x6f,0x6d,0x6d,0x61,0x6e,0x64,0x07,0x3a,0x0a,0x40,0x63,0x6f,0x64,0x65,0x69,0x08,0x3a,0x10,0x40,0x70,0x61,0x72,0x61,0x6d,0x65,0x74,0x65,0x72,0x73,0x5b,0x00,0x6f,0x3b,0x0a,0x07,0x3b,0x0b,0x69,0x08,0x3b,0x0c,0x5b,0x00,0x6f,0x3b,0x0a,0x07,0x3b,0x0b,0x69,0x08,0x3b,0x0c,0x5b,0x00,0x6f,0x3b,0x0a,0x07,0x3b,0x0b,0x69,0x00,0x3b,0x0c,0x5b,0x00))
  ShowMessageFace("nero_fc1",2,0,2,25)
  ShowMessage("\\n<Nero>I shall take my leave for today. Until our next fortuitous encounter.")
  221()
  ShowMessageFace("",0,0,2,26)
  ShowMessage("Nero leaves...")
  250(bytes(0x04,0x08,0x6f,0x3a,0x0c,0x52,0x50,0x47,0x3a,0x3a,0x53,0x45,0x08,0x3a,0x0a,0x40,0x6e,0x61,0x6d,0x65,0x49,0x22,0x0a,0x49,0x74,0x65,0x6d,0x31,0x06,0x3a,0x06,0x45,0x54,0x3a,0x0b,0x40,0x70,0x69,0x74,0x63,0x68,0x69,0x69,0x3a,0x0c,0x40,0x76,0x6f,0x6c,0x75,0x6d,0x65,0x69,0x55))
  ChangeInventory_Item(209,0,0,5)
  Wait(60)
  ChangeSwitch(31,31,1)
  ChangeSwitch(32,32,1)
  ChangeSwitch(33,33,1)
  ChangeSwitch(34,34,1)
  ChangeSwitch(35,35,1)
  ChangeSwitch(2181,2181,0)
  222()
  241(bytes(0x04,0x08,0x6f,0x3a,0x0d,0x52,0x50,0x47,0x3a,0x3a,0x42,0x47,0x4d,0x08,0x3a,0x0a,0x40,0x6e,0x61,0x6d,0x65,0x49,0x22,0x0a,0x6d,0x75,0x72,0x61,0x37,0x06,0x3a,0x06,0x45,0x54,0x3a,0x0c,0x40,0x76,0x6f,0x6c,0x75,0x6d,0x65,0x69,0x69,0x3a,0x0b,0x40,0x70,0x69,0x74,0x63,0x68,0x69,0x69))
  If(0,4,0)
   ShowMessageFace("alice_fc5",5,0,2,27)
   ShowMessage("\\n<Alice>That guy was as worthless as ever...")
   0()
  EndIf()
  If(0,5,0)
   ShowMessageFace("iriasu_fc4",2,0,2,28)
   ShowMessage("\\n<Ilias>What in the world just happened...")
   0()
  EndIf()
  0()
 PAGE   2
  // condition: switch 2181 is ON
  0()
 PAGE   3
  // condition: variable 1063 >= 1
  0()



EVENT   12
 PAGE   1
  ShowMessageFace("",0,0,2,1)
  ShowMessage("\\n<Fox>............")
  ShowMessageFace("nero_fc1",0,0,2,2)
  ShowMessage("\\n<Nero>............")
  ShowMessageFace("ruka_fc1",0,0,2,3)
  ShowMessage("\\n<Luka>(These foxes are awfully fond of him for some reason...)")
  0()
 PAGE   2
  // condition: switch 2181 is ON
  0()
 PAGE   3
  // condition: variable 1063 >= 1
  0()



EVENT   13
 PAGE   1
  ShowMessageFace("",0,0,2,1)
  ShowMessage("\\n<Fox>............")
  ShowMessageFace("nero_fc1",0,0,2,2)
  ShowMessage("\\n<Nero>............")
  ShowMessageFace("ruka_fc1",0,0,2,3)
  ShowMessage("\\n<Luka>(These foxes are awfully fond of him for some reason...)")
  0()
 PAGE   2
  // condition: switch 2181 is ON
  0()
 PAGE   3
  // condition: variable 1063 >= 1
  0()



EVENT   14
 PAGE   1
  ShowMessageFace("",0,0,2,1)
  ShowMessage("\\n<Fox>............")
  ShowMessageFace("nero_fc1",0,0,2,2)
  ShowMessage("\\n<Nero>............")
  ShowMessageFace("ruka_fc1",0,0,2,3)
  ShowMessage("\\n<Luka>(These foxes are awfully fond of him for some reason...)")
  0()
 PAGE   2
  // condition: switch 2181 is ON
  0()
 PAGE   3
  // condition: variable 1063 >= 1
  0()



EVENT   15
 PAGE   1
  If(1,1217,0,2,1)
   If(1,1217,0,3,2)
    ShowMessageFace("",0,0,2,1)
    ShowMessage("\\n<Shrine Maiden>A lady named Daji is hiding around this shrine.\nI'm quite certain she's not inside the building.")
    EndEventProcessing()
    0()
   EndIf()
   0()
  EndIf()
  If(1,1063,0,12,2)
   ShowMessageFace("",0,0,2,2)
   ShowMessage("\\n<Shrine Maiden>The Kitsune Goddess resides in this building.")
   EndEventProcessing()
   0()
  EndIf()
  If(1,1063,0,13,1)
   ShowMessageFace("",0,0,2,3)
   ShowMessage("\\n<Shrine Maiden>The Kitsune Goddess is not in the building. Where in the world did she get off to...")
   EndEventProcessing()
   0()
  EndIf()
  0()



EVENT   16
 PAGE   1
  // condition: switch 33 is ON
  0()



EVENT   17
 PAGE   1
  // condition: switch 31 is ON
  0()



EVENT   18
 PAGE   1
  // condition: switch 31 is ON
  0()



EVENT   19
 PAGE   1
  // condition: switch 32 is ON
  0()



EVENT   20
 PAGE   1
  // condition: switch 32 is ON
  0()



EVENT   21
 PAGE   1
  // condition: switch 33 is ON
  0()



EVENT   22
 PAGE   1
  // condition: switch 34 is ON
  0()



EVENT   23
 PAGE   1
  // condition: switch 34 is ON
  0()



EVENT   24
 PAGE   1
  // condition: switch 35 is ON
  0()



EVENT   25
 PAGE   1
  // condition: switch 35 is ON
  0()



EVENT   26
 PAGE   1
  // condition: switch 2181 is ON
  ShowMessageFace("",0,0,2,1)
  ShowMessage("\\n<Fox>Kwon...")
  0()



EVENT   27
 PAGE   1
  // condition: switch 2181 is ON
  ShowMessageFace("",0,0,2,1)
  ShowMessage("\\n<Fox>Kwon!")
  0()



EVENT   3
 PAGE   1
  // condition: variable 1217 >= 2
  ChangeSwitch(2926,2926,0)
  ShowMessageFace("kazuya_fc1",0,0,2,1)
  ShowMessage("\\n<Kazuya>This is the Fox Shrine.\nWe've been told that Daji was sighted here, but...")
  If(0,4,0)
   ShowMessageFace("alice_fc5",0,0,2,2)
   ShowMessage("\\n<Alice>She's nowhere to be seen now.\nLet's ask the people around here for information.")
   0()
  EndIf()
  If(0,5,0)
   ShowMessageFace("iriasu_fc4",7,0,2,3)
   ShowMessage("\\n<Ilias>She doesn't appear to be here now.\nWe should gather information from the people around here.")
   0()
  EndIf()
  EndEventProcessing()
  0()
 PAGE   2
  // condition: switch 2926 is ON
  0()



EVENT   28
 PAGE   1
  // condition: variable 1217 >= 2
  If(1,1217,0,2,0)
   ChangeVariable(1217,1217,0,0,3)
   ShowMessageFace("youkosan_fc1",0,0,2,1)
   ShowMessage("\\n<Spirit Fox>This shrine is great.\nThey'll give me food just for lazing around here.")
   ShowMessageFace("byakunen_fc3",0,0,2,2)
   ShowMessage("\\n<Hakunen>Aren't you a fox from Mahoroba Mountain?\nTo think that they'd spread their residence to a place like this...")
   If(0,1814,0)
    ShowMessageFace("daimeikai_fc1",1,0,2,3)
    ShowMessage("\\n<Daimyokai>Just as I'd expect of a beast...\nThey're not about to start breeding in this world, are they?")
    0()
   EndIf()
   If(0,4,0)
    ShowMessageFace("alice_fc5",2,0,2,4)
    ShowMessage("\\n<Alice>By the way, have you seen Daji?\nShe is a purple kitsune with nine tails.")
    0()
   EndIf()
   If(0,5,0)
    ShowMessageFace("iriasu_fc4",2,0,2,5)
    ShowMessage("\\n<Ilias>Incidentally, haven't you see Daji?\nShe is a purple kitsune with nine tails.")
    0()
   EndIf()
   ShowMessageFace("youkosan_fc1",0,0,2,6)
   ShowMessage("\\n<Spirit Fox>If that's who I think it is, I saw her a short while ago. I think she's still around here?")
   If(0,4,0)
    ShowMessageFace("alice_fc5",6,0,2,7)
    ShowMessage("\\n<Alice>What did you say? Where is she...?!")
    0()
   EndIf()
   If(0,5,0)
    ShowMessageFace("iriasu_fc4",5,0,2,8)
    ShowMessage("\\n<Ilias>What did you just say?! Where could she be...?")
    0()
   EndIf()
   ShowMessageFace("",0,0,2,9)
   ShowMessage("We hastily checked our surroundings...\nBut we couldn't see Daji's figure anywhere.")
   ShowMessageFace("youkosan_fc1",2,0,2,10)
   ShowMessage("\\n<Spirit Fox>Huh... She was here just a moment ago.")
   ShowMessageFace("kazuya_fc2",2,0,2,11)
   ShowMessage("\\n<Kazuya>I'm certain she's transformed into something.\nLet's check around for anything suspicious!")
   EndEventProcessing()
   0()
  EndIf()
  If(1,1217,0,3,0)
   ShowMessageFace("youkosan_fc1",2,0,2,12)
   ShowMessage("\\n<Spirit Fox>Huh... Daji was here just a moment ago.")
   ShowMessageFace("kazuya_fc2",2,0,2,13)
   ShowMessage("\\n<Kazuya>I'm certain she's transformed into something.\nLet's check around for anything suspicious!")
   EndEventProcessing()
   0()
  EndIf()
  If(1,1217,0,4,1)
   ShowMessageFace("youkosan_fc1",0,0,2,14)
   ShowMessage("\\n<Spirit Fox>This shrine is great.\nThey'll give me food just for lazing around here.")
   EndEventProcessing()
   0()
  EndIf()
  0()



EVENT   29
 PAGE   1
  // condition: variable 1217 >= 3
  If(6,-1,2)
   241(bytes(0x04,0x08,0x6f,0x3a,0x0d,0x52,0x50,0x47,0x3a,0x3a,0x42,0x47,0x4d,0x08,0x3a,0x0a,0x40,0x6e,0x61,0x6d,0x65,0x49,0x22,0x0a,0x6b,0x69,0x6b,0x69,0x32,0x06,0x3a,0x06,0x45,0x54,0x3a,0x0c,0x40,0x76,0x6f,0x6c,0x75,0x6d,0x65,0x69,0x69,0x3a,0x0b,0x40,0x70,0x69,0x74,0x63,0x68,0x69,0x69))
   217()
   ShowMessageFace("byakunen_fc3",0,0,2,1)
   ShowMessage("\\n<Hakunen>Huh? This statue...")
   If(0,4,0)
    ShowMessageFace("alice_fc5",2,0,2,2)
    ShowMessage("\\n<Alice>What it is, Hakunen?\nDid you find something...?")
    0()
   EndIf()
   If(0,5,0)
    ShowMessageFace("iriasu_fc4",7,0,2,3)
    ShowMessage("\\n<Ilias>What is the matter, Hakunen?\nHave you found something...?")
    0()
   EndIf()
   ShowMessageFace("byakunen_fc1",0,0,2,4)
   ShowMessage("\\n<Hakunen>I wonder if... Ei!")
   ShowMessageFace("",0,0,2,5)
   ShowMessage("Hakunen stomps on the tail of the fox statue!")
   205(0,bytes(0x04,0x08,0x6f,0x3a,0x13,0x52,0x50,0x47,0x3a,0x3a,0x4d,0x6f,0x76,0x65,0x52,0x6f,0x75,0x74,0x65,0x09,0x3a,0x0c,0x40,0x72,0x65,0x70,0x65,0x61,0x74,0x46,0x3a,0x0f,0x40,0x73,0x6b,0x69,0x70,0x70,0x61,0x62,0x6c,0x65,0x46,0x3a,0x0a,0x40,0x77,0x61,0x69,0x74,0x54,0x3a,0x0a,0x40,0x6c,0x69,0x73,0x74,0x5b,0x0b,0x6f,0x3a,0x15,0x52,0x50,0x47,0x3a,0x3a,0x4d,0x6f,0x76,0x65,0x43,0x6f,0x6d,0x6d,0x61,0x6e,0x64,0x07,0x3a,0x0a,0x40,0x63,0x6f,0x64,0x65,0x69,0x31,0x3a,0x10,0x40,0x70,0x61,0x72,0x61,0x6d,0x65,0x74,0x65,0x72,0x73,0x5b,0x06,0x6f,0x3a,0x0c,0x52,0x50,0x47,0x3a,0x3a,0x53,0x45,0x08,0x3a,0x0a,0x40,0x6e,0x61,0x6d,0x65,0x49,0x22,0x10,0x68,0x61,0x6e,0x64,0x2d,0x64,0x72,0x75,0x6d,0x30,0x31,0x06,0x3a,0x06,0x45,0x54,0x3a,0x0b,0x40,0x70,0x69,0x74,0x63,0x68,0x69,0x69,0x3a,0x0c,0x40,0x76,0x6f,0x6c,0x75,0x6d,0x65,0x69,0x69,0x6f,0x3b,0x0a,0x07,0x3b,0x0b,0x69,0x2e,0x3b,0x0c,0x5b,0x07,0x49,0x22,0x0d,0x24,0x53,0x48,0x52,0x49,0x46,0x54,0x34,0x06,0x3b,0x0f,0x54,0x69,0x00,0x6f,0x3b,0x0a,0x07,0x3b,0x0b,0x69,0x13,0x3b,0x0c,0x5b,0x07,0x69,0x00,0x69,0x00,0x6f,0x3b,0x0a,0x07,0x3b,0x0b,0x69,0x26,0x3b,0x0c,0x5b,0x00,0x6f,0x3b,0x0a,0x07,0x3b,0x0b,0x69,0x29,0x3b,0x0c,0x5b,0x00,0x6f,0x3b,0x0a,0x07,0x3b,0x0b,0x69,0x00,0x3b,0x0c,0x5b,0x00))
   ShowMessageFace("dakki_fc5",0,0,2,6)
   ShowMessage("\\n<Daji>Mugyaaaa!!")
   ShowMessageFace("",0,0,2,7)
   ShowMessage("To our surprise, the true identity of the fox statue was Daji!")
   205(0,bytes(0x04,0x08,0x6f,0x3a,0x13,0x52,0x50,0x47,0x3a,0x3a,0x4d,0x6f,0x76,0x65,0x52,0x6f,0x75,0x74,0x65,0x09,0x3a,0x0c,0x40,0x72,0x65,0x70,0x65,0x61,0x74,0x46,0x3a,0x0f,0x40,0x73,0x6b,0x69,0x70,0x70,0x61,0x62,0x6c,0x65,0x46,0x3a,0x0a,0x40,0x77,0x61,0x69,0x74,0x54,0x3a,0x0a,0x40,0x6c,0x69,0x73,0x74,0x5b,0x07,0x6f,0x3a,0x15,0x52,0x50,0x47,0x3a,0x3a,0x4d,0x6f,0x76,0x65,0x43,0x6f,0x6d,0x6d,0x61,0x6e,0x64,0x07,0x3a,0x0a,0x40,0x63,0x6f,0x64,0x65,0x69,0x18,0x3a,0x10,0x40,0x70,0x61,0x72,0x61,0x6d,0x65,0x74,0x65,0x72,0x73,0x5b,0x00,0x6f,0x3b,0x0a,0x07,0x3b,0x0b,0x69,0x00,0x3b,0x0c,0x5b,0x00))
   241(bytes(0x04,0x08,0x6f,0x3a,0x0d,0x52,0x50,0x47,0x3a,0x3a,0x42,0x47,0x4d,0x08,0x3a,0x0a,0x40,0x6e,0x61,0x6d,0x65,0x49,0x22,0x0c,0x62,0x6f,0x73,0x73,0x30,0x2d,0x34,0x06,0x3a,0x06,0x45,0x54,0x3a,0x0c,0x40,0x76,0x6f,0x6c,0x75,0x6d,0x65,0x69,0x69,0x3a,0x0b,0x40,0x70,0x69,0x74,0x63,0x68,0x69,0x69))
   PictureDisplay(5,"80_dakki_st01",0,0,0,0,100,100,0,0)
   PictureMove(5,null,0,0,0,0,100,100,255,0,30,true)
   ShowMessageFace("dakki_fc1",0,0,2,8)
   ShowMessage("\\n<Daji>You insolent little brat!\nHave you no respect for foxes...?!")
   ShowMessageFace("byakunen_fc2",4,0,2,9)
   ShowMessage("\\n<Hakunen>S-sorry about that...\nBut we've found you!")
   ShowMessageFace("kazuya_fc2",3,0,2,10)
   ShowMessage("\\n<Kazuya>Nice work, Hakunen!\nDaji, to think you'd hide in a place like this!")
   ShowMessageFace("dakki_fc1",0,0,2,11)
   ShowMessage("\\n<Daji>Hmph, what do you mean by \"hide\"?\nI wasn't running or hiding to begin with.")
   ShowMessageFace("dakki_fc1",0,0,2,12)
   ShowMessage("\\n<Daji>Now that I no longer have a reason to attack you, I've just been wandering around this world wherever I please.")
   ShowMessageFace("dakki_fc1",0,0,2,13)
   ShowMessage("\\n<Daji>I thought about keeping quiet until you and the others left so I could then \"sneak some bites\" out of the men in this village.")
   ShowMessageFace("dakki_fc1",0,0,2,14)
   ShowMessage("\\n<Daji>If you've gone to the trouble of appearing before me... I'm sure you won't have any objections if I eat you?!")
   ShowMessageFace("ruka_fc1",0,0,2,15)
   ShowMessage("\\n<Luka>We won't let you cause any more harm to this world! Let's go, Daji!!")
   ShowMessageFace("dakki_fc1",0,0,2,16)
   ShowMessage("\\n<Daji>Hmph... The tables will be turned on you!\nI'll let you have a full taste of my power!!")
   SetBattleBGM(bytes(0x04,0x08,0x6f,0x3a,0x0d,0x52,0x50,0x47,0x3a,0x3a,0x42,0x47,0x4d,0x08,0x3a,0x0a,0x40,0x6e,0x61,0x6d,0x65,0x49,0x22,0x08,0x63,0x62,0x34,0x06,0x3a,0x06,0x45,0x54,0x3a,0x0c,0x40,0x76,0x6f,0x6c,0x75,0x6d,0x65,0x69,0x69,0x3a,0x0b,0x40,0x70,0x69,0x74,0x63,0x68,0x69,0x6e))
   Battle(0,1425,false,false)
   SetBattleBGM(bytes(0x04,0x08,0x6f,0x3a,0x0d,0x52,0x50,0x47,0x3a,0x3a,0x42,0x47,0x4d,0x08,0x3a,0x0a,0x40,0x6e,0x61,0x6d,0x65,0x49,0x22,0x0b,0x62,0x61,0x74,0x74,0x6c,0x65,0x06,0x3a,0x06,0x45,0x54,0x3a,0x0c,0x40,0x76,0x6f,0x6c,0x75,0x6d,0x65,0x69,0x69,0x3a,0x0b,0x40,0x70,0x69,0x74,0x63,0x68,0x69,0x69))
   241(bytes(0x04,0x08,0x6f,0x3a,0x0d,0x52,0x50,0x47,0x3a,0x3a,0x42,0x47,0x4d,0x08,0x3a,0x0a,0x40,0x6e,0x61,0x6d,0x65,0x49,0x22,0x14,0x73,0x63,0x65,0x6e,0x65,0x5f,0x65,0x70,0x69,0x6c,0x6f,0x67,0x75,0x65,0x32,0x06,0x3a,0x06,0x45,0x54,0x3a,0x0c,0x40,0x76,0x6f,0x6c,0x75,0x6d,0x65,0x69,0x69,0x3a,0x0b,0x40,0x70,0x69,0x74,0x63,0x68,0x69,0x69))
   314(0,0)
   ShowMessageFace("dakki_fc2",4,0,2,17)
   ShowMessage("\\n<Daji>You impudent little...\nNow that it's come to this, I'll show you my true power--")
   ShowMessageFace("kazuya_fc2",0,0,2,18)
   ShowMessage("\\n<Kazuya>Stop this right now, Daji...\nI don't need to see you performing such a third-rate move.")
   ShowMessageFace("kazuya_fc2",0,0,2,19)
   ShowMessage("\\n<Kazuya>You weren't actually going to run wild here from the start, were you? If that weren't the case, then I can't imagine why you'd need to hide.")
   ShowMessageFace("kazuya_fc2",0,0,2,20)
   ShowMessage("\\n<Kazuya>Your true intention wasn't to fight, but to pursue the greatest appetite... That's the kind of demon you are.")
   ShowMessageFace("dakki_fc1",0,0,2,21)
   ShowMessage("\\n<Daji>Kukuku... You...\nHearing you speak like that deeply irritates me...")
   ShowMessageFace("dakki_fc1",0,0,2,22)
   ShowMessage("\\n<Daji>However, I certainly have no plans of fighting anymore. Even in our last battle, I merely put just enough effort into it to make sparks fly...")
   If(0,4,0)
    ShowMessageFace("alice_fc5",2,0,2,23)
    ShowMessage("\\n<Alice>I don't think she's going to cause trouble for this world anymore. That said, we can't just leave someone like her at large.")
    0()
   EndIf()
   If(0,5,0)
    ShowMessageFace("iriasu_fc4",7,0,2,24)
    ShowMessage("\\n<Ilias>She doesn't appear to have any intention of starting any more trouble in this world. Having said that, we cannot just leave her at large.")
    0()
   EndIf()
   ShowMessageFace("dakki_fc1",0,0,2,25)
   ShowMessage("\\n<Daji>My my, you have no faith in me...")
   ShowMessageFace("kazuya_fc2",0,0,2,26)
   ShowMessage("\\n<Kazuya>What faith, you've been deceiving people for a very long time...")
   ShowMessageFace("kazuya_fc2",0,0,2,27)
   ShowMessage("\\n<Kazuya>In any case Daji, you're coming with us.\nWe came here to subdue you from the start.")
   ShowMessageFace("kazuya_fc2",0,0,2,28)
   ShowMessage("\\n<Kazuya>The other heroes and I will help us find a way to return to our own world.")
   ShowMessageFace("dakki_fc1",0,0,2,29)
   ShowMessage("\\n<Daji>I'm not fond of being watched from above...but that's fine. It should also be amusing to work with the children of man again for the first time in a long while...")
   ShowMessageFace("dakki_fc1",0,0,2,30)
   ShowMessage("\\n<Daji>I shall join your company and savor this world...\nKukuku, I'm looking forward to it...")
   PictureClear(5)
   205(0,bytes(0x04,0x08,0x6f,0x3a,0x13,0x52,0x50,0x47,0x3a,0x3a,0x4d,0x6f,0x76,0x65,0x52,0x6f,0x75,0x74,0x65,0x09,0x3a,0x0c,0x40,0x72,0x65,0x70,0x65,0x61,0x74,0x46,0x3a,0x0f,0x40,0x73,0x6b,0x69,0x70,0x70,0x61,0x62,0x6c,0x65,0x46,0x3a,0x0a,0x40,0x77,0x61,0x69,0x74,0x54,0x3a,0x0a,0x40,0x6c,0x69,0x73,0x74,0x5b,0x09,0x6f,0x3a,0x15,0x52,0x50,0x47,0x3a,0x3a,0x4d,0x6f,0x76,0x65,0x43,0x6f,0x6d,0x6d,0x61,0x6e,0x64,0x07,0x3a,0x0a,0x40,0x63,0x6f,0x64,0x65,0x69,0x2a,0x3a,0x10,0x40,0x70,0x61,0x72,0x61,0x6d,0x65,0x74,0x65,0x72,0x73,0x5b,0x00,0x6f,0x3b,0x0a,0x07,0x3b,0x0b,0x69,0x0f,0x3b,0x0c,0x5b,0x00,0x6f,0x3b,0x0a,0x07,0x3b,0x0b,0x69,0x2c,0x3b,0x0c,0x5b,0x00,0x6f,0x3b,0x0a,0x07,0x3b,0x0b,0x69,0x00,0x3b,0x0c,0x5b,0x00))
   355("add_actor_ex(818)")
   249(bytes(0x04,0x08,0x6f,0x3a,0x0c,0x52,0x50,0x47,0x3a,0x3a,0x4d,0x45,0x08,0x3a,0x0a,0x40,0x6e,0x61,0x6d,0x65,0x49,0x22,0x0c,0x66,0x61,0x6e,0x66,0x61,0x6c,0x65,0x06,0x3a,0x06,0x45,0x54,0x3a,0x0b,0x40,0x70,0x69,0x74,0x63,0x68,0x69,0x69,0x3a,0x0c,0x40,0x76,0x6f,0x6c,0x75,0x6d,0x65,0x69,0x69))
   ShowMessageFace("",0,0,2,31)
   ShowMessage("Daji joined the party!")
   ChangeVariable(1217,1217,0,0,4)
   Wait(60)
   ShowMessageFace("kazuya_fc2",0,0,2,32)
   ShowMessage("\\n<Kazuya>By the way Daji...\nYou're the one who brought the blueprints for Mukuro to this world, weren't you?")
   ShowMessageFace("mukuro_fc1",3,0,2,33)
   ShowMessage("\\n<Mukuro>......!")
   ShowMessageFace("dakki_fc1",0,0,2,34)
   ShowMessage("\\n<Daji>Yes, that was certainly my doing.")
   ShowMessageFace("dakki_fc1",0,0,2,35)
   ShowMessage("\\n<Daji>Not long after I came to this world, I came into contact with a group working for someone called Black Alice...")
   If(0,4,0)
    ShowMessageFace("alice_fc6",0,0,2,36)
    ShowMessage("\\n<Alice>Black Alice...?!\nHas she extended her reach to even the alliance?")
    0()
   EndIf()
   If(0,5,0)
    ShowMessageFace("iriasu_fc4",7,0,2,37)
    ShowMessage("\\n<Ilias>Black Alice...?!\nHas she extended her reach to even the alliance?")
    0()
   EndIf()
   ShowMessageFace("dakki_fc1",0,0,2,38)
   ShowMessage("\\n<Daji>I brought various items with me into this world.\nI thought they might prove useful as gifts or bargaining tools.")
   ShowMessageFace("dakki_fc1",0,0,2,39)
   ShowMessage("\\n<Daji>I told them they could have whatever they liked... Their eyes lit up the moment I showed them the blueprints.")
   ShowMessageFace("kazuya_fc2",0,0,2,40)
   ShowMessage("\\n<Kazuya>...And so you gave the blueprints to Kagetsumugi.")
   ShowMessageFace("dakki_fc1",0,0,2,41)
   ShowMessage("\\n<Daji>In exchange, I got information about this world.\nI impersonated the White Rabbit after that, and went on to act behind the scenes.")
   ShowMessageFace("kazuya_fc4",7,0,2,42)
   ShowMessage("\\n<Kazuya>I see... Now I understand what happened.\nYou really are nothing but trouble...")
   ShowMessageFace("",0,0,2,43)
   ShowMessage("It was thanks to Daji that Kagetsumugi was able to mass-produce Mukuro. As for why she was doing it, I'd still like to know--")
   ShowMessageFace("sonia_fc1",0,0,2,44)
   ShowMessage("\\n<Sonya>...Hey, shouldn't we be reporting to the villager elder? He seemed like he was really worried about this...")
   ShowMessageFace("ruka_fc1",0,0,2,45)
   ShowMessage("\\n<Luka>I'm sure he'll be better after we do that.\nWe'll tell the village elder everything is all right now.")
   ShowMessageFace("",0,0,2,46)
   ShowMessage("We've caught Daji, so there shouldn't be anything else to worry about. Let's report back to the village elder.")
   241(bytes(0x04,0x08,0x6f,0x3a,0x0d,0x52,0x50,0x47,0x3a,0x3a,0x42,0x47,0x4d,0x08,0x3a,0x0a,0x40,0x6e,0x61,0x6d,0x65,0x49,0x22,0x0a,0x6d,0x75,0x72,0x61,0x37,0x06,0x3a,0x06,0x45,0x54,0x3a,0x0c,0x40,0x76,0x6f,0x6c,0x75,0x6d,0x65,0x69,0x69,0x3a,0x0b,0x40,0x70,0x69,0x74,0x63,0x68,0x69,0x69))
   EndEventProcessing()
   0()
  Else()
   ShowMessageFace("",0,0,2,47)
   ShowMessage("\\n<Fox Statue>............")
   EndEventProcessing()
   0()
  EndIf()
  0()
 PAGE   2
  // condition: variable 1217 >= 4
  0()