﻿


EVENT   6
 PAGE   1
  0()
 PAGE   2
  // condition: switch 51 is ON
  0()



EVENT   7
 PAGE   1
  0()
 PAGE   2
  // condition: switch 50 is ON
  0()



EVENT   8
 PAGE   1
  0()
 PAGE   2
  // condition: switch 50 is ON
  0()



EVENT   9
 PAGE   1
  0()
 PAGE   2
  // condition: switch 51 is ON
  0()



EVENT   1
 PAGE   1
  ShowMessageFace("sirousagi_fc1",0,0,2,1)
  ShowMessage("\\n<White Rabbit>Congratulations! You've arrived at floor \\V[121]! Will you go to the left or the right?")
  If(1,123,0,9,2)
   ShowMessageFace("sirousagi_fc1",0,0,2,2)
   ShowMessage("\\n<White Rabbit>On the left there's a boss; on the right there's a very strong boss... But if you go right and win, you get to enter a treasure room.")
   0()
  EndIf()
  If(1,123,0,10,0)
   ShowMessageFace("sirousagi_fc1",0,0,2,3)
   ShowMessage("\\n<White Rabbit>...That said, this is the Carnage Labyrinth.\nOnly the difficult path can be taken here.")
   0()
  EndIf()
  250(bytes(0x04,0x08,0x6f,0x3a,0x0c,0x52,0x50,0x47,0x3a,0x3a,0x53,0x45,0x08,0x3a,0x0a,0x40,0x6e,0x61,0x6d,0x65,0x49,0x22,0x0a,0x48,0x65,0x61,0x6c,0x37,0x06,0x3a,0x06,0x45,0x54,0x3a,0x0b,0x40,0x70,0x69,0x74,0x63,0x68,0x69,0x69,0x3a,0x0c,0x40,0x76,0x6f,0x6c,0x75,0x6d,0x65,0x69,0x55))
  224(bytes(0x04,0x08,0x75,0x3a,0x0a,0x43,0x6f,0x6c,0x6f,0x72,0x25,0x00,0x00,0x00,0x00,0x00,0xe0,0x6f,0x40,0x00,0x00,0x00,0x00,0x00,0xe0,0x6f,0x40,0x00,0x00,0x00,0x00,0x00,0xe0,0x6f,0x40,0x00,0x00,0x00,0x00,0x00,0xe0,0x6f,0x40),30,true)
  314(0,0)
  ShowMessageFace("",0,0,2,4)
  ShowMessage("The party's HP and MP have been fully recovered!")
  ShowMessageFace("sirousagi_fc1",0,0,2,5)
  ShowMessage("\\n<White Rabbit>So, do you want something from me?")
  RunCommonEvent(912)
  0()



EVENT   3
 PAGE   1
  DefineLabel("メイン")
  ShowChoices(strings("Save","Proceed to next floor"),2)
  IfPlayerPicksChoice(0,null)
   352()
   JumpToLabel("メイン")
   0()
  IfPlayerPicksChoice(1,null)
   RunCommonEvent(901)
   EndEventProcessing()
   0()
  404()
  0()



EVENT   11
 PAGE   1
  ChangeSwitch(2333,2333,0)
  If(1,129,0,0,0)
   DefineLabel("乱数")
   ChangeVariable(129,129,0,2,1,43)
   If(1,607,0,6,2)
    If(1,129,0,28,1)
     If(1,129,0,36,2)
      JumpToLabel("乱数")
      0()
     EndIf()
     0()
    EndIf()
    0()
   EndIf()
   If(0,1928,1)
    If(1,129,0,37,1)
     If(1,129,0,43,2)
      JumpToLabel("乱数")
      0()
     EndIf()
     0()
    EndIf()
    0()
   EndIf()
   0()
  EndIf()
  If(1,129,0,1,0)
   ShowMessageFace("",0,0,2,1)
   ShowMessage("You can sense Morrigan's presence...\nWill you challenge this floor boss?")
   ShowChoices(strings("Make preparations","Fight as you are"),2)
   IfPlayerPicksChoice(0,null)
    EndEventProcessing()
    0()
   IfPlayerPicksChoice(1,null)
    0()
   404()
   SetBattleBGM(bytes(0x04,0x08,0x6f,0x3a,0x0d,0x52,0x50,0x47,0x3a,0x3a,0x42,0x47,0x4d,0x08,0x3a,0x0a,0x40,0x6e,0x61,0x6d,0x65,0x49,0x22,0x10,0x62,0x6f,0x73,0x73,0x5f,0x6c,0x69,0x6c,0x69,0x74,0x68,0x06,0x3a,0x06,0x45,0x54,0x3a,0x0c,0x40,0x76,0x6f,0x6c,0x75,0x6d,0x65,0x69,0x69,0x3a,0x0b,0x40,0x70,0x69,0x74,0x63,0x68,0x69,0x69))
   Battle(0,1253,false,false)
   ChangeSwitch(2333,2333,1)
   SetBattleBGM(bytes(0x04,0x08,0x6f,0x3a,0x0d,0x52,0x50,0x47,0x3a,0x3a,0x42,0x47,0x4d,0x08,0x3a,0x0a,0x40,0x6e,0x61,0x6d,0x65,0x49,0x22,0x0b,0x62,0x61,0x74,0x74,0x6c,0x65,0x06,0x3a,0x06,0x45,0x54,0x3a,0x0c,0x40,0x76,0x6f,0x6c,0x75,0x6d,0x65,0x69,0x69,0x3a,0x0b,0x40,0x70,0x69,0x74,0x63,0x68,0x69,0x69))
   ChangeSwitch(51,51,0)
   250(bytes(0x04,0x08,0x6f,0x3a,0x0c,0x52,0x50,0x47,0x3a,0x3a,0x53,0x45,0x08,0x3a,0x0a,0x40,0x6e,0x61,0x6d,0x65,0x49,0x22,0x0a,0x49,0x74,0x65,0x6d,0x31,0x06,0x3a,0x06,0x45,0x54,0x3a,0x0b,0x40,0x70,0x69,0x74,0x63,0x68,0x69,0x69,0x3a,0x0c,0x40,0x76,0x6f,0x6c,0x75,0x6d,0x65,0x69,0x55))
   ChangeInventory_Item(565,0,0,1)
   EndEventProcessing()
   0()
  EndIf()
  If(1,129,0,2,0)
   ShowMessageFace("",0,0,2,2)
   ShowMessage("You can sense Astaroth's presence...\nWill you challenge this floor boss?")
   ShowChoices(strings("Make preparations","Fight as you are"),2)
   IfPlayerPicksChoice(0,null)
    EndEventProcessing()
    0()
   IfPlayerPicksChoice(1,null)
    0()
   404()
   SetBattleBGM(bytes(0x04,0x08,0x6f,0x3a,0x0d,0x52,0x50,0x47,0x3a,0x3a,0x42,0x47,0x4d,0x08,0x3a,0x0a,0x40,0x6e,0x61,0x6d,0x65,0x49,0x22,0x10,0x62,0x6f,0x73,0x73,0x5f,0x6c,0x69,0x6c,0x69,0x74,0x68,0x06,0x3a,0x06,0x45,0x54,0x3a,0x0c,0x40,0x76,0x6f,0x6c,0x75,0x6d,0x65,0x69,0x69,0x3a,0x0b,0x40,0x70,0x69,0x74,0x63,0x68,0x69,0x69))
   Battle(0,1255,false,false)
   ChangeSwitch(2333,2333,1)
   SetBattleBGM(bytes(0x04,0x08,0x6f,0x3a,0x0d,0x52,0x50,0x47,0x3a,0x3a,0x42,0x47,0x4d,0x08,0x3a,0x0a,0x40,0x6e,0x61,0x6d,0x65,0x49,0x22,0x0b,0x62,0x61,0x74,0x74,0x6c,0x65,0x06,0x3a,0x06,0x45,0x54,0x3a,0x0c,0x40,0x76,0x6f,0x6c,0x75,0x6d,0x65,0x69,0x69,0x3a,0x0b,0x40,0x70,0x69,0x74,0x63,0x68,0x69,0x69))
   ChangeSwitch(51,51,0)
   250(bytes(0x04,0x08,0x6f,0x3a,0x0c,0x52,0x50,0x47,0x3a,0x3a,0x53,0x45,0x08,0x3a,0x0a,0x40,0x6e,0x61,0x6d,0x65,0x49,0x22,0x0a,0x49,0x74,0x65,0x6d,0x31,0x06,0x3a,0x06,0x45,0x54,0x3a,0x0b,0x40,0x70,0x69,0x74,0x63,0x68,0x69,0x69,0x3a,0x0c,0x40,0x76,0x6f,0x6c,0x75,0x6d,0x65,0x69,0x55))
   ChangeInventory_Item(565,0,0,1)
   EndEventProcessing()
   0()
  EndIf()
  If(1,129,0,3,0)
   ShowMessageFace("",0,0,2,3)
   ShowMessage("You can sense Sphinx's presence...\nWill you challenge this floor boss?")
   ShowChoices(strings("Make preparations","Fight as you are"),2)
   IfPlayerPicksChoice(0,null)
    EndEventProcessing()
    0()
   IfPlayerPicksChoice(1,null)
    0()
   404()
   SetBattleBGM(bytes(0x04,0x08,0x6f,0x3a,0x0d,0x52,0x50,0x47,0x3a,0x3a,0x42,0x47,0x4d,0x08,0x3a,0x0a,0x40,0x6e,0x61,0x6d,0x65,0x49,0x22,0x0a,0x62,0x6f,0x73,0x73,0x33,0x06,0x3a,0x06,0x45,0x54,0x3a,0x0c,0x40,0x76,0x6f,0x6c,0x75,0x6d,0x65,0x69,0x69,0x3a,0x0b,0x40,0x70,0x69,0x74,0x63,0x68,0x69,0x69))
   Battle(0,1254,false,false)
   ChangeSwitch(2333,2333,1)
   SetBattleBGM(bytes(0x04,0x08,0x6f,0x3a,0x0d,0x52,0x50,0x47,0x3a,0x3a,0x42,0x47,0x4d,0x08,0x3a,0x0a,0x40,0x6e,0x61,0x6d,0x65,0x49,0x22,0x0b,0x62,0x61,0x74,0x74,0x6c,0x65,0x06,0x3a,0x06,0x45,0x54,0x3a,0x0c,0x40,0x76,0x6f,0x6c,0x75,0x6d,0x65,0x69,0x69,0x3a,0x0b,0x40,0x70,0x69,0x74,0x63,0x68,0x69,0x69))
   ChangeSwitch(51,51,0)
   250(bytes(0x04,0x08,0x6f,0x3a,0x0c,0x52,0x50,0x47,0x3a,0x3a,0x53,0x45,0x08,0x3a,0x0a,0x40,0x6e,0x61,0x6d,0x65,0x49,0x22,0x0a,0x49,0x74,0x65,0x6d,0x31,0x06,0x3a,0x06,0x45,0x54,0x3a,0x0b,0x40,0x70,0x69,0x74,0x63,0x68,0x69,0x69,0x3a,0x0c,0x40,0x76,0x6f,0x6c,0x75,0x6d,0x65,0x69,0x55))
   ChangeInventory_Item(565,0,0,1)
   EndEventProcessing()
   0()
  EndIf()
  If(1,129,0,4,0)
   ShowMessageFace("",0,0,2,4)
   ShowMessage("You can sense Adramelech's presence...\nWill you challenge this floor boss?")
   ShowChoices(strings("Make preparations","Fight as you are"),2)
   IfPlayerPicksChoice(0,null)
    EndEventProcessing()
    0()
   IfPlayerPicksChoice(1,null)
    0()
   404()
   SetBattleBGM(bytes(0x04,0x08,0x6f,0x3a,0x0d,0x52,0x50,0x47,0x3a,0x3a,0x42,0x47,0x4d,0x08,0x3a,0x0a,0x40,0x6e,0x61,0x6d,0x65,0x49,0x22,0x0e,0x62,0x6f,0x73,0x73,0x5f,0x61,0x64,0x72,0x61,0x06,0x3a,0x06,0x45,0x54,0x3a,0x0c,0x40,0x76,0x6f,0x6c,0x75,0x6d,0x65,0x69,0x69,0x3a,0x0b,0x40,0x70,0x69,0x74,0x63,0x68,0x69,0x69))
   Battle(0,1256,false,false)
   ChangeSwitch(2333,2333,1)
   SetBattleBGM(bytes(0x04,0x08,0x6f,0x3a,0x0d,0x52,0x50,0x47,0x3a,0x3a,0x42,0x47,0x4d,0x08,0x3a,0x0a,0x40,0x6e,0x61,0x6d,0x65,0x49,0x22,0x0b,0x62,0x61,0x74,0x74,0x6c,0x65,0x06,0x3a,0x06,0x45,0x54,0x3a,0x0c,0x40,0x76,0x6f,0x6c,0x75,0x6d,0x65,0x69,0x69,0x3a,0x0b,0x40,0x70,0x69,0x74,0x63,0x68,0x69,0x69))
   ChangeSwitch(51,51,0)
   250(bytes(0x04,0x08,0x6f,0x3a,0x0c,0x52,0x50,0x47,0x3a,0x3a,0x53,0x45,0x08,0x3a,0x0a,0x40,0x6e,0x61,0x6d,0x65,0x49,0x22,0x0a,0x49,0x74,0x65,0x6d,0x31,0x06,0x3a,0x06,0x45,0x54,0x3a,0x0b,0x40,0x70,0x69,0x74,0x63,0x68,0x69,0x69,0x3a,0x0c,0x40,0x76,0x6f,0x6c,0x75,0x6d,0x65,0x69,0x55))
   ChangeInventory_Item(565,0,0,1)
   EndEventProcessing()
   0()
  EndIf()
  If(1,129,0,5,0)
   ShowMessageFace("",0,0,2,5)
   ShowMessage("You can sense Alipheese the 16th's presence...\nWill you challenge this floor boss?")
   ShowChoices(strings("Make preparations","Fight as you are"),2)
   IfPlayerPicksChoice(0,null)
    EndEventProcessing()
    0()
   IfPlayerPicksChoice(1,null)
    0()
   404()
   SetBattleBGM(bytes(0x04,0x08,0x6f,0x3a,0x0d,0x52,0x50,0x47,0x3a,0x3a,0x42,0x47,0x4d,0x08,0x3a,0x0a,0x40,0x6e,0x61,0x6d,0x65,0x49,0x22,0x0f,0x62,0x6f,0x73,0x73,0x5f,0x6d,0x61,0x6f,0x75,0x31,0x06,0x3a,0x06,0x45,0x54,0x3a,0x0c,0x40,0x76,0x6f,0x6c,0x75,0x6d,0x65,0x69,0x69,0x3a,0x0b,0x40,0x70,0x69,0x74,0x63,0x68,0x69,0x69))
   Battle(0,1257,false,false)
   ChangeSwitch(2333,2333,1)
   SetBattleBGM(bytes(0x04,0x08,0x6f,0x3a,0x0d,0x52,0x50,0x47,0x3a,0x3a,0x42,0x47,0x4d,0x08,0x3a,0x0a,0x40,0x6e,0x61,0x6d,0x65,0x49,0x22,0x0b,0x62,0x61,0x74,0x74,0x6c,0x65,0x06,0x3a,0x06,0x45,0x54,0x3a,0x0c,0x40,0x76,0x6f,0x6c,0x75,0x6d,0x65,0x69,0x69,0x3a,0x0b,0x40,0x70,0x69,0x74,0x63,0x68,0x69,0x69))
   ChangeSwitch(51,51,0)
   250(bytes(0x04,0x08,0x6f,0x3a,0x0c,0x52,0x50,0x47,0x3a,0x3a,0x53,0x45,0x08,0x3a,0x0a,0x40,0x6e,0x61,0x6d,0x65,0x49,0x22,0x0a,0x49,0x74,0x65,0x6d,0x31,0x06,0x3a,0x06,0x45,0x54,0x3a,0x0b,0x40,0x70,0x69,0x74,0x63,0x68,0x69,0x69,0x3a,0x0c,0x40,0x76,0x6f,0x6c,0x75,0x6d,0x65,0x69,0x55))
   ChangeInventory_Item(565,0,0,1)
   EndEventProcessing()
   0()
  EndIf()
  If(1,129,0,6,0)
   ShowMessageFace("",0,0,2,6)
   ShowMessage("You can sense Reaper's presence...\nWill you challenge this floor boss?")
   ShowChoices(strings("Make preparations","Fight as you are"),2)
   IfPlayerPicksChoice(0,null)
    EndEventProcessing()
    0()
   IfPlayerPicksChoice(1,null)
    0()
   404()
   SetBattleBGM(bytes(0x04,0x08,0x6f,0x3a,0x0d,0x52,0x50,0x47,0x3a,0x3a,0x42,0x47,0x4d,0x08,0x3a,0x0a,0x40,0x6e,0x61,0x6d,0x65,0x49,0x22,0x10,0x62,0x6f,0x73,0x73,0x5f,0x63,0x68,0x61,0x6f,0x73,0x31,0x06,0x3a,0x06,0x45,0x54,0x3a,0x0c,0x40,0x76,0x6f,0x6c,0x75,0x6d,0x65,0x69,0x69,0x3a,0x0b,0x40,0x70,0x69,0x74,0x63,0x68,0x69,0x69))
   Battle(0,1258,false,false)
   ChangeSwitch(2333,2333,1)
   SetBattleBGM(bytes(0x04,0x08,0x6f,0x3a,0x0d,0x52,0x50,0x47,0x3a,0x3a,0x42,0x47,0x4d,0x08,0x3a,0x0a,0x40,0x6e,0x61,0x6d,0x65,0x49,0x22,0x0b,0x62,0x61,0x74,0x74,0x6c,0x65,0x06,0x3a,0x06,0x45,0x54,0x3a,0x0c,0x40,0x76,0x6f,0x6c,0x75,0x6d,0x65,0x69,0x69,0x3a,0x0b,0x40,0x70,0x69,0x74,0x63,0x68,0x69,0x69))
   ChangeSwitch(51,51,0)
   250(bytes(0x04,0x08,0x6f,0x3a,0x0c,0x52,0x50,0x47,0x3a,0x3a,0x53,0x45,0x08,0x3a,0x0a,0x40,0x6e,0x61,0x6d,0x65,0x49,0x22,0x0a,0x49,0x74,0x65,0x6d,0x31,0x06,0x3a,0x06,0x45,0x54,0x3a,0x0b,0x40,0x70,0x69,0x74,0x63,0x68,0x69,0x69,0x3a,0x0c,0x40,0x76,0x6f,0x6c,0x75,0x6d,0x65,0x69,0x55))
   ChangeInventory_Item(565,0,0,1)
   EndEventProcessing()
   0()
  EndIf()
  If(1,129,0,7,0)
   ShowMessageFace("",0,0,2,7)
   ShowMessage("You can sense Sonya Mazda's presence...\nWill you challenge this floor boss?")
   ShowChoices(strings("Make preparations","Fight as you are"),2)
   IfPlayerPicksChoice(0,null)
    EndEventProcessing()
    0()
   IfPlayerPicksChoice(1,null)
    0()
   404()
   SetBattleBGM(bytes(0x04,0x08,0x6f,0x3a,0x0d,0x52,0x50,0x47,0x3a,0x3a,0x42,0x47,0x4d,0x08,0x3a,0x0a,0x40,0x6e,0x61,0x6d,0x65,0x49,0x22,0x10,0x62,0x6f,0x73,0x73,0x5f,0x73,0x6f,0x6e,0x69,0x61,0x31,0x06,0x3a,0x06,0x45,0x54,0x3a,0x0c,0x40,0x76,0x6f,0x6c,0x75,0x6d,0x65,0x69,0x69,0x3a,0x0b,0x40,0x70,0x69,0x74,0x63,0x68,0x69,0x69))
   Battle(0,1259,false,false)
   ChangeSwitch(2333,2333,1)
   SetBattleBGM(bytes(0x04,0x08,0x6f,0x3a,0x0d,0x52,0x50,0x47,0x3a,0x3a,0x42,0x47,0x4d,0x08,0x3a,0x0a,0x40,0x6e,0x61,0x6d,0x65,0x49,0x22,0x0b,0x62,0x61,0x74,0x74,0x6c,0x65,0x06,0x3a,0x06,0x45,0x54,0x3a,0x0c,0x40,0x76,0x6f,0x6c,0x75,0x6d,0x65,0x69,0x69,0x3a,0x0b,0x40,0x70,0x69,0x74,0x63,0x68,0x69,0x69))
   ChangeSwitch(51,51,0)
   250(bytes(0x04,0x08,0x6f,0x3a,0x0c,0x52,0x50,0x47,0x3a,0x3a,0x53,0x45,0x08,0x3a,0x0a,0x40,0x6e,0x61,0x6d,0x65,0x49,0x22,0x0a,0x49,0x74,0x65,0x6d,0x31,0x06,0x3a,0x06,0x45,0x54,0x3a,0x0b,0x40,0x70,0x69,0x74,0x63,0x68,0x69,0x69,0x3a,0x0c,0x40,0x76,0x6f,0x6c,0x75,0x6d,0x65,0x69,0x55))
   ChangeInventory_Item(565,0,0,1)
   EndEventProcessing()
   0()
  EndIf()
  If(1,129,0,8,0)
   ShowMessageFace("",0,0,2,8)
   ShowMessage("You can sense Sonya Mainyu's presence...\nWill you challenge this floor boss?")
   ShowChoices(strings("Make preparations","Fight as you are"),2)
   IfPlayerPicksChoice(0,null)
    EndEventProcessing()
    0()
   IfPlayerPicksChoice(1,null)
    0()
   404()
   SetBattleBGM(bytes(0x04,0x08,0x6f,0x3a,0x0d,0x52,0x50,0x47,0x3a,0x3a,0x42,0x47,0x4d,0x08,0x3a,0x0a,0x40,0x6e,0x61,0x6d,0x65,0x49,0x22,0x10,0x62,0x6f,0x73,0x73,0x5f,0x73,0x6f,0x6e,0x69,0x61,0x32,0x06,0x3a,0x06,0x45,0x54,0x3a,0x0c,0x40,0x76,0x6f,0x6c,0x75,0x6d,0x65,0x69,0x69,0x3a,0x0b,0x40,0x70,0x69,0x74,0x63,0x68,0x69,0x69))
   Battle(0,1260,false,false)
   ChangeSwitch(2333,2333,1)
   SetBattleBGM(bytes(0x04,0x08,0x6f,0x3a,0x0d,0x52,0x50,0x47,0x3a,0x3a,0x42,0x47,0x4d,0x08,0x3a,0x0a,0x40,0x6e,0x61,0x6d,0x65,0x49,0x22,0x0b,0x62,0x61,0x74,0x74,0x6c,0x65,0x06,0x3a,0x06,0x45,0x54,0x3a,0x0c,0x40,0x76,0x6f,0x6c,0x75,0x6d,0x65,0x69,0x69,0x3a,0x0b,0x40,0x70,0x69,0x74,0x63,0x68,0x69,0x69))
   ChangeSwitch(51,51,0)
   250(bytes(0x04,0x08,0x6f,0x3a,0x0c,0x52,0x50,0x47,0x3a,0x3a,0x53,0x45,0x08,0x3a,0x0a,0x40,0x6e,0x61,0x6d,0x65,0x49,0x22,0x0a,0x49,0x74,0x65,0x6d,0x31,0x06,0x3a,0x06,0x45,0x54,0x3a,0x0b,0x40,0x70,0x69,0x74,0x63,0x68,0x69,0x69,0x3a,0x0c,0x40,0x76,0x6f,0x6c,0x75,0x6d,0x65,0x69,0x55))
   ChangeInventory_Item(565,0,0,1)
   EndEventProcessing()
   0()
  EndIf()
  If(1,129,0,9,0)
   ShowMessageFace("",0,0,2,9)
   ShowMessage("You can sense Micaela's presence...\nWill you challenge this floor boss?")
   ShowChoices(strings("Make preparations","Fight as you are"),2)
   IfPlayerPicksChoice(0,null)
    EndEventProcessing()
    0()
   IfPlayerPicksChoice(1,null)
    0()
   404()
   SetBattleBGM(bytes(0x04,0x08,0x6f,0x3a,0x0d,0x52,0x50,0x47,0x3a,0x3a,0x42,0x47,0x4d,0x08,0x3a,0x0a,0x40,0x6e,0x61,0x6d,0x65,0x49,0x22,0x16,0x62,0x6f,0x73,0x73,0x5f,0x6e,0x61,0x6e,0x61,0x64,0x61,0x69,0x74,0x65,0x6e,0x73,0x69,0x06,0x3a,0x06,0x45,0x54,0x3a,0x0c,0x40,0x76,0x6f,0x6c,0x75,0x6d,0x65,0x69,0x69,0x3a,0x0b,0x40,0x70,0x69,0x74,0x63,0x68,0x69,0x69))
   Battle(0,1261,false,false)
   ChangeSwitch(2333,2333,1)
   SetBattleBGM(bytes(0x04,0x08,0x6f,0x3a,0x0d,0x52,0x50,0x47,0x3a,0x3a,0x42,0x47,0x4d,0x08,0x3a,0x0a,0x40,0x6e,0x61,0x6d,0x65,0x49,0x22,0x0b,0x62,0x61,0x74,0x74,0x6c,0x65,0x06,0x3a,0x06,0x45,0x54,0x3a,0x0c,0x40,0x76,0x6f,0x6c,0x75,0x6d,0x65,0x69,0x69,0x3a,0x0b,0x40,0x70,0x69,0x74,0x63,0x68,0x69,0x69))
   ChangeSwitch(51,51,0)
   250(bytes(0x04,0x08,0x6f,0x3a,0x0c,0x52,0x50,0x47,0x3a,0x3a,0x53,0x45,0x08,0x3a,0x0a,0x40,0x6e,0x61,0x6d,0x65,0x49,0x22,0x0a,0x49,0x74,0x65,0x6d,0x31,0x06,0x3a,0x06,0x45,0x54,0x3a,0x0b,0x40,0x70,0x69,0x74,0x63,0x68,0x69,0x69,0x3a,0x0c,0x40,0x76,0x6f,0x6c,0x75,0x6d,0x65,0x69,0x55))
   ChangeInventory_Item(565,0,0,1)
   EndEventProcessing()
   0()
  EndIf()
  If(1,129,0,10,0)
   ShowMessageFace("",0,0,2,10)
   ShowMessage("You can sense Lucifina's presence...\nWill you challenge this floor boss?")
   ShowChoices(strings("Make preparations","Fight as you are"),2)
   IfPlayerPicksChoice(0,null)
    EndEventProcessing()
    0()
   IfPlayerPicksChoice(1,null)
    0()
   404()
   SetBattleBGM(bytes(0x04,0x08,0x6f,0x3a,0x0d,0x52,0x50,0x47,0x3a,0x3a,0x42,0x47,0x4d,0x08,0x3a,0x0a,0x40,0x6e,0x61,0x6d,0x65,0x49,0x22,0x16,0x62,0x6f,0x73,0x73,0x5f,0x6e,0x61,0x6e,0x61,0x64,0x61,0x69,0x74,0x65,0x6e,0x73,0x69,0x06,0x3a,0x06,0x45,0x54,0x3a,0x0c,0x40,0x76,0x6f,0x6c,0x75,0x6d,0x65,0x69,0x69,0x3a,0x0b,0x40,0x70,0x69,0x74,0x63,0x68,0x69,0x69))
   Battle(0,1262,false,false)
   ChangeSwitch(2333,2333,1)
   SetBattleBGM(bytes(0x04,0x08,0x6f,0x3a,0x0d,0x52,0x50,0x47,0x3a,0x3a,0x42,0x47,0x4d,0x08,0x3a,0x0a,0x40,0x6e,0x61,0x6d,0x65,0x49,0x22,0x0b,0x62,0x61,0x74,0x74,0x6c,0x65,0x06,0x3a,0x06,0x45,0x54,0x3a,0x0c,0x40,0x76,0x6f,0x6c,0x75,0x6d,0x65,0x69,0x69,0x3a,0x0b,0x40,0x70,0x69,0x74,0x63,0x68,0x69,0x69))
   ChangeSwitch(51,51,0)
   250(bytes(0x04,0x08,0x6f,0x3a,0x0c,0x52,0x50,0x47,0x3a,0x3a,0x53,0x45,0x08,0x3a,0x0a,0x40,0x6e,0x61,0x6d,0x65,0x49,0x22,0x0a,0x49,0x74,0x65,0x6d,0x31,0x06,0x3a,0x06,0x45,0x54,0x3a,0x0b,0x40,0x70,0x69,0x74,0x63,0x68,0x69,0x69,0x3a,0x0c,0x40,0x76,0x6f,0x6c,0x75,0x6d,0x65,0x69,0x55))
   ChangeInventory_Item(565,0,0,1)
   EndEventProcessing()
   0()
  EndIf()
  If(1,129,0,11,0)
   ShowMessageFace("",0,0,2,11)
   ShowMessage("You can sense Leviathan's presence...\nWill you challenge this floor boss?")
   ShowChoices(strings("Make preparations","Fight as you are"),2)
   IfPlayerPicksChoice(0,null)
    EndEventProcessing()
    0()
   IfPlayerPicksChoice(1,null)
    0()
   404()
   SetBattleBGM(bytes(0x04,0x08,0x6f,0x3a,0x0d,0x52,0x50,0x47,0x3a,0x3a,0x42,0x47,0x4d,0x08,0x3a,0x0a,0x40,0x6e,0x61,0x6d,0x65,0x49,0x22,0x0a,0x62,0x6f,0x73,0x73,0x33,0x06,0x3a,0x06,0x45,0x54,0x3a,0x0c,0x40,0x76,0x6f,0x6c,0x75,0x6d,0x65,0x69,0x69,0x3a,0x0b,0x40,0x70,0x69,0x74,0x63,0x68,0x69,0x69))
   Battle(0,1263,false,false)
   ChangeSwitch(2333,2333,1)
   SetBattleBGM(bytes(0x04,0x08,0x6f,0x3a,0x0d,0x52,0x50,0x47,0x3a,0x3a,0x42,0x47,0x4d,0x08,0x3a,0x0a,0x40,0x6e,0x61,0x6d,0x65,0x49,0x22,0x0b,0x62,0x61,0x74,0x74,0x6c,0x65,0x06,0x3a,0x06,0x45,0x54,0x3a,0x0c,0x40,0x76,0x6f,0x6c,0x75,0x6d,0x65,0x69,0x69,0x3a,0x0b,0x40,0x70,0x69,0x74,0x63,0x68,0x69,0x69))
   ChangeSwitch(51,51,0)
   250(bytes(0x04,0x08,0x6f,0x3a,0x0c,0x52,0x50,0x47,0x3a,0x3a,0x53,0x45,0x08,0x3a,0x0a,0x40,0x6e,0x61,0x6d,0x65,0x49,0x22,0x0a,0x49,0x74,0x65,0x6d,0x31,0x06,0x3a,0x06,0x45,0x54,0x3a,0x0b,0x40,0x70,0x69,0x74,0x63,0x68,0x69,0x69,0x3a,0x0c,0x40,0x76,0x6f,0x6c,0x75,0x6d,0x65,0x69,0x55))
   ChangeInventory_Item(565,0,0,1)
   EndEventProcessing()
   0()
  EndIf()
  If(1,129,0,12,0)
   ShowMessageFace("",0,0,2,12)
   ShowMessage("You can sense Alma Elma's presence...\nWill you challenge this floor boss?")
   ShowChoices(strings("Make preparations","Fight as you are"),2)
   IfPlayerPicksChoice(0,null)
    EndEventProcessing()
    0()
   IfPlayerPicksChoice(1,null)
    0()
   404()
   SetBattleBGM(bytes(0x04,0x08,0x6f,0x3a,0x0d,0x52,0x50,0x47,0x3a,0x3a,0x42,0x47,0x4d,0x08,0x3a,0x0a,0x40,0x6e,0x61,0x6d,0x65,0x49,0x22,0x11,0x62,0x6f,0x73,0x73,0x5f,0x73,0x69,0x74,0x65,0x6e,0x6e,0x6f,0x06,0x3a,0x06,0x45,0x54,0x3a,0x0c,0x40,0x76,0x6f,0x6c,0x75,0x6d,0x65,0x69,0x69,0x3a,0x0b,0x40,0x70,0x69,0x74,0x63,0x68,0x69,0x69))
   Battle(0,1264,false,false)
   ChangeSwitch(2333,2333,1)
   SetBattleBGM(bytes(0x04,0x08,0x6f,0x3a,0x0d,0x52,0x50,0x47,0x3a,0x3a,0x42,0x47,0x4d,0x08,0x3a,0x0a,0x40,0x6e,0x61,0x6d,0x65,0x49,0x22,0x0b,0x62,0x61,0x74,0x74,0x6c,0x65,0x06,0x3a,0x06,0x45,0x54,0x3a,0x0c,0x40,0x76,0x6f,0x6c,0x75,0x6d,0x65,0x69,0x69,0x3a,0x0b,0x40,0x70,0x69,0x74,0x63,0x68,0x69,0x69))
   ChangeSwitch(51,51,0)
   250(bytes(0x04,0x08,0x6f,0x3a,0x0c,0x52,0x50,0x47,0x3a,0x3a,0x53,0x45,0x08,0x3a,0x0a,0x40,0x6e,0x61,0x6d,0x65,0x49,0x22,0x0a,0x49,0x74,0x65,0x6d,0x31,0x06,0x3a,0x06,0x45,0x54,0x3a,0x0b,0x40,0x70,0x69,0x74,0x63,0x68,0x69,0x69,0x3a,0x0c,0x40,0x76,0x6f,0x6c,0x75,0x6d,0x65,0x69,0x55))
   ChangeInventory_Item(565,0,0,1)
   EndEventProcessing()
   0()
  EndIf()
  If(1,129,0,13,0)
   ShowMessageFace("",0,0,2,13)
   ShowMessage("You can sense Granberia's presence...\nWill you challenge this floor boss?")
   ShowChoices(strings("Make preparations","Fight as you are"),2)
   IfPlayerPicksChoice(0,null)
    EndEventProcessing()
    0()
   IfPlayerPicksChoice(1,null)
    0()
   404()
   SetBattleBGM(bytes(0x04,0x08,0x6f,0x3a,0x0d,0x52,0x50,0x47,0x3a,0x3a,0x42,0x47,0x4d,0x08,0x3a,0x0a,0x40,0x6e,0x61,0x6d,0x65,0x49,0x22,0x11,0x62,0x6f,0x73,0x73,0x5f,0x73,0x69,0x74,0x65,0x6e,0x6e,0x6f,0x06,0x3a,0x06,0x45,0x54,0x3a,0x0c,0x40,0x76,0x6f,0x6c,0x75,0x6d,0x65,0x69,0x69,0x3a,0x0b,0x40,0x70,0x69,0x74,0x63,0x68,0x69,0x69))
   Battle(0,1265,false,false)
   ChangeSwitch(2333,2333,1)
   SetBattleBGM(bytes(0x04,0x08,0x6f,0x3a,0x0d,0x52,0x50,0x47,0x3a,0x3a,0x42,0x47,0x4d,0x08,0x3a,0x0a,0x40,0x6e,0x61,0x6d,0x65,0x49,0x22,0x0b,0x62,0x61,0x74,0x74,0x6c,0x65,0x06,0x3a,0x06,0x45,0x54,0x3a,0x0c,0x40,0x76,0x6f,0x6c,0x75,0x6d,0x65,0x69,0x69,0x3a,0x0b,0x40,0x70,0x69,0x74,0x63,0x68,0x69,0x69))
   ChangeSwitch(51,51,0)
   250(bytes(0x04,0x08,0x6f,0x3a,0x0c,0x52,0x50,0x47,0x3a,0x3a,0x53,0x45,0x08,0x3a,0x0a,0x40,0x6e,0x61,0x6d,0x65,0x49,0x22,0x0a,0x49,0x74,0x65,0x6d,0x31,0x06,0x3a,0x06,0x45,0x54,0x3a,0x0b,0x40,0x70,0x69,0x74,0x63,0x68,0x69,0x69,0x3a,0x0c,0x40,0x76,0x6f,0x6c,0x75,0x6d,0x65,0x69,0x55))
   ChangeInventory_Item(565,0,0,1)
   EndEventProcessing()
   0()
  EndIf()
  If(1,129,0,14,0)
   ShowMessageFace("",0,0,2,14)
   ShowMessage("You can sense Sun Wukong's presence...\nWill you challenge this floor boss?")
   ShowChoices(strings("Make preparations","Fight as you are"),2)
   IfPlayerPicksChoice(0,null)
    EndEventProcessing()
    0()
   IfPlayerPicksChoice(1,null)
    0()
   404()
   SetBattleBGM(bytes(0x04,0x08,0x6f,0x3a,0x0d,0x52,0x50,0x47,0x3a,0x3a,0x42,0x47,0x4d,0x08,0x3a,0x0a,0x40,0x6e,0x61,0x6d,0x65,0x49,0x22,0x0a,0x62,0x6f,0x73,0x73,0x33,0x06,0x3a,0x06,0x45,0x54,0x3a,0x0c,0x40,0x76,0x6f,0x6c,0x75,0x6d,0x65,0x69,0x69,0x3a,0x0b,0x40,0x70,0x69,0x74,0x63,0x68,0x69,0x69))
   Battle(0,1266,false,false)
   ChangeSwitch(2333,2333,1)
   SetBattleBGM(bytes(0x04,0x08,0x6f,0x3a,0x0d,0x52,0x50,0x47,0x3a,0x3a,0x42,0x47,0x4d,0x08,0x3a,0x0a,0x40,0x6e,0x61,0x6d,0x65,0x49,0x22,0x0b,0x62,0x61,0x74,0x74,0x6c,0x65,0x06,0x3a,0x06,0x45,0x54,0x3a,0x0c,0x40,0x76,0x6f,0x6c,0x75,0x6d,0x65,0x69,0x69,0x3a,0x0b,0x40,0x70,0x69,0x74,0x63,0x68,0x69,0x69))
   ChangeSwitch(51,51,0)
   250(bytes(0x04,0x08,0x6f,0x3a,0x0c,0x52,0x50,0x47,0x3a,0x3a,0x53,0x45,0x08,0x3a,0x0a,0x40,0x6e,0x61,0x6d,0x65,0x49,0x22,0x0a,0x49,0x74,0x65,0x6d,0x31,0x06,0x3a,0x06,0x45,0x54,0x3a,0x0b,0x40,0x70,0x69,0x74,0x63,0x68,0x69,0x69,0x3a,0x0c,0x40,0x76,0x6f,0x6c,0x75,0x6d,0x65,0x69,0x55))
   ChangeInventory_Item(565,0,0,1)
   EndEventProcessing()
   0()
  EndIf()
  If(1,129,0,15,0)
   ShowMessageFace("",0,0,2,15)
   ShowMessage("You can sense Yamata no Orochi's presence...\nWill you challenge this floor boss?")
   ShowChoices(strings("Make preparations","Fight as you are"),2)
   IfPlayerPicksChoice(0,null)
    EndEventProcessing()
    0()
   IfPlayerPicksChoice(1,null)
    0()
   404()
   SetBattleBGM(bytes(0x04,0x08,0x6f,0x3a,0x0d,0x52,0x50,0x47,0x3a,0x3a,0x42,0x47,0x4d,0x08,0x3a,0x0a,0x40,0x6e,0x61,0x6d,0x65,0x49,0x22,0x0a,0x62,0x6f,0x73,0x73,0x33,0x06,0x3a,0x06,0x45,0x54,0x3a,0x0c,0x40,0x76,0x6f,0x6c,0x75,0x6d,0x65,0x69,0x69,0x3a,0x0b,0x40,0x70,0x69,0x74,0x63,0x68,0x69,0x69))
   Battle(0,1267,false,false)
   ChangeSwitch(2333,2333,1)
   SetBattleBGM(bytes(0x04,0x08,0x6f,0x3a,0x0d,0x52,0x50,0x47,0x3a,0x3a,0x42,0x47,0x4d,0x08,0x3a,0x0a,0x40,0x6e,0x61,0x6d,0x65,0x49,0x22,0x0b,0x62,0x61,0x74,0x74,0x6c,0x65,0x06,0x3a,0x06,0x45,0x54,0x3a,0x0c,0x40,0x76,0x6f,0x6c,0x75,0x6d,0x65,0x69,0x69,0x3a,0x0b,0x40,0x70,0x69,0x74,0x63,0x68,0x69,0x69))
   ChangeSwitch(51,51,0)
   250(bytes(0x04,0x08,0x6f,0x3a,0x0c,0x52,0x50,0x47,0x3a,0x3a,0x53,0x45,0x08,0x3a,0x0a,0x40,0x6e,0x61,0x6d,0x65,0x49,0x22,0x0a,0x49,0x74,0x65,0x6d,0x31,0x06,0x3a,0x06,0x45,0x54,0x3a,0x0b,0x40,0x70,0x69,0x74,0x63,0x68,0x69,0x69,0x3a,0x0c,0x40,0x76,0x6f,0x6c,0x75,0x6d,0x65,0x69,0x55))
   ChangeInventory_Item(565,0,0,1)
   EndEventProcessing()
   0()
  EndIf()
  If(1,129,0,16,0)
   ShowMessageFace("",0,0,2,16)
   ShowMessage("You can sense Tezcatlipoca's presence...\nWill you challenge this floor boss?")
   ShowChoices(strings("Make preparations","Fight as you are"),2)
   IfPlayerPicksChoice(0,null)
    EndEventProcessing()
    0()
   IfPlayerPicksChoice(1,null)
    0()
   404()
   SetBattleBGM(bytes(0x04,0x08,0x6f,0x3a,0x0d,0x52,0x50,0x47,0x3a,0x3a,0x42,0x47,0x4d,0x08,0x3a,0x0a,0x40,0x6e,0x61,0x6d,0x65,0x49,0x22,0x0a,0x62,0x6f,0x73,0x73,0x33,0x06,0x3a,0x06,0x45,0x54,0x3a,0x0c,0x40,0x76,0x6f,0x6c,0x75,0x6d,0x65,0x69,0x69,0x3a,0x0b,0x40,0x70,0x69,0x74,0x63,0x68,0x69,0x69))
   Battle(0,1268,false,false)
   ChangeSwitch(2333,2333,1)
   SetBattleBGM(bytes(0x04,0x08,0x6f,0x3a,0x0d,0x52,0x50,0x47,0x3a,0x3a,0x42,0x47,0x4d,0x08,0x3a,0x0a,0x40,0x6e,0x61,0x6d,0x65,0x49,0x22,0x0b,0x62,0x61,0x74,0x74,0x6c,0x65,0x06,0x3a,0x06,0x45,0x54,0x3a,0x0c,0x40,0x76,0x6f,0x6c,0x75,0x6d,0x65,0x69,0x69,0x3a,0x0b,0x40,0x70,0x69,0x74,0x63,0x68,0x69,0x69))
   ChangeSwitch(51,51,0)
   250(bytes(0x04,0x08,0x6f,0x3a,0x0c,0x52,0x50,0x47,0x3a,0x3a,0x53,0x45,0x08,0x3a,0x0a,0x40,0x6e,0x61,0x6d,0x65,0x49,0x22,0x0a,0x49,0x74,0x65,0x6d,0x31,0x06,0x3a,0x06,0x45,0x54,0x3a,0x0b,0x40,0x70,0x69,0x74,0x63,0x68,0x69,0x69,0x3a,0x0c,0x40,0x76,0x6f,0x6c,0x75,0x6d,0x65,0x69,0x55))
   ChangeInventory_Item(565,0,0,1)
   EndEventProcessing()
   0()
  EndIf()
  If(1,129,0,17,0)
   ShowMessageFace("",0,0,2,17)
   ShowMessage("You can sense Quetzalcoatl's presence...\nWill you challenge this floor boss?")
   ShowChoices(strings("Make preparations","Fight as you are"),2)
   IfPlayerPicksChoice(0,null)
    EndEventProcessing()
    0()
   IfPlayerPicksChoice(1,null)
    0()
   404()
   SetBattleBGM(bytes(0x04,0x08,0x6f,0x3a,0x0d,0x52,0x50,0x47,0x3a,0x3a,0x42,0x47,0x4d,0x08,0x3a,0x0a,0x40,0x6e,0x61,0x6d,0x65,0x49,0x22,0x0a,0x62,0x6f,0x73,0x73,0x32,0x06,0x3a,0x06,0x45,0x54,0x3a,0x0c,0x40,0x76,0x6f,0x6c,0x75,0x6d,0x65,0x69,0x69,0x3a,0x0b,0x40,0x70,0x69,0x74,0x63,0x68,0x69,0x69))
   Battle(0,1269,false,false)
   ChangeSwitch(2333,2333,1)
   SetBattleBGM(bytes(0x04,0x08,0x6f,0x3a,0x0d,0x52,0x50,0x47,0x3a,0x3a,0x42,0x47,0x4d,0x08,0x3a,0x0a,0x40,0x6e,0x61,0x6d,0x65,0x49,0x22,0x0b,0x62,0x61,0x74,0x74,0x6c,0x65,0x06,0x3a,0x06,0x45,0x54,0x3a,0x0c,0x40,0x76,0x6f,0x6c,0x75,0x6d,0x65,0x69,0x69,0x3a,0x0b,0x40,0x70,0x69,0x74,0x63,0x68,0x69,0x69))
   ChangeSwitch(51,51,0)
   250(bytes(0x04,0x08,0x6f,0x3a,0x0c,0x52,0x50,0x47,0x3a,0x3a,0x53,0x45,0x08,0x3a,0x0a,0x40,0x6e,0x61,0x6d,0x65,0x49,0x22,0x0a,0x49,0x74,0x65,0x6d,0x31,0x06,0x3a,0x06,0x45,0x54,0x3a,0x0b,0x40,0x70,0x69,0x74,0x63,0x68,0x69,0x69,0x3a,0x0c,0x40,0x76,0x6f,0x6c,0x75,0x6d,0x65,0x69,0x55))
   ChangeInventory_Item(565,0,0,1)
   EndEventProcessing()
   0()
  EndIf()
  If(1,129,0,18,0)
   ShowMessageFace("",0,0,2,18)
   ShowMessage("You can sense Gnosis's presence...\nWill you challenge this floor boss?")
   ShowChoices(strings("Make preparations","Fight as you are"),2)
   IfPlayerPicksChoice(0,null)
    EndEventProcessing()
    0()
   IfPlayerPicksChoice(1,null)
    0()
   404()
   SetBattleBGM(bytes(0x04,0x08,0x6f,0x3a,0x0d,0x52,0x50,0x47,0x3a,0x3a,0x42,0x47,0x4d,0x08,0x3a,0x0a,0x40,0x6e,0x61,0x6d,0x65,0x49,0x22,0x0e,0x62,0x6f,0x73,0x73,0x5f,0x65,0x64,0x65,0x6e,0x06,0x3a,0x06,0x45,0x54,0x3a,0x0c,0x40,0x76,0x6f,0x6c,0x75,0x6d,0x65,0x69,0x69,0x3a,0x0b,0x40,0x70,0x69,0x74,0x63,0x68,0x69,0x69))
   Battle(0,1270,false,false)
   ChangeSwitch(2333,2333,1)
   SetBattleBGM(bytes(0x04,0x08,0x6f,0x3a,0x0d,0x52,0x50,0x47,0x3a,0x3a,0x42,0x47,0x4d,0x08,0x3a,0x0a,0x40,0x6e,0x61,0x6d,0x65,0x49,0x22,0x0b,0x62,0x61,0x74,0x74,0x6c,0x65,0x06,0x3a,0x06,0x45,0x54,0x3a,0x0c,0x40,0x76,0x6f,0x6c,0x75,0x6d,0x65,0x69,0x69,0x3a,0x0b,0x40,0x70,0x69,0x74,0x63,0x68,0x69,0x69))
   ChangeSwitch(51,51,0)
   250(bytes(0x04,0x08,0x6f,0x3a,0x0c,0x52,0x50,0x47,0x3a,0x3a,0x53,0x45,0x08,0x3a,0x0a,0x40,0x6e,0x61,0x6d,0x65,0x49,0x22,0x0a,0x49,0x74,0x65,0x6d,0x31,0x06,0x3a,0x06,0x45,0x54,0x3a,0x0b,0x40,0x70,0x69,0x74,0x63,0x68,0x69,0x69,0x3a,0x0c,0x40,0x76,0x6f,0x6c,0x75,0x6d,0x65,0x69,0x55))
   ChangeInventory_Item(565,0,0,1)
   EndEventProcessing()
   0()
  EndIf()
  If(1,129,0,19,0)
   ShowMessageFace("",0,0,2,19)
   ShowMessage("You can sense Zion's presence...\nWill you challenge this floor boss?")
   ShowChoices(strings("Make preparations","Fight as you are"),2)
   IfPlayerPicksChoice(0,null)
    EndEventProcessing()
    0()
   IfPlayerPicksChoice(1,null)
    0()
   404()
   SetBattleBGM(bytes(0x04,0x08,0x6f,0x3a,0x0d,0x52,0x50,0x47,0x3a,0x3a,0x42,0x47,0x4d,0x08,0x3a,0x0a,0x40,0x6e,0x61,0x6d,0x65,0x49,0x22,0x0e,0x62,0x6f,0x73,0x73,0x5f,0x65,0x64,0x65,0x6e,0x06,0x3a,0x06,0x45,0x54,0x3a,0x0c,0x40,0x76,0x6f,0x6c,0x75,0x6d,0x65,0x69,0x69,0x3a,0x0b,0x40,0x70,0x69,0x74,0x63,0x68,0x69,0x69))
   Battle(0,1271,false,false)
   ChangeSwitch(2333,2333,1)
   SetBattleBGM(bytes(0x04,0x08,0x6f,0x3a,0x0d,0x52,0x50,0x47,0x3a,0x3a,0x42,0x47,0x4d,0x08,0x3a,0x0a,0x40,0x6e,0x61,0x6d,0x65,0x49,0x22,0x0b,0x62,0x61,0x74,0x74,0x6c,0x65,0x06,0x3a,0x06,0x45,0x54,0x3a,0x0c,0x40,0x76,0x6f,0x6c,0x75,0x6d,0x65,0x69,0x69,0x3a,0x0b,0x40,0x70,0x69,0x74,0x63,0x68,0x69,0x69))
   ChangeSwitch(51,51,0)
   250(bytes(0x04,0x08,0x6f,0x3a,0x0c,0x52,0x50,0x47,0x3a,0x3a,0x53,0x45,0x08,0x3a,0x0a,0x40,0x6e,0x61,0x6d,0x65,0x49,0x22,0x0a,0x49,0x74,0x65,0x6d,0x31,0x06,0x3a,0x06,0x45,0x54,0x3a,0x0b,0x40,0x70,0x69,0x74,0x63,0x68,0x69,0x69,0x3a,0x0c,0x40,0x76,0x6f,0x6c,0x75,0x6d,0x65,0x69,0x55))
   ChangeInventory_Item(565,0,0,1)
   EndEventProcessing()
   0()
  EndIf()
  If(1,129,0,20,0)
   ShowMessageFace("",0,0,2,20)
   ShowMessage("You can sense Erubetie's presence...\nWill you challenge this floor boss?")
   ShowChoices(strings("Make preparations","Fight as you are"),2)
   IfPlayerPicksChoice(0,null)
    EndEventProcessing()
    0()
   IfPlayerPicksChoice(1,null)
    0()
   404()
   SetBattleBGM(bytes(0x04,0x08,0x6f,0x3a,0x0d,0x52,0x50,0x47,0x3a,0x3a,0x42,0x47,0x4d,0x08,0x3a,0x0a,0x40,0x6e,0x61,0x6d,0x65,0x49,0x22,0x11,0x62,0x6f,0x73,0x73,0x5f,0x73,0x69,0x74,0x65,0x6e,0x6e,0x6f,0x06,0x3a,0x06,0x45,0x54,0x3a,0x0c,0x40,0x76,0x6f,0x6c,0x75,0x6d,0x65,0x69,0x69,0x3a,0x0b,0x40,0x70,0x69,0x74,0x63,0x68,0x69,0x69))
   Battle(0,1272,false,false)
   ChangeSwitch(2333,2333,1)
   SetBattleBGM(bytes(0x04,0x08,0x6f,0x3a,0x0d,0x52,0x50,0x47,0x3a,0x3a,0x42,0x47,0x4d,0x08,0x3a,0x0a,0x40,0x6e,0x61,0x6d,0x65,0x49,0x22,0x0b,0x62,0x61,0x74,0x74,0x6c,0x65,0x06,0x3a,0x06,0x45,0x54,0x3a,0x0c,0x40,0x76,0x6f,0x6c,0x75,0x6d,0x65,0x69,0x69,0x3a,0x0b,0x40,0x70,0x69,0x74,0x63,0x68,0x69,0x69))
   ChangeSwitch(51,51,0)
   250(bytes(0x04,0x08,0x6f,0x3a,0x0c,0x52,0x50,0x47,0x3a,0x3a,0x53,0x45,0x08,0x3a,0x0a,0x40,0x6e,0x61,0x6d,0x65,0x49,0x22,0x0a,0x49,0x74,0x65,0x6d,0x31,0x06,0x3a,0x06,0x45,0x54,0x3a,0x0b,0x40,0x70,0x69,0x74,0x63,0x68,0x69,0x69,0x3a,0x0c,0x40,0x76,0x6f,0x6c,0x75,0x6d,0x65,0x69,0x55))
   ChangeInventory_Item(565,0,0,1)
   EndEventProcessing()
   0()
  EndIf()
  If(1,129,0,21,0)
   ShowMessageFace("",0,0,2,21)
   ShowMessage("You can sense Lilith's presence...\nWill you challenge this floor boss?")
   ShowChoices(strings("Make preparations","Fight as you are"),2)
   IfPlayerPicksChoice(0,null)
    EndEventProcessing()
    0()
   IfPlayerPicksChoice(1,null)
    0()
   404()
   SetBattleBGM(bytes(0x04,0x08,0x6f,0x3a,0x0d,0x52,0x50,0x47,0x3a,0x3a,0x42,0x47,0x4d,0x08,0x3a,0x0a,0x40,0x6e,0x61,0x6d,0x65,0x49,0x22,0x10,0x62,0x6f,0x73,0x73,0x5f,0x6c,0x69,0x6c,0x69,0x74,0x68,0x06,0x3a,0x06,0x45,0x54,0x3a,0x0c,0x40,0x76,0x6f,0x6c,0x75,0x6d,0x65,0x69,0x69,0x3a,0x0b,0x40,0x70,0x69,0x74,0x63,0x68,0x69,0x69))
   Battle(0,1273,false,false)
   ChangeSwitch(2333,2333,1)
   SetBattleBGM(bytes(0x04,0x08,0x6f,0x3a,0x0d,0x52,0x50,0x47,0x3a,0x3a,0x42,0x47,0x4d,0x08,0x3a,0x0a,0x40,0x6e,0x61,0x6d,0x65,0x49,0x22,0x0b,0x62,0x61,0x74,0x74,0x6c,0x65,0x06,0x3a,0x06,0x45,0x54,0x3a,0x0c,0x40,0x76,0x6f,0x6c,0x75,0x6d,0x65,0x69,0x69,0x3a,0x0b,0x40,0x70,0x69,0x74,0x63,0x68,0x69,0x69))
   ChangeSwitch(51,51,0)
   250(bytes(0x04,0x08,0x6f,0x3a,0x0c,0x52,0x50,0x47,0x3a,0x3a,0x53,0x45,0x08,0x3a,0x0a,0x40,0x6e,0x61,0x6d,0x65,0x49,0x22,0x0a,0x49,0x74,0x65,0x6d,0x31,0x06,0x3a,0x06,0x45,0x54,0x3a,0x0b,0x40,0x70,0x69,0x74,0x63,0x68,0x69,0x69,0x3a,0x0c,0x40,0x76,0x6f,0x6c,0x75,0x6d,0x65,0x69,0x55))
   ChangeInventory_Item(565,0,0,1)
   EndEventProcessing()
   0()
  EndIf()
  If(1,129,0,22,0)
   ShowMessageFace("",0,0,2,22)
   ShowMessage("You can sense Aži Dahāka's presence...\nWill you challenge this floor boss?")
   ShowChoices(strings("Make preparations","Fight as you are"),2)
   IfPlayerPicksChoice(0,null)
    EndEventProcessing()
    0()
   IfPlayerPicksChoice(1,null)
    0()
   404()
   SetBattleBGM(bytes(0x04,0x08,0x6f,0x3a,0x0d,0x52,0x50,0x47,0x3a,0x3a,0x42,0x47,0x4d,0x08,0x3a,0x0a,0x40,0x6e,0x61,0x6d,0x65,0x49,0x22,0x0a,0x62,0x6f,0x73,0x73,0x33,0x06,0x3a,0x06,0x45,0x54,0x3a,0x0c,0x40,0x76,0x6f,0x6c,0x75,0x6d,0x65,0x69,0x69,0x3a,0x0b,0x40,0x70,0x69,0x74,0x63,0x68,0x69,0x69))
   Battle(0,1274,false,false)
   ChangeSwitch(2333,2333,1)
   SetBattleBGM(bytes(0x04,0x08,0x6f,0x3a,0x0d,0x52,0x50,0x47,0x3a,0x3a,0x42,0x47,0x4d,0x08,0x3a,0x0a,0x40,0x6e,0x61,0x6d,0x65,0x49,0x22,0x0b,0x62,0x61,0x74,0x74,0x6c,0x65,0x06,0x3a,0x06,0x45,0x54,0x3a,0x0c,0x40,0x76,0x6f,0x6c,0x75,0x6d,0x65,0x69,0x69,0x3a,0x0b,0x40,0x70,0x69,0x74,0x63,0x68,0x69,0x69))
   ChangeSwitch(51,51,0)
   250(bytes(0x04,0x08,0x6f,0x3a,0x0c,0x52,0x50,0x47,0x3a,0x3a,0x53,0x45,0x08,0x3a,0x0a,0x40,0x6e,0x61,0x6d,0x65,0x49,0x22,0x0a,0x49,0x74,0x65,0x6d,0x31,0x06,0x3a,0x06,0x45,0x54,0x3a,0x0b,0x40,0x70,0x69,0x74,0x63,0x68,0x69,0x69,0x3a,0x0c,0x40,0x76,0x6f,0x6c,0x75,0x6d,0x65,0x69,0x55))
   ChangeInventory_Item(565,0,0,1)
   EndEventProcessing()
   0()
  EndIf()
  If(1,129,0,23,0)
   ShowMessageFace("",0,0,2,23)
   ShowMessage("You can sense Black Alice(3rd form)'s presence...\nWill you challenge this floor boss?")
   ShowChoices(strings("Make preparations","Fight as you are"),2)
   IfPlayerPicksChoice(0,null)
    EndEventProcessing()
    0()
   IfPlayerPicksChoice(1,null)
    0()
   404()
   SetBattleBGM(bytes(0x04,0x08,0x6f,0x3a,0x0d,0x52,0x50,0x47,0x3a,0x3a,0x42,0x47,0x4d,0x08,0x3a,0x0a,0x40,0x6e,0x61,0x6d,0x65,0x49,0x22,0x0f,0x62,0x6f,0x73,0x73,0x5f,0x6d,0x61,0x6f,0x75,0x32,0x06,0x3a,0x06,0x45,0x54,0x3a,0x0c,0x40,0x76,0x6f,0x6c,0x75,0x6d,0x65,0x69,0x69,0x3a,0x0b,0x40,0x70,0x69,0x74,0x63,0x68,0x69,0x69))
   Battle(0,1277,false,false)
   ChangeSwitch(2333,2333,1)
   SetBattleBGM(bytes(0x04,0x08,0x6f,0x3a,0x0d,0x52,0x50,0x47,0x3a,0x3a,0x42,0x47,0x4d,0x08,0x3a,0x0a,0x40,0x6e,0x61,0x6d,0x65,0x49,0x22,0x0b,0x62,0x61,0x74,0x74,0x6c,0x65,0x06,0x3a,0x06,0x45,0x54,0x3a,0x0c,0x40,0x76,0x6f,0x6c,0x75,0x6d,0x65,0x69,0x69,0x3a,0x0b,0x40,0x70,0x69,0x74,0x63,0x68,0x69,0x69))
   ChangeSwitch(51,51,0)
   250(bytes(0x04,0x08,0x6f,0x3a,0x0c,0x52,0x50,0x47,0x3a,0x3a,0x53,0x45,0x08,0x3a,0x0a,0x40,0x6e,0x61,0x6d,0x65,0x49,0x22,0x0a,0x49,0x74,0x65,0x6d,0x31,0x06,0x3a,0x06,0x45,0x54,0x3a,0x0b,0x40,0x70,0x69,0x74,0x63,0x68,0x69,0x69,0x3a,0x0c,0x40,0x76,0x6f,0x6c,0x75,0x6d,0x65,0x69,0x55))
   ChangeInventory_Item(565,0,0,1)
   EndEventProcessing()
   0()
  EndIf()
  If(1,129,0,24,0)
   ShowMessageFace("",0,0,2,24)
   ShowMessage("You can sense Eden's presence...\nWill you challenge this floor boss?")
   ShowChoices(strings("Make preparations","Fight as you are"),2)
   IfPlayerPicksChoice(0,null)
    EndEventProcessing()
    0()
   IfPlayerPicksChoice(1,null)
    0()
   404()
   SetBattleBGM(bytes(0x04,0x08,0x6f,0x3a,0x0d,0x52,0x50,0x47,0x3a,0x3a,0x42,0x47,0x4d,0x08,0x3a,0x0a,0x40,0x6e,0x61,0x6d,0x65,0x49,0x22,0x0e,0x62,0x6f,0x73,0x73,0x5f,0x65,0x64,0x65,0x6e,0x06,0x3a,0x06,0x45,0x54,0x3a,0x0c,0x40,0x76,0x6f,0x6c,0x75,0x6d,0x65,0x69,0x69,0x3a,0x0b,0x40,0x70,0x69,0x74,0x63,0x68,0x69,0x69))
   Battle(0,1278,false,false)
   ChangeSwitch(2333,2333,1)
   SetBattleBGM(bytes(0x04,0x08,0x6f,0x3a,0x0d,0x52,0x50,0x47,0x3a,0x3a,0x42,0x47,0x4d,0x08,0x3a,0x0a,0x40,0x6e,0x61,0x6d,0x65,0x49,0x22,0x0b,0x62,0x61,0x74,0x74,0x6c,0x65,0x06,0x3a,0x06,0x45,0x54,0x3a,0x0c,0x40,0x76,0x6f,0x6c,0x75,0x6d,0x65,0x69,0x69,0x3a,0x0b,0x40,0x70,0x69,0x74,0x63,0x68,0x69,0x69))
   ChangeSwitch(51,51,0)
   250(bytes(0x04,0x08,0x6f,0x3a,0x0c,0x52,0x50,0x47,0x3a,0x3a,0x53,0x45,0x08,0x3a,0x0a,0x40,0x6e,0x61,0x6d,0x65,0x49,0x22,0x0a,0x49,0x74,0x65,0x6d,0x31,0x06,0x3a,0x06,0x45,0x54,0x3a,0x0b,0x40,0x70,0x69,0x74,0x63,0x68,0x69,0x69,0x3a,0x0c,0x40,0x76,0x6f,0x6c,0x75,0x6d,0x65,0x69,0x55))
   ChangeInventory_Item(565,0,0,1)
   EndEventProcessing()
   0()
  EndIf()
  If(1,129,0,25,0)
   ShowMessageFace("",0,0,2,25)
   ShowMessage("You can sense Sonya Chaos's presence...\nWill you challenge this floor boss?")
   ShowChoices(strings("Make preparations","Fight as you are"),2)
   IfPlayerPicksChoice(0,null)
    EndEventProcessing()
    0()
   IfPlayerPicksChoice(1,null)
    0()
   404()
   SetBattleBGM(bytes(0x04,0x08,0x6f,0x3a,0x0d,0x52,0x50,0x47,0x3a,0x3a,0x42,0x47,0x4d,0x08,0x3a,0x0a,0x40,0x6e,0x61,0x6d,0x65,0x49,0x22,0x10,0x62,0x6f,0x73,0x73,0x5f,0x73,0x6f,0x6e,0x69,0x61,0x33,0x06,0x3a,0x06,0x45,0x54,0x3a,0x0c,0x40,0x76,0x6f,0x6c,0x75,0x6d,0x65,0x69,0x69,0x3a,0x0b,0x40,0x70,0x69,0x74,0x63,0x68,0x69,0x69))
   Battle(0,1279,false,false)
   ChangeSwitch(2333,2333,1)
   SetBattleBGM(bytes(0x04,0x08,0x6f,0x3a,0x0d,0x52,0x50,0x47,0x3a,0x3a,0x42,0x47,0x4d,0x08,0x3a,0x0a,0x40,0x6e,0x61,0x6d,0x65,0x49,0x22,0x0b,0x62,0x61,0x74,0x74,0x6c,0x65,0x06,0x3a,0x06,0x45,0x54,0x3a,0x0c,0x40,0x76,0x6f,0x6c,0x75,0x6d,0x65,0x69,0x69,0x3a,0x0b,0x40,0x70,0x69,0x74,0x63,0x68,0x69,0x69))
   ChangeSwitch(51,51,0)
   250(bytes(0x04,0x08,0x6f,0x3a,0x0c,0x52,0x50,0x47,0x3a,0x3a,0x53,0x45,0x08,0x3a,0x0a,0x40,0x6e,0x61,0x6d,0x65,0x49,0x22,0x0a,0x49,0x74,0x65,0x6d,0x31,0x06,0x3a,0x06,0x45,0x54,0x3a,0x0b,0x40,0x70,0x69,0x74,0x63,0x68,0x69,0x69,0x3a,0x0c,0x40,0x76,0x6f,0x6c,0x75,0x6d,0x65,0x69,0x55))
   ChangeInventory_Item(565,0,0,1)
   EndEventProcessing()
   0()
  EndIf()
  If(1,129,0,26,0)
   ShowMessageFace("",0,0,2,26)
   ShowMessage("You can sense Tamamo's presence...\nWill you challenge this floor boss?")
   ShowChoices(strings("Make preparations","Fight as you are"),2)
   IfPlayerPicksChoice(0,null)
    EndEventProcessing()
    0()
   IfPlayerPicksChoice(1,null)
    0()
   404()
   SetBattleBGM(bytes(0x04,0x08,0x6f,0x3a,0x0d,0x52,0x50,0x47,0x3a,0x3a,0x42,0x47,0x4d,0x08,0x3a,0x0a,0x40,0x6e,0x61,0x6d,0x65,0x49,0x22,0x10,0x62,0x6f,0x73,0x73,0x5f,0x72,0x69,0x6b,0x75,0x73,0x6f,0x06,0x3a,0x06,0x45,0x54,0x3a,0x0c,0x40,0x76,0x6f,0x6c,0x75,0x6d,0x65,0x69,0x69,0x3a,0x0b,0x40,0x70,0x69,0x74,0x63,0x68,0x69,0x69))
   Battle(0,1280,false,false)
   ChangeSwitch(2333,2333,1)
   SetBattleBGM(bytes(0x04,0x08,0x6f,0x3a,0x0d,0x52,0x50,0x47,0x3a,0x3a,0x42,0x47,0x4d,0x08,0x3a,0x0a,0x40,0x6e,0x61,0x6d,0x65,0x49,0x22,0x0b,0x62,0x61,0x74,0x74,0x6c,0x65,0x06,0x3a,0x06,0x45,0x54,0x3a,0x0c,0x40,0x76,0x6f,0x6c,0x75,0x6d,0x65,0x69,0x69,0x3a,0x0b,0x40,0x70,0x69,0x74,0x63,0x68,0x69,0x69))
   ChangeSwitch(51,51,0)
   250(bytes(0x04,0x08,0x6f,0x3a,0x0c,0x52,0x50,0x47,0x3a,0x3a,0x53,0x45,0x08,0x3a,0x0a,0x40,0x6e,0x61,0x6d,0x65,0x49,0x22,0x0a,0x49,0x74,0x65,0x6d,0x31,0x06,0x3a,0x06,0x45,0x54,0x3a,0x0b,0x40,0x70,0x69,0x74,0x63,0x68,0x69,0x69,0x3a,0x0c,0x40,0x76,0x6f,0x6c,0x75,0x6d,0x65,0x69,0x55))
   ChangeInventory_Item(565,0,0,1)
   EndEventProcessing()
   0()
  EndIf()
  If(1,129,0,27,0)
   ShowMessageFace("",0,0,2,27)
   ShowMessage("You can sense Cassandra's presence...\nWill you challenge this floor boss?")
   ShowChoices(strings("Make preparations","Fight as you are"),2)
   IfPlayerPicksChoice(0,null)
    EndEventProcessing()
    0()
   IfPlayerPicksChoice(1,null)
    0()
   404()
   SetBattleBGM(bytes(0x04,0x08,0x6f,0x3a,0x0d,0x52,0x50,0x47,0x3a,0x3a,0x42,0x47,0x4d,0x08,0x3a,0x0a,0x40,0x6e,0x61,0x6d,0x65,0x49,0x22,0x0a,0x62,0x6f,0x73,0x73,0x33,0x06,0x3a,0x06,0x45,0x54,0x3a,0x0c,0x40,0x76,0x6f,0x6c,0x75,0x6d,0x65,0x69,0x69,0x3a,0x0b,0x40,0x70,0x69,0x74,0x63,0x68,0x69,0x69))
   Battle(0,1445,false,false)
   ChangeSwitch(2333,2333,1)
   SetBattleBGM(bytes(0x04,0x08,0x6f,0x3a,0x0d,0x52,0x50,0x47,0x3a,0x3a,0x42,0x47,0x4d,0x08,0x3a,0x0a,0x40,0x6e,0x61,0x6d,0x65,0x49,0x22,0x0b,0x62,0x61,0x74,0x74,0x6c,0x65,0x06,0x3a,0x06,0x45,0x54,0x3a,0x0c,0x40,0x76,0x6f,0x6c,0x75,0x6d,0x65,0x69,0x69,0x3a,0x0b,0x40,0x70,0x69,0x74,0x63,0x68,0x69,0x69))
   ChangeSwitch(51,51,0)
   250(bytes(0x04,0x08,0x6f,0x3a,0x0c,0x52,0x50,0x47,0x3a,0x3a,0x53,0x45,0x08,0x3a,0x0a,0x40,0x6e,0x61,0x6d,0x65,0x49,0x22,0x0a,0x49,0x74,0x65,0x6d,0x31,0x06,0x3a,0x06,0x45,0x54,0x3a,0x0b,0x40,0x70,0x69,0x74,0x63,0x68,0x69,0x69,0x3a,0x0c,0x40,0x76,0x6f,0x6c,0x75,0x6d,0x65,0x69,0x55))
   ChangeInventory_Item(565,0,0,1)
   EndEventProcessing()
   0()
  EndIf()
  If(1,129,0,28,0)
   ShowMessageFace("",0,0,2,28)
   ShowMessage("You can sense Doppel Luka's presence...\nWill you challenge this floor boss?")
   ShowChoices(strings("Make preparations","Fight as you are"),2)
   IfPlayerPicksChoice(0,null)
    EndEventProcessing()
    0()
   IfPlayerPicksChoice(1,null)
    0()
   404()
   SetBattleBGM(bytes(0x04,0x08,0x6f,0x3a,0x0d,0x52,0x50,0x47,0x3a,0x3a,0x42,0x47,0x4d,0x08,0x3a,0x0a,0x40,0x6e,0x61,0x6d,0x65,0x49,0x22,0x10,0x62,0x6f,0x73,0x73,0x5f,0x63,0x68,0x61,0x6f,0x73,0x31,0x06,0x3a,0x06,0x45,0x54,0x3a,0x0c,0x40,0x76,0x6f,0x6c,0x75,0x6d,0x65,0x69,0x69,0x3a,0x0b,0x40,0x70,0x69,0x74,0x63,0x68,0x69,0x69))
   Battle(0,1281,false,false)
   ChangeSwitch(2333,2333,1)
   SetBattleBGM(bytes(0x04,0x08,0x6f,0x3a,0x0d,0x52,0x50,0x47,0x3a,0x3a,0x42,0x47,0x4d,0x08,0x3a,0x0a,0x40,0x6e,0x61,0x6d,0x65,0x49,0x22,0x0b,0x62,0x61,0x74,0x74,0x6c,0x65,0x06,0x3a,0x06,0x45,0x54,0x3a,0x0c,0x40,0x76,0x6f,0x6c,0x75,0x6d,0x65,0x69,0x69,0x3a,0x0b,0x40,0x70,0x69,0x74,0x63,0x68,0x69,0x69))
   ChangeSwitch(51,51,0)
   250(bytes(0x04,0x08,0x6f,0x3a,0x0c,0x52,0x50,0x47,0x3a,0x3a,0x53,0x45,0x08,0x3a,0x0a,0x40,0x6e,0x61,0x6d,0x65,0x49,0x22,0x0a,0x49,0x74,0x65,0x6d,0x31,0x06,0x3a,0x06,0x45,0x54,0x3a,0x0b,0x40,0x70,0x69,0x74,0x63,0x68,0x69,0x69,0x3a,0x0c,0x40,0x76,0x6f,0x6c,0x75,0x6d,0x65,0x69,0x55))
   ChangeInventory_Item(565,0,0,1)
   EndEventProcessing()
   0()
  EndIf()
  If(1,129,0,29,0)
   ShowMessageFace("",0,0,2,29)
   ShowMessage("You can sense Angel Killer's presence...\nWill you challenge this floor boss?")
   ShowChoices(strings("Make preparations","Fight as you are"),2)
   IfPlayerPicksChoice(0,null)
    EndEventProcessing()
    0()
   IfPlayerPicksChoice(1,null)
    0()
   404()
   SetBattleBGM(bytes(0x04,0x08,0x6f,0x3a,0x0d,0x52,0x50,0x47,0x3a,0x3a,0x42,0x47,0x4d,0x08,0x3a,0x0a,0x40,0x6e,0x61,0x6d,0x65,0x49,0x22,0x10,0x62,0x6f,0x73,0x73,0x5f,0x63,0x68,0x61,0x6f,0x73,0x31,0x06,0x3a,0x06,0x45,0x54,0x3a,0x0c,0x40,0x76,0x6f,0x6c,0x75,0x6d,0x65,0x69,0x69,0x3a,0x0b,0x40,0x70,0x69,0x74,0x63,0x68,0x69,0x69))
   Battle(0,1288,false,false)
   ChangeSwitch(2333,2333,1)
   SetBattleBGM(bytes(0x04,0x08,0x6f,0x3a,0x0d,0x52,0x50,0x47,0x3a,0x3a,0x42,0x47,0x4d,0x08,0x3a,0x0a,0x40,0x6e,0x61,0x6d,0x65,0x49,0x22,0x0b,0x62,0x61,0x74,0x74,0x6c,0x65,0x06,0x3a,0x06,0x45,0x54,0x3a,0x0c,0x40,0x76,0x6f,0x6c,0x75,0x6d,0x65,0x69,0x69,0x3a,0x0b,0x40,0x70,0x69,0x74,0x63,0x68,0x69,0x69))
   ChangeSwitch(51,51,0)
   250(bytes(0x04,0x08,0x6f,0x3a,0x0c,0x52,0x50,0x47,0x3a,0x3a,0x53,0x45,0x08,0x3a,0x0a,0x40,0x6e,0x61,0x6d,0x65,0x49,0x22,0x0a,0x49,0x74,0x65,0x6d,0x31,0x06,0x3a,0x06,0x45,0x54,0x3a,0x0b,0x40,0x70,0x69,0x74,0x63,0x68,0x69,0x69,0x3a,0x0c,0x40,0x76,0x6f,0x6c,0x75,0x6d,0x65,0x69,0x55))
   ChangeInventory_Item(565,0,0,1)
   EndEventProcessing()
   0()
  EndIf()
  If(1,129,0,30,0)
   ShowMessageFace("",0,0,2,30)
   ShowMessage("You can sense Monster Lord Slayer's presence...\nWill you challenge this floor boss?")
   ShowChoices(strings("Make preparations","Fight as you are"),2)
   IfPlayerPicksChoice(0,null)
    EndEventProcessing()
    0()
   IfPlayerPicksChoice(1,null)
    0()
   404()
   SetBattleBGM(bytes(0x04,0x08,0x6f,0x3a,0x0d,0x52,0x50,0x47,0x3a,0x3a,0x42,0x47,0x4d,0x08,0x3a,0x0a,0x40,0x6e,0x61,0x6d,0x65,0x49,0x22,0x10,0x62,0x6f,0x73,0x73,0x5f,0x63,0x68,0x61,0x6f,0x73,0x31,0x06,0x3a,0x06,0x45,0x54,0x3a,0x0c,0x40,0x76,0x6f,0x6c,0x75,0x6d,0x65,0x69,0x69,0x3a,0x0b,0x40,0x70,0x69,0x74,0x63,0x68,0x69,0x69))
   Battle(0,1289,false,false)
   ChangeSwitch(2333,2333,1)
   SetBattleBGM(bytes(0x04,0x08,0x6f,0x3a,0x0d,0x52,0x50,0x47,0x3a,0x3a,0x42,0x47,0x4d,0x08,0x3a,0x0a,0x40,0x6e,0x61,0x6d,0x65,0x49,0x22,0x0b,0x62,0x61,0x74,0x74,0x6c,0x65,0x06,0x3a,0x06,0x45,0x54,0x3a,0x0c,0x40,0x76,0x6f,0x6c,0x75,0x6d,0x65,0x69,0x69,0x3a,0x0b,0x40,0x70,0x69,0x74,0x63,0x68,0x69,0x69))
   ChangeSwitch(51,51,0)
   250(bytes(0x04,0x08,0x6f,0x3a,0x0c,0x52,0x50,0x47,0x3a,0x3a,0x53,0x45,0x08,0x3a,0x0a,0x40,0x6e,0x61,0x6d,0x65,0x49,0x22,0x0a,0x49,0x74,0x65,0x6d,0x31,0x06,0x3a,0x06,0x45,0x54,0x3a,0x0b,0x40,0x70,0x69,0x74,0x63,0x68,0x69,0x69,0x3a,0x0c,0x40,0x76,0x6f,0x6c,0x75,0x6d,0x65,0x69,0x55))
   ChangeInventory_Item(565,0,0,1)
   EndEventProcessing()
   0()
  EndIf()
  If(1,129,0,31,0)
   ShowMessageFace("",0,0,2,31)
   ShowMessage("You can sense Judgement's presence...\nWill you challenge this floor boss?")
   ShowChoices(strings("Make preparations","Fight as you are"),2)
   IfPlayerPicksChoice(0,null)
    EndEventProcessing()
    0()
   IfPlayerPicksChoice(1,null)
    0()
   404()
   SetBattleBGM(bytes(0x04,0x08,0x6f,0x3a,0x0d,0x52,0x50,0x47,0x3a,0x3a,0x42,0x47,0x4d,0x08,0x3a,0x0a,0x40,0x6e,0x61,0x6d,0x65,0x49,0x22,0x10,0x62,0x6f,0x73,0x73,0x5f,0x69,0x72,0x69,0x61,0x73,0x31,0x06,0x3a,0x06,0x45,0x54,0x3a,0x0c,0x40,0x76,0x6f,0x6c,0x75,0x6d,0x65,0x69,0x69,0x3a,0x0b,0x40,0x70,0x69,0x74,0x63,0x68,0x69,0x69))
   Battle(0,1290,false,false)
   ChangeSwitch(2333,2333,1)
   SetBattleBGM(bytes(0x04,0x08,0x6f,0x3a,0x0d,0x52,0x50,0x47,0x3a,0x3a,0x42,0x47,0x4d,0x08,0x3a,0x0a,0x40,0x6e,0x61,0x6d,0x65,0x49,0x22,0x0b,0x62,0x61,0x74,0x74,0x6c,0x65,0x06,0x3a,0x06,0x45,0x54,0x3a,0x0c,0x40,0x76,0x6f,0x6c,0x75,0x6d,0x65,0x69,0x69,0x3a,0x0b,0x40,0x70,0x69,0x74,0x63,0x68,0x69,0x69))
   ChangeSwitch(51,51,0)
   250(bytes(0x04,0x08,0x6f,0x3a,0x0c,0x52,0x50,0x47,0x3a,0x3a,0x53,0x45,0x08,0x3a,0x0a,0x40,0x6e,0x61,0x6d,0x65,0x49,0x22,0x0a,0x49,0x74,0x65,0x6d,0x31,0x06,0x3a,0x06,0x45,0x54,0x3a,0x0b,0x40,0x70,0x69,0x74,0x63,0x68,0x69,0x69,0x3a,0x0c,0x40,0x76,0x6f,0x6c,0x75,0x6d,0x65,0x69,0x55))
   ChangeInventory_Item(565,0,0,1)
   EndEventProcessing()
   0()
  EndIf()
  If(1,129,0,32,0)
   ShowMessageFace("",0,0,2,32)
   ShowMessage("You can sense World Breaker's presence...\nWill you challenge this floor boss?")
   ShowChoices(strings("Make preparations","Fight as you are"),2)
   IfPlayerPicksChoice(0,null)
    EndEventProcessing()
    0()
   IfPlayerPicksChoice(1,null)
    0()
   404()
   SetBattleBGM(bytes(0x04,0x08,0x6f,0x3a,0x0d,0x52,0x50,0x47,0x3a,0x3a,0x42,0x47,0x4d,0x08,0x3a,0x0a,0x40,0x6e,0x61,0x6d,0x65,0x49,0x22,0x10,0x62,0x6f,0x73,0x73,0x5f,0x63,0x68,0x61,0x6f,0x73,0x32,0x06,0x3a,0x06,0x45,0x54,0x3a,0x0c,0x40,0x76,0x6f,0x6c,0x75,0x6d,0x65,0x69,0x69,0x3a,0x0b,0x40,0x70,0x69,0x74,0x63,0x68,0x69,0x69))
   Battle(0,1291,false,false)
   ChangeSwitch(2333,2333,1)
   SetBattleBGM(bytes(0x04,0x08,0x6f,0x3a,0x0d,0x52,0x50,0x47,0x3a,0x3a,0x42,0x47,0x4d,0x08,0x3a,0x0a,0x40,0x6e,0x61,0x6d,0x65,0x49,0x22,0x0b,0x62,0x61,0x74,0x74,0x6c,0x65,0x06,0x3a,0x06,0x45,0x54,0x3a,0x0c,0x40,0x76,0x6f,0x6c,0x75,0x6d,0x65,0x69,0x69,0x3a,0x0b,0x40,0x70,0x69,0x74,0x63,0x68,0x69,0x69))
   ChangeSwitch(51,51,0)
   250(bytes(0x04,0x08,0x6f,0x3a,0x0c,0x52,0x50,0x47,0x3a,0x3a,0x53,0x45,0x08,0x3a,0x0a,0x40,0x6e,0x61,0x6d,0x65,0x49,0x22,0x0a,0x49,0x74,0x65,0x6d,0x31,0x06,0x3a,0x06,0x45,0x54,0x3a,0x0b,0x40,0x70,0x69,0x74,0x63,0x68,0x69,0x69,0x3a,0x0c,0x40,0x76,0x6f,0x6c,0x75,0x6d,0x65,0x69,0x55))
   ChangeInventory_Item(565,0,0,1)
   EndEventProcessing()
   0()
  EndIf()
  If(1,129,0,33,0)
   ShowMessageFace("",0,0,2,33)
   ShowMessage("You can sense Black Alice(1st form)'s presence...\nWill you challenge this floor boss?")
   ShowChoices(strings("Make preparations","Fight as you are"),2)
   IfPlayerPicksChoice(0,null)
    EndEventProcessing()
    0()
   IfPlayerPicksChoice(1,null)
    0()
   404()
   SetBattleBGM(bytes(0x04,0x08,0x6f,0x3a,0x0d,0x52,0x50,0x47,0x3a,0x3a,0x42,0x47,0x4d,0x08,0x3a,0x0a,0x40,0x6e,0x61,0x6d,0x65,0x49,0x22,0x0f,0x62,0x6f,0x73,0x73,0x5f,0x6d,0x61,0x6f,0x75,0x31,0x06,0x3a,0x06,0x45,0x54,0x3a,0x0c,0x40,0x76,0x6f,0x6c,0x75,0x6d,0x65,0x69,0x69,0x3a,0x0b,0x40,0x70,0x69,0x74,0x63,0x68,0x69,0x69))
   Battle(0,1292,false,false)
   ChangeSwitch(2333,2333,1)
   SetBattleBGM(bytes(0x04,0x08,0x6f,0x3a,0x0d,0x52,0x50,0x47,0x3a,0x3a,0x42,0x47,0x4d,0x08,0x3a,0x0a,0x40,0x6e,0x61,0x6d,0x65,0x49,0x22,0x0b,0x62,0x61,0x74,0x74,0x6c,0x65,0x06,0x3a,0x06,0x45,0x54,0x3a,0x0c,0x40,0x76,0x6f,0x6c,0x75,0x6d,0x65,0x69,0x69,0x3a,0x0b,0x40,0x70,0x69,0x74,0x63,0x68,0x69,0x69))
   ChangeSwitch(51,51,0)
   250(bytes(0x04,0x08,0x6f,0x3a,0x0c,0x52,0x50,0x47,0x3a,0x3a,0x53,0x45,0x08,0x3a,0x0a,0x40,0x6e,0x61,0x6d,0x65,0x49,0x22,0x0a,0x49,0x74,0x65,0x6d,0x31,0x06,0x3a,0x06,0x45,0x54,0x3a,0x0b,0x40,0x70,0x69,0x74,0x63,0x68,0x69,0x69,0x3a,0x0c,0x40,0x76,0x6f,0x6c,0x75,0x6d,0x65,0x69,0x55))
   ChangeInventory_Item(565,0,0,1)
   EndEventProcessing()
   0()
  EndIf()
  If(1,129,0,34,0)
   ShowMessageFace("",0,0,2,34)
   ShowMessage("You can sense Black Alice(2nd form)'s presence...\nWill you challenge this floor boss?")
   ShowChoices(strings("Make preparations","Fight as you are"),2)
   IfPlayerPicksChoice(0,null)
    EndEventProcessing()
    0()
   IfPlayerPicksChoice(1,null)
    0()
   404()
   SetBattleBGM(bytes(0x04,0x08,0x6f,0x3a,0x0d,0x52,0x50,0x47,0x3a,0x3a,0x42,0x47,0x4d,0x08,0x3a,0x0a,0x40,0x6e,0x61,0x6d,0x65,0x49,0x22,0x0f,0x62,0x6f,0x73,0x73,0x5f,0x6d,0x61,0x6f,0x75,0x31,0x06,0x3a,0x06,0x45,0x54,0x3a,0x0c,0x40,0x76,0x6f,0x6c,0x75,0x6d,0x65,0x69,0x69,0x3a,0x0b,0x40,0x70,0x69,0x74,0x63,0x68,0x69,0x69))
   Battle(0,1293,false,false)
   ChangeSwitch(2333,2333,1)
   SetBattleBGM(bytes(0x04,0x08,0x6f,0x3a,0x0d,0x52,0x50,0x47,0x3a,0x3a,0x42,0x47,0x4d,0x08,0x3a,0x0a,0x40,0x6e,0x61,0x6d,0x65,0x49,0x22,0x0b,0x62,0x61,0x74,0x74,0x6c,0x65,0x06,0x3a,0x06,0x45,0x54,0x3a,0x0c,0x40,0x76,0x6f,0x6c,0x75,0x6d,0x65,0x69,0x69,0x3a,0x0b,0x40,0x70,0x69,0x74,0x63,0x68,0x69,0x69))
   ChangeSwitch(51,51,0)
   250(bytes(0x04,0x08,0x6f,0x3a,0x0c,0x52,0x50,0x47,0x3a,0x3a,0x53,0x45,0x08,0x3a,0x0a,0x40,0x6e,0x61,0x6d,0x65,0x49,0x22,0x0a,0x49,0x74,0x65,0x6d,0x31,0x06,0x3a,0x06,0x45,0x54,0x3a,0x0b,0x40,0x70,0x69,0x74,0x63,0x68,0x69,0x69,0x3a,0x0c,0x40,0x76,0x6f,0x6c,0x75,0x6d,0x65,0x69,0x55))
   ChangeInventory_Item(565,0,0,1)
   EndEventProcessing()
   0()
  EndIf()
  If(1,129,0,35,0)
   ShowMessageFace("",0,0,2,35)
   ShowMessage("You can sense Black Alice(3rd form)'s presence...\nWill you challenge this floor boss?")
   ShowChoices(strings("Make preparations","Fight as you are"),2)
   IfPlayerPicksChoice(0,null)
    EndEventProcessing()
    0()
   IfPlayerPicksChoice(1,null)
    0()
   404()
   SetBattleBGM(bytes(0x04,0x08,0x6f,0x3a,0x0d,0x52,0x50,0x47,0x3a,0x3a,0x42,0x47,0x4d,0x08,0x3a,0x0a,0x40,0x6e,0x61,0x6d,0x65,0x49,0x22,0x0f,0x62,0x6f,0x73,0x73,0x5f,0x6d,0x61,0x6f,0x75,0x32,0x06,0x3a,0x06,0x45,0x54,0x3a,0x0c,0x40,0x76,0x6f,0x6c,0x75,0x6d,0x65,0x69,0x69,0x3a,0x0b,0x40,0x70,0x69,0x74,0x63,0x68,0x69,0x69))
   Battle(0,1294,false,false)
   ChangeSwitch(2333,2333,1)
   SetBattleBGM(bytes(0x04,0x08,0x6f,0x3a,0x0d,0x52,0x50,0x47,0x3a,0x3a,0x42,0x47,0x4d,0x08,0x3a,0x0a,0x40,0x6e,0x61,0x6d,0x65,0x49,0x22,0x0b,0x62,0x61,0x74,0x74,0x6c,0x65,0x06,0x3a,0x06,0x45,0x54,0x3a,0x0c,0x40,0x76,0x6f,0x6c,0x75,0x6d,0x65,0x69,0x69,0x3a,0x0b,0x40,0x70,0x69,0x74,0x63,0x68,0x69,0x69))
   ChangeSwitch(51,51,0)
   250(bytes(0x04,0x08,0x6f,0x3a,0x0c,0x52,0x50,0x47,0x3a,0x3a,0x53,0x45,0x08,0x3a,0x0a,0x40,0x6e,0x61,0x6d,0x65,0x49,0x22,0x0a,0x49,0x74,0x65,0x6d,0x31,0x06,0x3a,0x06,0x45,0x54,0x3a,0x0b,0x40,0x70,0x69,0x74,0x63,0x68,0x69,0x69,0x3a,0x0c,0x40,0x76,0x6f,0x6c,0x75,0x6d,0x65,0x69,0x55))
   ChangeInventory_Item(565,0,0,1)
   EndEventProcessing()
   0()
  EndIf()
  If(1,129,0,36,0)
   ShowMessageFace("",0,0,2,36)
   ShowMessage("You can sense Idea Lukas' presence...\nWill you challenge this floor boss?")
   ShowChoices(strings("Make preparations","Fight as you are"),2)
   IfPlayerPicksChoice(0,null)
    EndEventProcessing()
    0()
   IfPlayerPicksChoice(1,null)
    0()
   404()
   SetBattleBGM(bytes(0x04,0x08,0x6f,0x3a,0x0d,0x52,0x50,0x47,0x3a,0x3a,0x42,0x47,0x4d,0x08,0x3a,0x0a,0x40,0x6e,0x61,0x6d,0x65,0x49,0x22,0x10,0x62,0x6f,0x73,0x73,0x5f,0x63,0x68,0x61,0x6f,0x73,0x33,0x06,0x3a,0x06,0x45,0x54,0x3a,0x0c,0x40,0x76,0x6f,0x6c,0x75,0x6d,0x65,0x69,0x69,0x3a,0x0b,0x40,0x70,0x69,0x74,0x63,0x68,0x69,0x69))
   Battle(0,1252,false,false)
   ChangeSwitch(2333,2333,1)
   SetBattleBGM(bytes(0x04,0x08,0x6f,0x3a,0x0d,0x52,0x50,0x47,0x3a,0x3a,0x42,0x47,0x4d,0x08,0x3a,0x0a,0x40,0x6e,0x61,0x6d,0x65,0x49,0x22,0x0b,0x62,0x61,0x74,0x74,0x6c,0x65,0x06,0x3a,0x06,0x45,0x54,0x3a,0x0c,0x40,0x76,0x6f,0x6c,0x75,0x6d,0x65,0x69,0x69,0x3a,0x0b,0x40,0x70,0x69,0x74,0x63,0x68,0x69,0x69))
   ChangeSwitch(51,51,0)
   250(bytes(0x04,0x08,0x6f,0x3a,0x0c,0x52,0x50,0x47,0x3a,0x3a,0x53,0x45,0x08,0x3a,0x0a,0x40,0x6e,0x61,0x6d,0x65,0x49,0x22,0x0a,0x49,0x74,0x65,0x6d,0x31,0x06,0x3a,0x06,0x45,0x54,0x3a,0x0b,0x40,0x70,0x69,0x74,0x63,0x68,0x69,0x69,0x3a,0x0c,0x40,0x76,0x6f,0x6c,0x75,0x6d,0x65,0x69,0x55))
   ChangeInventory_Item(565,0,0,1)
   EndEventProcessing()
   0()
  EndIf()
  If(1,129,0,37,0)
   ShowMessageFace("",0,0,2,37)
   ShowMessage("You can sense the Cursed Sword Sisters' presence...\nWill you challenge this floor boss?")
   ShowChoices(strings("Make preparations","Fight as you are"),2)
   IfPlayerPicksChoice(0,null)
    EndEventProcessing()
    0()
   IfPlayerPicksChoice(1,null)
    0()
   404()
   SetBattleBGM(bytes(0x04,0x08,0x6f,0x3a,0x0d,0x52,0x50,0x47,0x3a,0x3a,0x42,0x47,0x4d,0x08,0x3a,0x0a,0x40,0x6e,0x61,0x6d,0x65,0x49,0x22,0x0a,0x62,0x6f,0x73,0x73,0x33,0x06,0x3a,0x06,0x45,0x54,0x3a,0x0c,0x40,0x76,0x6f,0x6c,0x75,0x6d,0x65,0x69,0x69,0x3a,0x0b,0x40,0x70,0x69,0x74,0x63,0x68,0x69,0x69))
   Battle(0,1436,false,false)
   ChangeSwitch(2333,2333,1)
   SetBattleBGM(bytes(0x04,0x08,0x6f,0x3a,0x0d,0x52,0x50,0x47,0x3a,0x3a,0x42,0x47,0x4d,0x08,0x3a,0x0a,0x40,0x6e,0x61,0x6d,0x65,0x49,0x22,0x0b,0x62,0x61,0x74,0x74,0x6c,0x65,0x06,0x3a,0x06,0x45,0x54,0x3a,0x0c,0x40,0x76,0x6f,0x6c,0x75,0x6d,0x65,0x69,0x69,0x3a,0x0b,0x40,0x70,0x69,0x74,0x63,0x68,0x69,0x69))
   ChangeSwitch(51,51,0)
   250(bytes(0x04,0x08,0x6f,0x3a,0x0c,0x52,0x50,0x47,0x3a,0x3a,0x53,0x45,0x08,0x3a,0x0a,0x40,0x6e,0x61,0x6d,0x65,0x49,0x22,0x0a,0x49,0x74,0x65,0x6d,0x31,0x06,0x3a,0x06,0x45,0x54,0x3a,0x0b,0x40,0x70,0x69,0x74,0x63,0x68,0x69,0x69,0x3a,0x0c,0x40,0x76,0x6f,0x6c,0x75,0x6d,0x65,0x69,0x55))
   ChangeInventory_Item(565,0,0,1)
   EndEventProcessing()
   0()
  EndIf()
  If(1,129,0,38,0)
   ShowMessageFace("",0,0,2,38)
   ShowMessage("You can sense Myusca's presence...\nWill you challenge this floor boss?")
   ShowChoices(strings("Make preparations","Fight as you are"),2)
   IfPlayerPicksChoice(0,null)
    EndEventProcessing()
    0()
   IfPlayerPicksChoice(1,null)
    0()
   404()
   SetBattleBGM(bytes(0x04,0x08,0x6f,0x3a,0x0d,0x52,0x50,0x47,0x3a,0x3a,0x42,0x47,0x4d,0x08,0x3a,0x0a,0x40,0x6e,0x61,0x6d,0x65,0x49,0x22,0x0a,0x62,0x6f,0x73,0x73,0x33,0x06,0x3a,0x06,0x45,0x54,0x3a,0x0c,0x40,0x76,0x6f,0x6c,0x75,0x6d,0x65,0x69,0x69,0x3a,0x0b,0x40,0x70,0x69,0x74,0x63,0x68,0x69,0x69))
   Battle(0,1437,false,false)
   ChangeSwitch(2333,2333,1)
   SetBattleBGM(bytes(0x04,0x08,0x6f,0x3a,0x0d,0x52,0x50,0x47,0x3a,0x3a,0x42,0x47,0x4d,0x08,0x3a,0x0a,0x40,0x6e,0x61,0x6d,0x65,0x49,0x22,0x0b,0x62,0x61,0x74,0x74,0x6c,0x65,0x06,0x3a,0x06,0x45,0x54,0x3a,0x0c,0x40,0x76,0x6f,0x6c,0x75,0x6d,0x65,0x69,0x69,0x3a,0x0b,0x40,0x70,0x69,0x74,0x63,0x68,0x69,0x69))
   ChangeSwitch(51,51,0)
   250(bytes(0x04,0x08,0x6f,0x3a,0x0c,0x52,0x50,0x47,0x3a,0x3a,0x53,0x45,0x08,0x3a,0x0a,0x40,0x6e,0x61,0x6d,0x65,0x49,0x22,0x0a,0x49,0x74,0x65,0x6d,0x31,0x06,0x3a,0x06,0x45,0x54,0x3a,0x0b,0x40,0x70,0x69,0x74,0x63,0x68,0x69,0x69,0x3a,0x0c,0x40,0x76,0x6f,0x6c,0x75,0x6d,0x65,0x69,0x55))
   ChangeInventory_Item(565,0,0,1)
   EndEventProcessing()
   0()
  EndIf()
  If(1,129,0,39,0)
   ShowMessageFace("",0,0,2,39)
   ShowMessage("You can sense Musette's presence...\nWill you challenge this floor boss?")
   ShowChoices(strings("Make preparations","Fight as you are"),2)
   IfPlayerPicksChoice(0,null)
    EndEventProcessing()
    0()
   IfPlayerPicksChoice(1,null)
    0()
   404()
   SetBattleBGM(bytes(0x04,0x08,0x6f,0x3a,0x0d,0x52,0x50,0x47,0x3a,0x3a,0x42,0x47,0x4d,0x08,0x3a,0x0a,0x40,0x6e,0x61,0x6d,0x65,0x49,0x22,0x0a,0x62,0x6f,0x73,0x73,0x33,0x06,0x3a,0x06,0x45,0x54,0x3a,0x0c,0x40,0x76,0x6f,0x6c,0x75,0x6d,0x65,0x69,0x69,0x3a,0x0b,0x40,0x70,0x69,0x74,0x63,0x68,0x69,0x69))
   Battle(0,1438,false,false)
   ChangeSwitch(2333,2333,1)
   SetBattleBGM(bytes(0x04,0x08,0x6f,0x3a,0x0d,0x52,0x50,0x47,0x3a,0x3a,0x42,0x47,0x4d,0x08,0x3a,0x0a,0x40,0x6e,0x61,0x6d,0x65,0x49,0x22,0x0b,0x62,0x61,0x74,0x74,0x6c,0x65,0x06,0x3a,0x06,0x45,0x54,0x3a,0x0c,0x40,0x76,0x6f,0x6c,0x75,0x6d,0x65,0x69,0x69,0x3a,0x0b,0x40,0x70,0x69,0x74,0x63,0x68,0x69,0x69))
   ChangeSwitch(51,51,0)
   250(bytes(0x04,0x08,0x6f,0x3a,0x0c,0x52,0x50,0x47,0x3a,0x3a,0x53,0x45,0x08,0x3a,0x0a,0x40,0x6e,0x61,0x6d,0x65,0x49,0x22,0x0a,0x49,0x74,0x65,0x6d,0x31,0x06,0x3a,0x06,0x45,0x54,0x3a,0x0b,0x40,0x70,0x69,0x74,0x63,0x68,0x69,0x69,0x3a,0x0c,0x40,0x76,0x6f,0x6c,0x75,0x6d,0x65,0x69,0x55))
   ChangeInventory_Item(565,0,0,1)
   EndEventProcessing()
   0()
  EndIf()
  If(1,129,0,40,0)
   ShowMessageFace("",0,0,2,40)
   ShowMessage("You can sense Fulbeua's presence...\nWill you challenge this floor boss?")
   ShowChoices(strings("Make preparations","Fight as you are"),2)
   IfPlayerPicksChoice(0,null)
    EndEventProcessing()
    0()
   IfPlayerPicksChoice(1,null)
    0()
   404()
   SetBattleBGM(bytes(0x04,0x08,0x6f,0x3a,0x0d,0x52,0x50,0x47,0x3a,0x3a,0x42,0x47,0x4d,0x08,0x3a,0x0a,0x40,0x6e,0x61,0x6d,0x65,0x49,0x22,0x08,0x63,0x62,0x33,0x06,0x3a,0x06,0x45,0x54,0x3a,0x0c,0x40,0x76,0x6f,0x6c,0x75,0x6d,0x65,0x69,0x69,0x3a,0x0b,0x40,0x70,0x69,0x74,0x63,0x68,0x69,0x69))
   Battle(0,1439,false,false)
   ChangeSwitch(2333,2333,1)
   SetBattleBGM(bytes(0x04,0x08,0x6f,0x3a,0x0d,0x52,0x50,0x47,0x3a,0x3a,0x42,0x47,0x4d,0x08,0x3a,0x0a,0x40,0x6e,0x61,0x6d,0x65,0x49,0x22,0x0b,0x62,0x61,0x74,0x74,0x6c,0x65,0x06,0x3a,0x06,0x45,0x54,0x3a,0x0c,0x40,0x76,0x6f,0x6c,0x75,0x6d,0x65,0x69,0x69,0x3a,0x0b,0x40,0x70,0x69,0x74,0x63,0x68,0x69,0x69))
   ChangeSwitch(51,51,0)
   250(bytes(0x04,0x08,0x6f,0x3a,0x0c,0x52,0x50,0x47,0x3a,0x3a,0x53,0x45,0x08,0x3a,0x0a,0x40,0x6e,0x61,0x6d,0x65,0x49,0x22,0x0a,0x49,0x74,0x65,0x6d,0x31,0x06,0x3a,0x06,0x45,0x54,0x3a,0x0b,0x40,0x70,0x69,0x74,0x63,0x68,0x69,0x69,0x3a,0x0c,0x40,0x76,0x6f,0x6c,0x75,0x6d,0x65,0x69,0x55))
   ChangeInventory_Item(565,0,0,1)
   EndEventProcessing()
   0()
  EndIf()
  If(1,129,0,41,0)
   ShowMessageFace("",0,0,2,41)
   ShowMessage("You can sense Gilgorn's presence...\nWill you challenge this floor boss?")
   ShowChoices(strings("Make preparations","Fight as you are"),2)
   IfPlayerPicksChoice(0,null)
    EndEventProcessing()
    0()
   IfPlayerPicksChoice(1,null)
    0()
   404()
   SetBattleBGM(bytes(0x04,0x08,0x6f,0x3a,0x0d,0x52,0x50,0x47,0x3a,0x3a,0x42,0x47,0x4d,0x08,0x3a,0x0a,0x40,0x6e,0x61,0x6d,0x65,0x49,0x22,0x08,0x63,0x62,0x33,0x06,0x3a,0x06,0x45,0x54,0x3a,0x0c,0x40,0x76,0x6f,0x6c,0x75,0x6d,0x65,0x69,0x69,0x3a,0x0b,0x40,0x70,0x69,0x74,0x63,0x68,0x69,0x69))
   Battle(0,1440,false,false)
   ChangeSwitch(2333,2333,1)
   SetBattleBGM(bytes(0x04,0x08,0x6f,0x3a,0x0d,0x52,0x50,0x47,0x3a,0x3a,0x42,0x47,0x4d,0x08,0x3a,0x0a,0x40,0x6e,0x61,0x6d,0x65,0x49,0x22,0x0b,0x62,0x61,0x74,0x74,0x6c,0x65,0x06,0x3a,0x06,0x45,0x54,0x3a,0x0c,0x40,0x76,0x6f,0x6c,0x75,0x6d,0x65,0x69,0x69,0x3a,0x0b,0x40,0x70,0x69,0x74,0x63,0x68,0x69,0x69))
   ChangeSwitch(51,51,0)
   250(bytes(0x04,0x08,0x6f,0x3a,0x0c,0x52,0x50,0x47,0x3a,0x3a,0x53,0x45,0x08,0x3a,0x0a,0x40,0x6e,0x61,0x6d,0x65,0x49,0x22,0x0a,0x49,0x74,0x65,0x6d,0x31,0x06,0x3a,0x06,0x45,0x54,0x3a,0x0b,0x40,0x70,0x69,0x74,0x63,0x68,0x69,0x69,0x3a,0x0c,0x40,0x76,0x6f,0x6c,0x75,0x6d,0x65,0x69,0x55))
   ChangeInventory_Item(565,0,0,1)
   EndEventProcessing()
   0()
  EndIf()
  If(1,129,0,42,0)
   ShowMessageFace("",0,0,2,42)
   ShowMessage("You can sense Daji's presence...\nWill you challenge this floor boss?")
   ShowChoices(strings("Make preparations","Fight as you are"),2)
   IfPlayerPicksChoice(0,null)
    EndEventProcessing()
    0()
   IfPlayerPicksChoice(1,null)
    0()
   404()
   SetBattleBGM(bytes(0x04,0x08,0x6f,0x3a,0x0d,0x52,0x50,0x47,0x3a,0x3a,0x42,0x47,0x4d,0x08,0x3a,0x0a,0x40,0x6e,0x61,0x6d,0x65,0x49,0x22,0x08,0x63,0x62,0x34,0x06,0x3a,0x06,0x45,0x54,0x3a,0x0c,0x40,0x76,0x6f,0x6c,0x75,0x6d,0x65,0x69,0x69,0x3a,0x0b,0x40,0x70,0x69,0x74,0x63,0x68,0x69,0x6e))
   Battle(0,1443,false,false)
   ChangeSwitch(2333,2333,1)
   SetBattleBGM(bytes(0x04,0x08,0x6f,0x3a,0x0d,0x52,0x50,0x47,0x3a,0x3a,0x42,0x47,0x4d,0x08,0x3a,0x0a,0x40,0x6e,0x61,0x6d,0x65,0x49,0x22,0x0b,0x62,0x61,0x74,0x74,0x6c,0x65,0x06,0x3a,0x06,0x45,0x54,0x3a,0x0c,0x40,0x76,0x6f,0x6c,0x75,0x6d,0x65,0x69,0x69,0x3a,0x0b,0x40,0x70,0x69,0x74,0x63,0x68,0x69,0x69))
   ChangeSwitch(51,51,0)
   250(bytes(0x04,0x08,0x6f,0x3a,0x0c,0x52,0x50,0x47,0x3a,0x3a,0x53,0x45,0x08,0x3a,0x0a,0x40,0x6e,0x61,0x6d,0x65,0x49,0x22,0x0a,0x49,0x74,0x65,0x6d,0x31,0x06,0x3a,0x06,0x45,0x54,0x3a,0x0b,0x40,0x70,0x69,0x74,0x63,0x68,0x69,0x69,0x3a,0x0c,0x40,0x76,0x6f,0x6c,0x75,0x6d,0x65,0x69,0x55))
   ChangeInventory_Item(565,0,0,1)
   EndEventProcessing()
   0()
  EndIf()
  If(1,129,0,43,0)
   ShowMessageFace("",0,0,2,43)
   ShowMessage("You can sense Est's presence...\nWill you challenge this floor boss?")
   ShowChoices(strings("Make preparations","Fight as you are"),2)
   IfPlayerPicksChoice(0,null)
    EndEventProcessing()
    0()
   IfPlayerPicksChoice(1,null)
    0()
   404()
   SetBattleBGM(bytes(0x04,0x08,0x6f,0x3a,0x0d,0x52,0x50,0x47,0x3a,0x3a,0x42,0x47,0x4d,0x08,0x3a,0x0a,0x40,0x6e,0x61,0x6d,0x65,0x49,0x22,0x08,0x63,0x62,0x35,0x06,0x3a,0x06,0x45,0x54,0x3a,0x0c,0x40,0x76,0x6f,0x6c,0x75,0x6d,0x65,0x69,0x69,0x3a,0x0b,0x40,0x70,0x69,0x74,0x63,0x68,0x69,0x69))
   Battle(0,1444,false,false)
   ChangeSwitch(2333,2333,1)
   SetBattleBGM(bytes(0x04,0x08,0x6f,0x3a,0x0d,0x52,0x50,0x47,0x3a,0x3a,0x42,0x47,0x4d,0x08,0x3a,0x0a,0x40,0x6e,0x61,0x6d,0x65,0x49,0x22,0x0b,0x62,0x61,0x74,0x74,0x6c,0x65,0x06,0x3a,0x06,0x45,0x54,0x3a,0x0c,0x40,0x76,0x6f,0x6c,0x75,0x6d,0x65,0x69,0x69,0x3a,0x0b,0x40,0x70,0x69,0x74,0x63,0x68,0x69,0x69))
   ChangeSwitch(51,51,0)
   250(bytes(0x04,0x08,0x6f,0x3a,0x0c,0x52,0x50,0x47,0x3a,0x3a,0x53,0x45,0x08,0x3a,0x0a,0x40,0x6e,0x61,0x6d,0x65,0x49,0x22,0x0a,0x49,0x74,0x65,0x6d,0x31,0x06,0x3a,0x06,0x45,0x54,0x3a,0x0b,0x40,0x70,0x69,0x74,0x63,0x68,0x69,0x69,0x3a,0x0c,0x40,0x76,0x6f,0x6c,0x75,0x6d,0x65,0x69,0x55))
   ChangeInventory_Item(565,0,0,1)
   EndEventProcessing()
   0()
  EndIf()
  0()
 PAGE   2
  // condition: switch 51 is ON
  0()



EVENT   12
 PAGE   1
  // condition: switch 54 is ON
  ChangeSwitch(50,50,0)
  ShowMessageFace("nero_fc1",0,0,2,1)
  ShowMessage("\\n<Nero>I defeated the boss of this floor. Well then, take care of yourselves...")
  Wait(15)
  250(bytes(0x04,0x08,0x6f,0x3a,0x0c,0x52,0x50,0x47,0x3a,0x3a,0x53,0x45,0x08,0x3a,0x0a,0x40,0x6e,0x61,0x6d,0x65,0x49,0x22,0x0d,0x6d,0x6f,0x6e,0x5f,0x77,0x61,0x72,0x70,0x06,0x3a,0x06,0x45,0x54,0x3a,0x0b,0x40,0x70,0x69,0x74,0x63,0x68,0x69,0x69,0x3a,0x0c,0x40,0x76,0x6f,0x6c,0x75,0x6d,0x65,0x69,0x69))
  ChangeSwitch(54,54,1)
  ShowMessageFace("",0,0,2,2)
  ShowMessage("Nero has disappeared...")
  0()



EVENT   13
 PAGE   1
  If(12,"unlock_level < 2")
   ShowMessageFace("",0,0,2,1)
   ShowMessage("The chest is locked...")
   EndEventProcessing()
   0()
  EndIf()
  250(bytes(0x04,0x08,0x6f,0x3a,0x0c,0x52,0x50,0x47,0x3a,0x3a,0x53,0x45,0x08,0x3a,0x0a,0x40,0x6e,0x61,0x6d,0x65,0x49,0x22,0x0a,0x43,0x68,0x65,0x73,0x74,0x06,0x3a,0x06,0x45,0x54,0x3a,0x0b,0x40,0x70,0x69,0x74,0x63,0x68,0x69,0x69,0x3a,0x0c,0x40,0x76,0x6f,0x6c,0x75,0x6d,0x65,0x69,0x55))
  205(0,bytes(0x04,0x08,0x6f,0x3a,0x13,0x52,0x50,0x47,0x3a,0x3a,0x4d,0x6f,0x76,0x65,0x52,0x6f,0x75,0x74,0x65,0x09,0x3a,0x0c,0x40,0x72,0x65,0x70,0x65,0x61,0x74,0x46,0x3a,0x0f,0x40,0x73,0x6b,0x69,0x70,0x70,0x61,0x62,0x6c,0x65,0x46,0x3a,0x0a,0x40,0x77,0x61,0x69,0x74,0x54,0x3a,0x0a,0x40,0x6c,0x69,0x73,0x74,0x5b,0x0b,0x6f,0x3a,0x15,0x52,0x50,0x47,0x3a,0x3a,0x4d,0x6f,0x76,0x65,0x43,0x6f,0x6d,0x6d,0x61,0x6e,0x64,0x07,0x3a,0x0a,0x40,0x63,0x6f,0x64,0x65,0x69,0x29,0x3a,0x10,0x40,0x70,0x61,0x72,0x61,0x6d,0x65,0x74,0x65,0x72,0x73,0x5b,0x00,0x6f,0x3b,0x0a,0x07,0x3b,0x0b,0x69,0x16,0x3b,0x0c,0x5b,0x00,0x6f,0x3b,0x0a,0x07,0x3b,0x0b,0x69,0x14,0x3b,0x0c,0x5b,0x06,0x69,0x08,0x6f,0x3b,0x0a,0x07,0x3b,0x0b,0x69,0x17,0x3b,0x0c,0x5b,0x00,0x6f,0x3b,0x0a,0x07,0x3b,0x0b,0x69,0x14,0x3b,0x0c,0x5b,0x06,0x69,0x08,0x6f,0x3b,0x0a,0x07,0x3b,0x0b,0x69,0x00,0x3b,0x0c,0x5b,0x00))
  ChangeSwitch(46,46,0)
  RunCommonEvent(914)
  0()
 PAGE   2
  // condition: switch 46 is ON
  0()



EVENT   4
 PAGE   1
  If(12,"unlock_level < 2")
   ShowMessageFace("",0,0,2,1)
   ShowMessage("The chest is locked...")
   EndEventProcessing()
   0()
  EndIf()
  250(bytes(0x04,0x08,0x6f,0x3a,0x0c,0x52,0x50,0x47,0x3a,0x3a,0x53,0x45,0x08,0x3a,0x0a,0x40,0x6e,0x61,0x6d,0x65,0x49,0x22,0x0a,0x43,0x68,0x65,0x73,0x74,0x06,0x3a,0x06,0x45,0x54,0x3a,0x0b,0x40,0x70,0x69,0x74,0x63,0x68,0x69,0x69,0x3a,0x0c,0x40,0x76,0x6f,0x6c,0x75,0x6d,0x65,0x69,0x55))
  205(0,bytes(0x04,0x08,0x6f,0x3a,0x13,0x52,0x50,0x47,0x3a,0x3a,0x4d,0x6f,0x76,0x65,0x52,0x6f,0x75,0x74,0x65,0x09,0x3a,0x0c,0x40,0x72,0x65,0x70,0x65,0x61,0x74,0x46,0x3a,0x0f,0x40,0x73,0x6b,0x69,0x70,0x70,0x61,0x62,0x6c,0x65,0x46,0x3a,0x0a,0x40,0x77,0x61,0x69,0x74,0x54,0x3a,0x0a,0x40,0x6c,0x69,0x73,0x74,0x5b,0x0b,0x6f,0x3a,0x15,0x52,0x50,0x47,0x3a,0x3a,0x4d,0x6f,0x76,0x65,0x43,0x6f,0x6d,0x6d,0x61,0x6e,0x64,0x07,0x3a,0x0a,0x40,0x63,0x6f,0x64,0x65,0x69,0x29,0x3a,0x10,0x40,0x70,0x61,0x72,0x61,0x6d,0x65,0x74,0x65,0x72,0x73,0x5b,0x00,0x6f,0x3b,0x0a,0x07,0x3b,0x0b,0x69,0x16,0x3b,0x0c,0x5b,0x00,0x6f,0x3b,0x0a,0x07,0x3b,0x0b,0x69,0x14,0x3b,0x0c,0x5b,0x06,0x69,0x08,0x6f,0x3b,0x0a,0x07,0x3b,0x0b,0x69,0x17,0x3b,0x0c,0x5b,0x00,0x6f,0x3b,0x0a,0x07,0x3b,0x0b,0x69,0x14,0x3b,0x0c,0x5b,0x06,0x69,0x08,0x6f,0x3b,0x0a,0x07,0x3b,0x0b,0x69,0x00,0x3b,0x0c,0x5b,0x00))
  ChangeSwitch(47,47,0)
  RunCommonEvent(914)
  0()
 PAGE   2
  // condition: switch 47 is ON
  0()



EVENT   14
 PAGE   1
  If(12,"unlock_level < 2")
   ShowMessageFace("",0,0,2,1)
   ShowMessage("The chest is locked...")
   EndEventProcessing()
   0()
  EndIf()
  250(bytes(0x04,0x08,0x6f,0x3a,0x0c,0x52,0x50,0x47,0x3a,0x3a,0x53,0x45,0x08,0x3a,0x0a,0x40,0x6e,0x61,0x6d,0x65,0x49,0x22,0x0a,0x43,0x68,0x65,0x73,0x74,0x06,0x3a,0x06,0x45,0x54,0x3a,0x0b,0x40,0x70,0x69,0x74,0x63,0x68,0x69,0x69,0x3a,0x0c,0x40,0x76,0x6f,0x6c,0x75,0x6d,0x65,0x69,0x55))
  205(0,bytes(0x04,0x08,0x6f,0x3a,0x13,0x52,0x50,0x47,0x3a,0x3a,0x4d,0x6f,0x76,0x65,0x52,0x6f,0x75,0x74,0x65,0x09,0x3a,0x0c,0x40,0x72,0x65,0x70,0x65,0x61,0x74,0x46,0x3a,0x0f,0x40,0x73,0x6b,0x69,0x70,0x70,0x61,0x62,0x6c,0x65,0x46,0x3a,0x0a,0x40,0x77,0x61,0x69,0x74,0x54,0x3a,0x0a,0x40,0x6c,0x69,0x73,0x74,0x5b,0x0b,0x6f,0x3a,0x15,0x52,0x50,0x47,0x3a,0x3a,0x4d,0x6f,0x76,0x65,0x43,0x6f,0x6d,0x6d,0x61,0x6e,0x64,0x07,0x3a,0x0a,0x40,0x63,0x6f,0x64,0x65,0x69,0x29,0x3a,0x10,0x40,0x70,0x61,0x72,0x61,0x6d,0x65,0x74,0x65,0x72,0x73,0x5b,0x00,0x6f,0x3b,0x0a,0x07,0x3b,0x0b,0x69,0x16,0x3b,0x0c,0x5b,0x00,0x6f,0x3b,0x0a,0x07,0x3b,0x0b,0x69,0x14,0x3b,0x0c,0x5b,0x06,0x69,0x08,0x6f,0x3b,0x0a,0x07,0x3b,0x0b,0x69,0x17,0x3b,0x0c,0x5b,0x00,0x6f,0x3b,0x0a,0x07,0x3b,0x0b,0x69,0x14,0x3b,0x0c,0x5b,0x06,0x69,0x08,0x6f,0x3b,0x0a,0x07,0x3b,0x0b,0x69,0x00,0x3b,0x0c,0x5b,0x00))
  ChangeSwitch(57,57,0)
  RunCommonEvent(914)
  0()
 PAGE   2
  // condition: switch 57 is ON
  0()



EVENT   15
 PAGE   1
  If(12,"unlock_level < 2")
   ShowMessageFace("",0,0,2,1)
   ShowMessage("The chest is locked...")
   EndEventProcessing()
   0()
  EndIf()
  250(bytes(0x04,0x08,0x6f,0x3a,0x0c,0x52,0x50,0x47,0x3a,0x3a,0x53,0x45,0x08,0x3a,0x0a,0x40,0x6e,0x61,0x6d,0x65,0x49,0x22,0x0a,0x43,0x68,0x65,0x73,0x74,0x06,0x3a,0x06,0x45,0x54,0x3a,0x0b,0x40,0x70,0x69,0x74,0x63,0x68,0x69,0x69,0x3a,0x0c,0x40,0x76,0x6f,0x6c,0x75,0x6d,0x65,0x69,0x55))
  205(0,bytes(0x04,0x08,0x6f,0x3a,0x13,0x52,0x50,0x47,0x3a,0x3a,0x4d,0x6f,0x76,0x65,0x52,0x6f,0x75,0x74,0x65,0x09,0x3a,0x0c,0x40,0x72,0x65,0x70,0x65,0x61,0x74,0x46,0x3a,0x0f,0x40,0x73,0x6b,0x69,0x70,0x70,0x61,0x62,0x6c,0x65,0x46,0x3a,0x0a,0x40,0x77,0x61,0x69,0x74,0x54,0x3a,0x0a,0x40,0x6c,0x69,0x73,0x74,0x5b,0x0b,0x6f,0x3a,0x15,0x52,0x50,0x47,0x3a,0x3a,0x4d,0x6f,0x76,0x65,0x43,0x6f,0x6d,0x6d,0x61,0x6e,0x64,0x07,0x3a,0x0a,0x40,0x63,0x6f,0x64,0x65,0x69,0x29,0x3a,0x10,0x40,0x70,0x61,0x72,0x61,0x6d,0x65,0x74,0x65,0x72,0x73,0x5b,0x00,0x6f,0x3b,0x0a,0x07,0x3b,0x0b,0x69,0x16,0x3b,0x0c,0x5b,0x00,0x6f,0x3b,0x0a,0x07,0x3b,0x0b,0x69,0x14,0x3b,0x0c,0x5b,0x06,0x69,0x08,0x6f,0x3b,0x0a,0x07,0x3b,0x0b,0x69,0x17,0x3b,0x0c,0x5b,0x00,0x6f,0x3b,0x0a,0x07,0x3b,0x0b,0x69,0x14,0x3b,0x0c,0x5b,0x06,0x69,0x08,0x6f,0x3b,0x0a,0x07,0x3b,0x0b,0x69,0x00,0x3b,0x0c,0x5b,0x00))
  ChangeSwitch(58,58,0)
  RunCommonEvent(914)
  0()
 PAGE   2
  // condition: switch 58 is ON
  0()



EVENT   16
 PAGE   1
  If(12,"unlock_level < 2")
   ShowMessageFace("",0,0,2,1)
   ShowMessage("The chest is locked...")
   EndEventProcessing()
   0()
  EndIf()
  250(bytes(0x04,0x08,0x6f,0x3a,0x0c,0x52,0x50,0x47,0x3a,0x3a,0x53,0x45,0x08,0x3a,0x0a,0x40,0x6e,0x61,0x6d,0x65,0x49,0x22,0x0a,0x43,0x68,0x65,0x73,0x74,0x06,0x3a,0x06,0x45,0x54,0x3a,0x0b,0x40,0x70,0x69,0x74,0x63,0x68,0x69,0x69,0x3a,0x0c,0x40,0x76,0x6f,0x6c,0x75,0x6d,0x65,0x69,0x55))
  205(0,bytes(0x04,0x08,0x6f,0x3a,0x13,0x52,0x50,0x47,0x3a,0x3a,0x4d,0x6f,0x76,0x65,0x52,0x6f,0x75,0x74,0x65,0x09,0x3a,0x0c,0x40,0x72,0x65,0x70,0x65,0x61,0x74,0x46,0x3a,0x0f,0x40,0x73,0x6b,0x69,0x70,0x70,0x61,0x62,0x6c,0x65,0x46,0x3a,0x0a,0x40,0x77,0x61,0x69,0x74,0x54,0x3a,0x0a,0x40,0x6c,0x69,0x73,0x74,0x5b,0x0b,0x6f,0x3a,0x15,0x52,0x50,0x47,0x3a,0x3a,0x4d,0x6f,0x76,0x65,0x43,0x6f,0x6d,0x6d,0x61,0x6e,0x64,0x07,0x3a,0x0a,0x40,0x63,0x6f,0x64,0x65,0x69,0x29,0x3a,0x10,0x40,0x70,0x61,0x72,0x61,0x6d,0x65,0x74,0x65,0x72,0x73,0x5b,0x00,0x6f,0x3b,0x0a,0x07,0x3b,0x0b,0x69,0x16,0x3b,0x0c,0x5b,0x00,0x6f,0x3b,0x0a,0x07,0x3b,0x0b,0x69,0x14,0x3b,0x0c,0x5b,0x06,0x69,0x08,0x6f,0x3b,0x0a,0x07,0x3b,0x0b,0x69,0x17,0x3b,0x0c,0x5b,0x00,0x6f,0x3b,0x0a,0x07,0x3b,0x0b,0x69,0x14,0x3b,0x0c,0x5b,0x06,0x69,0x08,0x6f,0x3b,0x0a,0x07,0x3b,0x0b,0x69,0x00,0x3b,0x0c,0x5b,0x00))
  ChangeSwitch(59,59,0)
  RunCommonEvent(914)
  0()
 PAGE   2
  // condition: switch 59 is ON
  0()
 PAGE   3
  // condition: variable 123 >= 10
  If(12,"unlock_level < 3")
   ShowMessageFace("",0,0,2,1)
   ShowMessage("The chest is locked...")
   EndEventProcessing()
   0()
  EndIf()
  250(bytes(0x04,0x08,0x6f,0x3a,0x0c,0x52,0x50,0x47,0x3a,0x3a,0x53,0x45,0x08,0x3a,0x0a,0x40,0x6e,0x61,0x6d,0x65,0x49,0x22,0x0a,0x43,0x68,0x65,0x73,0x74,0x06,0x3a,0x06,0x45,0x54,0x3a,0x0b,0x40,0x70,0x69,0x74,0x63,0x68,0x69,0x69,0x3a,0x0c,0x40,0x76,0x6f,0x6c,0x75,0x6d,0x65,0x69,0x55))
  205(0,bytes(0x04,0x08,0x6f,0x3a,0x13,0x52,0x50,0x47,0x3a,0x3a,0x4d,0x6f,0x76,0x65,0x52,0x6f,0x75,0x74,0x65,0x09,0x3a,0x0c,0x40,0x72,0x65,0x70,0x65,0x61,0x74,0x46,0x3a,0x0f,0x40,0x73,0x6b,0x69,0x70,0x70,0x61,0x62,0x6c,0x65,0x46,0x3a,0x0a,0x40,0x77,0x61,0x69,0x74,0x54,0x3a,0x0a,0x40,0x6c,0x69,0x73,0x74,0x5b,0x0b,0x6f,0x3a,0x15,0x52,0x50,0x47,0x3a,0x3a,0x4d,0x6f,0x76,0x65,0x43,0x6f,0x6d,0x6d,0x61,0x6e,0x64,0x07,0x3a,0x0a,0x40,0x63,0x6f,0x64,0x65,0x69,0x29,0x3a,0x10,0x40,0x70,0x61,0x72,0x61,0x6d,0x65,0x74,0x65,0x72,0x73,0x5b,0x00,0x6f,0x3b,0x0a,0x07,0x3b,0x0b,0x69,0x16,0x3b,0x0c,0x5b,0x00,0x6f,0x3b,0x0a,0x07,0x3b,0x0b,0x69,0x14,0x3b,0x0c,0x5b,0x06,0x69,0x08,0x6f,0x3b,0x0a,0x07,0x3b,0x0b,0x69,0x17,0x3b,0x0c,0x5b,0x00,0x6f,0x3b,0x0a,0x07,0x3b,0x0b,0x69,0x14,0x3b,0x0c,0x5b,0x06,0x69,0x08,0x6f,0x3b,0x0a,0x07,0x3b,0x0b,0x69,0x00,0x3b,0x0c,0x5b,0x00))
  ChangeSwitch(59,59,0)
  RunCommonEvent(915)
  0()
 PAGE   4
  // condition: switch 59 is ON
  // condition: variable 123 >= 10
  0()



EVENT   5
 PAGE   1
  If(12,"unlock_level < 2")
   ShowMessageFace("",0,0,2,1)
   ShowMessage("The chest is locked...")
   EndEventProcessing()
   0()
  EndIf()
  250(bytes(0x04,0x08,0x6f,0x3a,0x0c,0x52,0x50,0x47,0x3a,0x3a,0x53,0x45,0x08,0x3a,0x0a,0x40,0x6e,0x61,0x6d,0x65,0x49,0x22,0x0a,0x43,0x68,0x65,0x73,0x74,0x06,0x3a,0x06,0x45,0x54,0x3a,0x0b,0x40,0x70,0x69,0x74,0x63,0x68,0x69,0x69,0x3a,0x0c,0x40,0x76,0x6f,0x6c,0x75,0x6d,0x65,0x69,0x55))
  205(0,bytes(0x04,0x08,0x6f,0x3a,0x13,0x52,0x50,0x47,0x3a,0x3a,0x4d,0x6f,0x76,0x65,0x52,0x6f,0x75,0x74,0x65,0x09,0x3a,0x0c,0x40,0x72,0x65,0x70,0x65,0x61,0x74,0x46,0x3a,0x0f,0x40,0x73,0x6b,0x69,0x70,0x70,0x61,0x62,0x6c,0x65,0x46,0x3a,0x0a,0x40,0x77,0x61,0x69,0x74,0x54,0x3a,0x0a,0x40,0x6c,0x69,0x73,0x74,0x5b,0x0b,0x6f,0x3a,0x15,0x52,0x50,0x47,0x3a,0x3a,0x4d,0x6f,0x76,0x65,0x43,0x6f,0x6d,0x6d,0x61,0x6e,0x64,0x07,0x3a,0x0a,0x40,0x63,0x6f,0x64,0x65,0x69,0x29,0x3a,0x10,0x40,0x70,0x61,0x72,0x61,0x6d,0x65,0x74,0x65,0x72,0x73,0x5b,0x00,0x6f,0x3b,0x0a,0x07,0x3b,0x0b,0x69,0x16,0x3b,0x0c,0x5b,0x00,0x6f,0x3b,0x0a,0x07,0x3b,0x0b,0x69,0x14,0x3b,0x0c,0x5b,0x06,0x69,0x08,0x6f,0x3b,0x0a,0x07,0x3b,0x0b,0x69,0x17,0x3b,0x0c,0x5b,0x00,0x6f,0x3b,0x0a,0x07,0x3b,0x0b,0x69,0x14,0x3b,0x0c,0x5b,0x06,0x69,0x08,0x6f,0x3b,0x0a,0x07,0x3b,0x0b,0x69,0x00,0x3b,0x0c,0x5b,0x00))
  ChangeSwitch(45,45,0)
  RunCommonEvent(914)
  0()
 PAGE   2
  // condition: switch 45 is ON
  0()



EVENT   2
 PAGE   1
  DefineLabel("メイン")
  ShowChoices(strings("Save","Proceed to next floor"),2)
  IfPlayerPicksChoice(0,null)
   352()
   JumpToLabel("メイン")
   0()
  IfPlayerPicksChoice(1,null)
   RunCommonEvent(901)
   EndEventProcessing()
   0()
  404()
  0()



EVENT   10
 PAGE   1
  If(1,123,0,10,0)
   ShowMessageFace("",0,0,2,1)
   ShowMessage("\\n<Flame>This labyrinth follows the way of carnage...\nIt would be better to take the more difficult path.")
   355("actor_label_jump")
   EndEventProcessing()
   DefineLabel("5")
   ShowMessageFace("alice_fc5",6,0,2,2)
   ShowMessage("\\n<Alice>The fire spoke!?!")
   EndEventProcessing()
   DefineLabel("26")
   ShowMessageFace("iriasu_fc4",2,0,2,3)
   ShowMessage("\\n<Ilias>How could a flame be this arrogant...?")
   EndEventProcessing()
   DefineLabel("14")
   ShowMessageFace("undine_fc1",0,0,2,4)
   ShowMessage("\\n<Undine>As expected, a talking fire has nothing good to say...")
   EndEventProcessing()
   DefineLabel("15")
   ShowMessageFace("salamander_fc1",0,0,2,5)
   ShowMessage("\\n<Salamander>Is there anything my affinity with fire can do...?\nNo use...")
   EndEventProcessing()
   0()
  EndIf()
  RunCommonEvent(890)
  0()
 PAGE   2
  // condition: switch 50 is ON
  0()
 PAGE   3
  // condition: switch 51 is ON
  0()



EVENT   18
 PAGE   1
  // condition: variable 123 >= 9
  PictureDisplay(5,"80_dragonp_st21",0,0,0,0,100,100,0,0)
  PictureMove(5,null,0,0,0,0,100,100,255,0,30,true)
  ShowMessageFace("dragonp_fc2",0,0,2,1)
  ShowMessage("\\n<Smith>...You got something for me?\n(Secret Weapons Owned: \\V[200]/1000 Secret Armors Owned: \\V[201]/2000)")
  DefineLabel("鍛冶")
  ShowChoices(strings("Apply Gems","Refine Gems","Enhance Secret Equipment","I want an explanation"),5)
  IfPlayerPicksChoice(0,null)
   355("SceneManager.call(Scene_EquipStone)")
   JumpToLabel("鍛冶")
   0()
  IfPlayerPicksChoice(1,null)
   DefineLabel("秘石精製")
   355("unlimited_choices(12,")
   655(" [\"Combat Gems\",")
   655("\"Job Gems\",")
   655("\"Magic Gems\",")
   655("\"Defense Gems\",")
   655("\"Special Gems\",")
   655("\"Equipment Gems\",")
   655("\"Never mind\"])")
   If(1,12,0,0,0)
    355("call_synthesize(31)")
    JumpToLabel("秘石精製")
    0()
   EndIf()
   If(1,12,0,1,0)
    355("call_synthesize(32)")
    JumpToLabel("秘石精製")
    0()
   EndIf()
   If(1,12,0,2,0)
    355("call_synthesize(33)")
    JumpToLabel("秘石精製")
    0()
   EndIf()
   If(1,12,0,3,0)
    355("call_synthesize(34)")
    JumpToLabel("秘石精製")
    0()
   EndIf()
   If(1,12,0,4,0)
    355("call_synthesize(35)")
    JumpToLabel("秘石精製")
    0()
   EndIf()
   If(1,12,0,5,0)
    DefineLabel("装備秘石")
    355("unlimited_choices(13,")
    655(" [\"Attack Weapons\",")
    655("\"Dexterity/Agility Weapons\",")
    655("\"Job Weapons\",")
    655("\"Magic Weapons\",")
    655("\"Armor\",")
    655("\"Never mind\"])")
    If(1,13,0,0,0)
     355("call_synthesize(41)")
     JumpToLabel("装備秘石")
     0()
    EndIf()
    If(1,13,0,1,0)
     355("call_synthesize(42)")
     JumpToLabel("装備秘石")
     0()
    EndIf()
    If(1,13,0,2,0)
     355("call_synthesize(43)")
     JumpToLabel("装備秘石")
     0()
    EndIf()
    If(1,13,0,3,0)
     355("call_synthesize(44)")
     JumpToLabel("装備秘石")
     0()
    EndIf()
    If(1,13,0,4,0)
     355("call_synthesize(45)")
     JumpToLabel("装備秘石")
     0()
    EndIf()
    JumpToLabel("秘石精製")
    0()
   EndIf()
   JumpToLabel("鍛冶")
   0()
  IfPlayerPicksChoice(2,null)
   355("SceneManager.call(Scene_Smith)")
   JumpToLabel("鍛冶")
   0()
  IfPlayerPicksChoice(3,null)
   DefineLabel("解説")
   ShowMessageFace("",0,0,2,2)
   ShowMessage("何について聞きますか？")
   355("unlimited_choices(12,")
   655("\"Ask about Secret Weapons/Secret Armor\",")
   655("\"Ask about Gems\",")
   655("\"Ask about Refining Gems\",")
   655("\"Ask about Enhancing Secret Equipment\",")
   655("\"Never mind\"])")
   If(1,12,0,0,0)
    ShowMessageFace("dragonp_fc2",0,0,2,3)
    ShowMessage("\\n<Smith>Secret weapons, secret armor, gems... They are collectively called secret equipment. Born in chaos, they are extremely powerful items.")
    ShowMessageFace("dragonp_fc2",0,0,2,4)
    ShowMessage("\\n<Smith>Every secret weapon and armor are extremely unique. Basically, you could say that there is no item that has the same performance.")
    ShowMessageFace("dragonp_fc2",0,0,2,5)
    ShowMessage("\\n<Smith>Both the secret weapons and armor don't have a fixed value for their stats... And, even the type and number of special abilities added are different.")
    ShowMessageFace("dragonp_fc2",0,0,2,6)
    ShowMessage("\\n<Smith>The higher your rare points, the more rare equipment is available and it has higher performance.")
    ShowMessageFace("dragonp_fc2",0,0,2,7)
    ShowMessage("\\n<Smith>Rare points increase the deeper you're in the dungeon. Also, they'll increase by defeating enemies.")
    ShowMessageFace("dragonp_fc2",0,0,2,8)
    ShowMessage("\\n<Smith>So if you want powerful secret equipment in the deep floors of the dungeon, you'll have to defeat as many enemies as possible while exploring.")
    ShowMessageFace("dragonp_fc2",0,0,2,9)
    ShowMessage("\\n<Smith>Most of the secret equipment's names are displayed in blue. These items are called common, so to speak, they're regular secret equipment.")
    ShowMessageFace("dragonp_fc2",0,0,2,10)
    ShowMessage("\\n<Smith>However, there are some that have rare yellow names. Rares are like precious gems, with greater abilities than common equipment.")
    ShowMessageFace("dragonp_fc2",0,0,2,11)
    ShowMessage("\\n<Smith>Additionally, it's effective to set gems into secret armor and secret weapons. I'll explain in detail elsewhere.")
    ShowMessageFace("dragonp_fc2",0,0,2,12)
    ShowMessage("\\n<Smith>Anyway, excellent equipment is essential for breaking down the obstacles. Collect powerful equipment to strengthen yourself.")
    ShowMessageFace("dragonp_fc2",0,0,2,13)
    ShowMessage("\\n<Smith>Well, what else would you like to know?")
    JumpToLabel("解説")
    0()
   EndIf()
   If(1,12,0,1,0)
    ShowMessageFace("dragonp_fc2",0,0,2,14)
    ShowMessage("\\n<Smith>Gems are jewels set into secret weapons or secret armor to increase their performance. In other words, they are meaningless if they're not set in equipment.")
    ShowMessageFace("dragonp_fc2",0,0,2,15)
    ShowMessage("\\n<Smith>Sometimes there are holes in secret equipment called sockets. Some of them should have multiple sockets.")
    ShowMessageFace("dragonp_fc2",0,0,2,16)
    ShowMessage("\\n<Smith>I can set one gem per socket.\nThen, the effect of the gem is added to the equipment's performance.")
    ShowMessageFace("dragonp_fc2",0,0,2,17)
    ShowMessage("\\n<Smith>The number of sockets is proportional to the rarity of the equipment. For example, the number of sockets will be higher for equipment found in deeper floors.")
    ShowMessageFace("dragonp_fc2",0,0,2,18)
    ShowMessage("\\n<Smith>Also, there are six different types of gems, depending on the effects. The six types are Combat, Job, Magic, Defense, Special, and Equipment.")
    ShowMessageFace("dragonp_fc2",0,0,2,19)
    ShowMessage("\\n<Smith>And even if there are multiple sockets on a piece of equipment... It's impossible to set more than one of the same kind of gem.")
    ShowMessageFace("dragonp_fc2",0,0,2,20)
    ShowMessage("\\n<Smith>For example, let's say you set a Combat gem to a secret weapon. Then in other sockets, only gems other than the Combat gems can be set.")
    ShowMessageFace("dragonp_fc2",0,0,2,21)
    ShowMessage("\\n<Smith>You can't remove or set a gem just anywhere.\nYou cannot handle gems without the proper techniques.")
    ShowMessageFace("dragonp_fc2",0,0,2,22)
    ShowMessage("\\n<Smith>...Well, you can leave it to me to handle that.")
    ShowMessage("It's a free service, specially for you.")
    ShowMessageFace("dragonp_fc2",0,0,2,23)
    ShowMessage("\\n<Smith>Furthermore, as for how to obtain gems...\nYou can pick them up in the Trials of Chaos and Labyrinth of Chaos")
    ShowMessageFace("dragonp_fc2",0,0,2,24)
    ShowMessage("\\n<Smith>Using them as materials, I can refine them into higher level gems... I'll explain in detail elsewhere.")
    ShowMessageFace("dragonp_fc2",0,0,2,25)
    ShowMessage("\\n<Smith>Well, what else would you like to know?")
    JumpToLabel("解説")
    0()
   EndIf()
   If(1,12,0,2,0)
    ShowMessageFace("dragonp_fc2",0,0,2,26)
    ShowMessage("\\n<Smith>Gems are hard to obtain.\nEven within the dungeons, you'll only be able to find the lower rank ones...")
    ShowMessageFace("dragonp_fc2",0,0,2,27)
    ShowMessage("\\n<Smith>Therefore to get the highest-rank gems, you'll have no choice but to refine them by using the lower rank gems as materials.")
    ShowMessageFace("dragonp_fc2",0,0,2,28)
    ShowMessage("\\n<Smith>For example, if you collected 3 10% HP gems...\nThey can be consumed as materials to refine into a '20% HP' gem.")
    ShowMessageFace("dragonp_fc2",0,0,2,29)
    ShowMessage("\\n<Smith>Refining such gems is my job...\nWith fairly advanced work, you'll receive a decent reward.")
    ShowMessageFace("dragonp_fc2",0,0,2,30)
    ShowMessage("\\n<Smith>Moreover, There's also a special gem called an equipment gem. This is a gem made from the equipment of this world.")
    ShowMessageFace("dragonp_fc2",0,0,2,31)
    ShowMessage("\\n<Smith>For example, the Knight Sword \"Defender\" with defensive abilities... Gem: Defender has the effects of this weapon.")
    ShowMessageFace("dragonp_fc2",0,0,2,32)
    ShowMessage("\\n<Smith>Therefore, if you set the Gem:Defender to a weapon... The weapon now has the effects of a Defender.")
    ShowMessageFace("dragonp_fc2",0,0,2,33)
    ShowMessage("\\n<Smith>It's the method of refining equipment gems.")
    ShowMessage("'Sky Stone' that can be found in dungeons, and equipment of this world is necessary for the process.")
    ShowMessageFace("dragonp_fc2",0,0,2,34)
    ShowMessage("\\n<Smith>The process will consume both and refine them into an equipment gem but... Remember that no earthly equipment can be made into a gem.")
    ShowMessageFace("dragonp_fc2",0,0,2,35)
    ShowMessage("\\n<Smith>The equipment that can be made into gems are those with fame or special abilities. There's no meaning in refining common equipment into gems.")
    ShowMessageFace("dragonp_fc2",0,0,2,36)
    ShowMessage("\\n<Smith>As for the refinement of gems, this is the place to do it. Refine repeatedly to obtain stronger gems.")
    ShowMessageFace("dragonp_fc2",0,0,2,37)
    ShowMessage("\\n<Smith>Well, what else would you like to know?")
    JumpToLabel("解説")
    0()
   EndIf()
   If(1,12,0,3,0)
    ShowMessageFace("dragonp_fc2",0,0,2,38)
    ShowMessage("\\n<Smith>Secret weapons and secret armor have a reinforcement value. For example the +1 of Flame Sword +1 is a reinforcement value.")
    ShowMessageFace("dragonp_fc2",0,0,2,39)
    ShowMessage("\\n<Smith>The higher the reinforcement value, the higher the stats of the equipment. And the reinforcement value can be strengthened by synthesizing the equipment.")
    ShowMessageFace("dragonp_fc2",0,0,2,40)
    ShowMessage("\\n<Smith>It's a synthesis of reinforcement values... Only equipment of the same type can be synthesized. Weapons can only be synthesized with weapons, shields can only be synthesized with shields.")
    ShowMessageFace("dragonp_fc2",0,0,2,41)
    ShowMessage("\\n<Smith>When synthesizing Equipment A and B...\nAfter synthesis, Equipment A is strengthened and B is consumed as a material.")
    ShowMessageFace("dragonp_fc2",0,0,2,42)
    ShowMessage("\\n<Smith>Only the reinforcement values explained earlier are enhanced by synthesis. There are no changes other than that, so be careful.")
    ShowMessageFace("dragonp_fc2",0,0,2,43)
    ShowMessage("\\n<Smith>Moreover, the reinforcement values aren't just added together. For example, if you synthesize a Flame Sword +2 with an Iron Sword +2...")
    ShowMessageFace("dragonp_fc2",0,0,2,44)
    ShowMessage("\\n<Smith>It would become a Flame Sword +3 after synthesis. Reinforcement values only go up by +1 per synthesis.")
    ShowMessageFace("dragonp_fc2",0,0,2,45)
    ShowMessage("\\n<Smith>So even if you synthesized a Flame Sword +2 with an 'Iron Sword +3, it'd become a Flame Sword +3 as it can only go up by +1.")
    ShowMessageFace("dragonp_fc2",0,0,2,46)
    ShowMessage("\\n<Smith>The reinforcement value of B must be greater than or equal to A. It isn't be possible to synthesize a Flame Sword +2 with an Iron Sword +1.")
    ShowMessageFace("dragonp_fc2",0,0,2,47)
    ShowMessage("\\n<Smith>Thus, there are many restrictions on synthesis...")
    ShowMessageFace("dragonp_fc2",0,0,2,48)
    ShowMessage("\\n<Smith>Tenaciously strengthen your equipment and improve your strength. That way, you should be able to defeat any difficult enemy.")
    ShowMessageFace("dragonp_fc2",0,0,2,49)
    ShowMessage("\\n<Smith>Well, what else would you like to know?")
    JumpToLabel("解説")
    0()
   EndIf()
   JumpToLabel("鍛冶")
   0()
  IfPlayerCancelsChoice()
   PictureClear(5)
   EndEventProcessing()
   0()
  404()
  0()



EVENT   19
 PAGE   1
  // condition: variable 123 >= 9
  PictureDisplay(5,"80_s_mermaid_st02",0,0,0,0,100,100,0,0)
  PictureMove(5,null,0,0,0,0,100,100,255,0,15,true)
  ShowMessageFace("s_mermaid_fc1",1,0,2,1)
  ShowMessage("\\n<Mermaid Merchant>Greetings, I'm the Mermaid Merchant.\nDo you want to shop here?")
  ShowChoices(strings("Item Shop","Secret Weapon Bulk Sale","Secret Armor Bulk Sale","Nothing"),4)
  IfPlayerPicksChoice(0,null)
   Shop(0,2,0,0,false)
   605(0,4,0,0)
   605(0,7,0,0)
   605(0,11,0,0)
   605(0,13,0,0)
   605(0,14,0,0)
   605(0,15,0,0)
   605(0,16,0,0)
   605(0,17,0,0)
   605(0,18,0,0)
   605(0,19,0,0)
   605(0,20,0,0)
   605(0,21,0,0)
   605(0,23,0,0)
   605(0,35,0,0)
   605(0,52,0,0)
   605(0,56,0,0)
   605(0,60,0,0)
   605(0,64,0,0)
   605(0,68,0,0)
   605(0,72,0,0)
   605(0,76,0,0)
   605(0,80,0,0)
   605(0,102,0,0)
   605(0,109,0,0)
   ShowMessageFace("s_mermaid_fc1",0,0,2,2)
   ShowMessage("\\n<Mermaid Merchant>Thank you for your continued patronage, come again!")
   PictureClear(5)
   EndEventProcessing()
   0()
  IfPlayerPicksChoice(1,null)
   ShowMessageFace("s_mermaid_fc1",0,0,2,3)
   ShowMessage("\\n<Mermaid Merchant>Secret equipment that isn't equipped or set as favorite will be sold. Do you want to dispose of all your secret weapons?")
   ShowChoices(strings("Stop","Sell in bulk"),1)
   IfPlayerPicksChoice(0,null)
    PictureClear(5)
    EndEventProcessing()
    0()
   IfPlayerPicksChoice(1,null)
    ShowMessageFace("s_mermaid_fc1",0,0,2,4)
    ShowMessage("\\n<Mermaid Merchant>Again, just to make sure.\nIs it okay to dispose of all the secret weapons in your possession?")
    ShowChoices(strings("Stop","Sell in bulk"),1)
    IfPlayerPicksChoice(0,null)
     PictureClear(5)
     EndEventProcessing()
     0()
    IfPlayerPicksChoice(1,null)
     250(bytes(0x04,0x08,0x6f,0x3a,0x0c,0x52,0x50,0x47,0x3a,0x3a,0x53,0x45,0x08,0x3a,0x0a,0x40,0x6e,0x61,0x6d,0x65,0x49,0x22,0x0b,0x45,0x71,0x75,0x69,0x70,0x33,0x06,0x3a,0x06,0x45,0x54,0x3a,0x0b,0x40,0x70,0x69,0x74,0x63,0x68,0x69,0x69,0x3a,0x0c,0x40,0x76,0x6f,0x6c,0x75,0x6d,0x65,0x69,0x55))
     355("sell_enchant_weapons")
     ShowMessageFace("",0,0,2,5)
     ShowMessage("Sold all secret weapons!")
     PictureClear(5)
     EndEventProcessing()
     0()
    404()
    0()
   404()
   0()
  IfPlayerPicksChoice(2,null)
   ShowMessageFace("s_mermaid_fc1",0,0,2,6)
   ShowMessage("\\n<Mermaid Merchant>Secret equipment that isn't equipped or set as favorite will be sold. Do you want to dispose of all your secret armor?")
   ShowChoices(strings("Stop","Sell in bulk"),1)
   IfPlayerPicksChoice(0,null)
    PictureClear(5)
    EndEventProcessing()
    0()
   IfPlayerPicksChoice(1,null)
    ShowMessageFace("s_mermaid_fc1",0,0,2,7)
    ShowMessage("\\n<Mermaid Merchant>Again, just to make sure.\nIs it okay to dispose of all the secret armor in your possession?")
    ShowChoices(strings("Stop","Sell in bulk"),1)
    IfPlayerPicksChoice(0,null)
     PictureClear(5)
     EndEventProcessing()
     0()
    IfPlayerPicksChoice(1,null)
     250(bytes(0x04,0x08,0x6f,0x3a,0x0c,0x52,0x50,0x47,0x3a,0x3a,0x53,0x45,0x08,0x3a,0x0a,0x40,0x6e,0x61,0x6d,0x65,0x49,0x22,0x0b,0x45,0x71,0x75,0x69,0x70,0x33,0x06,0x3a,0x06,0x45,0x54,0x3a,0x0b,0x40,0x70,0x69,0x74,0x63,0x68,0x69,0x69,0x3a,0x0c,0x40,0x76,0x6f,0x6c,0x75,0x6d,0x65,0x69,0x55))
     355("sell_enchant_armors")
     ShowMessageFace("",0,0,2,8)
     ShowMessage("Sold all secret armor!")
     PictureClear(5)
     EndEventProcessing()
     0()
    404()
    0()
   404()
   0()
  IfPlayerPicksChoice(3,null)
   PictureClear(5)
   EndEventProcessing()
   0()
  404()
  0()



EVENT   17
 PAGE   1
  221()
  ChangeSwitch(41,41,1)
  ChangeSwitch(52,52,1)
  ChangeSaveEnabled(1)
  ChangeSwitch(61,61,1)
  ChangeSwitch(62,62,1)
  ChangeSwitch(63,63,1)
  ChangeSwitch(64,64,1)
  ChangeSwitch(65,65,1)
  ChangeSwitch(69,69,1)
  ChangeSwitch(70,70,1)
  ChangeSwitch(71,71,1)
  ChangeSwitch(72,72,1)
  ChangeSwitch(54,54,1)
  ChangeSwitch(66,66,1)
  ChangeSwitch(67,67,1)
  ChangeSwitch(68,68,1)
  ChangeVariable(131,131,0,0,0)
  ChangeVariable(121,121,0,0,0)
  RunCommonEvent(112)
  If(1,121,1,122,1)
   ChangeVariable(122,122,0,1,121)
   0()
  EndIf()
  TeleportPlayer(0,576,14,50,2,2)
  ShowMessageFace("",0,0,2,1)
  ShowMessage("With the renewal of the Labyrinth of Chaos, the past labyrinth got erased!")
  Wait(60)
  222()
  TemporaryRemoveEvent()
  0()
 PAGE   2
  // condition: switch 1926 is ON
  0()
