﻿


EVENT   1
 PAGE   1
  0()



EVENT   2
 PAGE   1
  0()



EVENT   3
 PAGE   1
  ShowMessageFace("sonia_fc2",4,0,2,1)
  ShowMessage("\\n<Sonya>Wait a minute...!\nWho are these guys!?!")
  ShowMessageFace("nuruko_fc1",0,0,2,2)
  ShowMessage("\\n<Nuruko>Kyuu! Kyuu!")
  ShowMessageFace("sirousagi_fc1",0,0,2,3)
  ShowMessage("\\n<White Rabbit>Do your best!")
  221()
  Wait(60)
  211(1)
  TeleportPlayer(0,394,19,48,8,2)
  222()
  ShowMessageFace("sonia_fc2",2,0,2,4)
  ShowMessage("\\n<Sonya>After being dragged around all over like that...\nNow I'm brought here.")
  ShowMessageFace("sirousagi_fc1",0,0,2,5)
  ShowMessage("\\n<White Rabbit>Thank me for this.\nNow then, join♪ Join♪")
  ChangeSwitch(6,6,0)
  ChangeSwitch(2009,2009,1)
  ChangeSwitch(2015,2015,0)
  ChangeSwitch(2010,2010,0)
  ChangeSwitch(2007,2007,0)
  ChangeSwitch(2028,2028,0)
  ChangeSwitch(2125,2125,0)
  ChangeVariable(1013,1013,0,0,2)
  ChangeSwitch(101,101,0)
  ChangeSwitch(241,241,0)
  PictureClear(5)
  355("add_actor_ex(525)")
  355("add_actor_ex(79)")
  249(bytes(0x04,0x08,0x6f,0x3a,0x0c,0x52,0x50,0x47,0x3a,0x3a,0x4d,0x45,0x08,0x3a,0x0a,0x40,0x6e,0x61,0x6d,0x65,0x49,0x22,0x0c,0x66,0x61,0x6e,0x66,0x61,0x6c,0x65,0x06,0x3a,0x06,0x45,0x54,0x3a,0x0b,0x40,0x70,0x69,0x74,0x63,0x68,0x69,0x69,0x3a,0x0c,0x40,0x76,0x6f,0x6c,0x75,0x6d,0x65,0x69,0x69))
  ShowMessageFace("",0,0,2,6)
  ShowMessage("Sonya and Nuruko joined the party!")
  Wait(60)
  355("gain_medal(66)")
  If(0,4,0)
   ShowMessageFace("alice_fc5",2,0,2,7)
   ShowMessage("\\n<Alice>Why did you bring Luka's childhood friend here?\nAnd what the hell is this strange creature...?")
   0()
  EndIf()
  If(0,5,0)
   ShowMessageFace("iriasu_fc4",7,0,2,8)
   ShowMessage("\\n<Ilias>Why have you brought Luka's childhood friend here? And what on earth is this strange creature...?")
   0()
  EndIf()
  ShowMessageFace("sirousagi_fc1",0,0,2,9)
  ShowMessage("\\n<White Rabbit>Uuu, so cold...")
  If(0,4,0)
   ShowMessageFace("alice_fc6",1,0,2,10)
   ShowMessage("\\n<Alice>Listen to me!")
   ShowMessageFace("alice_fc5",0,0,2,11)
   ShowMessage("\\n<Alice>...Anyways, our party's gotten bigger.\nI'll let you use this.")
   ChangeInventory_Item(501,0,0,1)
   ShowMessageFace("alice_fc5",0,0,2,12)
   ShowMessage("\\n<Alice>Pack any members being left behind into this. To use it... Well, I'm sure you'll figure it out.")
   0()
  EndIf()
  If(0,5,0)
   ShowMessageFace("iriasu_fc5",0,0,2,13)
   ShowMessage("\\n<Ilias>Listen to what I'm saying!")
   ShowMessageFace("iriasu_fc4",2,0,2,14)
   ShowMessage("\\n<Ilias>...At any rate, our party has grown larger.\nI will give this to you.")
   ChangeInventory_Item(501,0,0,1)
   ShowMessageFace("iriasu_fc4",0,0,2,15)
   ShowMessage("\\n<Ilias>Any companions we don't need will be accommodated in here. You have a general understanding of how to use it, do you not?")
   0()
  EndIf()
  ShowMessageFace("sirousagi_fc1",0,0,2,16)
  ShowMessage("\\n<White Rabbit>So cold...")
  EndEventProcessing()
  0()



EVENT   4
 PAGE   1
  0()



EVENT   5
 PAGE   1
  0()



EVENT   6
 PAGE   1
  0()
