


EVENT   1
 PAGE   1
  0()



EVENT   2
 PAGE   1
  0()



EVENT   3
 PAGE   1
  // condition: switch 33 is ON
  0()



EVENT   4
 PAGE   1
  0()



EVENT   5
 PAGE   1
  0()



EVENT   6
 PAGE   1
  0()



EVENT   7
 PAGE   1
  0()



EVENT   8
 PAGE   1
  0()



EVENT   9
 PAGE   1
  0()



EVENT   10
 PAGE   1
  0()



EVENT   11
 PAGE   1
  0()



EVENT   12
 PAGE   1
  // condition: switch 33 is ON
  0()



EVENT   13
 PAGE   1
  // condition: switch 33 is ON
  0()

EVENT   14
 PAGE   1
  // condition: switch 33 is ON
  0()



EVENT   15
 PAGE   1
  // condition: switch 33 is ON
  0()



EVENT   16
 PAGE   1
  // condition: switch 33 is ON
  0()



EVENT   17
 PAGE   1
  // condition: switch 33 is ON
  0()


