﻿
DisplayName "Underground Canals"



EVENT   1
 PAGE   1
  0()



EVENT   2
 PAGE   1
  0()

EVENT   18
 PAGE   1
  ShowMessageFace("",0,0,2,1)
  ShowMessage("\\n<Lazarus' Associate>Let me know if there's anything you need. I've got a book of job changing with me.")
  ShowChoices(strings("Full heal","Purchase supplies","Change jobs and party","Nothing"),4)
  IfPlayerPicksChoice(0,null)
   ShowMessageFace("",0,0,2,2)
   ShowMessage("\\n<Lazarus' Associate>Here's an assortment of herbs and miracle drugs.")
   250(bytes(0x04,0x08,0x6f,0x3a,0x0c,0x52,0x50,0x47,0x3a,0x3a,0x53,0x45,0x08,0x3a,0x0a,0x40,0x6e,0x61,0x6d,0x65,0x49,0x22,0x0a,0x48,0x65,0x61,0x6c,0x37,0x06,0x3a,0x06,0x45,0x54,0x3a,0x0b,0x40,0x70,0x69,0x74,0x63,0x68,0x69,0x69,0x3a,0x0c,0x40,0x76,0x6f,0x6c,0x75,0x6d,0x65,0x69,0x55))
   224(bytes(0x04,0x08,0x75,0x3a,0x0a,0x43,0x6f,0x6c,0x6f,0x72,0x25,0x00,0x00,0x00,0x00,0x00,0xe0,0x6f,0x40,0x00,0x00,0x00,0x00,0x00,0xe0,0x6f,0x40,0x00,0x00,0x00,0x00,0x00,0xe0,0x6f,0x40,0x00,0x00,0x00,0x00,0x00,0xe0,0x6f,0x40),30,true)
   314(0,0)
   ShowMessageFace("",0,0,2,3)
   ShowMessage("The party's HP and MP have been fully restored!")
   EndEventProcessing()
   0()
  IfPlayerPicksChoice(1,null)
   Shop(0,2,0,0,false)
   605(0,7,0,0)
   605(0,11,0,0)
   605(0,13,0,0)
   605(0,14,0,0)
   605(0,15,0,0)
   605(0,16,0,0)
   605(0,17,0,0)
   605(0,18,0,0)
   605(0,19,0,0)
   605(0,20,0,0)
   605(0,23,0,0)
   605(0,35,0,0)
   605(0,52,0,0)
   605(0,56,0,0)
   605(0,60,0,0)
   605(0,102,0,0)
   605(0,109,0,0)
   EndEventProcessing()
   0()
  IfPlayerPicksChoice(2,null)
   RunCommonEvent(113)
   EndEventProcessing()
   0()
  IfPlayerPicksChoice(3,null)
   EndEventProcessing()
   0()
  404()
  0()
 PAGE   2
  // condition: variable 1063 >= 13
  0()



EVENT   19
 PAGE   1
  250(bytes(0x04,0x08,0x6f,0x3a,0x0c,0x52,0x50,0x47,0x3a,0x3a,0x53,0x45,0x08,0x3a,0x0a,0x40,0x6e,0x61,0x6d,0x65,0x49,0x22,0x09,0x4d,0x6f,0x76,0x65,0x06,0x3a,0x06,0x45,0x54,0x3a,0x0b,0x40,0x70,0x69,0x74,0x63,0x68,0x69,0x69,0x3a,0x0c,0x40,0x76,0x6f,0x6c,0x75,0x6d,0x65,0x69,0x55))
  TeleportPlayer(0,716,7,42,0,0)
  0()



EVENT   20
 PAGE   1
  250(bytes(0x04,0x08,0x6f,0x3a,0x0c,0x52,0x50,0x47,0x3a,0x3a,0x53,0x45,0x08,0x3a,0x0a,0x40,0x6e,0x61,0x6d,0x65,0x49,0x22,0x09,0x4d,0x6f,0x76,0x65,0x06,0x3a,0x06,0x45,0x54,0x3a,0x0b,0x40,0x70,0x69,0x74,0x63,0x68,0x69,0x69,0x3a,0x0c,0x40,0x76,0x6f,0x6c,0x75,0x6d,0x65,0x69,0x55))
  TeleportPlayer(0,716,47,42,0,0)
  0()



EVENT   21
 PAGE   1
  250(bytes(0x04,0x08,0x6f,0x3a,0x0c,0x52,0x50,0x47,0x3a,0x3a,0x53,0x45,0x08,0x3a,0x0a,0x40,0x6e,0x61,0x6d,0x65,0x49,0x22,0x09,0x4d,0x6f,0x76,0x65,0x06,0x3a,0x06,0x45,0x54,0x3a,0x0b,0x40,0x70,0x69,0x74,0x63,0x68,0x69,0x69,0x3a,0x0c,0x40,0x76,0x6f,0x6c,0x75,0x6d,0x65,0x69,0x55))
  TeleportPlayer(0,716,21,29,0,0)
  0()



EVENT   22
 PAGE   1
  250(bytes(0x04,0x08,0x6f,0x3a,0x0c,0x52,0x50,0x47,0x3a,0x3a,0x53,0x45,0x08,0x3a,0x0a,0x40,0x6e,0x61,0x6d,0x65,0x49,0x22,0x09,0x4d,0x6f,0x76,0x65,0x06,0x3a,0x06,0x45,0x54,0x3a,0x0b,0x40,0x70,0x69,0x74,0x63,0x68,0x69,0x69,0x3a,0x0c,0x40,0x76,0x6f,0x6c,0x75,0x6d,0x65,0x69,0x55))
  TeleportPlayer(0,716,9,5,0,0)
  0()



EVENT   23
 PAGE   1
  250(bytes(0x04,0x08,0x6f,0x3a,0x0c,0x52,0x50,0x47,0x3a,0x3a,0x53,0x45,0x08,0x3a,0x0a,0x40,0x6e,0x61,0x6d,0x65,0x49,0x22,0x09,0x4d,0x6f,0x76,0x65,0x06,0x3a,0x06,0x45,0x54,0x3a,0x0b,0x40,0x70,0x69,0x74,0x63,0x68,0x69,0x69,0x3a,0x0c,0x40,0x76,0x6f,0x6c,0x75,0x6d,0x65,0x69,0x55))
  TeleportPlayer(0,716,37,9,0,0)
  0()



EVENT   24
 PAGE   1
  250(bytes(0x04,0x08,0x6f,0x3a,0x0c,0x52,0x50,0x47,0x3a,0x3a,0x53,0x45,0x08,0x3a,0x0a,0x40,0x6e,0x61,0x6d,0x65,0x49,0x22,0x09,0x4d,0x6f,0x76,0x65,0x06,0x3a,0x06,0x45,0x54,0x3a,0x0b,0x40,0x70,0x69,0x74,0x63,0x68,0x69,0x69,0x3a,0x0c,0x40,0x76,0x6f,0x6c,0x75,0x6d,0x65,0x69,0x55))
  TeleportPlayer(0,176,35,32,0,0)
  0()



EVENT   25
 PAGE   1
  If(1,1063,0,12,0)
   ShowMessageFace("lazarus3_fc1",0,0,2,1)
   ShowMessage("\\n<Lazarus>Hey now, it's too dangerous to go back up into the city. The whole point was to get our enemies to focus their attention there.")
   205(-1,bytes(0x04,0x08,0x6f,0x3a,0x13,0x52,0x50,0x47,0x3a,0x3a,0x4d,0x6f,0x76,0x65,0x52,0x6f,0x75,0x74,0x65,0x09,0x3a,0x0c,0x40,0x72,0x65,0x70,0x65,0x61,0x74,0x46,0x3a,0x0f,0x40,0x73,0x6b,0x69,0x70,0x70,0x61,0x62,0x6c,0x65,0x46,0x3a,0x0a,0x40,0x77,0x61,0x69,0x74,0x54,0x3a,0x0a,0x40,0x6c,0x69,0x73,0x74,0x5b,0x07,0x6f,0x3a,0x15,0x52,0x50,0x47,0x3a,0x3a,0x4d,0x6f,0x76,0x65,0x43,0x6f,0x6d,0x6d,0x61,0x6e,0x64,0x07,0x3a,0x0a,0x40,0x63,0x6f,0x64,0x65,0x69,0x06,0x3a,0x10,0x40,0x70,0x61,0x72,0x61,0x6d,0x65,0x74,0x65,0x72,0x73,0x5b,0x00,0x6f,0x3b,0x0a,0x07,0x3b,0x0b,0x69,0x00,0x3b,0x0c,0x5b,0x00))
   EndEventProcessing()
   0()
  EndIf()
  ChangeSwitch(100,100,1)
  250(bytes(0x04,0x08,0x6f,0x3a,0x0c,0x52,0x50,0x47,0x3a,0x3a,0x53,0x45,0x08,0x3a,0x0a,0x40,0x6e,0x61,0x6d,0x65,0x49,0x22,0x09,0x4d,0x6f,0x76,0x65,0x06,0x3a,0x06,0x45,0x54,0x3a,0x0b,0x40,0x70,0x69,0x74,0x63,0x68,0x69,0x69,0x3a,0x0c,0x40,0x76,0x6f,0x6c,0x75,0x6d,0x65,0x69,0x55))
  TeleportPlayer(0,37,21,2,2,0)
  0()



EVENT   26
 PAGE   1
  If(12,"exist_party_persona_id?(391)")
   ShowMessageFace("mefist_fc2",0,0,2,1)
   ShowMessage("\\n<Mephisto>The plan is to go through these canals into Grangold Palace and attack the Queen... As has been explained a thousand times already.")
   0()
  Else()
   ShowMessageFace("mefist_fc1",0,0,2,2)
   ShowMessage("\\n<Mephisto>The plan is to go through these canals into Grangold Palace and attack the Queen... As has been explained a thousand times already.")
   0()
  EndIf()
  If(0,4,0)
   ShowMessageFace("alice_fc5",0,0,2,3)
   ShowMessage("\\n<Alice>I can sense monsters all over the place down here. Stay alert, some of them will be hostile to us.")
   0()
  EndIf()
  If(0,5,0)
   ShowMessageFace("iriasu_fc4",2,0,2,4)
   ShowMessage("\\n<Ilias>The filthy scent of monsters is all around us. Stay alert, not only will the palace be full of enemies, but these canals are too.")
   0()
  EndIf()
  If(0,6,0)
   ShowMessageFace("sonia_fc1",5,0,2,5)
   ShowMessage("\\n<Sonya>As we feared, the ant girls haven't left holes in their security. Let's give them everything we've got!")
   0()
  Else()
   ShowMessageFace("ruka_fc1",0,0,2,6)
   ShowMessage("\\n<Luka>As we feared, the ant girls haven't left holes in their security. Let's give them everything we've got!")
   0()
  EndIf()
  If(4,171,0)
   ShowMessageFace("lizardboss_fc1",0,0,2,7)
   ShowMessage("\\n<Miranda>Hah, bring 'em on!")
   0()
  EndIf()
  If(4,218,0)
   ShowMessageFace("nyumaou_fc1",0,0,2,8)
   ShowMessage("\\n<Cow Demon Queen>I'll crush them all under my feet!")
   0()
  EndIf()
  ShowMessageFace("lazarus3_fc1",1,0,2,9)
  ShowMessage("\\n<Lazarus>Don't get ahead of yourselves...\nIf you're too focused on the enemies ahead, you're bound to get your feet knocked out from under you.")
  ChangeSelfSwitch("A",0)
  0()
 PAGE   2
  // condition: self-switch A is ON
  0()



EVENT   27
 PAGE   1
  217()
  ShowMessageFace("lazarus3_fc1",1,0,2,1)
  ShowMessage("\\n<Lazarus>This ladder should take us up into the palace. I'm not familiar with the route beyond this, though.")
  If(12,"exist_party_persona_id?(391)")
   ShowMessageFace("mefist_fc2",0,0,2,2)
   ShowMessage("\\n<Mephisto>The palace underwent a full renovation a few years ago, and since we weren't able to get any spies inside, the inner layout is unknown.")
   0()
  Else()
   ShowMessageFace("mefist_fc1",0,0,2,3)
   ShowMessage("\\n<Mephisto>The palace underwent a full renovation a few years ago, and since we weren't able to get any spies inside, the inner layout is unknown.")
   0()
  EndIf()
  If(0,4,0)
   ShowMessageFace("alice_fc5",2,0,2,4)
   ShowMessage("\\n<Alice>So we'll just have to map it ourselves--")
   ShowMessageFace("alice_fc6",0,0,2,5)
   ShowMessage("\\n<Alice>Be careful! There's a strange presence approaching us!")
   0()
  EndIf()
  If(0,5,0)
   ShowMessageFace("iriasu_fc4",2,0,2,6)
   ShowMessage("\\n<Ilias>Not ideal, but we have to press forward anyway--")
   ShowMessageFace("iriasu_fc4",7,0,2,7)
   ShowMessage("\\n<Ilias>Be careful! A strange presence approaches!")
   0()
  EndIf()
  250(bytes(0x04,0x08,0x6f,0x3a,0x0c,0x52,0x50,0x47,0x3a,0x3a,0x53,0x45,0x08,0x3a,0x0a,0x40,0x6e,0x61,0x6d,0x65,0x49,0x22,0x0d,0x6d,0x6f,0x6e,0x5f,0x77,0x61,0x72,0x70,0x06,0x3a,0x06,0x45,0x54,0x3a,0x0b,0x40,0x70,0x69,0x74,0x63,0x68,0x69,0x69,0x3a,0x0c,0x40,0x76,0x6f,0x6c,0x75,0x6d,0x65,0x69,0x55))
  241(bytes(0x04,0x08,0x6f,0x3a,0x0d,0x52,0x50,0x47,0x3a,0x3a,0x42,0x47,0x4d,0x08,0x3a,0x0a,0x40,0x6e,0x61,0x6d,0x65,0x49,0x22,0x0a,0x62,0x6f,0x73,0x73,0x30,0x06,0x3a,0x06,0x45,0x54,0x3a,0x0c,0x40,0x76,0x6f,0x6c,0x75,0x6d,0x65,0x69,0x69,0x3a,0x0b,0x40,0x70,0x69,0x74,0x63,0x68,0x69,0x69))
  ChangeSwitch(31,31,0)
  205(-1,bytes(0x04,0x08,0x6f,0x3a,0x13,0x52,0x50,0x47,0x3a,0x3a,0x4d,0x6f,0x76,0x65,0x52,0x6f,0x75,0x74,0x65,0x09,0x3a,0x0c,0x40,0x72,0x65,0x70,0x65,0x61,0x74,0x46,0x3a,0x0f,0x40,0x73,0x6b,0x69,0x70,0x70,0x61,0x62,0x6c,0x65,0x46,0x3a,0x0a,0x40,0x77,0x61,0x69,0x74,0x54,0x3a,0x0a,0x40,0x6c,0x69,0x73,0x74,0x5b,0x07,0x6f,0x3a,0x15,0x52,0x50,0x47,0x3a,0x3a,0x4d,0x6f,0x76,0x65,0x43,0x6f,0x6d,0x6d,0x61,0x6e,0x64,0x07,0x3a,0x0a,0x40,0x63,0x6f,0x64,0x65,0x69,0x15,0x3a,0x10,0x40,0x70,0x61,0x72,0x61,0x6d,0x65,0x74,0x65,0x72,0x73,0x5b,0x00,0x6f,0x3b,0x0a,0x07,0x3b,0x0b,0x69,0x00,0x3b,0x0c,0x5b,0x00))
  ShowSpeechBalloon(-1,1,true)
  PictureDisplay(5,"80_grangold_st03",0,0,0,0,100,100,0,0)
  PictureMove(5,null,0,0,0,0,100,100,255,0,60,true)
  ShowMessageFace("grangold_fc1",0,0,2,8)
  ShowMessage("\\n<King of Grangold>Who are you? Answer.")
  If(12,"exist_party_persona_id?(391)")
   ShowMessageFace("mefist_fc2",2,0,2,9)
   ShowMessage("\\n<Mephisto>The King of Grangold!")
   0()
  Else()
   ShowMessageFace("mefist_fc1",2,0,2,10)
   ShowMessage("\\n<Mephisto>The King of Grangold!")
   0()
  EndIf()
  PictureClear(5)
  Wait(60)
  212(30,515,true)
  Wait(60)
  PictureDisplay(5,"80_grangold_st03",0,0,0,0,100,100,0,0)
  PictureMove(5,null,0,0,0,0,100,100,255,0,30,true)
  ShowMessageFace("grangold_fc1",0,0,2,11)
  ShowMessage("\\n<King of Grangold>I asked who YOU are...")
  If(0,4,0)
   ShowMessageFace("alice_fc6",0,0,2,12)
   ShowMessage("\\n<Alice>His power is crazy...\nHe's gone way beyond human limits!")
   0()
  EndIf()
  If(0,5,0)
   ShowMessageFace("iriasu_fc4",7,0,2,13)
   ShowMessage("\\n<Ilias>Such intense magical power...\nHe's been reduced to something inhuman!")
   0()
  EndIf()
  If(4,163,0)
   ShowMessageFace("lily_fc1",5,0,2,14)
   ShowMessage("\\n<Lily>Our experiments only produced cute little girls... I didn't think it was possible to create a fiend of this magnitude.")
   0()
  EndIf()
  ShowMessageFace("lazarus3_fc1",0,0,2,15)
  ShowMessage("\\n<Lazarus>......")
  PictureClear(5)
  If(1,909,0,0,0)
   ChangeSwitch(1520,1520,1)
   ChangePartyMember(520,1,0)
   0()
  EndIf()
  ChangeSwitch(32,32,0)
  TeleportEvent(31,0,32,5,0)
  205(31,bytes(0x04,0x08,0x6f,0x3a,0x13,0x52,0x50,0x47,0x3a,0x3a,0x4d,0x6f,0x76,0x65,0x52,0x6f,0x75,0x74,0x65,0x09,0x3a,0x0c,0x40,0x72,0x65,0x70,0x65,0x61,0x74,0x46,0x3a,0x0f,0x40,0x73,0x6b,0x69,0x70,0x70,0x61,0x62,0x6c,0x65,0x46,0x3a,0x0a,0x40,0x77,0x61,0x69,0x74,0x54,0x3a,0x0a,0x40,0x6c,0x69,0x73,0x74,0x5b,0x07,0x6f,0x3a,0x15,0x52,0x50,0x47,0x3a,0x3a,0x4d,0x6f,0x76,0x65,0x43,0x6f,0x6d,0x6d,0x61,0x6e,0x64,0x07,0x3a,0x0a,0x40,0x63,0x6f,0x64,0x65,0x69,0x06,0x3a,0x10,0x40,0x70,0x61,0x72,0x61,0x6d,0x65,0x74,0x65,0x72,0x73,0x5b,0x00,0x6f,0x3b,0x0a,0x07,0x3b,0x0b,0x69,0x00,0x3b,0x0c,0x5b,0x00))
  ShowMessageFace("lazarus3_fc1",0,0,2,16)
  ShowMessage("\\n<Lazarus>Luka, you and your friends go ahead. Leave this guy to me.")
  If(0,6,0)
   ShowMessageFace("sonia_fc2",5,0,2,17)
   ShowMessage("\\n<Sonya>No, Uncle Lazarus! You can't mean to die here!")
   0()
  Else()
   ShowMessageFace("ruka_fc1",0,0,2,18)
   ShowMessage("\\n<Luka>Uncle Lazarus, don't tell me you mean to die here...")
   0()
  EndIf()
  ShowMessageFace("lazarus3_fc1",3,0,2,19)
  ShowMessage("\\n<Lazarus>I ain't planning to die, dumb shits!\nI'm just gonna stall him long enough for you to get away!")
  ShowMessageFace("lazarus3_fc1",1,0,2,20)
  ShowMessage("\\n<Lazarus>Besides, can you actually swing your sword at this guy without hesitating, Luka? He's still kinda human.")
  ShowMessageFace("ruka_fc1",0,0,2,21)
  ShowMessage("\\n<Luka>......")
  ShowMessageFace("lazarus3_fc1",1,0,2,22)
  ShowMessage("\\n<Lazarus>I don't have any qualms about killing him, so let me handle it.")
  If(1,909,0,0,0)
   ChangeSwitch(1522,1522,1)
   ChangePartyMember(522,1,0)
   0()
  EndIf()
  ChangeSwitch(33,33,0)
  TeleportEvent(32,0,32,5,0)
  205(32,bytes(0x04,0x08,0x6f,0x3a,0x13,0x52,0x50,0x47,0x3a,0x3a,0x4d,0x6f,0x76,0x65,0x52,0x6f,0x75,0x74,0x65,0x09,0x3a,0x0c,0x40,0x72,0x65,0x70,0x65,0x61,0x74,0x46,0x3a,0x0f,0x40,0x73,0x6b,0x69,0x70,0x70,0x61,0x62,0x6c,0x65,0x46,0x3a,0x0a,0x40,0x77,0x61,0x69,0x74,0x54,0x3a,0x0a,0x40,0x6c,0x69,0x73,0x74,0x5b,0x08,0x6f,0x3a,0x15,0x52,0x50,0x47,0x3a,0x3a,0x4d,0x6f,0x76,0x65,0x43,0x6f,0x6d,0x6d,0x61,0x6e,0x64,0x07,0x3a,0x0a,0x40,0x63,0x6f,0x64,0x65,0x69,0x13,0x3a,0x10,0x40,0x70,0x61,0x72,0x61,0x6d,0x65,0x74,0x65,0x72,0x73,0x5b,0x07,0x69,0xfa,0x69,0x06,0x6f,0x3b,0x0a,0x07,0x3b,0x0b,0x69,0x15,0x3b,0x0c,0x5b,0x00,0x6f,0x3b,0x0a,0x07,0x3b,0x0b,0x69,0x00,0x3b,0x0c,0x5b,0x00))
  ShowMessageFace("merlin_fc1",0,0,2,23)
  ShowMessage("\\n<Merlin>I suppose I'll join you. The pleasure of beating down royalty can be quite addictive indeed.")
  ShowMessageFace("grangold_fc1",0,0,2,24)
  ShowMessage("\\n<King of Grangold>You're in the presence of--")
  ShowMessageFace("lazarus3_fc1",0,0,2,25)
  ShowMessage("\\n<Lazarus>Hold it right there, bud!")
  212(29,406,true)
  ShowMessageFace("grangold_fc1",0,0,2,26)
  ShowMessage("\\n<King of Grangold>You dare fire a gun--")
  ShowMessageFace("merlin_fc1",0,0,2,27)
  ShowMessage("\\n<Merlin>Infernal breath, become a scorching nightmare... Blaze!")
  212(29,507,true)
  ShowMessageFace("merlin_fc1",0,0,2,28)
  ShowMessage("\\n<Merlin>Pardon me. I always wanted to try burning a king.")
  PictureDisplay(5,"80_grangold_st03",0,0,0,0,100,100,0,0)
  PictureMove(5,null,0,0,0,0,100,100,255,0,30,true)
  ShowMessageFace("grangold_fc1",0,0,2,29)
  ShowMessage("\\n<King of Grangold>...Very well.\nWitness the power of a king...")
  250(bytes(0x04,0x08,0x6f,0x3a,0x0c,0x52,0x50,0x47,0x3a,0x3a,0x53,0x45,0x08,0x3a,0x0a,0x40,0x6e,0x61,0x6d,0x65,0x49,0x22,0x0e,0x6d,0x6f,0x6e,0x5f,0x70,0x6f,0x77,0x65,0x72,0x06,0x3a,0x06,0x45,0x54,0x3a,0x0b,0x40,0x70,0x69,0x74,0x63,0x68,0x69,0x69,0x3a,0x0c,0x40,0x76,0x6f,0x6c,0x75,0x6d,0x65,0x69,0x55))
  ShowMessageFace("",0,0,2,30)
  ShowMessage("The King explodes with magical power!\nThe torrent of power is changing his physical appearance!")
  ShowMessageFace("lazarus3_fc1",4,0,2,31)
  ShowMessage("\\n<Lazarus>Hey, old man! I wanted you to hold him in place! All you did was piss him off!")
  ShowMessageFace("merlin_fc1",0,0,2,32)
  ShowMessage("\\n<Merlin>My apologies, I got carried away...")
  250(bytes(0x04,0x08,0x6f,0x3a,0x0c,0x52,0x50,0x47,0x3a,0x3a,0x53,0x45,0x08,0x3a,0x0a,0x40,0x6e,0x61,0x6d,0x65,0x49,0x22,0x0b,0x57,0x69,0x6e,0x64,0x31,0x30,0x06,0x3a,0x06,0x45,0x54,0x3a,0x0b,0x40,0x70,0x69,0x74,0x63,0x68,0x69,0x69,0x3a,0x0c,0x40,0x76,0x6f,0x6c,0x75,0x6d,0x65,0x69,0x55))
  PictureDisplay(7,"ct_grangold1",0,0,0,0,100,100,0,0)
  PictureMove(7,null,0,0,0,0,100,100,255,0,30,true)
  ShowMessageFace("grangold_fc1",0,0,2,33)
  ShowMessage("\\n<King of Grangold>Behold my power...\nThe true strength pulsing through my royal blood...")
  PictureMove(7,null,0,0,0,0,100,100,255,0,30,true)
  PictureClear(7)
  Wait(60)
  250(bytes(0x04,0x08,0x6f,0x3a,0x0c,0x52,0x50,0x47,0x3a,0x3a,0x53,0x45,0x08,0x3a,0x0a,0x40,0x6e,0x61,0x6d,0x65,0x49,0x22,0x0b,0x4d,0x61,0x67,0x69,0x63,0x32,0x06,0x3a,0x06,0x45,0x54,0x3a,0x0b,0x40,0x70,0x69,0x74,0x63,0x68,0x69,0x69,0x3a,0x0c,0x40,0x76,0x6f,0x6c,0x75,0x6d,0x65,0x69,0x55))
  PictureDisplay(10,"sys_white",0,0,0,0,100,100,0,0)
  PictureMove(10,null,0,0,0,0,100,100,255,0,30,true)
  PictureDisplay(5,"80_grangold_st11",0,0,0,0,100,100,255,0)
  ChangeSwitch(34,34,0)
  PictureMove(10,null,0,0,0,0,100,100,0,0,30,true)
  PictureClear(10)
  241(bytes(0x04,0x08,0x6f,0x3a,0x0d,0x52,0x50,0x47,0x3a,0x3a,0x42,0x47,0x4d,0x08,0x3a,0x0a,0x40,0x6e,0x61,0x6d,0x65,0x49,0x22,0x0c,0x62,0x6f,0x73,0x73,0x30,0x2d,0x34,0x06,0x3a,0x06,0x45,0x54,0x3a,0x0c,0x40,0x76,0x6f,0x6c,0x75,0x6d,0x65,0x69,0x69,0x3a,0x0b,0x40,0x70,0x69,0x74,0x63,0x68,0x69,0x69))
  ShowMessageFace("",0,0,2,34)
  ShowMessage("The King's transformation is complete!")
  ShowMessageFace("grangold_fc2",0,0,2,35)
  ShowMessage("\\n<King of Grangold>Offer your lives... to your king...")
  ShowMessageFace("ruka_fc1",0,0,2,36)
  ShowMessage("\\n<Luka>Uncle Lazarus! That guy's not normal!")
  ShowMessageFace("lazarus3_fc1",3,0,2,37)
  ShowMessage("\\n<Lazarus>Oi, Luka...\nYou think I'm dumb enough to look at that and think \"Yep, perfectly normal.\"")
  ShowMessageFace("merlin_fc1",0,0,2,38)
  ShowMessage("\\n<Merlin>The power he's giving off is intense...\nIf we fight that head-on, we're goners for sure.")
  ShowMessageFace("lazarus3_fc1",3,0,2,39)
  ShowMessage("\\n<Lazarus>Luka, get your slow asses out of here!")
  ShowMessageFace("ruka_fc1",0,0,2,40)
  ShowMessage("\\n<Luka>B-but...\nIf we all fight together, then...!")
  ShowMessageFace("lazarus3_fc1",3,0,2,41)
  ShowMessage("\\n<Lazarus>I've gotten a lot more practice than you at fighting my betters! So hurry up and scram!")
  If(0,4,0)
   ShowMessageFace("alice_fc5",2,0,2,42)
   ShowMessage("\\n<Alice>Luka, let's go!\nLazarus and Merlin can't go all out with us in the way!")
   0()
  EndIf()
  If(0,5,0)
   ShowMessageFace("iriasu_fc4",7,0,2,43)
   ShowMessage("\\n<Ilias>Let's go, Luka!\nLazarus and Merlin cannot go all out with us present!")
   0()
  EndIf()
  If(0,6,0)
   ShowMessageFace("sonia_fc2",5,0,2,44)
   ShowMessage("\\n<Sonya>Uncle Lazarus, Merlin, you better not die! We'll hold up our end and finish the mission!")
   0()
  EndIf()
  ShowMessageFace("ruka_fc1",0,0,2,45)
  ShowMessage("\\n<Luka>We'll leave him to you, then.\nLet's go, everyone!")
  PictureClear(5)
  Wait(60)
  205(-1,bytes(0x04,0x08,0x6f,0x3a,0x13,0x52,0x50,0x47,0x3a,0x3a,0x4d,0x6f,0x76,0x65,0x52,0x6f,0x75,0x74,0x65,0x09,0x3a,0x0c,0x40,0x72,0x65,0x70,0x65,0x61,0x74,0x46,0x3a,0x0f,0x40,0x73,0x6b,0x69,0x70,0x70,0x61,0x62,0x6c,0x65,0x54,0x3a,0x0a,0x40,0x77,0x61,0x69,0x74,0x54,0x3a,0x0a,0x40,0x6c,0x69,0x73,0x74,0x5b,0x0a,0x6f,0x3a,0x15,0x52,0x50,0x47,0x3a,0x3a,0x4d,0x6f,0x76,0x65,0x43,0x6f,0x6d,0x6d,0x61,0x6e,0x64,0x07,0x3a,0x0a,0x40,0x63,0x6f,0x64,0x65,0x69,0x09,0x3a,0x10,0x40,0x70,0x61,0x72,0x61,0x6d,0x65,0x74,0x65,0x72,0x73,0x5b,0x00,0x6f,0x3b,0x0a,0x07,0x3b,0x0b,0x69,0x09,0x3b,0x0c,0x5b,0x00,0x6f,0x3b,0x0a,0x07,0x3b,0x0b,0x69,0x09,0x3b,0x0c,0x5b,0x00,0x6f,0x3b,0x0a,0x07,0x3b,0x0b,0x69,0x09,0x3b,0x0c,0x5b,0x00,0x6f,0x3b,0x0a,0x07,0x3b,0x0b,0x69,0x00,0x3b,0x0c,0x5b,0x00))
  250(bytes(0x04,0x08,0x6f,0x3a,0x0c,0x52,0x50,0x47,0x3a,0x3a,0x53,0x45,0x08,0x3a,0x0a,0x40,0x6e,0x61,0x6d,0x65,0x49,0x22,0x09,0x4d,0x6f,0x76,0x65,0x06,0x3a,0x06,0x45,0x54,0x3a,0x0b,0x40,0x70,0x69,0x74,0x63,0x68,0x69,0x69,0x3a,0x0c,0x40,0x76,0x6f,0x6c,0x75,0x6d,0x65,0x69,0x55))
  211(0)
  ShowMessageFace("lazarus3_fc1",0,0,2,46)
  ShowMessage("\\n<Lazarus>All right, now we just need to buy them enough time, or at least take this guy down a few notches--")
  ShowMessageFace("merlin_fc1",0,0,2,47)
  ShowMessage("\\n<Merlin>Are you going to break your promise with those youngsters so readily? If you die here, you'll teach them that self-sacrifice is an easy way out.")
  ShowMessageFace("lazarus3_fc1",1,0,2,48)
  ShowMessage("\\n<Lazarus>Well shit, that wouldn't be good...\nFine, let's make it out alive then.")
  ShowMessageFace("grangold_fc2",0,0,2,49)
  ShowMessage("\\n<King of Grangold>Offer... Your lives...")
  ShowMessageFace("lazarus3_fc1",0,0,2,50)
  ShowMessage("\\n<Lazarus>We've got some places to hide and a ceiling to work with. Let's use 'em to stall!")
  ShowMessageFace("merlin_fc1",0,0,2,51)
  ShowMessage("\\n<Merlin>Then let us begin--")
  Wait(60)
  221()
  241(bytes(0x04,0x08,0x6f,0x3a,0x0d,0x52,0x50,0x47,0x3a,0x3a,0x42,0x47,0x4d,0x08,0x3a,0x0a,0x40,0x6e,0x61,0x6d,0x65,0x49,0x22,0x00,0x06,0x3a,0x06,0x45,0x54,0x3a,0x0c,0x40,0x76,0x6f,0x6c,0x75,0x6d,0x65,0x69,0x69,0x3a,0x0b,0x40,0x70,0x69,0x74,0x63,0x68,0x69,0x69))
  ShowMessageFace("",0,0,2,52)
  ShowMessage("Lazarus and Merlin leave the party...")
  Wait(60)
  211(1)
  TeleportPlayer(0,176,35,32,0,2)
  0()
 PAGE   2
  // condition: variable 1063 >= 13
  0()



EVENT   28
 PAGE   1
  250(bytes(0x04,0x08,0x6f,0x3a,0x0c,0x52,0x50,0x47,0x3a,0x3a,0x53,0x45,0x08,0x3a,0x0a,0x40,0x6e,0x61,0x6d,0x65,0x49,0x22,0x0a,0x43,0x68,0x65,0x73,0x74,0x06,0x3a,0x06,0x45,0x54,0x3a,0x0b,0x40,0x70,0x69,0x74,0x63,0x68,0x69,0x69,0x3a,0x0c,0x40,0x76,0x6f,0x6c,0x75,0x6d,0x65,0x69,0x55))
  205(0,bytes(0x04,0x08,0x6f,0x3a,0x13,0x52,0x50,0x47,0x3a,0x3a,0x4d,0x6f,0x76,0x65,0x52,0x6f,0x75,0x74,0x65,0x09,0x3a,0x0c,0x40,0x72,0x65,0x70,0x65,0x61,0x74,0x46,0x3a,0x0f,0x40,0x73,0x6b,0x69,0x70,0x70,0x61,0x62,0x6c,0x65,0x46,0x3a,0x0a,0x40,0x77,0x61,0x69,0x74,0x54,0x3a,0x0a,0x40,0x6c,0x69,0x73,0x74,0x5b,0x0b,0x6f,0x3a,0x15,0x52,0x50,0x47,0x3a,0x3a,0x4d,0x6f,0x76,0x65,0x43,0x6f,0x6d,0x6d,0x61,0x6e,0x64,0x07,0x3a,0x0a,0x40,0x63,0x6f,0x64,0x65,0x69,0x29,0x3a,0x10,0x40,0x70,0x61,0x72,0x61,0x6d,0x65,0x74,0x65,0x72,0x73,0x5b,0x00,0x6f,0x3b,0x0a,0x07,0x3b,0x0b,0x69,0x16,0x3b,0x0c,0x5b,0x00,0x6f,0x3b,0x0a,0x07,0x3b,0x0b,0x69,0x14,0x3b,0x0c,0x5b,0x06,0x69,0x08,0x6f,0x3b,0x0a,0x07,0x3b,0x0b,0x69,0x17,0x3b,0x0c,0x5b,0x00,0x6f,0x3b,0x0a,0x07,0x3b,0x0b,0x69,0x14,0x3b,0x0c,0x5b,0x06,0x69,0x08,0x6f,0x3b,0x0a,0x07,0x3b,0x0b,0x69,0x00,0x3b,0x0c,0x5b,0x00))
  ChangeSelfSwitch("A",0)
  ChangeInventory_Item(29,0,0,1)
  0()
 PAGE   2
  // condition: self-switch A is ON
  0()



EVENT   29
 PAGE   1
  // condition: switch 31 is ON
  0()
 PAGE   2
  // condition: switch 34 is ON
  0()



EVENT   30
 PAGE   1
  // condition: switch 2195 is ON
  241(bytes(0x04,0x08,0x6f,0x3a,0x0d,0x52,0x50,0x47,0x3a,0x3a,0x42,0x47,0x4d,0x08,0x3a,0x0a,0x40,0x6e,0x61,0x6d,0x65,0x49,0x22,0x0a,0x6b,0x69,0x6b,0x69,0x32,0x06,0x3a,0x06,0x45,0x54,0x3a,0x0c,0x40,0x76,0x6f,0x6c,0x75,0x6d,0x65,0x69,0x69,0x3a,0x0b,0x40,0x70,0x69,0x74,0x63,0x68,0x69,0x69))
  ChangeSelfSwitch("A",0)
  TeleportEvent(31,0,32,4,2)
  TeleportEvent(32,0,30,4,8)
  ChangeSwitch(32,32,0)
  ChangeSwitch(33,33,0)
  ChangeSwitch(34,34,0)
  222()
  ShowMessageFace("lazarus3_fc1",0,0,2,1)
  ShowMessage("\\n<Lazarus>Still alive, old man?")
  ShowMessageFace("merlin_fc1",0,0,2,2)
  ShowMessage("\\n<Merlin>...No, I'm quite dead.")
  ShowMessageFace("lazarus3_fc1",0,0,2,3)
  ShowMessage("\\n<Lazarus>Well, I think we've bought enough time...\nIt's time for us to blow this joint.")
  PictureDisplay(5,"80_grangold_st11",0,0,0,0,100,100,0,0)
  PictureMove(5,null,0,0,0,0,100,100,255,0,30,true)
  ShowMessageFace("grangold_fc2",0,0,2,4)
  ShowMessage("\\n<King of Grangold>......")
  ShowMessageFace("lazarus3_fc1",0,0,2,5)
  ShowMessage("\\n<Lazarus>Not gonna let us go that easy, are ya?")
  250(bytes(0x04,0x08,0x6f,0x3a,0x0c,0x52,0x50,0x47,0x3a,0x3a,0x53,0x45,0x08,0x3a,0x0a,0x40,0x6e,0x61,0x6d,0x65,0x49,0x22,0x10,0x6d,0x6f,0x6e,0x5f,0x61,0x73,0x69,0x6f,0x74,0x6f,0x33,0x06,0x3a,0x06,0x45,0x54,0x3a,0x0b,0x40,0x70,0x69,0x74,0x63,0x68,0x69,0x69,0x3a,0x0c,0x40,0x76,0x6f,0x6c,0x75,0x6d,0x65,0x69,0x55))
  ShowMessageFace("merlin_fc1",0,0,2,6)
  ShowMessage("\\n<Merlin>We have to live to see Luka again...\nWho's there?")
  PictureClear(5)
  Wait(60)
  242(1)
  ShowMessageFace("",0,0,2,7)
  ShowMessage("\\n<？？？>Mmn, I'm just passing through...\nBut allow me to assist.")
  212(29,609,false)
  ShowMessageFace("grangold_fc2",0,0,2,8)
  ShowMessage("\\n<King of Grangold>......!?")
  Wait(60)
  221()
  TeleportPlayer(0,177,30,26,8,2)
  211(1)
  ChangeSwitch(32,32,1)
  ChangeSwitch(33,33,1)
  ChangeSwitch(34,34,1)
  Wait(60)
  222()
  If(0,4,0)
   ShowMessageFace("alice_fc5",2,0,2,9)
   ShowMessage("\\n<Alice>This looks like the throne room...\nCome on, it's time to end this!")
   0()
  EndIf()
  If(0,5,0)
   ShowMessageFace("iriasu_fc4",7,0,2,10)
   ShowMessage("\\n<Ilias>This looks like the throne room...\nNow's the time to end this!")
   0()
  EndIf()
  EndEventProcessing()
  0()
 PAGE   2
  // condition: self-switch A is ON
  0()



EVENT   31
 PAGE   1
  // condition: switch 32 is ON
  0()



EVENT   32
 PAGE   1
  // condition: switch 33 is ON
  0()


