﻿
DisplayName "MS Fish Lower Deck"



EVENT   1
 PAGE   1
  281(0)
  If(6,-1,8)
   250(bytes(0x04,0x08,0x6f,0x3a,0x0c,0x52,0x50,0x47,0x3a,0x3a,0x53,0x45,0x08,0x3a,0x0a,0x40,0x6e,0x61,0x6d,0x65,0x49,0x22,0x09,0x4d,0x6f,0x76,0x65,0x06,0x3a,0x06,0x45,0x54,0x3a,0x0b,0x40,0x70,0x69,0x74,0x63,0x68,0x69,0x69,0x3a,0x0c,0x40,0x76,0x6f,0x6c,0x75,0x6d,0x65,0x69,0x55))
   TeleportPlayer(0,696,20,18,0,0)
   0()
  EndIf()
  0()



EVENT   2
 PAGE   1
  281(0)
  If(6,-1,8)
   250(bytes(0x04,0x08,0x6f,0x3a,0x0c,0x52,0x50,0x47,0x3a,0x3a,0x53,0x45,0x08,0x3a,0x0a,0x40,0x6e,0x61,0x6d,0x65,0x49,0x22,0x09,0x4d,0x6f,0x76,0x65,0x06,0x3a,0x06,0x45,0x54,0x3a,0x0b,0x40,0x70,0x69,0x74,0x63,0x68,0x69,0x69,0x3a,0x0c,0x40,0x76,0x6f,0x6c,0x75,0x6d,0x65,0x69,0x55))
   TeleportPlayer(0,696,21,18,0,0)
   0()
  EndIf()
  0()



EVENT   3
 PAGE   1
  ShowMessageFace("nekomata_fc1",2,0,2,1)
  ShowMessage("\\n<Nekomata>Nyaaaa.")
  ShowMessageFace("tatunoko_k_fc1",1,0,2,2)
  ShowMessage("\\n<Tatsuko>Bonnie, leader of the Fishy Pirates, come quietly!")
  If(0,6,0)
   ShowMessageFace("sonia_fc3",2,0,2,3)
   ShowMessage("\\n<Sonya>Hold on, this is just a stray cat!")
   0()
  Else()
   ShowMessageFace("ruka_fc1",0,0,2,4)
   ShowMessage("\\n<Luka>This nekomata isn't their leader...")
   0()
  EndIf()
  If(0,4,0)
   ShowMessageFace("alice_fc5",2,0,2,5)
   ShowMessage("\\n<Alice>Captain Bonnie isn't on board?\nI'm guessing her first mate Ashel isn't here either.")
   0()
  EndIf()
  If(0,5,0)
   ShowMessageFace("iriasu_fc4",2,0,2,6)
   ShowMessage("\\n<Ilias>Captain Bonnie and her first mate Ashel are conspicuously absent. Knowing that we were coming, did they abandon ship and flee?")
   0()
  EndIf()
  ChangeSwitch(31,31,0)
  205(4,bytes(0x04,0x08,0x6f,0x3a,0x13,0x52,0x50,0x47,0x3a,0x3a,0x4d,0x6f,0x76,0x65,0x52,0x6f,0x75,0x74,0x65,0x09,0x3a,0x0c,0x40,0x72,0x65,0x70,0x65,0x61,0x74,0x46,0x3a,0x0f,0x40,0x73,0x6b,0x69,0x70,0x70,0x61,0x62,0x6c,0x65,0x46,0x3a,0x0a,0x40,0x77,0x61,0x69,0x74,0x54,0x3a,0x0a,0x40,0x6c,0x69,0x73,0x74,0x5b,0x0e,0x6f,0x3a,0x15,0x52,0x50,0x47,0x3a,0x3a,0x4d,0x6f,0x76,0x65,0x43,0x6f,0x6d,0x6d,0x61,0x6e,0x64,0x07,0x3a,0x0a,0x40,0x63,0x6f,0x64,0x65,0x69,0x09,0x3a,0x10,0x40,0x70,0x61,0x72,0x61,0x6d,0x65,0x74,0x65,0x72,0x73,0x5b,0x00,0x6f,0x3b,0x0a,0x07,0x3b,0x0b,0x69,0x09,0x3b,0x0c,0x5b,0x00,0x6f,0x3b,0x0a,0x07,0x3b,0x0b,0x69,0x09,0x3b,0x0c,0x5b,0x00,0x6f,0x3b,0x0a,0x07,0x3b,0x0b,0x69,0x09,0x3b,0x0c,0x5b,0x00,0x6f,0x3b,0x0a,0x07,0x3b,0x0b,0x69,0x09,0x3b,0x0c,0x5b,0x00,0x6f,0x3b,0x0a,0x07,0x3b,0x0b,0x69,0x09,0x3b,0x0c,0x5b,0x00,0x6f,0x3b,0x0a,0x07,0x3b,0x0b,0x69,0x09,0x3b,0x0c,0x5b,0x00,0x6f,0x3b,0x0a,0x07,0x3b,0x0b,0x69,0x09,0x3b,0x0c,0x5b,0x00,0x6f,0x3b,0x0a,0x07,0x3b,0x0b,0x69,0x00,0x3b,0x0c,0x5b,0x00))
  ShowMessageFace("tatunoko_k_fc1",0,0,2,7)
  ShowMessage("\\n<Sea Horse Marine>Report!\nOne of the lifeboats on the aft deck is missing!")
  If(0,4,0)
   ShowMessageFace("alice_fc5",0,0,2,8)
   ShowMessage("\\n<Alice>So we must have just missed Captain Bonnie. Where is she going, though?")
   0()
  EndIf()
  If(0,5,0)
   ShowMessageFace("iriasu_fc4",2,0,2,9)
   ShowMessage("\\n<Ilias>Those villains absconded with a boat, then. But where did they flee to?")
   0()
  EndIf()
  If(0,6,0)
   ShowMessageFace("sonia_fc2",2,0,2,10)
   ShowMessage("\\n<Sonya>Hey, take a look at this map spread out on top of the desk. There's a huge X drawn on it.")
   0()
  Else()
   ShowMessageFace("ruka_fc1",0,0,2,11)
   ShowMessage("\\n<Luka>There's a map on top of the desk. It's even got an X on it.")
   0()
  EndIf()
  If(0,4,0)
   ShowMessageFace("alice_fc5",1,0,2,12)
   ShowMessage("\\n<Alice>Is that the location of Grand Pirate's Cave? That must be where they're hiding.")
   0()
  EndIf()
  If(0,5,0)
   ShowMessageFace("iriasu_fc4",0,0,2,13)
   ShowMessage("\\n<Ilias>That's the location of Grand Pirate's Cave. I don't even need clairvoyance to know that's where they're hiding.")
   0()
  EndIf()
  ShowMessageFace("umiusi_k_fc1",0,0,2,14)
  ShowMessage("\\n<Stacy>Is it possible this map is a trap? They could have purposely marked a completely different spot or something.")
  If(0,4,0)
   ShowMessageFace("alice_fc5",0,0,2,15)
   ShowMessage("\\n<Alice>Nah, I don't think so.")
   0()
  EndIf()
  If(0,5,0)
   ShowMessageFace("iriasu_fc4",0,0,2,16)
   ShowMessage("\\n<Ilias>Impossible.")
   0()
  EndIf()
  If(0,6,0)
   ShowMessageFace("sonia_fc4",0,0,2,17)
   ShowMessage("\\n<Sonya>Not a chance.")
   0()
  Else()
   ShowMessageFace("ruka_fc1",0,0,2,18)
   ShowMessage("\\n<Luka>Not a chance.")
   0()
  EndIf()
  ShowMessageFace("umiusi_k_fc1",0,0,2,19)
  ShowMessage("\\n<Stacy>Let's get back to our ship on the double and head for Grand Pirate's Cave!")
  ShowMessageFace("tatunoko_k_fc1",2,0,2,20)
  ShowMessage("\\n<Tatsuko>But I'm starving now...")
  If(4,129,0)
   ShowMessageFace("brunhild_fc1",0,0,2,21)
   ShowMessage("\\n<Hild>Commencing pursuit...")
   0()
  EndIf()
  ShowMessageFace("nekomata_fc1",2,0,2,22)
  ShowMessage("\\n<Nekomata>Nyaaaa.")
  ShowMessageFace("",0,0,2,23)
  ShowMessage("We head for Grand Pirate's Cave, chasing after the fleeing Captain Bonnie--")
  221()
  ChangeSwitch(31,31,1)
  ChangeVariable(1050,1050,0,0,8)
  ChangeVariable(1002,1002,0,0,22)
  250(bytes(0x04,0x08,0x6f,0x3a,0x0c,0x52,0x50,0x47,0x3a,0x3a,0x53,0x45,0x08,0x3a,0x0a,0x40,0x6e,0x61,0x6d,0x65,0x49,0x22,0x0b,0x57,0x61,0x74,0x65,0x72,0x31,0x06,0x3a,0x06,0x45,0x54,0x3a,0x0b,0x40,0x70,0x69,0x74,0x63,0x68,0x69,0x69,0x3a,0x0c,0x40,0x76,0x6f,0x6c,0x75,0x6d,0x65,0x69,0x55))
  Wait(60)
  TeleportPlayer(0,2,20,211,4,2)
  222()
  ShowMessageFace("umiusi_k_fc1",0,0,2,24)
  ShowMessage("\\n<Stacy>The navy had Grand Pirate's Cave under tight guard, but I've received word that a large group of pirates made their way in and took up positions inside.")
  If(0,4,0)
   ShowMessageFace("alice_fc5",3,0,2,25)
   ShowMessage("\\n<Alice>Great job...\nSo you mean to tell us that the cave is full of pirates?")
   0()
  EndIf()
  If(0,5,0)
   ShowMessageFace("iriasu_fc4",2,0,2,26)
   ShowMessage("\\n<Ilias>That's just wonderful. So that means the cave is now pirate infested.")
   0()
  EndIf()
  ShowMessageFace("ruka_fc1",0,0,2,27)
  ShowMessage("\\n<Luka>We still have to go in and arrest Captain Bonnie!")
  If(4,167,0)
   ShowMessageFace("lusia_fc1",0,0,2,28)
   ShowMessage("\\n<Lucia>Let's go! Hurry before they do something they'll regret...")
   0()
  EndIf()
  ShowMessageFace("tatunoko_k_fc1",2,0,2,29)
  ShowMessage("\\n<Tatsuko>But I'm tired...")
  If(4,79,0)
   ShowMessageFace("nuruko_fc1",2,0,2,30)
   ShowMessage("\\n<Nuruko>......")
   0()
  EndIf()
  EndEventProcessing()
  0()



EVENT   4
 PAGE   1
  // condition: switch 31 is ON
  0()



EVENT   5
 PAGE   1
  ShowMessageFace("k_mermaid_fc1",0,0,2,1)
  ShowMessage("\\n<Mermaid Pirate>You shall not pass!")
  If(0,4,0)
   ShowMessageFace("alice_fc5",2,0,2,2)
   ShowMessage("\\n<Alice>Gah, out of the way!")
   0()
  EndIf()
  If(0,5,0)
   ShowMessageFace("iriasu_fc4",0,0,2,3)
   ShowMessage("\\n<Ilias>What did you say, pirate scum? We'll throw you in a cell where you belong!")
   0()
  EndIf()
  ChangeSwitch(81,81,0)
  Battle(0,581,false,false)
  ChangeSwitch(81,81,1)
  ChangeSwitch(2174,2174,0)
  ShowMessageFace("k_mermaid_fc1",2,0,2,4)
  ShowMessage("\\n<Mermaid Pirate>Busted...")
  ShowMessageFace("umiusi_k_fc1",0,0,2,5)
  ShowMessage("\\n<Stacy>Enemy crew secured!\nLet's keep going♪")
  If(4,129,0)
   ShowMessageFace("brunhild_fc1",0,0,2,6)
   ShowMessage("\\n<Hild>Resuming suppression operation...")
   0()
  EndIf()
  0()
 PAGE   2
  // condition: switch 2174 is ON
  0()



EVENT   6
 PAGE   1
  ShowMessageFace("k_mermaid_fc1",0,0,2,1)
  ShowMessage("\\n<Mermaid Pirate>You shall not pass!")
  If(0,4,0)
   ShowMessageFace("alice_fc5",2,0,2,2)
   ShowMessage("\\n<Alice>Gah, out of the way!")
   0()
  EndIf()
  If(0,5,0)
   ShowMessageFace("iriasu_fc4",0,0,2,3)
   ShowMessage("\\n<Ilias>What did you say, pirate scum? We'll throw you in a cell where you belong!")
   0()
  EndIf()
  ChangeSwitch(81,81,0)
  Battle(0,581,false,false)
  ChangeSwitch(81,81,1)
  ChangeSwitch(2174,2174,0)
  ShowMessageFace("k_mermaid_fc1",2,0,2,4)
  ShowMessage("\\n<Mermaid Pirate>Busted...")
  ShowMessageFace("umiusi_k_fc1",0,0,2,5)
  ShowMessage("\\n<Stacy>Enemy crew secured!\nLet's keep going♪")
  If(4,129,0)
   ShowMessageFace("brunhild_fc1",0,0,2,6)
   ShowMessage("\\n<Hild>Resuming suppression operation...")
   0()
  EndIf()
  0()
 PAGE   2
  // condition: switch 2174 is ON
  0()



EVENT   7
 PAGE   1
  ShowMessageFace("k_mermaid_fc1",0,0,2,1)
  ShowMessage("\\n<Mermaid Pirate>We need to buy a bit more time!")
  If(0,4,0)
   ShowMessageFace("alice_fc5",2,0,2,2)
   ShowMessage("\\n<Alice>For what? What are you scheming? Ahh who cares, let us pass!")
   0()
  EndIf()
  If(0,5,0)
   ShowMessageFace("iriasu_fc4",7,0,2,3)
   ShowMessage("\\n<Ilias>Buying time? It sounds like they're planning something. Let's beat them up!")
   0()
  EndIf()
  ChangeSwitch(81,81,0)
  Battle(0,582,false,false)
  ChangeSwitch(81,81,1)
  ChangeSwitch(2175,2175,0)
  ShowMessageFace("k_mermaid_fc1",2,0,2,4)
  ShowMessage("\\n<Mermaid Pirate>Can't take... any more...")
  ShowMessageFace("tatunoko_k_fc1",0,0,2,5)
  ShowMessage("\\n<Tatsuko>Do we have enough room in the jail for more...?")
  If(4,529,0)
   ShowMessageFace("sara_fc1",2,0,2,6)
   ShowMessage("\\n<Sara>The captain's quarters are just ahead. Let's go in!")
   0()
  EndIf()
  0()
 PAGE   2
  // condition: switch 2175 is ON
  0()



EVENT   8
 PAGE   1
  ShowMessageFace("k_mermaid_fc1",0,0,2,1)
  ShowMessage("\\n<Mermaid Pirate>We need to buy a bit more time!")
  If(0,4,0)
   ShowMessageFace("alice_fc5",2,0,2,2)
   ShowMessage("\\n<Alice>For what? What are you scheming? Ahh who cares, let us pass!")
   0()
  EndIf()
  If(0,5,0)
   ShowMessageFace("iriasu_fc4",7,0,2,3)
   ShowMessage("\\n<Ilias>Buying time? It sounds like they're planning something. Let's beat them up!")
   0()
  EndIf()
  ChangeSwitch(81,81,0)
  Battle(0,582,false,false)
  ChangeSwitch(81,81,1)
  ChangeSwitch(2175,2175,0)
  ShowMessageFace("k_mermaid_fc1",2,0,2,4)
  ShowMessage("\\n<Mermaid Pirate>Can't take... any more...")
  ShowMessageFace("tatunoko_k_fc1",0,0,2,5)
  ShowMessage("\\n<Tatsuko>Do we have enough room in jail for more...?")
  If(4,529,0)
   ShowMessageFace("sara_fc1",2,0,2,6)
   ShowMessage("\\n<Sara>The captain's quarters are just ahead. Let's go in!")
   0()
  EndIf()
  0()
 PAGE   2
  // condition: switch 2175 is ON
  0()



EVENT   9
 PAGE   1
  ShowMessageFace("k_mermaid_fc1",0,0,2,1)
  ShowMessage("\\n<Mermaid Pirate>We need to buy a bit more time!")
  If(0,4,0)
   ShowMessageFace("alice_fc5",2,0,2,2)
   ShowMessage("\\n<Alice>For what? What are you scheming? Ahh who cares, let us pass!")
   0()
  EndIf()
  If(0,5,0)
   ShowMessageFace("iriasu_fc4",7,0,2,3)
   ShowMessage("\\n<Ilias>Buying time? It sounds like they're planning something. Let's beat them up!")
   0()
  EndIf()
  ChangeSwitch(81,81,0)
  Battle(0,582,false,false)
  ChangeSwitch(81,81,1)
  ChangeSwitch(2175,2175,0)
  ShowMessageFace("k_mermaid_fc1",2,0,2,4)
  ShowMessage("\\n<Mermaid Pirate>Can't take... any more...")
  ShowMessageFace("tatunoko_k_fc1",0,0,2,5)
  ShowMessage("\\n<Tatsuko>Do we have enough room in jail for more...?")
  If(4,529,0)
   ShowMessageFace("sara_fc1",2,0,2,6)
   ShowMessage("\\n<Sara>The captain's quarters are just ahead. Let's go in!")
   0()
  EndIf()
  0()
 PAGE   2
  // condition: switch 2175 is ON
  0()
