﻿
DisplayName "Pocket Castle 3F"



EVENT   1
 PAGE   1
  0()



EVENT   2
 PAGE   1
  0()



EVENT   3
 PAGE   1
  205(23,bytes(0x04,0x08,0x6f,0x3a,0x13,0x52,0x50,0x47,0x3a,0x3a,0x4d,0x6f,0x76,0x65,0x52,0x6f,0x75,0x74,0x65,0x09,0x3a,0x0c,0x40,0x72,0x65,0x70,0x65,0x61,0x74,0x46,0x3a,0x0f,0x40,0x73,0x6b,0x69,0x70,0x70,0x61,0x62,0x6c,0x65,0x46,0x3a,0x0a,0x40,0x77,0x61,0x69,0x74,0x54,0x3a,0x0a,0x40,0x6c,0x69,0x73,0x74,0x5b,0x09,0x6f,0x3a,0x15,0x52,0x50,0x47,0x3a,0x3a,0x4d,0x6f,0x76,0x65,0x43,0x6f,0x6d,0x6d,0x61,0x6e,0x64,0x07,0x3a,0x0a,0x40,0x63,0x6f,0x64,0x65,0x69,0x06,0x3a,0x10,0x40,0x70,0x61,0x72,0x61,0x6d,0x65,0x74,0x65,0x72,0x73,0x5b,0x00,0x6f,0x3b,0x0a,0x07,0x3b,0x0b,0x69,0x06,0x3b,0x0c,0x5b,0x00,0x6f,0x3b,0x0a,0x07,0x3b,0x0b,0x69,0x06,0x3b,0x0c,0x5b,0x00,0x6f,0x3b,0x0a,0x07,0x3b,0x0b,0x69,0x00,0x3b,0x0c,0x5b,0x00))
  ShowMessageFace("chrom_fc2",5,0,2,1)
  ShowMessage("\\n<Chrome>Promestein! Promestein!")
  205(2,bytes(0x04,0x08,0x6f,0x3a,0x13,0x52,0x50,0x47,0x3a,0x3a,0x4d,0x6f,0x76,0x65,0x52,0x6f,0x75,0x74,0x65,0x09,0x3a,0x0c,0x40,0x72,0x65,0x70,0x65,0x61,0x74,0x46,0x3a,0x0f,0x40,0x73,0x6b,0x69,0x70,0x70,0x61,0x62,0x6c,0x65,0x46,0x3a,0x0a,0x40,0x77,0x61,0x69,0x74,0x54,0x3a,0x0a,0x40,0x6c,0x69,0x73,0x74,0x5b,0x07,0x6f,0x3a,0x15,0x52,0x50,0x47,0x3a,0x3a,0x4d,0x6f,0x76,0x65,0x43,0x6f,0x6d,0x6d,0x61,0x6e,0x64,0x07,0x3a,0x0a,0x40,0x63,0x6f,0x64,0x65,0x69,0x18,0x3a,0x10,0x40,0x70,0x61,0x72,0x61,0x6d,0x65,0x74,0x65,0x72,0x73,0x5b,0x00,0x6f,0x3b,0x0a,0x07,0x3b,0x0b,0x69,0x00,0x3b,0x0c,0x5b,0x00))
  ShowMessageFace("stein_fc2",0,0,2,2)
  ShowMessage("\\n<Promestein>...Yes, what is it?")
  ShowMessageFace("chrom_fc2",5,0,2,3)
  ShowMessage("\\n<Chrome>I got a strange letter from an unknown sender... Did you get one too?")
  ShowMessageFace("stein_fc2",0,0,2,4)
  ShowMessage("\\n<Promestein>Yes...one was sent to me the other day.\nIt's probably from the same person.")
  ShowMessageFace("chrom_fc2",5,0,2,5)
  ShowMessage("\\n<Chrome>They also appear to have arrived for Lily and Lucia too. It seems like they're only being sent to intelligent people, with myself at the top of the list.")
  ShowMessageFace("stein_fc2",0,0,2,6)
  ShowMessage("\\n<Promestein>I believe the recipients of these letters are those who have reserved some achievements in the fields of natural science, magic science, alchemy, and the like.")
  ShowMessageFace("stein_fc2",0,0,2,7)
  ShowMessage("\\n<Promestein>I myself have contributed to a scientific journal... Chrome is a descendant of the Artiste family, known for their magicraft.")
  ShowMessageFace("chrom_fc2",5,0,2,8)
  ShowMessage("\\n<Chrome>But I don't understand what the contents of this letter mean at all... It's just a bunch of numbers all in a row, it can't be read at all...")
  ShowMessageFace("stein_fc2",0,0,2,9)
  ShowMessage("\\n<Promestein>This is a sophisticated code that makes use of a discrete logarithm and pseudo-absolute prime numbers. Even I needed fifteen hours to solve it.")
  ShowMessageFace("chrom_fc2",5,0,2,10)
  ShowMessage("\\n<Chrome>What was the code?!\nI've only ever used zunning encryption...")
  ShowMessageFace("stein_fc2",0,0,2,11)
  ShowMessage("\\n<Promestein>That's a question of secrecy...")
  ShowMessageFace("chrom_fc2",1,0,2,12)
  ShowMessage("\\n<Chrome>...And what does the letter say?!")
  ShowMessageFace("stein_fc2",1,0,2,13)
  ShowMessage("\\n<Promestein>...It's-a-secret♪")
  ShowMessageFace("chrom_fc2",7,0,2,14)
  ShowMessage("\\n<Chrome>Darn...\nOkay then, I'll solve it myself!")
  205(23,bytes(0x04,0x08,0x6f,0x3a,0x13,0x52,0x50,0x47,0x3a,0x3a,0x4d,0x6f,0x76,0x65,0x52,0x6f,0x75,0x74,0x65,0x09,0x3a,0x0c,0x40,0x72,0x65,0x70,0x65,0x61,0x74,0x46,0x3a,0x0f,0x40,0x73,0x6b,0x69,0x70,0x70,0x61,0x62,0x6c,0x65,0x46,0x3a,0x0a,0x40,0x77,0x61,0x69,0x74,0x54,0x3a,0x0a,0x40,0x6c,0x69,0x73,0x74,0x5b,0x0a,0x6f,0x3a,0x15,0x52,0x50,0x47,0x3a,0x3a,0x4d,0x6f,0x76,0x65,0x43,0x6f,0x6d,0x6d,0x61,0x6e,0x64,0x07,0x3a,0x0a,0x40,0x63,0x6f,0x64,0x65,0x69,0x09,0x3a,0x10,0x40,0x70,0x61,0x72,0x61,0x6d,0x65,0x74,0x65,0x72,0x73,0x5b,0x00,0x6f,0x3b,0x0a,0x07,0x3b,0x0b,0x69,0x09,0x3b,0x0c,0x5b,0x00,0x6f,0x3b,0x0a,0x07,0x3b,0x0b,0x69,0x09,0x3b,0x0c,0x5b,0x00,0x6f,0x3b,0x0a,0x07,0x3b,0x0b,0x69,0x2c,0x3b,0x0c,0x5b,0x00,0x6f,0x3b,0x0a,0x07,0x3b,0x0b,0x69,0x00,0x3b,0x0c,0x5b,0x00))
  ShowMessageFace("stein_fc2",0,0,2,15)
  ShowMessage("\\n<Promestein>Now...")
  205(2,bytes(0x04,0x08,0x6f,0x3a,0x13,0x52,0x50,0x47,0x3a,0x3a,0x4d,0x6f,0x76,0x65,0x52,0x6f,0x75,0x74,0x65,0x09,0x3a,0x0c,0x40,0x72,0x65,0x70,0x65,0x61,0x74,0x46,0x3a,0x0f,0x40,0x73,0x6b,0x69,0x70,0x70,0x61,0x62,0x6c,0x65,0x46,0x3a,0x0a,0x40,0x77,0x61,0x69,0x74,0x54,0x3a,0x0a,0x40,0x6c,0x69,0x73,0x74,0x5b,0x07,0x6f,0x3a,0x15,0x52,0x50,0x47,0x3a,0x3a,0x4d,0x6f,0x76,0x65,0x43,0x6f,0x6d,0x6d,0x61,0x6e,0x64,0x07,0x3a,0x0a,0x40,0x63,0x6f,0x64,0x65,0x69,0x16,0x3a,0x10,0x40,0x70,0x61,0x72,0x61,0x6d,0x65,0x74,0x65,0x72,0x73,0x5b,0x00,0x6f,0x3b,0x0a,0x07,0x3b,0x0b,0x69,0x00,0x3b,0x0c,0x5b,0x00))
  ShowMessageFace("stein_fc2",0,0,2,16)
  ShowMessage("\\n<Promestein>Match the frequency to that from the letter...\nThen, communication: start!")
  ShowMessageFace("stein_fc2",0,0,2,17)
  ShowMessage("\\n<Promestein>............")
  241(bytes(0x04,0x08,0x6f,0x3a,0x0d,0x52,0x50,0x47,0x3a,0x3a,0x42,0x47,0x4d,0x08,0x3a,0x0a,0x40,0x6e,0x61,0x6d,0x65,0x49,0x22,0x0a,0x6b,0x69,0x6b,0x69,0x32,0x06,0x3a,0x06,0x45,0x54,0x3a,0x0c,0x40,0x76,0x6f,0x6c,0x75,0x6d,0x65,0x69,0x69,0x3a,0x0b,0x40,0x70,0x69,0x74,0x63,0x68,0x69,0x69))
  ShowMessageFace("",0,0,2,18)
  ShowMessage("\\n<？？？>...Congratulations on deciphering the code.\nYou are now qualified to be in contact with us.")
  ShowMessageFace("stein_fc2",0,0,2,19)
  ShowMessage("\\n<Promestein>Who on earth are you...?\nIs this \"us\" some organization?")
  ShowMessageFace("",0,0,2,20)
  ShowMessage("\\n<？？？>We are the \"Alliance of Wisdom\".\nI shall ask three questions of you.")
  ShowMessageFace("stein_fc2",0,0,2,21)
  ShowMessage("\\n<Promestein>Three questions... Is this like an entrance exam?\nI understand, I shall accept your questions.")
  ShowMessageFace(binary"",0,0,2,22)
  ShowMessage("\\n<？？？>You're quick to the point.\nIn that case, the first question.")
  ShowMessageFace("",0,0,2,23)
  ShowMessage("\\n<？？？>In order to open a supersymmetric dynamic crack in a twenty-six dimensional DSR plane...\nReply with three appropriate methods.")
  ShowMessageFace("stein_fc2",2,0,2,24)
  ShowMessage("\\n<Promestein>Well, to start with, there is hadron collision with terun particles... And then there is destabilizing the deviation of the DSR field...")
  ShowMessageFace("stein_fc2",2,0,2,25)
  ShowMessage("\\n<Promestein>...There are only two.\nI cannot think of another one.")
  ShowMessageFace("",0,0,2,26)
  ShowMessage("\\n<？？？>Onto the second question.\nReply with two methods for creating multipotent angel stem cells.")
  ShowMessageFace("stein_fc2",2,0,2,27)
  ShowMessage("\\n<Promestein>Huh...? Is that even possible...?!")
  ShowMessageFace("",0,0,2,28)
  ShowMessage("\\n<？？？>............")
  ShowMessageFace("",0,0,2,29)
  ShowMessage("\\n<？？？>...And now, the last question.\nDo you believe that you can join the Alliance of Wisdom now, and be able to contribute to it?")
  ShowMessageFace("stein_fc2",2,0,2,30)
  ShowMessage("\\n<Promestein>Umm... Maybe I can...")
  ShowMessageFace("",0,0,2,31)
  ShowMessage("\\n<？？？>...Maybe? You're a scientist, aren't you?\nAnswer me yes or no.")
  ShowMessageFace("stein_fc2",0,0,2,32)
  ShowMessage("\\n<Promestein>No. For now, I won't be able to contribute to the Alliance of Wisdom.")
  ShowMessageFace("",0,0,2,33)
  ShowMessage("\\n<？？？>...Very well.\nIt is still too early for you to join our fellowship now.")
  ShowMessageFace("stein_fc2",0,0,2,34)
  ShowMessage("\\n<Promestein>Yes...")
  ShowMessageFace("",0,0,2,35)
  ShowMessage("\\n<？？？>However, you are still young.\nYou still have a lot of room left to grow.")
  ShowMessageFace("",0,0,2,36)
  ShowMessage("\\n<？？？>Contact us again when you believe you are worthy of joining the Alliance of Wisdom. We will be waiting, Promestein...")
  ShowMessageFace("",0,0,2,37)
  ShowMessage("\\n<？？？>Until then, this communication is over...")
  ShowMessageFace("stein_fc2",2,0,2,38)
  ShowMessage("\\n<Promestein>Huh...?\nI don't even recall giving my name...")
  ShowMessageFace("stein_fc2",0,0,2,39)
  ShowMessage("\\n<Promestein>............")
  241(bytes(0x04,0x08,0x6f,0x3a,0x0d,0x52,0x50,0x47,0x3a,0x3a,0x42,0x47,0x4d,0x08,0x3a,0x0a,0x40,0x6e,0x61,0x6d,0x65,0x49,0x22,0x14,0x73,0x63,0x65,0x6e,0x65,0x5f,0x65,0x70,0x69,0x6c,0x6f,0x67,0x75,0x65,0x32,0x06,0x3a,0x06,0x45,0x54,0x3a,0x0c,0x40,0x76,0x6f,0x6c,0x75,0x6d,0x65,0x69,0x69,0x3a,0x0b,0x40,0x70,0x69,0x74,0x63,0x68,0x69,0x69))
  205(2,bytes(0x04,0x08,0x6f,0x3a,0x13,0x52,0x50,0x47,0x3a,0x3a,0x4d,0x6f,0x76,0x65,0x52,0x6f,0x75,0x74,0x65,0x09,0x3a,0x0c,0x40,0x72,0x65,0x70,0x65,0x61,0x74,0x46,0x3a,0x0f,0x40,0x73,0x6b,0x69,0x70,0x70,0x61,0x62,0x6c,0x65,0x46,0x3a,0x0a,0x40,0x77,0x61,0x69,0x74,0x54,0x3a,0x0a,0x40,0x6c,0x69,0x73,0x74,0x5b,0x08,0x6f,0x3a,0x15,0x52,0x50,0x47,0x3a,0x3a,0x4d,0x6f,0x76,0x65,0x43,0x6f,0x6d,0x6d,0x61,0x6e,0x64,0x07,0x3a,0x0a,0x40,0x63,0x6f,0x64,0x65,0x69,0x22,0x3a,0x10,0x40,0x70,0x61,0x72,0x61,0x6d,0x65,0x74,0x65,0x72,0x73,0x5b,0x06,0x69,0x0b,0x6f,0x3b,0x0a,0x07,0x3b,0x0b,0x69,0x23,0x3b,0x0c,0x5b,0x06,0x69,0x0a,0x6f,0x3b,0x0a,0x07,0x3b,0x0b,0x69,0x00,0x3b,0x0c,0x5b,0x00))
  ShowMessageFace("stein_fc2",1,0,2,40)
  ShowMessage("\\n<Promestein>Okay then, let's begin experimenting with dynamic cracks on a DSR plane! Come on, we need to hurry and crunch this!")
  205(23,bytes(0x04,0x08,0x6f,0x3a,0x13,0x52,0x50,0x47,0x3a,0x3a,0x4d,0x6f,0x76,0x65,0x52,0x6f,0x75,0x74,0x65,0x09,0x3a,0x0c,0x40,0x72,0x65,0x70,0x65,0x61,0x74,0x46,0x3a,0x0f,0x40,0x73,0x6b,0x69,0x70,0x70,0x61,0x62,0x6c,0x65,0x46,0x3a,0x0a,0x40,0x77,0x61,0x69,0x74,0x54,0x3a,0x0a,0x40,0x6c,0x69,0x73,0x74,0x5b,0x08,0x6f,0x3a,0x15,0x52,0x50,0x47,0x3a,0x3a,0x4d,0x6f,0x76,0x65,0x43,0x6f,0x6d,0x6d,0x61,0x6e,0x64,0x07,0x3a,0x0a,0x40,0x63,0x6f,0x64,0x65,0x69,0x2d,0x3a,0x10,0x40,0x70,0x61,0x72,0x61,0x6d,0x65,0x74,0x65,0x72,0x73,0x5b,0x00,0x6f,0x3b,0x0a,0x07,0x3b,0x0b,0x69,0x06,0x3b,0x0c,0x5b,0x00,0x6f,0x3b,0x0a,0x07,0x3b,0x0b,0x69,0x00,0x3b,0x0c,0x5b,0x00))
  ShowMessageFace("chrom_fc2",1,0,2,41)
  ShowMessage("\\n<Chrome>Whoa! What's gotten you so excited?!")
  ShowMessageFace("stein_fc2",1,0,2,42)
  ShowMessage("\\n<Promestein>Ah, perfect timing!\nYou can start assisting me with the multipotent angel stem cells!")
  ShowMessageFace("chrom_fc2",5,0,2,43)
  ShowMessage("\\n<Chrome>Huh, a multipotent angel cell...?\nThat sounds impossible...")
  ShowMessageFace("stein_fc2",1,0,2,44)
  ShowMessage("\\n<Promestein>However, I think we could be pioneers!\nWe cannot delay!")
  205(23,bytes(0x04,0x08,0x6f,0x3a,0x13,0x52,0x50,0x47,0x3a,0x3a,0x4d,0x6f,0x76,0x65,0x52,0x6f,0x75,0x74,0x65,0x09,0x3a,0x0c,0x40,0x72,0x65,0x70,0x65,0x61,0x74,0x46,0x3a,0x0f,0x40,0x73,0x6b,0x69,0x70,0x70,0x61,0x62,0x6c,0x65,0x46,0x3a,0x0a,0x40,0x77,0x61,0x69,0x74,0x46,0x3a,0x0a,0x40,0x6c,0x69,0x73,0x74,0x5b,0x0b,0x6f,0x3a,0x15,0x52,0x50,0x47,0x3a,0x3a,0x4d,0x6f,0x76,0x65,0x43,0x6f,0x6d,0x6d,0x61,0x6e,0x64,0x07,0x3a,0x0a,0x40,0x63,0x6f,0x64,0x65,0x69,0x22,0x3a,0x10,0x40,0x70,0x61,0x72,0x61,0x6d,0x65,0x74,0x65,0x72,0x73,0x5b,0x06,0x69,0x0a,0x6f,0x3b,0x0a,0x07,0x3b,0x0b,0x69,0x23,0x3b,0x0c,0x5b,0x06,0x69,0x09,0x6f,0x3b,0x0a,0x07,0x3b,0x0b,0x69,0x06,0x3b,0x0c,0x5b,0x00,0x6f,0x3b,0x0a,0x07,0x3b,0x0b,0x69,0x07,0x3b,0x0c,0x5b,0x00,0x6f,0x3b,0x0a,0x07,0x3b,0x0b,0x69,0x06,0x3b,0x0c,0x5b,0x00,0x6f,0x3b,0x0a,0x07,0x3b,0x0b,0x69,0x00,0x3b,0x0c,0x5b,0x00))
  ShowMessageFace("chrom_fc2",1,0,2,45)
  ShowMessage("\\n<Chrome>I might be able to apply that to my zombie crafts too! We won't be taking any baths for a while!")
  ShowMessageFace("stein_fc2",1,0,2,46)
  ShowMessage("\\n<Promestein>Indeed, we'll have to postpone baths and meals for later! There are still so many things we must do!")
  ShowMessageFace("chrom_fc2",1,0,2,47)
  ShowMessage("\\n<Chrome>Are you also going to call Lily and Lucia?\nBiomolecular engineering is Lily's field of expertise!")
  ShowMessageFace("stein_fc2",1,0,2,48)
  ShowMessage("\\n<Promestein>Yes, let's mobilize their intellect as well!\nCome, we must push forth in search for the truth!")
  205(2,bytes(0x04,0x08,0x6f,0x3a,0x13,0x52,0x50,0x47,0x3a,0x3a,0x4d,0x6f,0x76,0x65,0x52,0x6f,0x75,0x74,0x65,0x09,0x3a,0x0c,0x40,0x72,0x65,0x70,0x65,0x61,0x74,0x54,0x3a,0x0f,0x40,0x73,0x6b,0x69,0x70,0x70,0x61,0x62,0x6c,0x65,0x46,0x3a,0x0a,0x40,0x77,0x61,0x69,0x74,0x46,0x3a,0x0a,0x40,0x6c,0x69,0x73,0x74,0x5b,0x0c,0x6f,0x3a,0x15,0x52,0x50,0x47,0x3a,0x3a,0x4d,0x6f,0x76,0x65,0x43,0x6f,0x6d,0x6d,0x61,0x6e,0x64,0x07,0x3a,0x0a,0x40,0x63,0x6f,0x64,0x65,0x69,0x06,0x3a,0x10,0x40,0x70,0x61,0x72,0x61,0x6d,0x65,0x74,0x65,0x72,0x73,0x5b,0x00,0x6f,0x3b,0x0a,0x07,0x3b,0x0b,0x69,0x16,0x3b,0x0c,0x5b,0x00,0x6f,0x3b,0x0a,0x07,0x3b,0x0b,0x69,0x14,0x3b,0x0c,0x5b,0x06,0x69,0x23,0x6f,0x3b,0x0a,0x07,0x3b,0x0b,0x69,0x09,0x3b,0x0c,0x5b,0x00,0x6f,0x3b,0x0a,0x07,0x3b,0x0b,0x69,0x16,0x3b,0x0c,0x5b,0x00,0x6f,0x3b,0x0a,0x07,0x3b,0x0b,0x69,0x14,0x3b,0x0c,0x5b,0x06,0x69,0x23,0x6f,0x3b,0x0a,0x07,0x3b,0x0b,0x69,0x00,0x3b,0x0c,0x5b,0x00))
  205(23,bytes(0x04,0x08,0x6f,0x3a,0x13,0x52,0x50,0x47,0x3a,0x3a,0x4d,0x6f,0x76,0x65,0x52,0x6f,0x75,0x74,0x65,0x09,0x3a,0x0c,0x40,0x72,0x65,0x70,0x65,0x61,0x74,0x54,0x3a,0x0f,0x40,0x73,0x6b,0x69,0x70,0x70,0x61,0x62,0x6c,0x65,0x46,0x3a,0x0a,0x40,0x77,0x61,0x69,0x74,0x46,0x3a,0x0a,0x40,0x6c,0x69,0x73,0x74,0x5b,0x10,0x6f,0x3a,0x15,0x52,0x50,0x47,0x3a,0x3a,0x4d,0x6f,0x76,0x65,0x43,0x6f,0x6d,0x6d,0x61,0x6e,0x64,0x07,0x3a,0x0a,0x40,0x63,0x6f,0x64,0x65,0x69,0x07,0x3a,0x10,0x40,0x70,0x61,0x72,0x61,0x6d,0x65,0x74,0x65,0x72,0x73,0x5b,0x00,0x6f,0x3b,0x0a,0x07,0x3b,0x0b,0x69,0x07,0x3b,0x0c,0x5b,0x00,0x6f,0x3b,0x0a,0x07,0x3b,0x0b,0x69,0x15,0x3b,0x0c,0x5b,0x00,0x6f,0x3b,0x0a,0x07,0x3b,0x0b,0x69,0x14,0x3b,0x0c,0x5b,0x06,0x69,0x23,0x6f,0x3b,0x0a,0x07,0x3b,0x0b,0x69,0x08,0x3b,0x0c,0x5b,0x00,0x6f,0x3b,0x0a,0x07,0x3b,0x0b,0x69,0x15,0x3b,0x0c,0x5b,0x00,0x6f,0x3b,0x0a,0x07,0x3b,0x0b,0x69,0x14,0x3b,0x0c,0x5b,0x06,0x69,0x23,0x6f,0x3b,0x0a,0x07,0x3b,0x0b,0x69,0x08,0x3b,0x0c,0x5b,0x00,0x6f,0x3b,0x0a,0x07,0x3b,0x0b,0x69,0x15,0x3b,0x0c,0x5b,0x00,0x6f,0x3b,0x0a,0x07,0x3b,0x0b,0x69,0x14,0x3b,0x0c,0x5b,0x06,0x69,0x23,0x6f,0x3b,0x0a,0x07,0x3b,0x0b,0x69,0x00,0x3b,0x0c,0x5b,0x00))
  Wait(120)
  242(2)
  221()
  Wait(120)
  TeleportPlayer(0,836,1,0,0,2)
  222()
  0()



EVENT   4
 PAGE   1
  0()

EVENT   7
 PAGE   1
  0()



EVENT   8
 PAGE   1
  0()



EVENT   9
 PAGE   1
  0()



EVENT   23
 PAGE   1
  0()


