﻿


EVENT   1
 PAGE   1
  0()



EVENT   2
 PAGE   1
  0()



EVENT   3
 PAGE   1
  0()



EVENT   4
 PAGE   1
  ChangeSwitch(31,31,1)
  ChangeSwitch(32,32,1)
  ChangeSwitch(33,33,1)
  ChangeSwitch(34,34,1)
  ChangeSwitch(35,35,1)
  355("keep_all_equip")
  355("set_temp_actors(801,802)")
  222()
  Wait(60)
  ShowMessageFace("",0,0,2,1)
  ShowMessage("Somewhere over the Yamatai region...")
  PictureDisplay(5,"80_executioner_st01",0,0,70,-50,70,70,0,0)
  PictureDisplay(6,"80_ogretooth_st01",0,0,-150,80,100,100,0,0)
  PictureDisplay(7,"80_mistilteinn_st01",0,0,280,130,80,80,0,0)
  PictureMove(5,null,0,0,70,-50,70,70,255,0,30,false)
  PictureMove(6,null,0,0,-150,80,100,100,255,0,30,false)
  PictureMove(7,null,0,0,280,130,80,80,255,0,30,true)
  ShowMessageFace("ogretooth_fc1",0,0,2,2)
  ShowMessage("\\n<Ogretooth>So, Sister, where to next...?")
  ShowMessageFace("mistilteinn_fc1",0,0,2,3)
  ShowMessage("\\n<Mysteltainn>A small village called Izumo.\nThe earth's pulse above makes it a suitable location for spreading magical power.")
  PictureDisplay(5,"80_executioner_st03",0,0,70,-50,70,70,255,0)
  ShowMessageFace("executioner_fc1",2,0,2,4)
  ShowMessage("\\n<Executioner>How many of these villages have we crushed already...? It's gotten really boring!")
  ShowMessageFace("ogretooth_fc1",0,0,2,5)
  ShowMessage("\\n<Ogretooth>I've certainly gotten fed up with it.\nToying with humans may be fun, but if we keep going like this...")
  ShowMessageFace("executioner_fc1",2,0,2,6)
  ShowMessage("\\n<Executioner>We've already been working non-stop for days.\nMy stomach won't stop growling, I wanna eat something delicious!")
  ShowMessageFace("mistilteinn_fc1",0,0,2,7)
  ShowMessage("\\n<Mysteltainn>Ex, Ogre...\nThis is a very important task.")
  ShowMessageFace("mistilteinn_fc1",0,0,2,8)
  ShowMessage("\\n<Mysteltainn>We must make more humans fall into a dream of pleasure... In doing so, the Land of Night's sphere of influence will expand.")
  ShowMessageFace("mistilteinn_fc1",0,0,2,9)
  ShowMessage("\\n<Mysteltainn>Until the Land of Night spans this entire world...\nWe will continue to fly around it.")
  ShowMessageFace("ogretooth_fc1",0,0,2,10)
  ShowMessage("\\n<Ogretooth>Sister... Let me ask you just this once.\nYou haven't degraded yourself to being the Queen of Dreams' underling, have you?")
  ShowMessageFace("mistilteinn_fc1",0,0,2,11)
  ShowMessage("\\n<Mysteltainn>...You should know the answer to that, Ogre.\nI am always focused on the ultimate goal.")
  ShowMessageFace("mistilteinn_fc1",0,0,2,12)
  ShowMessage("\\n<Mysteltainn>Our relationship with the Queen of Dreams is not one of servant and master, but that of an alliance. I would never place myself beneath her.")
  PictureDisplay(5,"80_executioner_st01",0,0,70,-50,70,70,255,0)
  ShowMessageFace("executioner_fc1",0,0,2,13)
  ShowMessage("\\n<Executioner>We should be fine as long as we do what Big Sis Myst says♪ But working non-stop is tiring me out...")
  ShowMessageFace("mistilteinn_fc1",0,0,2,14)
  ShowMessage("\\n<Mysteltainn>...I can see it at last.\nThat looks like Izumo Village.")
  ShowMessageFace("executioner_fc1",0,0,2,15)
  ShowMessage("\\n<Executioner>Hmph, what a crummy village.\nOkay then, time to rape all the villagers again...")
  Wait(30)
  ShowMessageFace("ogretooth_fc1",2,0,2,16)
  ShowMessage("\\n<Ogretooth>...Hey, something's coming!!")
  ShowMessageFace("mistilteinn_fc1",2,0,2,17)
  ShowMessage("\\n<Mysteltainn>Impossible--is this an ambush?!")
  PictureClear(5)
  PictureClear(6)
  PictureClear(7)
  241(bytes(0x04,0x08,0x6f,0x3a,0x0d,0x52,0x50,0x47,0x3a,0x3a,0x42,0x47,0x4d,0x08,0x3a,0x0a,0x40,0x6e,0x61,0x6d,0x65,0x49,0x22,0x12,0x73,0x63,0x65,0x6e,0x65,0x5f,0x62,0x61,0x74,0x74,0x6c,0x65,0x31,0x06,0x3a,0x06,0x45,0x54,0x3a,0x0c,0x40,0x76,0x6f,0x6c,0x75,0x6d,0x65,0x69,0x69,0x3a,0x0b,0x40,0x70,0x69,0x74,0x63,0x68,0x69,0x69))
  Wait(30)
  ChangeSwitch(31,31,0)
  205(5,bytes(0x04,0x08,0x6f,0x3a,0x13,0x52,0x50,0x47,0x3a,0x3a,0x4d,0x6f,0x76,0x65,0x52,0x6f,0x75,0x74,0x65,0x09,0x3a,0x0c,0x40,0x72,0x65,0x70,0x65,0x61,0x74,0x46,0x3a,0x0f,0x40,0x73,0x6b,0x69,0x70,0x70,0x61,0x62,0x6c,0x65,0x46,0x3a,0x0a,0x40,0x77,0x61,0x69,0x74,0x54,0x3a,0x0a,0x40,0x6c,0x69,0x73,0x74,0x5b,0x08,0x6f,0x3a,0x15,0x52,0x50,0x47,0x3a,0x3a,0x4d,0x6f,0x76,0x65,0x43,0x6f,0x6d,0x6d,0x61,0x6e,0x64,0x07,0x3a,0x0a,0x40,0x63,0x6f,0x64,0x65,0x69,0x31,0x3a,0x10,0x40,0x70,0x61,0x72,0x61,0x6d,0x65,0x74,0x65,0x72,0x73,0x5b,0x06,0x6f,0x3a,0x0c,0x52,0x50,0x47,0x3a,0x3a,0x53,0x45,0x08,0x3a,0x0a,0x40,0x6e,0x61,0x6d,0x65,0x49,0x22,0x0a,0x57,0x69,0x6e,0x64,0x31,0x06,0x3a,0x06,0x45,0x54,0x3a,0x0b,0x40,0x70,0x69,0x74,0x63,0x68,0x69,0x69,0x3a,0x0c,0x40,0x76,0x6f,0x6c,0x75,0x6d,0x65,0x69,0x55,0x6f,0x3b,0x0a,0x07,0x3b,0x0b,0x69,0x13,0x3b,0x0c,0x5b,0x07,0x69,0xf6,0x69,0xf4,0x6f,0x3b,0x0a,0x07,0x3b,0x0b,0x69,0x00,0x3b,0x0c,0x5b,0x00))
  PictureDisplay(5,"80_rovissa_st01",0,0,0,0,100,100,0,0)
  PictureMove(5,null,0,0,0,0,100,100,255,0,30,true)
  ShowMessageFace("rovissa_fc1",0,0,2,18)
  ShowMessage("\\n<Rovissa>Ascend to heaven... Gungnir!")
  PictureClear(5)
  355("display_skill_name(\"Gungnir\")")
  212(2,863,false)
  Wait(120)
  355("clear_skill_name")
  ShowMessageFace("ogretooth_fc1",5,0,2,19)
  ShowMessage("\\n<Ogretooth>Uwoh...?!")
  205(1,bytes(0x04,0x08,0x6f,0x3a,0x13,0x52,0x50,0x47,0x3a,0x3a,0x4d,0x6f,0x76,0x65,0x52,0x6f,0x75,0x74,0x65,0x09,0x3a,0x0c,0x40,0x72,0x65,0x70,0x65,0x61,0x74,0x46,0x3a,0x0f,0x40,0x73,0x6b,0x69,0x70,0x70,0x61,0x62,0x6c,0x65,0x46,0x3a,0x0a,0x40,0x77,0x61,0x69,0x74,0x54,0x3a,0x0a,0x40,0x6c,0x69,0x73,0x74,0x5b,0x07,0x6f,0x3a,0x15,0x52,0x50,0x47,0x3a,0x3a,0x4d,0x6f,0x76,0x65,0x43,0x6f,0x6d,0x6d,0x61,0x6e,0x64,0x07,0x3a,0x0a,0x40,0x63,0x6f,0x64,0x65,0x69,0x15,0x3a,0x10,0x40,0x70,0x61,0x72,0x61,0x6d,0x65,0x74,0x65,0x72,0x73,0x5b,0x00,0x6f,0x3b,0x0a,0x07,0x3b,0x0b,0x69,0x00,0x3b,0x0c,0x5b,0x00))
  205(3,bytes(0x04,0x08,0x6f,0x3a,0x13,0x52,0x50,0x47,0x3a,0x3a,0x4d,0x6f,0x76,0x65,0x52,0x6f,0x75,0x74,0x65,0x09,0x3a,0x0c,0x40,0x72,0x65,0x70,0x65,0x61,0x74,0x46,0x3a,0x0f,0x40,0x73,0x6b,0x69,0x70,0x70,0x61,0x62,0x6c,0x65,0x46,0x3a,0x0a,0x40,0x77,0x61,0x69,0x74,0x54,0x3a,0x0a,0x40,0x6c,0x69,0x73,0x74,0x5b,0x07,0x6f,0x3a,0x15,0x52,0x50,0x47,0x3a,0x3a,0x4d,0x6f,0x76,0x65,0x43,0x6f,0x6d,0x6d,0x61,0x6e,0x64,0x07,0x3a,0x0a,0x40,0x63,0x6f,0x64,0x65,0x69,0x15,0x3a,0x10,0x40,0x70,0x61,0x72,0x61,0x6d,0x65,0x74,0x65,0x72,0x73,0x5b,0x00,0x6f,0x3b,0x0a,0x07,0x3b,0x0b,0x69,0x00,0x3b,0x0c,0x5b,0x00))
  205(2,bytes(0x04,0x08,0x6f,0x3a,0x13,0x52,0x50,0x47,0x3a,0x3a,0x4d,0x6f,0x76,0x65,0x52,0x6f,0x75,0x74,0x65,0x09,0x3a,0x0c,0x40,0x72,0x65,0x70,0x65,0x61,0x74,0x46,0x3a,0x0f,0x40,0x73,0x6b,0x69,0x70,0x70,0x61,0x62,0x6c,0x65,0x46,0x3a,0x0a,0x40,0x77,0x61,0x69,0x74,0x54,0x3a,0x0a,0x40,0x6c,0x69,0x73,0x74,0x5b,0x09,0x6f,0x3a,0x15,0x52,0x50,0x47,0x3a,0x3a,0x4d,0x6f,0x76,0x65,0x43,0x6f,0x6d,0x6d,0x61,0x6e,0x64,0x07,0x3a,0x0a,0x40,0x63,0x6f,0x64,0x65,0x69,0x28,0x3a,0x10,0x40,0x70,0x61,0x72,0x61,0x6d,0x65,0x74,0x65,0x72,0x73,0x5b,0x00,0x6f,0x3b,0x0a,0x07,0x3b,0x0b,0x69,0x13,0x3b,0x0c,0x5b,0x07,0x69,0xf4,0x69,0x0d,0x6f,0x3b,0x0a,0x07,0x3b,0x0b,0x69,0x2c,0x3b,0x0c,0x5b,0x00,0x6f,0x3b,0x0a,0x07,0x3b,0x0b,0x69,0x00,0x3b,0x0c,0x5b,0x00))
  ShowMessageFace("executioner_fc1",2,0,2,20)
  ShowMessage("\\n<Executioner>Big Sis Ogre...?!")
  ShowMessageFace("mistilteinn_fc1",2,0,2,21)
  ShowMessage("\\n<Mysteltainn>Are you all right, Ogre...?!")
  250(bytes(0x04,0x08,0x6f,0x3a,0x0c,0x52,0x50,0x47,0x3a,0x3a,0x53,0x45,0x08,0x3a,0x0a,0x40,0x6e,0x61,0x6d,0x65,0x49,0x22,0x0a,0x57,0x69,0x6e,0x64,0x31,0x06,0x3a,0x06,0x45,0x54,0x3a,0x0b,0x40,0x70,0x69,0x74,0x63,0x68,0x69,0x69,0x3a,0x0c,0x40,0x76,0x6f,0x6c,0x75,0x6d,0x65,0x69,0x55))
  205(5,bytes(0x04,0x08,0x6f,0x3a,0x13,0x52,0x50,0x47,0x3a,0x3a,0x4d,0x6f,0x76,0x65,0x52,0x6f,0x75,0x74,0x65,0x09,0x3a,0x0c,0x40,0x72,0x65,0x70,0x65,0x61,0x74,0x46,0x3a,0x0f,0x40,0x73,0x6b,0x69,0x70,0x70,0x61,0x62,0x6c,0x65,0x46,0x3a,0x0a,0x40,0x77,0x61,0x69,0x74,0x46,0x3a,0x0a,0x40,0x6c,0x69,0x73,0x74,0x5b,0x08,0x6f,0x3a,0x15,0x52,0x50,0x47,0x3a,0x3a,0x4d,0x6f,0x76,0x65,0x43,0x6f,0x6d,0x6d,0x61,0x6e,0x64,0x07,0x3a,0x0a,0x40,0x63,0x6f,0x64,0x65,0x69,0x29,0x3a,0x10,0x40,0x70,0x61,0x72,0x61,0x6d,0x65,0x74,0x65,0x72,0x73,0x5b,0x00,0x6f,0x3b,0x0a,0x07,0x3b,0x0b,0x69,0x15,0x3b,0x0c,0x5b,0x00,0x6f,0x3b,0x0a,0x07,0x3b,0x0b,0x69,0x00,0x3b,0x0c,0x5b,0x00))
  205(1,bytes(0x04,0x08,0x6f,0x3a,0x13,0x52,0x50,0x47,0x3a,0x3a,0x4d,0x6f,0x76,0x65,0x52,0x6f,0x75,0x74,0x65,0x09,0x3a,0x0c,0x40,0x72,0x65,0x70,0x65,0x61,0x74,0x46,0x3a,0x0f,0x40,0x73,0x6b,0x69,0x70,0x70,0x61,0x62,0x6c,0x65,0x46,0x3a,0x0a,0x40,0x77,0x61,0x69,0x74,0x46,0x3a,0x0a,0x40,0x6c,0x69,0x73,0x74,0x5b,0x07,0x6f,0x3a,0x15,0x52,0x50,0x47,0x3a,0x3a,0x4d,0x6f,0x76,0x65,0x43,0x6f,0x6d,0x6d,0x61,0x6e,0x64,0x07,0x3a,0x0a,0x40,0x63,0x6f,0x64,0x65,0x69,0x13,0x3a,0x10,0x40,0x70,0x61,0x72,0x61,0x6d,0x65,0x74,0x65,0x72,0x73,0x5b,0x07,0x69,0x00,0x69,0x14,0x6f,0x3b,0x0a,0x07,0x3b,0x0b,0x69,0x00,0x3b,0x0c,0x5b,0x00))
  205(3,bytes(0x04,0x08,0x6f,0x3a,0x13,0x52,0x50,0x47,0x3a,0x3a,0x4d,0x6f,0x76,0x65,0x52,0x6f,0x75,0x74,0x65,0x09,0x3a,0x0c,0x40,0x72,0x65,0x70,0x65,0x61,0x74,0x46,0x3a,0x0f,0x40,0x73,0x6b,0x69,0x70,0x70,0x61,0x62,0x6c,0x65,0x46,0x3a,0x0a,0x40,0x77,0x61,0x69,0x74,0x54,0x3a,0x0a,0x40,0x6c,0x69,0x73,0x74,0x5b,0x07,0x6f,0x3a,0x15,0x52,0x50,0x47,0x3a,0x3a,0x4d,0x6f,0x76,0x65,0x43,0x6f,0x6d,0x6d,0x61,0x6e,0x64,0x07,0x3a,0x0a,0x40,0x63,0x6f,0x64,0x65,0x69,0x13,0x3a,0x10,0x40,0x70,0x61,0x72,0x61,0x6d,0x65,0x74,0x65,0x72,0x73,0x5b,0x07,0x69,0x00,0x69,0x14,0x6f,0x3b,0x0a,0x07,0x3b,0x0b,0x69,0x00,0x3b,0x0c,0x5b,0x00))
  221()
  ChangeSwitch(31,31,1)
  TeleportPlayer(0,939,10,7,0,2)
  222()
  EndEventProcessing()
  0()



EVENT   5
 PAGE   1
  // condition: switch 31 is ON
  0()
