# -*- encoding: utf-8 -*-
=begin
=図鑑_武器データ設定セクション by Foo

図鑑の武器の項に表示する内容を設定します。

==更新履歴
Date     Version Author Comment
13/07/24 1.0.1   Foo    設定項目の移動
13/07/20 1.0.0   Foo    新設


=end

#==============================================================================
# ■ NWConst::Library
#==============================================================================
module NWConst::Library
  # 武器入手場所
  # 文字列はシンボルで統一してください
  GET_WEAPON_PLACES = {
    1  => [:"Iliasville", :Iliasburg],
    2  => [:Iliasburg],
    3  => [:Pornof, :Pornof Mines],
    4  => [:Happiness Village],
    5  => [:Slug Tower, :Midas Village],
    6  => [:Enrika, :Iliasport],
    7  => [:Iliasport],
    8  => [:Port Natalia],
    9  => [:Port Natalia],
    10  => [:Mount Saint Amos],
    11  => [:San Ilia, :Monte Carlo, :Southern Undersea Temple],
    12  => [:San Ilia],
    13  => [:Monte Carlo],
    14  => [:Sabasa],
    15  => [:Saloon, :Port Marle, :Tower of Magic],
    16  => [:Sabasa],
    17  => [:Saloon],
    18  => [:Grandeur],
    19  => [:Navy Headquarters],
    20  => [:Grand Noah],
    21  => [:Grand Noah],
    22  => [:Plansect Village],
    23  => [:Grangold, :Gold Port, :Succubus Village],
    24  => [:Gold Port],
    25  => [:Gold Port],
    26  => [:"Fairy's Island"],
    27  => [:Yamatai Village],
    28  => [:"Fairy's Island"],
    29  => [:Remina （Alt）, :Hellgondo Cave （Alt）],
    30  => [:Remina （Alt）],
    31  => [:"Monster Lord's Castle （Alt）"],
    32  => [:"Monster Lord's Castle"],
    33  => [:Pocket Castle],
    46  => [:"Iliasville", :Sealed Castle Mithra],
    48  => [:"Iliasville", :Iliasburg],
    49  => [:Iliasburg],
    50  => [:Pornof],
    51  => [:Pornof],
    52  => [:Happiness Village],
    53  => [:Happiness Village],
    54  => [:"Medal Queen's Castle"],
    55  => [:Iliasport],
    56  => [:Enrika],
    57  => [:Enrika],
    58  => [:Iliasport, :Port Natalia],
    59  => [:Cave of Treasures],
    60  => [:Port Natalia],
    61  => [:San Ilia],
    62  => [:San Ilia],
    63  => [:Monte Carlo, :"Seeker's Cave"],
    64  => [:Sabasa],
    65  => [:"Administrator's Tower", :Port Marle, :Great Marle Corridor],
    66  => [:Grandeur],
    67  => [:Navy Headquarters],
    68  => [:Grand Noah],
    69  => [:"Undine's Spring"],
    70  => [:Plansect Village],
    71  => [:Gold Port],
    72  => [:Grangold],
    73  => [:The World Tree],
    74  => [:"Fairy's Island"],
    75  => [:"Fairy's Island"],
    76  => [:Yamatai Village],
    77  => [:Remina （Alt）],
    78  => [:Snow Heaven],
    87  => [:Midas Village],
    88  => [:Iliasport],
    89  => [:San Ilia],
    90  => [:San Ilia],
    91  => [:Monte Carlo],
    92  => [:Monte Carlo],
    93  => [:Haunted Mansion],
    94  => [:Sabasa, :Saloon],
    95  => [:Saloon],
    96  => [:Sabasa],
    97  => [:"Grand Pirate's Cave"],
    98  => [:Grand Noah],
    99  => [:Grand Noah],
    100  => [:Grand Noah],
    101  => [:Yamatai Village],
    102  => [:"Orochi's Cave"],
    103  => [:Gold Fort],
    104  => [:Grangold, :Gold Port],
    105  => [:Grangold],
    106  => [:Gold Port],
    107  => [:Ghost Ship],
    108  => [:"Fairy's Island"],
    109  => [:Remina （Alt）],
    110  => [:Snow Heaven],
    111  => [:Pocket Castle],
    112  => [:"Monster Lord's Castle"],
    125  => [:"Administrator's Tower", :Port Marle],
    126  => [:Grandeur],
    127  => [:Navy Headquarters],
    128  => [:Casino Prize （Grandeur）, :Yamatai Village, :Plansect Village],
    129  => [:Yamatai Village],
    130  => [:Grangold, :Gold Port],
    131  => [:Gold Port],
    132  => [:"Fairy's Island"],
    133  => [:Yamatai Village],
    134  => [:"Monster Lord's Castle （Alt）"],
    143  => [:Talus Hill, :"Iliasville", :Iliasburg],
    144  => [:Iliasburg],
    145  => [:Pornof],
    146  => [:Happiness Village],
    147  => [:Midas Village, :Midas Abandoned Mines],
    148  => [:Iliasport],
    149  => [:Port Natalia],
    150  => [:San Ilia],
    151  => [:San Ilia],
    152  => [:Monte Carlo],
    153  => [:Sabasa],
    154  => [:Saloon],
    155  => [:Grand Noah],
    156  => [:"Grand Pirate's Cave"],
    157  => [:Grand Noah],
    158  => [:Plansect Village, :March Hills],
    159  => [:Grangold],
    160  => [:Gold Port],
    161  => [:"Fairy's Island", :Lyra Falls],
    162  => [:"Fairy's Island"],
    163  => [:Yamatai Village],
    164  => [:Remina （Alt）, :Hellgondo Cave （Alt）],
    165  => [:Snow Heaven],
    166  => [:Pocket Castle],
    177  => [:Grangold],
    178  => [:Yamatai Village],
    179  => [:"Monster Lord's Castle （Alt）"],
    180  => [:"Monster Lord's Castle"],
    181  => [:Snow Heaven, :Snow Cave],
    182  => [:"Medal Queen's Castle"],
    190  => [:Talus Hill, :Iliasburg, :Pornof],
    191  => [:Pornof],
    192  => [:Pornof],
    193  => [:Happiness Village, :Iliasport],
    194  => [:Iliasport],
    195  => [:San Ilia],
    196  => [:San Ilia],
    197  => [:Monte Carlo],
    198  => [:Grandeur],
    199  => [:Navy Headquarters],
    200  => [:Grand Noah],
    201  => [:Yamatai Village],
    202  => [:Grangold],
    203  => [:Gold Port],
    204  => [:Yamatai Village],
    205  => [:Remina （Alt）],
    208  => [:Midas Village],
    209  => [:Iliasport, :Port Natalia, :Tartarus （Ilias Continent East）],
    210  => [:Port Natalia],
    211  => [:San Ilia, :Monte Carlo],
    212  => [:San Ilia],
    213  => [:Haunted Mansion],
    214  => [:Monte Carlo],
    215  => [:Sabasa, :Saloon],
    216  => [:Sabasa, :Saloon Hill],
    217  => [:Grandeur],
    218  => [:Saloon],
    219  => [:"Administrator's Tower", :"Grand Pirate's Cave"],
    220  => [:Grand Noah],
    221  => [:Yamatai Village],
    222  => [:Plansect Village],
    223  => [:Grangold],
    224  => [:Gold Port],
    225  => [:Gold Port],
    226  => [:"Fairy's Island"],
    227  => [:Grangold],
    228  => [:Yamatai Village],
    229  => [:"Fairy's Island"],
    230  => [:Remina （Alt）, :Snow Heaven, :Tartarus （Gold Continent West）],
    231  => [:Snow Heaven],
    232  => [:Pocket Castle, :"Monster Lord's Castle"],
    243  => [:Yamatai Village, :Yamatai Cave],
    244  => [:"Orochi's Cave"],
    245  => [:Plansect Village],
    246  => [:Grangold, :Gold Port],
    247  => [:Gold Port],
    248  => [:Succubus Village],
    249  => [:Gold Volcano],
    250  => [:Ghost Ship],
    251  => [:Devastated Plains],
    252  => [:"Fairy's Island"],
    253  => [:The World Tree],
    254  => [:Lyra Falls],
    255  => [:Yamatai Village],
    256  => [:"Monster Lord's Castle （Alt）"],
    257  => [:Ilias Temple Ruins],
    258  => [:"Monster Lord's Castle"],
    268  => [:Yamatai Village, :Yamatai Cave],
    269  => [:Plansect Village, :"Minotauros' Labyrinth"],
    270  => [:Lima Village Ruins],
    271  => [:Grangold],
    272  => [:Lava Mines],
    273  => [:Gold Port],
    274  => [:Yamatai Village, :Mount Horai],
    275  => [:"Fairy's Island"],
    276  => [:"Fairy's Island"],
    277  => [:Remina （Alt）],
    278  => [:Snow Heaven],
    279  => [:"Iliasville"],
    280  => [:Ilias Temple Ruins],
    281  => [:Pocket Castle],
    290  => [:Talus Hill, :"Iliasville", :Iliasburg],
    291  => [:Iliasburg],
    292  => [:Pornof],
    293  => [:Happiness Village],
    294  => [:Midas Village],
    295  => [:Enrika],
    296  => [:Enrika],
    297  => [:Enrika],
    298  => [:Iliasport],
    299  => [:Port Natalia, :Natalia Coast],
    300  => [:San Ilia, :Monte Carlo],
    301  => [:San Ilia],
    302  => [:San Ilia, :Forest of Spirits],
    303  => [:Monte Carlo],
    304  => [:Sabasa, :Saloon],
    305  => [:Pyramid],
    306  => [:Sabasa],
    307  => [:Saloon],
    308  => [:Grand Noah],
    309  => [:Safar Ruins],
    310  => [:Grand Noah],
    311  => [:Grand Noah],
    312  => [:Yamatai Village],
    313  => [:Plansect Village],
    314  => [:Grangold],
    315  => [:Gold Port],
    316  => [:"Fairy's Island", :Vampire Castle],
    317  => [:"Fairy's Island"],
    318  => [:Yamatai Village],
    319  => [:Snow Heaven],
    320  => [:Remina （Alt）],
    321  => [:Pocket Castle],
    322  => [:"Monster Lord's Castle"],
    334  => [:Iliasburg, :North Ilina Mountains Cave],
    335  => [:Pornof],
    336  => [:Happiness Village],
    337  => [:Midas Village],
    338  => [:Iliasport],
    339  => [:San Ilia],
    340  => [:San Ilia],
    341  => [:Monte Carlo],
    342  => [:Sabasa],
    343  => [:Saloon],
    344  => [:Grand Noah],
    345  => [:Navy Headquarters],
    346  => [:Grand Noah],
    347  => [:"Orochi's Cave"],
    348  => [:Grangold],
    349  => [:Gold Port, :Lava Mines],
    350  => [:"Fairy's Island"],
    351  => [:Yamatai Village],
    352  => [:"Fairy's Island"],
    353  => [:Pocket Castle],
    354  => [:"Monster Lord's Castle"],
    362  => [:"Iliasville"],
    363  => [:Iliasburg],
    364  => [:Pornof],
    365  => [:Happiness Village, :Harpy Tower, :Iliasport, :Port Natalia],
    366  => [:Midas Village],
    367  => [:Enrika],
    368  => [:Port Natalia],
    369  => [:San Ilia, :Monte Carlo],
    370  => [:San Ilia],
    371  => [:San Ilia],
    372  => [:Haunted Mansion],
    373  => [:Monte Carlo],
    374  => [:Sabasa, :Saloon],
    375  => [:Grandeur],
    376  => [:Pyramid],
    377  => [:Sabasa],
    378  => [:Saloon],
    379  => [:Grand Noah],
    380  => [:Grand Noah, :Fossil Mines],
    381  => [:Yamatai Village],
    382  => [:Plansect Village],
    383  => [:Grangold],
    384  => [:Gold Port],
    385  => [:"Fairy's Island"],
    386  => [:"Fairy's Island", :"Puppeteer's Tower"],
    387  => [:Yamatai Village],
    388  => [:Remina （Alt）],
    389  => [:Snow Heaven],
    390  => [:Pocket Castle],
    400  => [:"Iliasville", :Iliasburg],
    401  => [:Iliasburg],
    402  => [:Pornof, :Iliasport, :Port Natalia],
    403  => [:Pornof],
    404  => [:Happiness Village, :Midas Abandoned Mines],
    405  => [:Midas Village],
    406  => [:Enrika],
    407  => [:Iliasport],
    408  => [:Port Natalia],
    409  => [:San Ilia, :Monte Carlo, :Ancient Temple Ruins],
    410  => [:San Ilia],
    411  => [:San Ilia],
    412  => [:San Ilia],
    413  => [:Monte Carlo],
    414  => [:Sabasa],
    415  => [:Pyramid],
    416  => [:Saloon],
    417  => [:Safar Ruins],
    418  => [:Navy Headquarters],
    419  => [:Sabasa],
    420  => [:Grand Noah],
    421  => [:Yamatai Village],
    422  => [:Grand Noah],
    423  => [:Gold Port, :Ghost Ship],
    424  => [:Gold Port],
    425  => [:"Fairy's Island"],
    426  => [:"Fairy's Island"],
    427  => [:"Fairy's Island"],
    428  => [:Remina （Alt）],
    429  => [:Snow Heaven],
    430  => [:Pocket Castle],
    431  => [:"Monster Lord's Castle"],
    441  => [:Iliasburg, :North Ilina Mountains Cave, :Pornof, :Iliasport],
    442  => [:Pornof],
    443  => [:Pornof],
    444  => [:Happiness Village],
    445  => [:Midas Village],
    446  => [:Cave of Treasures],
    447  => [:San Ilia],
    448  => [:San Ilia],
    449  => [:Monte Carlo],
    450  => [:Saloon],
    451  => [:Grand Noah],
    452  => [:Grand Noah],
    453  => [:Grand Noah],
    454  => [:Yamatai Village],
    455  => [:Plansect Village],
    456  => [:Grangold],
    457  => [:Gold Port],
    458  => [:Gold Port, :Forgotten Tower],
    459  => [:"Fairy's Island"],
    460  => [:"Fairy's Island"],
    461  => [:Yamatai Village],
    462  => [:Remina （Alt）],
    463  => [:Pocket Castle, :Remina Research Institute],
    472  => [:"Iliasville", :Iliasburg],
    473  => [:Pornof],
    474  => [:Happiness Village],
    475  => [:Happiness Village],
    476  => [:Harpy Tower, :Midas Village, :Iliasport, :Port Natalia],
    477  => [:Midas Village],
    478  => [:Enrika],
    479  => [:Iliasport],
    480  => [:Port Natalia, :Cave of Treasures],
    481  => [:San Ilia, :Haunted Mansion],
    482  => [:San Ilia],
    483  => [:Monte Carlo],
    484  => [:Sabasa, :Saloon, :"Seeker's Cave"],
    485  => [:Sabasa],
    486  => [:Grandeur],
    487  => [:Saloon],
    488  => [:Grand Noah, :Magical Academy],
    489  => [:Grand Noah],
    490  => [:Grand Noah],
    491  => [:Plansect Village],
    492  => [:Gold Port],
    493  => [:Grangold],
    494  => [:"Fairy's Island"],
    495  => [:Yamatai Village],
    496  => [:Snow Heaven],
    497  => [:Pocket Castle, :Tartarus （Hellgondo Continent West）],
    500  => [:"Monster Lord's Castle"],
    509  => [:"Iliasville", :Cave of Trials, :Iliasburg],
    510  => [:Iliasburg],
    511  => [:Pornof],
    512  => [:Happiness Village],
    513  => [:Midas Village],
    514  => [:Enrika],
    515  => [:Enrika],
    516  => [:Enrika, :Pornof Mines],
    517  => [:Enrika],
    518  => [:Port Natalia, :Cave of Treasures],
    519  => [:San Ilia, :Ancient Temple Ruins],
    520  => [:San Ilia],
    521  => [:Monte Carlo],
    522  => [:Sabasa, :Saloon],
    523  => [:Sabasa],
    524  => [:Saloon],
    525  => [:Tower of Magic],
    526  => [:Grand Noah, :Red Mountain],
    527  => [:Grand Noah],
    528  => [:Plansect Village],
    529  => [:Grangold],
    530  => [:Plansect Village],
    531  => [:Gold Port],
    532  => [:Gold Port],
    533  => [:"Fairy's Island"],
    534  => [:"Fairy's Island", :The Secluded Lands],
    535  => [:Yamatai Village],
    536  => [:Remina （Alt）],
    537  => [:"Monster Lord's Castle （Alt）"],
    538  => [:Snow Heaven],
    539  => [:Pocket Castle],
    548  => [:"Iliasville"],
    549  => [:Iliasburg],
    550  => [:Pornof, :Pornof Mines],
    551  => [:Happiness Village],
    552  => [:Midas Village],
    553  => [:Enrika],
    554  => [:Enrika],
    555  => [:Enrika],
    556  => [:South Ilina Mountains Cave, :Iliasport, :Port Natalia],
    557  => [:Iliasport],
    558  => [:Luddite Village, :San Ilia],
    559  => [:San Ilia],
    560  => [:San Ilia],
    561  => [:Forest of Spirits],
    562  => [:Monte Carlo],
    563  => [:Sabasa, :Saloon],
    564  => [:Grandeur],
    565  => [:Saloon],
    566  => [:Grand Noah],
    567  => [:Grand Noah],
    568  => [:Yamatai Village],
    569  => [:"Orochi's Cave"],
    570  => [:Plansect Village],
    571  => [:Grangold],
    572  => [:Gold Port],
    573  => [:"Fairy's Island", :The Secluded Lands],
    574  => [:"Fairy's Island"],
    575  => [:"Fairy's Island"],
    576  => [:Yamatai Village],
    577  => [:Snow Heaven],
    578  => [:Pocket Castle],
    589  => [:Iliasburg, :South Ilina Mountains Cave, :Pornof],
    590  => [:Iliasburg],
    591  => [:Pornof],
    592  => [:Tartarus （Ilias Continent South）, :Happiness Village],
    593  => [:Midas Village],
    594  => [:Port Natalia],
    595  => [:Port Natalia],
    596  => [:San Ilia],
    597  => [:San Ilia],
    598  => [:Sabasa, :Saloon, :Oasis of Blessingsl],
    599  => [:Sabasa],
    600  => [:Saloon],
    601  => [:Navy Headquarters],
    602  => [:Grand Noah],
    603  => [:Grand Noah],
    604  => [:Yamatai Village],
    605  => [:Grangold, :Gold Port, :Gold Coast],
    606  => [:Gold Port],
    607  => [:Gold Port],
    608  => [:"Fairy's Island"],
    609  => [:"Fairy's Island"],
    610  => [:Remina （Alt）],
    611  => [:Pocket Castle],
    622  => [:Iliasburg],
    623  => [:Pornof],
    624  => [:Happiness Village],
    625  => [:Midas Village],
    626  => [:Enrika],
    627  => [:Iliasport],
    628  => [:Port Natalia],
    629  => [:San Ilia],
    630  => [:San Ilia],
    631  => [:Monte Carlo],
    632  => [:Monte Carlo],
    633  => [:Sabasa],
    634  => [:Sabasa],
    635  => [:Saloon],
    636  => [:Safar Ruins],
    637  => [:Grand Noah],
    638  => [:Grand Noah],
    639  => [:Yamatai Village],
    640  => [:Grangold],
    641  => [:Gold Port, :Nightmare Wastes],
    642  => [:Gold Port],
    643  => [:"Fairy's Island"],
    644  => [:"Fairy's Island"],
    645  => [:Yamatai Village],
    646  => [:Remina （Alt）],
    647  => [:Snow Heaven],
    648  => [:Devastated Plains],
    649  => [:Hellgondo Cave, :Pocket Castle],
    657  => [:"Iliasville Mountains", :"Iliasville", :Iliasburg],
    658  => [:"Iliasville Mountains", :"Iliasville"],
    659  => [:Iliasburg, :Ancient Temple Ruins],
    660  => [:Pornof],
    661  => [:Happiness Village, :Iliasport],
    662  => [:Midas Village],
    663  => [:Enrika],
    664  => [:Iliasport],
    665  => [:Port Natalia],
    666  => [:Luddite Village, :San Ilia],
    667  => [:San Ilia],
    668  => [:San Ilia],
    669  => [:San Ilia],
    670  => [:Monte Carlo, :Sabasa],
    671  => [:Monte Carlo],
    672  => [:Sabasa],
    673  => [:Grandeur],
    674  => [:Saloon, :Saloon Abandoned Mines],
    675  => [:Port Marle, :Great Marle Corridor],
    676  => [:Navy Headquarters],
    677  => [:Grand Noah],
    678  => [:Grand Noah],
    679  => [:Plansect Village],
    680  => [:Plansect Village],
    681  => [:Grangold],
    682  => [:Gold Port],
    683  => [:Northern Undersea Temple],
    684  => [:"Fairy's Island"],
    685  => [:"Fairy's Island"],
    686  => [:Remina （Alt）],
    687  => [:Snow Heaven],
    688  => [:Devastated Plains],
    689  => [:Hellgondo Cave, :Pocket Castle],
    699  => [:Pornof],
    700  => [:Pornof],
    701  => [:Happiness Village],
    702  => [:Midas Village],
    703  => [:Casino Prize （Pornof）, :Iliasport],
    704  => [:San Ilia],
    705  => [:San Ilia],
    706  => [:Monte Carlo],
    707  => [:Sabasa],
    708  => [:Saloon, :"Administrator's Tower"],
    709  => [:Navy Headquarters],
    710  => [:Grand Noah],
    711  => [:Grand Noah],
    712  => [:Plansect Village],
    713  => [:Grangold],
    714  => [:Gold Port],
    715  => [:"Fairy's Island"],
    716  => [:Remina （Alt）],
    717  => [:Hellgondo Cave],
    718  => [:Pocket Castle],
    725  => [:Iliasburg],
    726  => [:Pornof],
    727  => [:Happiness Village],
    728  => [:Happiness Village],
    729  => [:Midas Village, :Rostrum Mountain Caverns],
    730  => [:Port Natalia],
    731  => [:Port Natalia],
    732  => [:San Ilia],
    733  => [:San Ilia],
    734  => [:Sabasa],
    735  => [:Saloon],
    736  => [:Grand Noah],
    737  => [:Grand Noah],
    738  => [:Grand Noah, :"Minotauros' Labyrinth"],
    739  => [:Yamatai Village],
    740  => [:Grangold],
    741  => [:Gold Port],
    742  => [:"Fairy's Island"],
    743  => [:"Fairy's Island"],
    744  => [:Yamatai Village],
    745  => [:Snow Heaven],
    746  => [:Pocket Castle, :"Monster Lord's Castle"],
    754  => [:Iliasburg],
    755  => [:Pornof],
    756  => [:Midas Village],
    757  => [:Port Natalia],
    758  => [:San Ilia],
    759  => [:Monte Carlo],
    760  => [:Saloon],
    761  => [:Navy Headquarters],
    762  => [:Grand Noah],
    763  => [:"Minotauros' Labyrinth"],
    764  => [:Plansect Village],
    765  => [:Gold Port],
    766  => [:"Fairy's Island", :"Monster Lord's Castle （Alt）"],
    767  => [:Remina （Alt）],
    768  => [:Pocket Castle],
    774  => [:Iliasburg],
    775  => [:Pornof],
    776  => [:Midas Village, :Tartarus （Ilias Continent East）],
    777  => [:Enrika],
    778  => [:San Ilia],
    779  => [:San Ilia],
    780  => [:Grandeur],
    781  => [:Tower of Magic],
    782  => [:Saloon],
    783  => [:Grand Noah],
    784  => [:Grand Noah],
    785  => [:Grangold],
    786  => [:Gold Port],
    787  => [:"Fairy's Island"],
    788  => [:Lyra Falls],
    789  => [:Pocket Castle],
    790  => [:Snow Heaven],
    796  => [:Iliasburg],
    797  => [:Pornof],
    798  => [:Midas Village],
    799  => [:Iliasport],
    800  => [:San Ilia, :Southern Undersea Temple],
    801  => [:San Ilia],
    802  => [:Sabasa],
    803  => [:Grandeur],
    804  => [:Saloon],
    805  => [:"Administrator's Tower"],
    806  => [:Grand Noah],
    807  => [:Grand Noah],
    808  => [:Plansect Village],
    809  => [:Gold Port],
    810  => [:Northern Undersea Temple],
    811  => [:"Fairy's Island"],
    812  => [:"Fairy's Island"],
    813  => [:Remina （Alt）],
    814  => [:Snow Heaven],
    815  => [:Pocket Castle],
    821  => [:Pornof],
    822  => [:Pornof],
    823  => [:Happiness Village],
    824  => [:Midas Village],
    825  => [:Iliasport],
    826  => [:San Ilia],
    827  => [:San Ilia],
    828  => [:Monte Carlo],
    829  => [:Saloon],
    830  => [:Navy Headquarters],
    831  => [:Grand Noah, :Labyrinth Caverns],
    832  => [:"Undine's Spring"],
    833  => [:Grangold],
    834  => [:Gold Port],
    835  => [:"Fairy's Island"],
    836  => [:Snow Cave],
    837  => [:Pocket Castle],
    843  => [:Iliasburg],
    844  => [:Pornof],
    845  => [:Midas Village],
    846  => [:Midas Village],
    847  => [:Port Natalia],
    848  => [:San Ilia],
    849  => [:San Ilia, :"Seeker's Cave"],
    850  => [:Sabasa],
    851  => [:Saloon, :Saloon Abandoned Mines],
    852  => [:Grand Noah],
    853  => [:Grand Noah],
    854  => [:Yamatai Village],
    855  => [:Plansect Village],
    856  => [:Grangold],
    857  => [:Gold Port],
    858  => [:"Fairy's Island"],
    859  => [:"Fairy's Island"],
    860  => [:"Fairy's Island"],
    861  => [:Ilias Temple Ruins],
    862  => [:Pocket Castle],
    868  => [:Cave of Treasures],
    869  => [:Port Natalia],
    870  => [:San Ilia, :Underground Library],
    871  => [:San Ilia],
    872  => [:Monte Carlo],
    873  => [:Grandeur],
    874  => [:Safar Ruins],
    875  => [:Navy Headquarters],
    876  => [:Grand Noah, :Magical Academy],
    877  => [:Plansect Village],
    878  => [:Grangold],
    879  => [:Gold Port],
    880  => [:Succubus Village],
    881  => [:Yamatai Village],
    882  => [:Snow Heaven],
    883  => [:Ilias Temple Ruins],
    889  => [:Tartarus （Ilias Continent South）],
    890  => [:Enrika],
    891  => [:Tartarus （Ilias Continent East）],
    892  => [:San Ilia],
    893  => [:San Ilia],
    894  => [:San Ilia],
    895  => [:Monte Carlo],
    896  => [:Sabasa],
    897  => [:Saloon],
    898  => [:Grandeur],
    899  => [:Tartarus （Sabasa Continent North）],
    900  => [:Port Marle],
    901  => [:Grand Noah],
    902  => [:Grand Noah],
    903  => [:Plansect Village],
    904  => [:Grangold],
    905  => [:Grangold],
    906  => [:Gold Port],
    907  => [:"Fairy's Island"],
    908  => [:Remina （Alt）, :Tartarus （Gold Continent West）],
    909  => [:Snow Heaven],
    910  => [:Snow Heaven],
    911  => [:"Monster Lord's Castle"],
    919  => [:Pornof, :Slug Tower],
    920  => [:Happiness Village, :Underground Library],
    921  => [:Mount Saint Amos],
    922  => [:San Ilia, :"Lily's Mansion"],
    923  => [:Grandeur, :Magical Academy],
    924  => [:Grand Noah, :Red Mountain],
    925  => [:Yamatai Village, :Lyra Falls],
    926  => [:Grangold, :Lava Mines],
    927  => [:Gold Port, :"Fairy's Island"],
    928  => [:"Fairy's Island", :Mount Horai],
    929  => [:"Fairy's Island", :Hall of Creation],
    930  => [:"Monster Lord's Castle"],
  }
  # 武器貰える仲間ID配列
  GET_WEAPON_ACTORS = {
    11 => [132],
    14 => [184],
    20 => [73],
    56 => [95],
    94 => [156],
    149 => [113],
    300 => [124,128],
    335 => [71],
    337 => [93],
    341 => [154],
    371 => [141],
    401 => [80],
    476 => [86],
    483 => [150],
    484 => [149],
    514 => [88],
    520 => [143,146],
    560 => [136],
    592 => [79],
    594 => [111],
    596 => [175],
    598 => [147],
    657 => [53],
    670 => [144],
    705 => [151],
    730 => [116],
    802 => [166],
    919 => [57],
  }
end

# -*- encoding: utf-8 -*-
=begin
=図鑑_防具データ設定セクション by Foo

図鑑の防具の項に表示する内容を設定します。

==更新履歴
Date     Version Author Comment
13/07/20 1.0.0   Foo    新設


=end

#==============================================================================
# ■ NWConst::Library
#==============================================================================
module NWConst::Library
  # 防具入手場所
  # 文字列はシンボルで統一してください
  GET_ARMOR_PLACES = {
    1  => [:"Iliasville Mountains", :"Iliasville"],
    2  => [:North Ilina Mountains Cave],
    3  => [:Iliasburg, :Pornof],
    4  => [:Happiness Village],
    5  => [:Enrika, :Lemuse Beach],
    6  => [:Port Natalia],
    7  => [:San Ilia, :Sabasa, :Grand Noah],
    8  => [:Forest of Spirits],
    9  => [:Monte Carlo],
    10  => [:Casino Prize （Grandeur）, :"Medal Queen's Castle"],
    11  => [:Grand Noah],
    12  => [:Yamatai Village],
    13  => [:Plansect Village],
    14  => [:"Fairy's Island"],
    15  => [:Snow Heaven],
    18  => [:"Iliasville", :Cave of Trials, :Iliasburg],
    19  => [:Pornof, :Pornof Mines, :Happiness Village],
    20  => [:Midas Village, :Iliasport],
    21  => [:Iliasport],
    22  => [:Pornof, :San Ilia],
    23  => [:Sabasa, :Grandeur],
    24  => [:Grand Noah],
    25  => [:Grangold, :Gold Port, :Succubus Village, :Eastern Gold Toxic Swamp],
    26  => [:Gold Port],
    27  => [:Snow Heaven],
    31  => [:Pornof, :Tartarus （Ilias Continent South）],
    32  => [:Happiness Village],
    33  => [:Midas Village],
    34  => [:Enrika],
    35  => [:Port Natalia, :Natalia Coast],
    36  => [:San Ilia],
    37  => [:San Ilia],
    38  => [:Monte Carlo],
    39  => [:Sabasa],
    40  => [:Saloon],
    41  => [:Navy Headquarters],
    42  => [:Grand Noah],
    43  => [:Plansect Village, :Gold Coast],
    44  => [:Gold Port, :Nightmare Wastes],
    45  => [:"Fairy's Island"],
    46  => [:"Fairy's Island"],
    47  => [:Yamatai Village],
    48  => [:Remina （Alt）],
    49  => [:Pocket Castle],
    52  => [:"Iliasville"],
    53  => [:Iliasburg, :Pornof],
    54  => [:Pornof],
    55  => [:Pornof],
    56  => [:Happiness Village, :Iliasport],
    57  => [:Iliasport],
    58  => [:Port Natalia],
    59  => [:San Ilia],
    60  => [:San Ilia],
    61  => [:Monte Carlo],
    62  => [:Grandeur],
    63  => [:Navy Headquarters],
    64  => [:Grand Noah, :Grangold],
    65  => [:Grangold],
    66  => [:"Fairy's Island"],
    67  => [:Snow Heaven],
    69  => [:Midas Village],
    70  => [:Southern Undersea Temple],
    71  => [:San Ilia, :Mount Saint Amos],
    72  => [:San Ilia],
    73  => [:Forest of Spirits],
    74  => [:Monte Carlo],
    75  => [:Sabasa, :Grandeur],
    76  => [:Pyramid],
    77  => [:Sabasa],
    78  => [:Saloon, :Saloon Abandoned Mines],
    79  => [:Navy Headquarters],
    80  => [:Grand Noah],
    81  => [:Grand Noah],
    82  => [:"Orochi's Cave"],
    83  => [:Plansect Village],
    84  => [:Gold Fort],
    85  => [:Grangold, :Gold Port],
    86  => [:Gold Port, :Lava Mines],
    87  => [:"Fairy's Island"],
    88  => [:The World Tree],
    89  => [:"Fairy's Island"],
    90  => [:"Fairy's Island"],
    91  => [:Yamatai Village],
    92  => [:Remina （Alt）],
    93  => [:Snow Heaven],
    94  => [:Pocket Castle, :Tartarus （Hellgondo Continent West）],
    97  => [:"Monster Lord's Castle"],
    104  => [:South Ilina Mountains Cave, :Pornof],
    105  => [:Pornof],
    106  => [:Midas Village, :Midas Abandoned Mines],
    107  => [:Iliasport],
    108  => [:San Ilia],
    109  => [:Sabasa],
    110  => [:Saloon],
    111  => [:Grand Noah],
    112  => [:Grand Noah],
    113  => [:Yamatai Village],
    114  => [:Gold Port],
    115  => [:Gold Port],
    116  => [:"Fairy's Island"],
    117  => [:"Fairy's Island", :Lyra Falls],
    118  => [:Remina （Alt）],
    119  => [:Pocket Castle],
    122  => [:"Iliasville", :Talus Hill],
    123  => [:Iliasburg, :Happiness Village, :Iliasport],
    124  => [:Happiness Village],
    125  => [:Enrika],
    126  => [:San Ilia],
    127  => [:Sabasa],
    128  => [:Monte Carlo],
    129  => [:Iliasport],
    130  => [:Port Natalia, :Cave of Treasures],
    131  => [:San Ilia],
    132  => [:Monte Carlo],
    133  => [:Grandeur],
    134  => [:Navy Headquarters, :"Grand Pirate's Cave"],
    135  => [:Grand Noah],
    136  => [:Yamatai Village],
    137  => [:Grangold],
    138  => [:Gold Port],
    139  => [:"Fairy's Island"],
    140  => [:Yamatai Village],
    141  => [:Remina （Alt）, :Vampire Castle],
    142  => [:Snow Heaven, :Hall of Creation],
    148  => [:Iliasburg, :Happiness Village, :Iliasport],
    149  => [:Port Natalia],
    150  => [:Port Natalia],
    151  => [:Sabasa],
    152  => [:Grandeur],
    153  => [:Grand Noah],
    154  => [:"Undine's Spring"],
    155  => [:Grangold],
    156  => [:"Medal Queen's Castle"],
    157  => [:"Fairy's Island"],
    158  => [:"Fairy's Island"],
    159  => [:Hellgondo Cave],
    163  => [:Casino Prize （Pornof）],
    164  => [:Casino Prize （Pornof）, :Port Natalia],
    165  => [:Port Natalia, :Ghost Ship],
    166  => [:San Ilia],
    167  => [:Grandeur, :"Lily's Mansion"],
    168  => [:Casino Prize （Grandeur）, :Port Marle, :Safar Ruins, :Ghost Ship],
    169  => [:Gold Port, :Ghost Ship],
    170  => [:Succubus Village, :Forgotten Tower],
    171  => [:"Fairy's Island"],
    172  => [:Casino Prize （Pocket Castle）, :Snow Heaven, :Snow Cave],
    173  => [:Ilias Temple Ruins],
    174  => [:"Medal Queen's Castle"],
    176  => [:"Iliasville Mountains", :"Iliasville"],
    177  => [:Iliasburg, :Pornof],
    178  => [:Pornof],
    179  => [:Happiness Village, :Pornof Mines],
    180  => [:Happiness Village],
    181  => [:Slug Tower, :Midas Village],
    182  => [:Enrika],
    183  => [:Rostrum Mountain Caverns, :Iliasport],
    184  => [:Port Natalia],
    185  => [:San Ilia, :Sabasa, :Underground Library],
    186  => [:Monte Carlo],
    187  => [:Grandeur],
    188  => [:Grand Noah],
    189  => [:Yamatai Village, :Yamatai Cave],
    190  => [:Plansect Village],
    191  => [:Gold Port],
    193  => [:Iliasburg, :Iliasport],
    194  => [:Pornof],
    195  => [:Iliasport, :Cave of Treasures],
    196  => [:San Ilia],
    197  => [:San Ilia, :Carlos Hill],
    198  => [:Monte Carlo],
    199  => [:Sabasa],
    200  => [:Port Marle],
    201  => [:"Fairy's Island"],
    203  => [:Midas Village],
    204  => [:San Ilia, :Ancient Temple Ruins],
    205  => [:San Ilia],
    206  => [:Sabasa, :Oasis of Blessingsl],
    207  => [:Grandeur, :Saloon Hill],
    208  => [:Saloon],
    209  => [:Navy Headquarters],
    210  => [:Grand Noah, :Fossil Mines],
    211  => [:Grand Noah],
    212  => [:Yamatai Village],
    213  => [:"Orochi's Cave"],
    214  => [:Plansect Village],
    215  => [:Grangold, :Gold Port, :March Hills],
    216  => [:Gold Port],
    217  => [:Gold Port],
    218  => [:"Fairy's Island"],
    219  => [:"Fairy's Island", :"Puppeteer's Tower"],
    220  => [:Yamatai Village],
    221  => [:Remina （Alt）],
    222  => [:Snow Heaven, :"Monster Lord's Castle （Alt）"],
    223  => [:Pocket Castle],
    226  => [:"Monster Lord's Castle"],
    234  => [:Iliasburg, :South Ilina Mountains Cave, :Iliasport],
    235  => [:Pornof],
    236  => [:Happiness Village],
    237  => [:Midas Village],
    238  => [:Enrika, :Tartarus （Ilias Continent East）],
    239  => [:Iliasport],
    240  => [:Port Natalia, :Southern Undersea Temple],
    241  => [:San Ilia],
    242  => [:Monte Carlo],
    243  => [:Grandeur],
    244  => [:Saloon, :Safar Ruins],
    245  => [:Navy Headquarters],
    246  => [:Grand Noah],
    247  => [:Grand Noah, :Labyrinth Caverns],
    248  => [:Yamatai Village],
    249  => [:Grangold],
    250  => [:Gold Port],
    251  => [:"Fairy's Island", :The Secluded Lands],
    252  => [:Yamatai Village],
    253  => [:Remina （Alt）],
    254  => [:Pocket Castle, :"Monster Lord's Castle", :Biolabs],
    259  => [:Casino Prize （Pornof）, :Harpy Tower, :Midas Village],
    260  => [:Enrika],
    261  => [:Port Natalia, :San Ilia, :Cave of Treasures],
    262  => [:San Ilia],
    263  => [:Sabasa],
    264  => [:Casino Prize （Grandeur）, :Pyramid],
    265  => [:Navy Headquarters],
    266  => [:Grangold],
    267  => [:"Fairy's Island"],
    268  => [:Yamatai Village],
    269  => [:"Medal Queen's Castle"],
    272  => [:Iliasburg, :Pornof],
    273  => [:Pornof],
    274  => [:Happiness Village, :Tartarus （Ilias Continent South）, :Iliasport],
    275  => [:Sabasa],
    276  => [:"Fairy's Island", :The World Tree],
    277  => [:"Medal Queen's Castle"],
    279  => [:"Iliasville"],
    280  => [:Iliasburg, :South Ilina Mountains Cave, :Iliasport],
    281  => [:Iliasburg],
    282  => [:Pornof],
    283  => [:Happiness Village],
    284  => [:Iliasport],
    285  => [:Port Natalia, :Cave of Treasures],
    286  => [:San Ilia],
    287  => [:Monte Carlo],
    288  => [:Grandeur],
    289  => [:Navy Headquarters],
    290  => [:Yamatai Village],
    291  => [:"Undine's Spring"],
    292  => [:Casino Prize （Pocket Castle）, :"Monster Lord's Castle （Alt）"],
    294  => [:Midas Village],
    295  => [:Enrika],
    296  => [:Enrika, :Lemuse Beach],
    297  => [:Iliasport],
    298  => [:San Ilia],
    299  => [:San Ilia],
    300  => [:Haunted Mansion],
    301  => [:Monte Carlo],
    302  => [:Sabasa, :Grandeur, :Pyramid],
    303  => [:Sabasa],
    304  => [:Saloon],
    305  => [:Navy Headquarters],
    306  => [:Grand Noah],
    307  => [:Grand Noah, :Yamatai Cave],
    308  => [:"Orochi's Cave"],
    309  => [:Plansect Village],
    310  => [:Grangold, :Gold Port],
    311  => [:Gold Port],
    312  => [:Gold Port, :Gold Volcano],
    313  => [:"Fairy's Island"],
    314  => [:"Fairy's Island", :Ghost Ship],
    315  => [:Yamatai Village],
    316  => [:Remina （Alt）],
    317  => [:Snow Heaven],
    318  => [:Devastated Plains, :Pocket Castle],
    321  => [:"Monster Lord's Castle"],
    1001  => [:Iliasburg, :North Ilina Mountains Cave],
    1002  => [:Sabasa],
    1003  => [:Grangold],
    1006  => [:Iliasburg],
    1007  => [:Sabasa, :Tower of Magic],
    1008  => [:Grangold],
    1011  => [:Iliasburg, :Midas Abandoned Mines],
    1012  => [:Sabasa],
    1013  => [:Grangold],
    1016  => [:Iliasburg],
    1017  => [:Sabasa],
    1018  => [:Grangold],
    1021  => [:Iliasburg, :Pornof Mines],
    1022  => [:Sabasa],
    1023  => [:Grangold],
    1026  => [:Iliasburg],
    1027  => [:Sabasa],
    1028  => [:Grangold, :Labyrinth Caverns],
    1029  => [:Vampire Castle],
    1031  => [:Iliasburg],
    1032  => [:Sabasa],
    1033  => [:Grangold, :Lyra Falls],
    1036  => [:Iliasburg],
    1037  => [:Sabasa],
    1038  => [:Grangold],
    1039  => [:Snow Cave],
    1041  => [:Iliasburg],
    1042  => [:Pornof, :Sabasa],
    1043  => [:Grangold],
    1044  => [:"Puppeteer's Tower"],
    1046  => [:Luddite Village],
    1047  => [:Yamatai Village],
    1050  => [:Rostrum Village （Alt）],
    1051  => [:Yamatai Village],
    1054  => [:Iliasport],
    1055  => [:Gold Port],
    1056  => [:Cave of Trials, :Enrika],
    1057  => [:Yamatai Village],
    1060  => [:Gold Port, :Lava Mines],
    1061  => [:Enrika],
    1065  => [:Gold Port],
    1066  => [:"Fairy's Island"],
    1067  => [:Snow Heaven, :"Seeker's Cave"],
    1071  => [:"Fairy's Island"],
    1072  => [:Snow Heaven],
    1076  => [:"Fairy's Island", :Tartarus （Sabasa Continent North）],
    1077  => [:Snow Heaven],
    1081  => [:Rostrum Village （Alt）],
    1082  => [:Saloon],
    1085  => [:Rostrum Village （Alt）],
    1086  => [:Saloon],
    1090  => [:Monte Carlo],
    1091  => [:Remina （Alt）],
    1092  => [:Magistea Village, :Pocket Castle],
    1096  => [:Saloon, :Pocket Castle],
    1097  => [:Ilias Temple Ruins],
    1100  => [:Enrika],
    1101  => [:Grand Noah],
    1104  => [:Remina （Alt）],
    1105  => [:Remina （Alt）, :"Monster Lord's Castle （Alt）"],
    1106  => [:Remina （Alt）, :Ilias Temple Ruins],
    1107  => [:Monte Carlo, :Gold Port, :"Minotauros' Labyrinth"],
    1109  => [:Gold Port, :Gold Fort],
    1110  => [:Biolabs],
    1111  => [:Magistea Village],
    1113  => [:Enrika],
    1114  => [:Grand Noah, :Magical Academy],
    1115  => [:Casino Prize （Pornof）, :Magistea Village],
    1116  => [:Grand Noah, :Ancient Temple Ruins],
    1118  => [:Finoa],
    1120  => [:Gold Port, :Carlos Hill],
    1123  => [:Saloon],
    1124  => [:The Secluded Lands],
    1127  => [:Remina （Alt）],
    1131  => [:Yamatai Village],
    1138  => [:Port Natalia],
    1139  => [:Yamatai Village, :Ghost Ship],
    1142  => [:Port Natalia],
    1143  => [:Yamatai Village],
    1145  => [:Pornof],
    1146  => [:Gold Port],
    1147  => [:Rostrum Village （Alt）],
    1148  => [:Yamatai Village, :March Hills],
    1149  => [:Monte Carlo, :Safar Ruins],
    1150  => [:The World Tree],
    1151  => [:Magistea Village, :Haunted Mansion],
    1153  => [:Saloon],
    1154  => [:Finoa],
    1155  => [:Snow Heaven],
    1161  => [:Saloon Abandoned Mines],
    1162  => [:Navy Headquarters],
    1163  => [:Yamatai Village],
    1164  => [:Yamatai Village],
    1165  => [:Snow Heaven],
    1167  => [:Navy Headquarters],
    1168  => [:Red Mountain],
    1169  => [:Hall of Creation],
    1171  => [:Pornof],
    1174  => [:Safar Ruins],
    1186  => [:Sabasa, :Casino Prize （Pocket Castle）, :Pocket Castle, :Devastated Plains],
    1188  => [:"Seeker's Cave"],
    1192  => [:Cave of Treasures],
    1193  => [:"Orochi's Cave"],
    1197  => [:Saloon],
    1202  => [:"Fairy's Island"],
    1203  => [:"Fairy's Island"],
    1204  => [:"Fairy's Island"],
    1205  => [:"Fairy's Island"],
    1206  => [:"Fairy's Island", :"Minotauros' Labyrinth"],
    1207  => [:"Fairy's Island"],
    1210  => [:"Fairy's Island"],
    1211  => [:"Fairy's Island"],
    1212  => [:"Monster Lord's Castle （Alt）"],
    1215  => [:"Monster Lord's Castle"],
    1216  => [:Vampire Castle],
    1218  => [:"Fairy's Island"],
    1229  => [:The Secluded Lands],
    1233  => [:"Puppeteer's Tower"],
    1235  => [:Hall of Creation],
    1237  => [:Casino Prize （Pocket Castle）, :Pocket Castle],
    1240  => [:Casino Prize （Pocket Castle）, :Pocket Castle],
    1243  => [:San Ilia, :Underground Library],
    1246  => [:San Ilia],
    1249  => [:San Ilia],
    1250  => [:Vampire Castle],
    1252  => [:San Ilia],
    1255  => [:San Ilia],
    1258  => [:San Ilia, :Underground Library],
    1261  => [:Grand Noah],
    1262  => [:Snow Cave],
    1264  => [:Grand Noah],
    1267  => [:Port Marle],
    1270  => [:Port Marle],
    1271  => [:Forgotten Tower],
    1272  => [:Biolabs],
    1273  => [:Grand Noah],
    1274  => [:Hellgondo Cave （Alt）],
    1276  => [:San Ilia],
    1279  => [:Grand Noah],
    1280  => [:"Medal Queen's Castle"],
    1283  => [:The Secluded Lands],
    1288  => [:Cave of Treasures],
    1292  => [:"Fairy's Island"],
    1295  => [:Hellgondo Cave],
    1298  => [:Mount Horai],
    1300  => [:Carlos Hill],
    1303  => [:Rostrum Mountain Caverns],
    1306  => [:Southern Undersea Temple],
    1309  => [:Sealed Castle Mithra],
    1315  => [:"Lily's Mansion"],
    1316  => [:Ilias Temple Ruins],
    1318  => [:Natalia Coast],
    1322  => [:Snow Cave],
    1327  => [:Lemuse Beach],
    1328  => [:Lyra Falls],
    1331  => [:"Monster Lord's Castle"],
    1333  => [:Midas Abandoned Mines],
    1345  => [:"Administrator's Tower"],
    1348  => [:Pyramid],
    1355  => [:Hellgondo Cave （Alt）],
    1357  => [:Ancient Temple Ruins],
    1358  => [:Ilias Temple Ruins],
    1363  => [:Tartarus （Ilias Continent East）],
    1367  => [:"Monster Lord's Castle （Alt）"],
    1370  => [:Lyra Falls],
    1372  => [:Lost Woods],
    1375  => [:Slug Tower],
    1376  => [:Forgotten Tower],
    1382  => [:Snow Cave],
    1387  => [:Harpy Tower],
    1390  => [:Oasis of Blessingsl],
    1391  => [:North Ilina Mountains Cave],
    1393  => [:"Medal Queen's Castle"],
    1396  => [:Great Marle Corridor],
    1397  => [:The World Tree],
    1400  => [:Hall of Creation],
    1408  => [:"Monster Lord's Castle"],
    1409  => [:"Fairy's Island"],
    1411  => [:Pyramid],
    1413  => [:"Lady's Village"],
    1414  => [:Harpy Tower],
    1416  => [:"Lady's Village"],
    1419  => [:"Lady's Village"],
    1422  => [:Finoa, :Eastern Gold Toxic Swamp],
    1425  => [:Finoa, :Fossil Mines],
    1428  => [:Finoa],
    1429  => [:Drain Lab],
    1431  => [:Finoa],
    1432  => [:Remina Research Institute],
    1434  => [:Finoa],
    1437  => [:Finoa],
    1440  => [:Plansect Village, :Lava Mines],
    1443  => [:Plansect Village],
    1446  => [:Plansect Village, :Scenic Hill],
    1449  => [:Plansect Village],
    1452  => [:Plansect Village],
    1455  => [:Plansect Village, :Nightmare Wastes],
    1456  => [:Tartarus （Hellgondo Continent West）],
    1458  => [:Goddard],
    1459  => [:Biolabs],
    1461  => [:Goddard],
    1464  => [:Goddard],
    1467  => [:Goddard, :Gold Coast],
    1470  => [:Succubus Village],
    1473  => [:Succubus Village],
    1476  => [:Succubus Village, :Devastated Plains],
    1479  => [:Succubus Village],
    1482  => [:Succubus Village],
    1493  => [:Rostrum Mountain Caverns, :Enrika],
    1494  => [:Plansect Village, :Gold Volcano],
    1497  => [:Enrika],
    1498  => [:Plansect Village, :Snow Cave],
    1501  => [:Enrika, :Tower of Magic],
    1502  => [:Plansect Village],
    1505  => [:Enrika],
    1506  => [:Iliasburg, :Plansect Village],
    1509  => [:Enrika, :Plansect Village],
    1510  => [:Plansect Village],
    1513  => [:Enrika],
    1514  => [:Plansect Village, :Northern Undersea Temple],
    1517  => [:Pocket Castle, :Hall of Creation],
    1521  => [:Pocket Castle, :"Monster Lord's Castle"],
    1522  => [:Tartarus （Hellgondo Continent West）],
    1525  => [:Enrika],
    1526  => [:Plansect Village, :Ghost Ship],
    1529  => [:Enrika],
    1530  => [:Plansect Village],
    1531  => [:Remina Research Institute],
    1533  => [:Hellgondo Cave （Alt）],
    1537  => [:Port Marle, :Carlos Hill],
    1538  => [:Snow Heaven],
    1539  => [:"Lady's Village", :Saloon Hill],
    1540  => [:Snow Heaven, :Tartarus （Gold Continent West）],
    1541  => [:"Lady's Village", :Mount Saint Amos],
    1542  => [:Snow Heaven, :Hall of Creation],
    1543  => [:"Lady's Village"],
    1544  => [:Snow Heaven],
    1548  => [:Port Natalia],
    1549  => [:Yamatai Village],
    1550  => [:Port Natalia],
    1551  => [:Yamatai Village],
    1552  => [:Port Natalia],
    1553  => [:Yamatai Village],
    1554  => [:Port Marle],
    1555  => [:Yamatai Village, :Ghost Ship],
    1556  => [:Port Marle],
    1557  => [:Yamatai Village, :Northern Undersea Temple],
    1558  => [:Port Marle],
    1559  => [:Yamatai Village],
    1560  => [:Navy Headquarters],
    1562  => [:Navy Headquarters],
    1563  => [:Snow Cave],
    1564  => [:Navy Headquarters, :Saloon Abandoned Mines],
    1565  => [:Vampire Castle],
    1566  => [:Navy Headquarters],
    1568  => [:Navy Headquarters],
    1569  => [:The Secluded Lands],
    1570  => [:Navy Headquarters],
    1572  => [:Goddard],
    1573  => [:Snow Heaven],
    1574  => [:Goddard],
    1575  => [:Snow Heaven],
    1576  => [:Goddard],
    1577  => [:Snow Heaven],
    1578  => [:Goddard],
    1579  => [:Snow Heaven, :"Puppeteer's Tower"],
    1580  => [:Succubus Village],
    1581  => [:Succubus Village （Alt）],
    1582  => [:Succubus Village],
    1583  => [:Succubus Village （Alt）],
    1584  => [:Succubus Village, :Tower of Magic],
    1585  => [:Succubus Village （Alt）],
    1586  => [:Succubus Village],
    1587  => [:Succubus Village （Alt）],
    1588  => [:Succubus Village],
    1589  => [:Succubus Village （Alt）],
    1590  => [:"Monster Lord's Castle （Alt）"],
    1592  => [:Snow Cave],
    1606  => [:Snow Cave],
    1607  => [:Hellgondo Cave],
    1609  => [:"Fairy's Island"],
    1636  => [:Enrika],
    1643  => [:Sealed Castle Mithra],
    1644  => [:Port Natalia],
    1647  => [:Biolabs],
    1649  => [:"Monster Lord's Castle"],
    1652  => [:Nameless Slums],
    1655  => [:Happiness Village],
    1658  => [:Grandeur],
    1661  => [:Remina Research Institute],
    1681  => [:Drain Lab],
    1688  => [:Pyramid],
    1691  => [:Midas Village, :Casino Prize （Grandeur）],
    1695  => [:Casino Prize （Pocket Castle）],
    1701  => [:Casino Prize （Pocket Castle）],
    1703  => [:Casino Prize （Pornof）],
    1709  => [:Yamatai Village],
    1711  => [:Grandeur],
    1713  => [:Port Natalia],
    1715  => [:Navy Headquarters],
    1719  => [:Grand Noah],
    1721  => [:Yamatai Village],
    1722  => [:Ilias Temple Ruins],
    1723  => [:"Iliasville", :Iliasport],
    1724  => [:Casino Prize （Grandeur）, :Hall of Creation],
    1725  => [:Iliasport],
    1726  => [:Ilias Temple Ruins],
    1730  => [:Iliasport],
    1731  => [:Luddite Village],
    1732  => [:Iliasport],
    1733  => [:Casino Prize （Pornof）, :Iliasport],
    1734  => [:Nameless Slums, :Grandeur, :Casino Prize （Grandeur）],
    1735  => [:Casino Prize （Pornof）, :Iliasport],
    1736  => [:"Iliasville", :Casino Prize （Grandeur）, :Port Marle],
    1737  => [:Grandeur],
    1740  => [:Port Natalia],
  }
  # 防具貰える仲間ID配列
  GET_ARMOR_ACTORS = {
    7 => [133],
    31 => [75],
    37 => [135,145],
    75 => [170],
    105 => [73],
    106 => [98],
    107 => [109],
    123 => [59],
    124 => [83],
    125 => [103],
    127 => [172],
    148 => [85],
    165 => [108],
    179 => [82],
    193 => [525],
    204 => [126],
    237 => [96],
    241 => [134],
    261 => [120],
    274 => [76],
    302 => [169],
    1001 => [61,68,117,125,135,151,173,214,218,236,249,257,261,297],
    1002 => [117,237,261,309,362],
    1003 => [61,92,174,224,230,309,314],
    1004 => [261],
    1005 => [310],
    1006 => [58,96,152,159,168,181,208,232,277],
    1007 => [149,292,302],
    1008 => [58,137,228,284],
    1009 => [361],
    1010 => [361],
    1011 => [87,95,112,132,178,204,216,273,275],
    1012 => [114,119,214],
    1013 => [86,142,154,193,217],
    1014 => [199,230],
    1016 => [62,80,141,154,525,174,197,213,244,262,298],
    1017 => [125,129,170,197,218,306],
    1018 => [80,156,525,213,262,300,324,346],
    1019 => [350],
    1021 => [13,64,77,81,92,108,128,129,145,146,215,236,290],
    1022 => [98,108,183,212],
    1023 => [94,146,159,304,348],
    1024 => [306,314],
    1026 => [5,88,119,120,138,160,167,191,195,227,228,253,264,272],
    1027 => [56,158,192,283,319,383],
    1028 => [160,283,288,327,352],
    1029 => [233,336],
    1030 => [535,522],
    1031 => [26,122,123,150,179,196,276,531],
    1032 => [200,333],
    1033 => [122,355,360],
    1034 => [531],
    1036 => [12,60,70,93,97,124,127,169,207,259,260],
    1037 => [71,93,148,360],
    1038 => [83,127,247,249,260,363],
    1039 => [207],
    1041 => [41,45,74,121,137,184,193,206,217,235,250,251,252],
    1042 => [137,199,229,271],
    1043 => [74,184,219,252],
    1044 => [217],
    1046 => [131,161,227],
    1047 => [95,136,312,370],
    1048 => [192,219,285],
    1050 => [142,164,170,219,263,265,271,300,543],
    1051 => [220,265,349],
    1052 => [350],
    1054 => [84,101,144,175,177,237,267,270,383],
    1055 => [124,180,214,267,350],
    1056 => [66,82,136,533,148,194,198,199,243,569],
    1057 => [172,316],
    1060 => [123,194,259,338,378],
    1061 => [72,78,83,103,131,143,162,192,223,254,284],
    1062 => [102,158,210,223,231,326],
    1065 => [131,229,254],
    1067 => [14,135,218],
    1068 => [383],
    1071 => [26,36,533],
    1074 => [383],
    1075 => [26],
    1076 => [5,295],
    1077 => [134,153],
    1078 => [45],
    1081 => [89,99,161,172,220,222,224,301],
    1082 => [57,224,349],
    1083 => [345],
    1085 => [102,200,221,229,241,268],
    1086 => [106,180,343],
    1087 => [227,365],
    1090 => [101,124,274,312],
    1091 => [220],
    1092 => [286,535],
    1096 => [226],
    1100 => [36,94,118,126,134,185,210,289],
    1101 => [78,115,128,149,211,353],
    1102 => [313],
    1107 => [15,125,541],
    1108 => [520],
    1109 => [57,117,119,542,543,569],
    1111 => [102],
    1113 => [91,111,139,165,182,285,292],
    1114 => [88,168,232,292],
    1115 => [167,181,182,365],
    1116 => [315,367,382],
    1117 => [337],
    1118 => [129,306,368,529],
    1120 => [62,304,314,348],
    1121 => [141,216,374],
    1122 => [280],
    1123 => [72,323],
    1125 => [316],
    1126 => [264],
    1127 => [531],
    1138 => [123,208],
    1139 => [241],
    1140 => [378],
    1142 => [194,210,246,308,364],
    1143 => [103,114,195,227],
    1144 => [226,278],
    1145 => [34,109,113,147,156,283,529,541],
    1146 => [143,155,245],
    1147 => [90,105,130,180,203,211,266,542],
    1148 => [162],
    1149 => [213,265,300],
    1151 => [133,257],
    1153 => [127,179,223],
    1154 => [62,71,93,101,148,225,293,376],
    1155 => [215],
    1156 => [538],
    1157 => [294,536],
    1158 => [294],
    1161 => [171,202],
    1162 => [144,216],
    1163 => [541,172,222,569],
    1164 => [334],
    1165 => [76,268,359,361],
    1167 => [520,542],
    1168 => [41,351,533],
    1171 => [114,140,157,201,233,278,282],
    1172 => [355],
    1174 => [97,130,365],
    1175 => [14,53,54,110,176,246,247,248,255,269,299],
    1176 => [54,110,247,295],
    1177 => [266,569],
    1181 => [346,543],
    1183 => [105,201,293,372],
    1186 => [79,329],
    1187 => [153],
    1188 => [79],
    1189 => [79],
    1191 => [164,198,263,334],
    1192 => [106,163,167,535],
    1193 => [75,301,520],
    1194 => [322],
    1197 => [168,193,266,267],
    1201 => [287,341],
    1202 => [91,269,343],
    1203 => [96,221,354],
    1204 => [308,337],
    1205 => [12,138,234,311,323],
    1206 => [13,261],
    1207 => [107,109,118,204,248,310,325],
    1208 => [26,362,383],
    1209 => [5],
    1210 => [59,192,243,272,303,356],
    1211 => [238,257,275],
    1212 => [290],
    1215 => [359],
    1216 => [343],
    1217 => [203,307],
    1218 => [331],
    1219 => [229],
    1223 => [252,271],
    1224 => [270],
    1228 => [197],
    1229 => [206,234],
    1230 => [238,256],
    1231 => [337],
    1234 => [41],
    1235 => [538],
    1236 => [312],
    1237 => [129],
    1238 => [360],
    1243 => [269],
    1244 => [15],
    1245 => [15,362],
    1246 => [96,221,350,353],
    1247 => [349,353],
    1248 => [309],
    1249 => [99,203,344],
    1250 => [258,302,344],
    1251 => [340],
    1252 => [12,143,259,382],
    1253 => [12,305],
    1254 => [12,339],
    1255 => [13,157,174],
    1256 => [13],
    1257 => [13],
    1258 => [195],
    1259 => [14,202],
    1260 => [14,308],
    1261 => [34,356,531],
    1262 => [26],
    1264 => [340,342],
    1265 => [5],
    1267 => [118,325],
    1268 => [309,327],
    1269 => [328],
    1270 => [73,255],
    1271 => [256],
    1272 => [322],
    1273 => [142,173],
    1274 => [237],
    1276 => [122],
    1279 => [212,538],
    1280 => [372,520],
    1281 => [129,230],
    1282 => [169,338],
    1283 => [338],
    1285 => [95,132,156,171],
    1286 => [368],
    1287 => [368],
    1288 => [245],
    1289 => [295],
    1291 => [207,260,324],
    1292 => [324],
    1293 => [34],
    1294 => [220,301],
    1295 => [214,267],
    1297 => [219],
    1300 => [244],
    1301 => [222,249],
    1303 => [60,154,363],
    1304 => [308],
    1306 => [141,215,216],
    1307 => [218],
    1309 => [80,164,525],
    1310 => [300],
    1312 => [234],
    1313 => [332],
    1315 => [86,232,317],
    1316 => [317],
    1317 => [374],
    1318 => [58,78,88,330,336,522],
    1319 => [318,333],
    1321 => [136,316],
    1323 => [36],
    1324 => [111,318,355],
    1325 => [279,320,355],
    1327 => [303,328],
    1328 => [118],
    1329 => [372],
    1330 => [53,110,165],
    1333 => [113,230],
    1336 => [155],
    1340 => [225],
    1341 => [138],
    1342 => [196],
    1345 => [134,166],
    1347 => [378],
    1348 => [284,335],
    1351 => [289,351],
    1352 => [250,351],
    1354 => [121,233],
    1355 => [286],
    1357 => [126,128,185],
    1360 => [281],
    1361 => [283,341],
    1363 => [94,178,217],
    1364 => [304],
    1366 => [45,66,82,83,163,212,270],
    1369 => [107,201],
    1370 => [280,329],
    1372 => [97,139,315],
    1373 => [315],
    1374 => [370],
    1375 => [176,247,248],
    1376 => [299],
    1378 => [346],
    1379 => [106,357],
    1381 => [64,151,253,345],
    1384 => [79,160,175,252,279],
    1385 => [79,291,366,378],
    1387 => [84],
    1388 => [323,376],
    1389 => [376],
    1390 => [68,298,357],
    1391 => [298,347],
    1393 => [140,235,268,290],
    1394 => [243,275],
    1396 => [241,322],
    1397 => [358],
    1399 => [130,135],
    1400 => [342],
    1402 => [184,250,262],
    1403 => [262,363],
    1406 => [195],
    1409 => [319],
    1411 => [340],
    1412 => [5],
    1413 => [45],
    1414 => [336],
    1416 => [358],
    1419 => [340],
    1422 => [70,133,151,152,208,255,270],
    1423 => [321],
    1425 => [60,90,147,277,302,366,522],
    1426 => [342],
    1428 => [100,120,157,209,226],
    1431 => [271,305,317,336],
    1432 => [382],
    1434 => [111,181,200,285,318,320,335],
    1435 => [317],
    1437 => [81,116,146,244,258,321],
    1438 => [305],
    1440 => [276,347],
    1441 => [347],
    1442 => [191],
    1443 => [177,205,264],
    1444 => [353],
    1446 => [34,178,278],
    1447 => [344],
    1449 => [104,330,332,364],
    1452 => [331,333,339],
    1453 => [334],
    1455 => [139,286,357],
    1456 => [311],
    1458 => [132,179,256],
    1461 => [273,297,345],
    1464 => [85,89,237,240],
    1467 => [36,64,113,161,183,291],
    1470 => [53,55,98,206,246,279,299],
    1473 => [108,166,253,283],
    1476 => [112,235,239,307],
    1479 => [266,281,322],
    1480 => [359],
    1481 => [382],
    1482 => [274,319],
    1486 => [34],
    1487 => [129],
    1490 => [36],
    1493 => [56,68,72,182,298],
    1494 => [269,276,297,522],
    1496 => [15],
    1497 => [290,342],
    1498 => [277],
    1499 => [354],
    1501 => [66,99,203,344],
    1503 => [338],
    1505 => [82,87,236],
    1508 => [12],
    1509 => [140,173,175],
    1510 => [265],
    1511 => [348],
    1512 => [13],
    1513 => [165,176,197,199,280],
    1514 => [310],
    1515 => [326],
    1516 => [14],
    1525 => [313,328],
    1526 => [264,326],
    1527 => [327],
    1529 => [150],
    1530 => [255,321,364],
    1534 => [153,525],
    1537 => [198,205,305],
    1538 => [223,273,313,362],
    1539 => [105,146,153,337],
    1541 => [352,358],
    1543 => [100,159,238,287,341],
    1544 => [239,287],
    1548 => [14,70,81,145,320],
    1549 => [36,208],
    1550 => [90,243,254,361,366],
    1551 => [335],
    1552 => [191],
    1553 => [236],
    1554 => [263,326],
    1555 => [259],
    1556 => [75,311,321],
    1557 => [191,254,356],
    1558 => [15,59,115,147,231,258,278],
    1559 => [34,244],
    1560 => [276,347],
    1561 => [348],
    1562 => [277,354],
    1563 => [221,354],
    1564 => [77,204,275],
    1565 => [339],
    1566 => [104,228,331],
    1567 => [330],
    1568 => [332],
    1569 => [334],
    1570 => [120,251],
    1571 => [200,251,370],
    1572 => [91,150],
    1573 => [257],
    1574 => [273,297],
    1575 => [253],
    1576 => [89,92,112,116,177,239],
    1577 => [194,240,247,274],
    1578 => [236,291],
    1579 => [374],
    1580 => [55,61,85,109,206,307],
    1581 => [248],
    1582 => [87,285,359],
    1583 => [281,284],
    1584 => [76],
    1585 => [235,292],
    1586 => [272,288],
    1587 => [272],
    1588 => [162,280,367],
    1589 => [382],
    1590 => [299,525,533],
    1591 => [525],
    1593 => [193,204],
    1594 => [212],
    1596 => [288,293,352],
    1597 => [535],
    1598 => [260,325],
    1599 => [263,301],
    1601 => [224],
    1602 => [213],
    1605 => [210],
    1606 => [232],
    1607 => [228,231],
    1610 => [303],
    1611 => [246],
    1614 => [201],
    1615 => [196],
    1616 => [367],
    1617 => [311],
    1618 => [209,282,289],
    1623 => [529],
    1624 => [198],
    1625 => [360],
    1627 => [215],
    1629 => [368],
    1630 => [335],
    1632 => [205,325],
    1633 => [324],
    1635 => [366],
    1636 => [312,352],
    1637 => [319],
    1638 => [307,363],
    1639 => [314,374],
    1642 => [294],
    1643 => [349],
    1644 => [320],
    1645 => [286,339],
    1646 => [288,330],
    1648 => [26],
    1649 => [5,295],
    1651 => [106],
    1653 => [333,343],
    1654 => [372,536],
    1656 => [318,332],
    1657 => [315,367],
    1658 => [323],
    1659 => [303,356,365],
    1661 => [41,304],
    1665 => [293],
    1668 => [45],
    1670 => [287,341],
    1674 => [306,346,357],
    1675 => [345],
    1676 => [329,351,364],
    1678 => [331],
    1679 => [358],
    1680 => [376],
    1682 => [370],
    1685 => [538],
    1687 => [45],
    1688 => [121,251,294],
    1691 => [185,250,282,289],
    1693 => [41],
    1694 => [222],
    1697 => [87,170,196],
    1700 => [144,169,536],
    1703 => [241],
    1706 => [171,202],
    1707 => [202],
    1708 => [536],
    1709 => [240],
    1710 => [316],
    1711 => [152],
    1712 => [245],
    1713 => [327],
    1714 => [328],
    1715 => [310,329],
    1716 => [205],
    1719 => [249],
    1720 => [268],
    1721 => [15,100,163,226],
    1723 => [104,115,183,225,238],
    1724 => [211],
    1725 => [116,133,239,302],
    1728 => [383],
    1730 => [98,209,274],
    1731 => [103,225],
    1732 => [56,149,155,240,245,281,382],
    1733 => [107,158,231,256,538],
    1734 => [209,211,313,538],
    1735 => [166,258,279,291],
    1736 => [41,529,282],
    1737 => [54,74],
  }
end

# -*- encoding: utf-8 -*-
=begin
=図鑑_アイテムデータ設定セクション by Foo

図鑑のアイテムの項に表示する内容を設定します。

==更新履歴
Date     Version Author Comment
13/07/20 1.0,0   Foo    新設


=end

#==============================================================================
# ■ NWConst::Library
#==============================================================================
module NWConst::Library
  # アイテム入手場所
  # 文字列はシンボルで統一してください
  GET_ITEM_PLACES = {
    1  => [:Various Places],
    2  => [:Various Places],
    3  => [:Various Places],
    4  => [:Casino Prize （Pornof）, :Snow Heaven, :Pocket Castle],
    5  => [:Various Places],
    6  => [:Various Places],
    7  => [:Various Places],
    8  => [:Various Places],
    9  => [:Various Places],
    11  => [:Various Places],
    12  => [:Slug Tower, :Mount Saint Amos, :Casino Prize （Grandeur）, :Safar Ruins, :The World Tree, :Ilias Temple Ruins, :Remina Research Institute, :"Fairy's Island （Makai）", :Forest of Spirits （Makai）],
    13  => [:Various Places],
    14  => [:Various Places],
    15  => [:Various Places],
    16  => [:Various Places],
    17  => [:Various Places],
    18  => [:Various Places],
    19  => [:Various Places],
    20  => [:Various Places],
    21  => [:Various Places],
    22  => [:Various Places],
    23  => [:Various Places],
    24  => [:Various Places],
    25  => [:Various Places],
    26  => [:Various Places],
    27  => [:Various Places],
    28  => [:Various Places],
    29  => [:Various Places],
    30  => [:Various Places],
    31  => [:Various Places],
    32  => [:Various Places],
    35  => [:Various Places],
    36  => [:Various Places],
    37  => [:Various Places],
    38  => [:Various Places],
    39  => [:Various Places],
    40  => [:Various Places],
    41  => [:Various Places],
    42  => [:Various Places],
    43  => [:Various Places],
    44  => [:Various Places],
    45  => [:Various Places],
    46  => [:Various Places],
    47  => [:Various Places],
    51  => [:Rostrum Village （Alt）],
    52  => [:Grangold],
    53  => [:Various Places],
    55  => [:Rostrum Village （Alt）],
    56  => [:Grangold],
    57  => [:Various Places],
    59  => [:Rostrum Village （Alt）],
    60  => [:Grangold],
    61  => [:Various Places],
    63  => [:Luddite Village],
    64  => [:Plansect Village],
    65  => [:Various Places],
    67  => [:Luddite Village],
    68  => [:Plansect Village],
    69  => [:Various Places],
    71  => [:Luddite Village],
    72  => [:Plansect Village],
    73  => [:Various Places],
    74  => [:Chaos Field],
    75  => [:Grandeur],
    76  => [:Yamatai Village],
    77  => [:Various Places],
    79  => [:Magistea Village],
    80  => [:Yamatai Village],
    81  => [:Various Places],
    101  => [:Iliasport, :Port Natalia, :San Ilia],
    102  => [:Sabasa, :Grand Noah, :Yamatai Village, :Pocket Castle],
    103  => [:Saloon],
    104  => [:Grand Noah, :Yamatai Cave],
    105  => [:Gold Port, :Ghost Ship],
    106  => [:"Fairy's Island", :The Secluded Lands, :Hellgondo Cave （Alt）, :Icy Halls],
    107  => [:Pocket Castle, :"Monster Lord's Castle"],
    109  => [:Grand Noah, :Grangold, :Succubus Village, :Yamatai Village, :Snow Heaven, :Pocket Castle],
    151  => [:Pornof Mines],
    152  => [:Midas Abandoned Mines],
    153  => [:Mount Saint Amos],
    154  => [:Saloon Abandoned Mines],
    155  => [:Fossil Mines],
    156  => [:Lava Mines],
    157  => [:The World Tree],
    158  => [:"Monster Lord's Castle"],
    160  => [:Cave of Trials],
    161  => [:Slug Tower],
    162  => [:Talus Hill],
    163  => [:Talus Hill],
    164  => [:North Ilina Mountains Cave],
    165  => [:South Ilina Mountains Cave, :Slug Tower],
    166  => [:Tartarus （Ilias Continent South）],
    167  => [:Harpy Tower],
    168  => [:Harpy Tower],
    169  => [:Lost Woods],
    170  => [:Lost Woods],
    171  => [:Rostrum Mountain Caverns, :Natalia Coast],
    172  => [:Tartarus （Ilias Continent East）],
    173  => [:Cave of Treasures],
    174  => [:Cave of Treasures],
    175  => [:Cave of Treasures],
    176  => [:Natalia Coast],
    177  => [:Natalia Coast],
    178  => [:Mount Saint Amos],
    179  => [:Mount Saint Amos],
    180  => [:Underground Library],
    181  => [:Luddite Village],
    182  => [:Luddite Village],
    183  => [:Ancient Temple Ruins],
    184  => [:Ancient Temple Ruins],
    185  => [:Haunted Mansion],
    186  => [:Haunted Mansion],
    187  => [:Carlos Hill],
    188  => [:Forest of Spirits],
    189  => [:"Seeker's Cave"],
    190  => [:Carlos Hill],
    191  => [:Oasis of Blessingsl],
    192  => [:Oasis of Blessingsl],
    193  => [:Pyramid],
    194  => [:Pyramid],
    195  => [:Tower of Magic],
    196  => [:Tower of Magic],
    197  => [:Saloon Abandoned Mines],
    198  => [:Tartarus （Sabasa Continent North）],
    199  => [:Tartarus （Sabasa Continent North）],
    200  => [:"Administrator's Tower"],
    201  => [:Safar Ruins],
    202  => [:"Grand Pirate's Cave"],
    203  => [:"Grand Pirate's Cave"],
    204  => [:"Grand Pirate's Cave"],
    205  => [:Fossil Mines],
    206  => [:Yamatai Cave],
    207  => [:Magical Academy],
    208  => [:Magical Academy],
    209  => [:Yamatai Cave],
    210  => [:Yamatai Cave],
    211  => [:"Orochi's Cave"],
    212  => [:"Orochi's Cave"],
    213  => [:"Minotauros' Labyrinth"],
    214  => [:Red Mountain],
    215  => [:"Minotauros' Labyrinth"],
    216  => [:Plansect Village],
    217  => [:Red Mountain],
    218  => [:"Undine's Spring"],
    219  => [:Lima Village Ruins],
    220  => [:March Hills],
    221  => [:Eastern Gold Toxic Swamp],
    222  => [:March Hills],
    223  => [:Gold Volcano],
    224  => [:吸血鬼の城],
    225  => [:Devastated Plains],
    226  => [:Ghost Ship],
    227  => [:Ghost Ship],
    228  => [:Northern Undersea Temple],
    229  => [:"Fairy's Island"],
    230  => [:"Fairy's Island"],
    231  => [:Forgotten Tower, :The Secluded Lands],
    232  => [:The World Tree],
    233  => [:"Puppeteer's Tower"],
    234  => [:Lyra Falls],
    235  => [:Tartarus （Gold Continent West）],
    236  => [:Hellgondo Cave （Alt）],
    237  => [:"Monster Lord's Castle （Alt）"],
    238  => [:"Monster Lord's Castle （Alt）"],
    239  => [:"Monster Lord's Castle （Alt）"],
    240  => [:Tartarus （Gold Continent West）],
    241  => [:Mount Saint Amos, :Snow Cave, :Snow Shrine, :Ilias Temple Ruins],
    242  => [:"Monster Lord's Castle"],
    243  => [:"Monster Lord's Castle"],
    251  => [:Tartarus （Hellgondo Continent West）],
    301  => [:Happiness Village, :Grandeur, :Saloon],
    302  => [:Happiness Village, :Grandeur, :Saloon],
    303  => [:Sabasa],
    304  => [:Happiness Village, :San Ilia, :Sabasa, :Grandeur],
    305  => [:Iliasburg, :Happiness Village, :Sabasa, :Grandeur],
    306  => [:"Iliasville", :Grandeur, :Saloon, :Gold Port],
    307  => [:"Iliasville", :Grandeur, :Gold Port],
    308  => [:Luddite Village, :Grandeur, :Finoa, :Yamatai Village],
    309  => [:"Iliasville", :Luddite Village, :Grandeur, :Gold Port],
    310  => [:"Iliasville", :Luddite Village, :Grandeur, :Yamatai Village, :Gold Port],
    311  => [:Finoa],
    312  => [:Luddite Village, :Grandeur, :Finoa, :Yamatai Village],
    313  => [:Iliasburg, :Grandeur, :Saloon, :Finoa],
    314  => [:Finoa],
    315  => [:Happiness Village, :Grandeur],
    316  => [:"Iliasville", :San Ilia, :Grandeur, :Saloon, :Gold Port],
    317  => [:San Ilia],
    318  => [:Luddite Village, :Grandeur],
    319  => [:Iliasburg, :Grandeur, :Succubus Village],
    320  => [:Finoa, :Succubus Village],
    321  => [:"Iliasville", :Grandeur, :Gold Port],
    322  => [:"Iliasville Mountains", :Iliasburg, :Iliasport, :Port Natalia, :Port Marle, :Gold Port],
    323  => [:Gold Port],
    324  => [:Iliasport, :Port Natalia, :Port Marle, :Gold Port],
    325  => [:Iliasport, :Port Natalia, :Port Marle, :Gold Port],
    326  => [:Gold Port],
    327  => [:Iliasport, :Port Natalia, :Port Marle, :Gold Port],
    328  => [:Port Marle, :Gold Port],
    329  => [:Midas Village, :Gold Port],
    330  => [:Midas Village, :Gold Port],
    331  => [:Midas Village, :Saloon, :Gold Port],
    332  => [:Port Natalia, :Grandeur, :Port Marle, :Yamatai Village, :Gold Port],
    333  => [:Yamatai Village],
    334  => [:Iliasburg, :Iliasport, :Port Natalia, :Port Marle, :Yamatai Village, :Gold Port],
    335  => [:Iliasburg, :Iliasport, :Port Natalia, :Port Marle, :Yamatai Village, :Gold Port],
    336  => [:Port Natalia, :Grandeur, :Port Marle, :Yamatai Village, :Gold Port],
    337  => [:Sabasa],
    338  => [:Iliasburg, :Grandeur],
    339  => [:Port Natalia, :Grandeur, :Port Marle, :Gold Port],
    340  => [:"Iliasville", :Gold Port],
    341  => [:Midas Village, :Gold Port],
    342  => [:San Ilia, :Gold Port, :Succubus Village],
    343  => [:Iliasburg, :San Ilia, :Sabasa, :Grandeur, :Saloon, :Grangold],
    344  => [:Grand Noah],
    345  => [:Grangold],
    346  => [:Grangold, :Cooking],
    347  => [:Cooking],
    348  => [:Grangold, :Cooking],
    349  => [:Cooking],
    350  => [:Grangold, :Cooking],
    351  => [:Grangold],
    352  => [:Grangold],
    353  => [:Cooking],
    354  => [:Cooking],
    355  => [:Cooking],
    356  => [:Cooking],
    357  => [:Cooking],
    358  => [:Cooking],
    359  => [:Cooking],
    360  => [:Iliasburg, :Grandeur],
    361  => [:Grand Noah, :Yamatai Village, :Cooking],
    362  => [:Cooking],
    363  => [:Cooking],
    364  => [:Cooking],
    365  => [:Cooking],
    366  => [:Cooking],
    367  => [:Cooking],
    368  => [:Cooking],
    369  => [:Cooking],
    370  => [:Cooking],
    371  => [:Cooking],
    372  => [:Cooking],
    373  => [:Cooking],
    374  => [:Cooking],
    375  => [:Grand Noah, :Cooking],
    376  => [:Grand Noah, :Cooking],
    377  => [:Cooking],
    378  => [:Cooking],
    379  => [:Cooking],
    380  => [:Cooking],
    381  => [:Cooking],
    382  => [:Cooking],
    383  => [:Grand Noah, :Cooking],
    384  => [:Cooking],
    385  => [:Cooking],
    386  => [:Cooking],
    387  => [:Cooking],
    388  => [:Cooking],
    389  => [:Grand Noah, :Cooking],
    390  => [:Cooking],
    391  => [:Cooking],
    392  => [:Cooking],
    393  => [:Cooking],
    394  => [:Cooking],
    395  => [:Cooking],
    396  => [:Cooking],
    397  => [:Cooking],
    398  => [:Cooking],
    399  => [:Cooking],
    400  => [:Cooking],
    401  => [:Cooking],
    402  => [:Cooking],
    403  => [:Cooking],
    404  => [:Cooking],
    405  => [:Cooking],
    406  => [:Cooking],
    407  => [:Cooking],
    408  => [:Port Marle, :Yamatai Village, :Gold Port],
    409  => [:Iliasburg],
    410  => [:Yamatai Village],
    411  => [:Yamatai Village],
    413  => [:Succubus Village],
    414  => [:Port Natalia, :Grandeur, :Port Marle, :Gold Port, :Snow Heaven],
    415  => [:Snow Heaven],
    416  => [:Snow Heaven],
    417  => [:Snow Heaven],
    418  => [:Snow Heaven],
    419  => [:Snow Heaven],
    420  => [:Cooking],
    421  => [:Snow Heaven],
    422  => [:Snow Heaven],
    423  => [:Snow Heaven, :Cooking],
    424  => [:Snow Heaven, :Cooking],
    425  => [:Cooking],
    426  => [:Port Natalia, :Gold Port],
    427  => [:Sabasa, :Port Marle, :Gold Port],
    428  => [:Nameless Slums, :Monte Carlo, :Sabasa, :Goddard, :Grangold, :Remina （Alt）],
    429  => [:Goddard, :Grangold, :Remina （Alt）],
    430  => [:Grangold, :Remina （Alt）],
    431  => [:Goddard, :Grangold, :Remina （Alt）],
    432  => [:"Iliasville", :Midas Village],
    433  => [:Iliasport, :Port Natalia],
    434  => [:"Iliasville", :Port Natalia, :Grandeur],
    435  => [:"Iliasville", :Port Natalia, :Grandeur],
    436  => [:Happiness Village],
    437  => [:Port Natalia],
    438  => [:Port Natalia],
    439  => [:Port Natalia],
    440  => [:Various Places],
    441  => [:Various Places],
    442  => [:Various Places],
    443  => [:Various Places],
    444  => [:Various Places],
    445  => [:Various Places],
    446  => [:Various Places],
    447  => [:Various Places],
    448  => [:Various Places],
    449  => [:Various Places],
    450  => [:Various Places],
    500  => [:"Iliasville"],
    501  => [:"Iliasville"],
    502  => [:"Iliasville"],
    503  => [:"Iliasville"],
    504  => [:Cave of Trials],
    505  => [:Iliasburg],
    506  => [:Nameless Slums],
    507  => [:Nameless Slums],
    508  => [:Harpy Village],
    510  => [:Rostrum Village （Alt）],
    511  => [:Lemuse Beach],
    512  => [:Enrika],
    513  => [:Cave of Treasures],
    514  => [:Port Natalia],
    515  => [:Port Natalia],
    516  => [:Underground Library],
    517  => [:San Ilia],
    518  => [:"Seeker's Cave"],
    519  => [:"Iliasville"],
    520  => [:Pyramid],
    521  => [:"Lily's Mansion"],
    522  => [:Tartarus （Sabasa Continent North）],
    523  => [:"Administrator's Tower"],
    525  => [:Saloon Hill],
    526  => [:Saloon Abandoned Mines],
    528  => [:Port Marle],
    529  => [:Navy Headquarters],
    530  => [:Grand Noah],
    531  => [:Grand Noah],
    532  => [:Labyrinth Caverns],
    533  => [:Goddard],
    534  => [:Ghost Ship],
    535  => [:Ghost Ship],
    536  => [:Scenic Hill],
    537  => [:Yamatai Village],
    538  => [:"Monster Lord's Castle （Alt）"],
    539  => [:Grand Noah],
    540  => [:Pyramid],
    541  => [:Ghost Ship],
    542  => [:Northern Undersea Temple],
    543  => [:Around Devastated Plains],
    544  => [:"Orochi's Cave"],
    545  => [:Ghost Ship],
    546  => [:Yamatai Village],
    547  => [:Vampire Castle],
    548  => [:"Monster Lord's Castle （Alt）"],
    549  => [:Colosseum Prize],
    550  => [:Colosseum Prize],
    551  => [:Colosseum Prize],
    552  => [:Northern Undersea Temple],
    553  => [:"Monster Lord's Castle （Alt）"],
    554  => [:Hall of Creation],
    555  => [:The World Tree],
    556  => [:Gold Coast],
    557  => [:Ilias Temple Ruins],
    601  => [:"Iliasville"],
    602  => [:"Iliasville"],
    603  => [:Yamatai Village],
    604  => [:"Minotauros' Labyrinth"],
    605  => [:Underground Library],
    606  => [:San Ilia],
    607  => [:Goddard],
    608  => [:Navy Headquarters],
    609  => [:Monte Carlo],
    610  => [:Pornof],
    611  => [:Battlefuck Prize],
    612  => [:Iliasport],
    613  => [:Tartarus （Ilias Continent South）],
    614  => [:Haunted Mansion],
    615  => [:Iliasburg],
    616  => [:Rostrum Village （Alt）],
    617  => [:Iliasport],
    618  => [:Midas Village],
    619  => [:"Medal Queen's Castle"],
    620  => [:"Medal Queen's Castle"],
    621  => [:Mount Saint Amos],
    622  => [:Remina （Alt）],
    623  => [:Colosseum Prize],
    624  => [:Sabasa],
    625  => [:San Ilia],
    626  => [:Grangold],
    627  => [:Yamatai Village],
    628  => [:Battlefuck Prize],
    629  => [:San Ilia],
    630  => [:Devastated Plains],
    631  => [:Remina （Alt）],
    632  => [:The World Tree],
    636  => [:Casino Prize （Pocket Castle）],
    637  => [:Grand Noah],
    638  => [:Succubus Village],
    639  => [:Yamatai Village],
    640  => [:Grangold],
    700  => [:Tartarus （Ilias Continent South）],
    701  => [:Tartarus （Ilias Continent South）],
    702  => [:Tartarus （Ilias Continent South）],
    703  => [:Tartarus （Ilias Continent East）],
    704  => [:Tartarus （Ilias Continent East）],
    705  => [:Tartarus （Ilias Continent East）],
    706  => [:Iliasport],
    707  => [:Iliasport],
    708  => [:Ancient Temple Ruins],
    709  => [:Ancient Temple Ruins],
    710  => [:San Ilia],
    711  => [:San Ilia],
    712  => [:Tartarus （Sabasa Continent North）],
    713  => [:"Administrator's Tower"],
    714  => [:Tartarus （Gold Continent West）],
    715  => [:San Ilia],
    716  => [:Ilias Temple Ruins],
    717  => [:Devastated Plains],
    719  => [:San Ilia],
    722  => [:Mount Horai],
  }
  # アイテム貰える仲間ID配列
  # アイテムIDに関連したアクターID配列を指定してください
  # 今のところ表示上限は３行です。  
  GET_ITEM_ACTORS = {
    1 => [59],
    2 => [110,161,177],
    4 => [58,167],
    5 => [119,159,182],
    6 => [383],
    8 => [181],
    9 => [162,185],
    11 => [72],
    12 => [105,139,171],
    13 => [70],
    14 => [90],
    17 => [100],
    22 => [89,112,131,183],
    24 => [68,92,104,117,129,152,174],
    25 => [97,121,158],
    26 => [34,62,125,142,164,173,538],
    27 => [13,64,87],
    28 => [36,66,102,137,138,157,160,163,382],
    29 => [168,179],
    30 => [12,84,101,127,140,148],
    31 => [41,155,178,180],
    32 => [540],
    41 => [77],
    45 => [126],
    51 => [91],
    59 => [77,94],
    67 => [99],
    71 => [76,107,114,115],
    72 => [176],
    75 => [26],
    79 => [5,130],
    161 => [55,61],
    162 => [56],
    164 => [71],
    165 => [73],
    166 => [78],
    218 => [14],
    310 => [54,74,541],
    321 => [15],
    322 => [542],
    334 => [543],
    416 => [45],
    422 => [165],
    431 => [75],
    436 => [81],
    442 => [60],
    445 => [57],
    448 => [79],
    509 => [55,85],
    524 => [86,122,123],
    527 => [155],
  }
end

